!PADS-POWERPCB-V9.5-METRIC! DESIGN DATABASE ASCII FILE 1.0
*PARTDECAL*  ITEMS

QFN40P800X800X100-69N M 0 0 4 69 36 0 2
CLOSED 5 0.05 0 20
-4.625 4.625
4.625 4.625
4.625 -4.625
-4.625 -4.625
-4.625 4.625
CLOSED 5 0.1 0 27
-4 4
4 4
4 -4
-4 -4
-4 4
OPEN 2 0.1 0 27
-4 3.6
-3.6 4
CIRCLE 2 0.2 0 26
-4.275 3.8
-4.475 3.8
VALUE 0 0 0 1 1.27 0.127 N LEFT DOWN
Regular <Romansim Stroke Font>
Ref.Des.
VALUE 0 0 0 1 1.27 0.127 N LEFT UP
Regular <Romansim Stroke Font>
Part Type
T-3.95 3.2 -3.95 3.2 1
T-3.95 2.8 -3.95 2.8 2
T-3.95 2.4 -3.95 2.4 3
T-3.95 2 -3.95 2 4
T-3.95 1.6 -3.95 1.6 5
T-3.95 1.2 -3.95 1.2 6
T-3.95 0.8 -3.95 0.8 7
T-3.95 0.4 -3.95 0.4 8
T-3.95 0 -3.95 0 9
T-3.95 -0.4 -3.95 -0.4 10
T-3.95 -0.8 -3.95 -0.8 11
T-3.95 -1.2 -3.95 -1.2 12
T-3.95 -1.6 -3.95 -1.6 13
T-3.95 -2 -3.95 -2 14
T-3.95 -2.4 -3.95 -2.4 15
T-3.95 -2.8 -3.95 -2.8 16
T-3.95 -3.2 -3.95 -3.2 17
T-3.2 -3.95 -3.2 -3.95 18
T-2.8 -3.95 -2.8 -3.95 19
T-2.4 -3.95 -2.4 -3.95 20
T-2 -3.95 -2 -3.95 21
T-1.6 -3.95 -1.6 -3.95 22
T-1.2 -3.95 -1.2 -3.95 23
T-0.8 -3.95 -0.8 -3.95 24
T-0.4 -3.95 -0.4 -3.95 25
T0 -3.95 0 -3.95 26
T0.4 -3.95 0.4 -3.95 27
T0.8 -3.95 0.8 -3.95 28
T1.2 -3.95 1.2 -3.95 29
T1.6 -3.95 1.6 -3.95 30
T2 -3.95 2 -3.95 31
T2.4 -3.95 2.4 -3.95 32
T2.8 -3.95 2.8 -3.95 33
T3.2 -3.95 3.2 -3.95 34
T3.95 -3.2 3.95 -3.2 35
T3.95 -2.8 3.95 -2.8 36
T3.95 -2.4 3.95 -2.4 37
T3.95 -2 3.95 -2 38
T3.95 -1.6 3.95 -1.6 39
T3.95 -1.2 3.95 -1.2 40
T3.95 -0.8 3.95 -0.8 41
T3.95 -0.4 3.95 -0.4 42
T3.95 0 3.95 0 43
T3.95 0.4 3.95 0.4 44
T3.95 0.8 3.95 0.8 45
T3.95 1.2 3.95 1.2 46
T3.95 1.6 3.95 1.6 47
T3.95 2 3.95 2 48
T3.95 2.4 3.95 2.4 49
T3.95 2.8 3.95 2.8 50
T3.95 3.2 3.95 3.2 51
T3.2 3.95 3.2 3.95 52
T2.8 3.95 2.8 3.95 53
T2.4 3.95 2.4 3.95 54
T2 3.95 2 3.95 55
T1.6 3.95 1.6 3.95 56
T1.2 3.95 1.2 3.95 57
T0.8 3.95 0.8 3.95 58
T0.4 3.95 0.4 3.95 59
T0 3.95 0 3.95 60
T-0.4 3.95 -0.4 3.95 61
T-0.8 3.95 -0.8 3.95 62
T-1.2 3.95 -1.2 3.95 63
T-1.6 3.95 -1.6 3.95 64
T-2 3.95 -2 3.95 65
T-2.4 3.95 -2.4 3.95 66
T-2.8 3.95 -2.8 3.95 67
T-3.2 3.95 -3.2 3.95 68
T0 0 0 0 69
PAD 0 3
-2 0.2 RF 90 0.85 0 0 0 N
-1 0 R
0 0 R
PAD 69 3
-2 5.8 RF 90 5.8 0 0 0 N
-1 0 R
0 0 R
PAD 1 3
-2 0.2 RF 0 0.85 0 0 0 N
-1 0 R
0 0 R
PAD 2 3
-2 0.2 RF 0 0.85 0 0 0 N
-1 0 R
0 0 R
PAD 3 3
-2 0.2 RF 0 0.85 0 0 0 N
-1 0 R
0 0 R
PAD 4 3
-2 0.2 RF 0 0.85 0 0 0 N
-1 0 R
0 0 R
PAD 5 3
-2 0.2 RF 0 0.85 0 0 0 N
-1 0 R
0 0 R
PAD 6 3
-2 0.2 RF 0 0.85 0 0 0 N
-1 0 R
0 0 R
PAD 7 3
-2 0.2 RF 0 0.85 0 0 0 N
-1 0 R
0 0 R
PAD 8 3
-2 0.2 RF 0 0.85 0 0 0 N
-1 0 R
0 0 R
PAD 9 3
-2 0.2 RF 0 0.85 0 0 0 N
-1 0 R
0 0 R
PAD 10 3
-2 0.2 RF 0 0.85 0 0 0 N
-1 0 R
0 0 R
PAD 11 3
-2 0.2 RF 0 0.85 0 0 0 N
-1 0 R
0 0 R
PAD 12 3
-2 0.2 RF 0 0.85 0 0 0 N
-1 0 R
0 0 R
PAD 13 3
-2 0.2 RF 0 0.85 0 0 0 N
-1 0 R
0 0 R
PAD 14 3
-2 0.2 RF 0 0.85 0 0 0 N
-1 0 R
0 0 R
PAD 15 3
-2 0.2 RF 0 0.85 0 0 0 N
-1 0 R
0 0 R
PAD 16 3
-2 0.2 RF 0 0.85 0 0 0 N
-1 0 R
0 0 R
PAD 17 3
-2 0.2 RF 0 0.85 0 0 0 N
-1 0 R
0 0 R
PAD 35 3
-2 0.2 RF 0 0.85 0 0 0 N
-1 0 R
0 0 R
PAD 36 3
-2 0.2 RF 0 0.85 0 0 0 N
-1 0 R
0 0 R
PAD 37 3
-2 0.2 RF 0 0.85 0 0 0 N
-1 0 R
0 0 R
PAD 38 3
-2 0.2 RF 0 0.85 0 0 0 N
-1 0 R
0 0 R
PAD 39 3
-2 0.2 RF 0 0.85 0 0 0 N
-1 0 R
0 0 R
PAD 40 3
-2 0.2 RF 0 0.85 0 0 0 N
-1 0 R
0 0 R
PAD 41 3
-2 0.2 RF 0 0.85 0 0 0 N
-1 0 R
0 0 R
PAD 42 3
-2 0.2 RF 0 0.85 0 0 0 N
-1 0 R
0 0 R
PAD 43 3
-2 0.2 RF 0 0.85 0 0 0 N
-1 0 R
0 0 R
PAD 44 3
-2 0.2 RF 0 0.85 0 0 0 N
-1 0 R
0 0 R
PAD 45 3
-2 0.2 RF 0 0.85 0 0 0 N
-1 0 R
0 0 R
PAD 46 3
-2 0.2 RF 0 0.85 0 0 0 N
-1 0 R
0 0 R
PAD 47 3
-2 0.2 RF 0 0.85 0 0 0 N
-1 0 R
0 0 R
PAD 48 3
-2 0.2 RF 0 0.85 0 0 0 N
-1 0 R
0 0 R
PAD 49 3
-2 0.2 RF 0 0.85 0 0 0 N
-1 0 R
0 0 R
PAD 50 3
-2 0.2 RF 0 0.85 0 0 0 N
-1 0 R
0 0 R
PAD 51 3
-2 0.2 RF 0 0.85 0 0 0 N
-1 0 R
0 0 R

*END*     OF ASCII OUTPUT FILE
