PCBNEW-LibModule-V1  2019-09-24 10:17:18
# encoding utf-8
Units mm
$INDEX
874380343
$EndINDEX
$MODULE 874380343
Po 0 0 0 15 5d89df1e 00000000 ~~
Li 874380343
Cd 87438-0343
Kw Connector
Sc 0
At SMD
AR 
Op 0 0 0
T0 0.000 -0 1.27 1.27 0 0.254 N V 21 N "J**"
T1 0.000 -0 1.27 1.27 0 0.254 N I 21 N "874380343"
DS -4.336 -2.9 1.414 -2.9 0.2 24
DS 1.414 -2.9 1.414 2.9 0.2 24
DS 1.414 2.9 -4.336 2.9 0.2 24
DS -4.336 2.9 -4.336 -2.9 0.2 24
DS -5.336 -3.9 5.336 -3.9 0.1 24
DS 5.336 -3.9 5.336 3.9 0.1 24
DS 5.336 3.9 -5.336 3.9 0.1 24
DS -5.336 3.9 -5.336 -3.9 0.1 24
DS 1.414 -2.9 -4.336 -2.9 0.2 21
DS -4.336 -2.9 -4.336 2.9 0.2 21
DS -4.336 2.9 1.414 2.9 0.2 21
DS 4.275 -1.527 4.275 -1.527 0.06099999999999994 21
DS 4.336 -1.527 4.336 -1.527 0.06099999999999994 21
DA 4.3055 -1.5265 4.275 -1.527 1800 0.06099999999999994 21
DA 4.3055 -1.5265 4.336 -1.527 1800 0.06099999999999994 21
$PAD
Po 2.264 -1.5
Sh "1" R 0.850 2.650 0 0 900
At SMD N 00888000
Ne 0 ""
$EndPAD
$PAD
Po 2.264 -0
Sh "2" R 0.850 2.650 0 0 900
At SMD N 00888000
Ne 0 ""
$EndPAD
$PAD
Po 2.264 1.5
Sh "3" R 0.850 2.650 0 0 900
At SMD N 00888000
Ne 0 ""
$EndPAD
$PAD
Po -1.636 -1.5
Sh "4" R 0.850 3.550 0 0 900
At SMD N 00888000
Ne 0 ""
$EndPAD
$PAD
Po -1.636 -0
Sh "5" R 0.850 3.550 0 0 900
At SMD N 00888000
Ne 0 ""
$EndPAD
$PAD
Po -1.636 1.5
Sh "6" R 0.850 3.550 0 0 900
At SMD N 00888000
Ne 0 ""
$EndPAD
$EndMODULE 874380343
$EndLIBRARY
