PCBNEW-LibModule-V1  2019-09-24 09:21:56
# encoding utf-8
Units mm
$INDEX
SHDR20W40P127_2X10_1570X535X540P
$EndINDEX
$MODULE SHDR20W40P127_2X10_1570X535X540P
Po 0 0 0 15 5d89d224 00000000 ~~
Li SHDR20W40P127_2X10_1570X535X540P
Cd 121-6531
Kw Connector
Sc 0
At STD
AR 
Op 0 0 0
T0 0 0 1.27 1.27 0 0.254 N V 21 N "J**"
T1 0 0 1.27 1.27 0 0.254 N I 21 N "SHDR20W40P127_2X10_1570X535X540P"
DS -2.735 2.44 -2.735 -3.41 0.05 24
DS -2.735 -3.41 13.815 -3.41 0.05 24
DS 13.815 -3.41 13.815 2.44 0.05 24
DS 13.815 2.44 -2.735 2.44 0.05 24
DS -2.485 2.19 -2.485 -3.16 0.1 24
DS -2.485 -3.16 13.565 -3.16 0.1 24
DS 13.565 -3.16 13.565 2.19 0.1 24
DS 13.565 2.19 -2.485 2.19 0.1 24
DS 0 2.19 13.565 2.19 0.2 21
DS 13.565 2.19 13.565 -3.16 0.2 21
DS 13.565 -3.16 -2.485 -3.16 0.2 21
DS -2.485 -3.16 -2.485 0 0.2 21
$PAD
Po 0 0
Sh "1" R 1.15 1.15 0 0 900
Dr 0.75 0 0
At STD N 00E0FFFF
Ne 0 ""
$EndPAD
$PAD
Po 0 -1.27
Sh "2" C 1.15 1.15 0 0 900
Dr 0.75 0 0
At STD N 00E0FFFF
Ne 0 ""
$EndPAD
$PAD
Po 1.27 0
Sh "3" C 1.15 1.15 0 0 900
Dr 0.75 0 0
At STD N 00E0FFFF
Ne 0 ""
$EndPAD
$PAD
Po 1.27 -1.27
Sh "4" C 1.15 1.15 0 0 900
Dr 0.75 0 0
At STD N 00E0FFFF
Ne 0 ""
$EndPAD
$PAD
Po 2.54 0
Sh "5" C 1.15 1.15 0 0 900
Dr 0.75 0 0
At STD N 00E0FFFF
Ne 0 ""
$EndPAD
$PAD
Po 2.54 -1.27
Sh "6" C 1.15 1.15 0 0 900
Dr 0.75 0 0
At STD N 00E0FFFF
Ne 0 ""
$EndPAD
$PAD
Po 3.81 0
Sh "7" C 1.15 1.15 0 0 900
Dr 0.75 0 0
At STD N 00E0FFFF
Ne 0 ""
$EndPAD
$PAD
Po 3.81 -1.27
Sh "8" C 1.15 1.15 0 0 900
Dr 0.75 0 0
At STD N 00E0FFFF
Ne 0 ""
$EndPAD
$PAD
Po 5.08 0
Sh "9" C 1.15 1.15 0 0 900
Dr 0.75 0 0
At STD N 00E0FFFF
Ne 0 ""
$EndPAD
$PAD
Po 5.08 -1.27
Sh "10" C 1.15 1.15 0 0 900
Dr 0.75 0 0
At STD N 00E0FFFF
Ne 0 ""
$EndPAD
$PAD
Po 6.35 0
Sh "11" C 1.15 1.15 0 0 900
Dr 0.75 0 0
At STD N 00E0FFFF
Ne 0 ""
$EndPAD
$PAD
Po 6.35 -1.27
Sh "12" C 1.15 1.15 0 0 900
Dr 0.75 0 0
At STD N 00E0FFFF
Ne 0 ""
$EndPAD
$PAD
Po 7.62 0
Sh "13" C 1.15 1.15 0 0 900
Dr 0.75 0 0
At STD N 00E0FFFF
Ne 0 ""
$EndPAD
$PAD
Po 7.62 -1.27
Sh "14" C 1.15 1.15 0 0 900
Dr 0.75 0 0
At STD N 00E0FFFF
Ne 0 ""
$EndPAD
$PAD
Po 8.89 0
Sh "15" C 1.15 1.15 0 0 900
Dr 0.75 0 0
At STD N 00E0FFFF
Ne 0 ""
$EndPAD
$PAD
Po 8.89 -1.27
Sh "16" C 1.15 1.15 0 0 900
Dr 0.75 0 0
At STD N 00E0FFFF
Ne 0 ""
$EndPAD
$PAD
Po 10.16 0
Sh "17" C 1.15 1.15 0 0 900
Dr 0.75 0 0
At STD N 00E0FFFF
Ne 0 ""
$EndPAD
$PAD
Po 10.16 -1.27
Sh "18" C 1.15 1.15 0 0 900
Dr 0.75 0 0
At STD N 00E0FFFF
Ne 0 ""
$EndPAD
$PAD
Po 11.43 0
Sh "19" C 1.15 1.15 0 0 900
Dr 0.75 0 0
At STD N 00E0FFFF
Ne 0 ""
$EndPAD
$PAD
Po 11.43 -1.27
Sh "20" C 1.15 1.15 0 0 900
Dr 0.75 0 0
At STD N 00E0FFFF
Ne 0 ""
$EndPAD
$EndMODULE SHDR20W40P127_2X10_1570X535X540P
$EndLIBRARY
