(module Logo_Titre_IHM—Générique (layer F.Cu) (tedit 0)
  (fp_text reference G*** (at 0 0) (layer F.SilkS) hide
    (effects (font (size 1.524 1.524) (thickness 0.3)))
  )
  (fp_text value LOGO (at 0.75 0) (layer F.SilkS) hide
    (effects (font (size 1.524 1.524) (thickness 0.3)))
  )
  (fp_poly (pts (xy 7.565132 -1.773249) (xy 7.603946 -1.740959) (xy 7.659916 -1.658571) (xy 7.67623 -1.575337)
    (xy 7.653488 -1.497467) (xy 7.592286 -1.431171) (xy 7.572902 -1.418256) (xy 7.493193 -1.382436)
    (xy 7.424758 -1.384037) (xy 7.357378 -1.424314) (xy 7.332133 -1.4478) (xy 7.273904 -1.527727)
    (xy 7.25724 -1.60774) (xy 7.2822 -1.685172) (xy 7.325905 -1.737758) (xy 7.405146 -1.788625)
    (xy 7.487348 -1.800484) (xy 7.565132 -1.773249)) (layer F.SilkS) (width 0.01))
  (fp_poly (pts (xy 4.876477 -1.832099) (xy 4.943018 -1.808194) (xy 4.999566 -1.776233) (xy 5.033318 -1.742666)
    (xy 5.037666 -1.728208) (xy 5.022881 -1.703472) (xy 4.9825 -1.656504) (xy 4.922491 -1.59302)
    (xy 4.848817 -1.518735) (xy 4.767445 -1.439367) (xy 4.684338 -1.36063) (xy 4.605463 -1.28824)
    (xy 4.536784 -1.227912) (xy 4.484266 -1.185364) (xy 4.453876 -1.166311) (xy 4.450764 -1.165838)
    (xy 4.417551 -1.174589) (xy 4.407958 -1.178185) (xy 4.386845 -1.197852) (xy 4.384934 -1.234835)
    (xy 4.403609 -1.292732) (xy 4.444253 -1.375143) (xy 4.508252 -1.485664) (xy 4.55595 -1.563001)
    (xy 4.730401 -1.8415) (xy 4.812744 -1.8415) (xy 4.876477 -1.832099)) (layer F.SilkS) (width 0.01))
  (fp_poly (pts (xy 0.937309 -1.836143) (xy 1.021559 -1.819061) (xy 1.082988 -1.78236) (xy 1.097259 -1.768837)
    (xy 1.153583 -1.711488) (xy 0.878416 -1.449852) (xy 0.787519 -1.364794) (xy 0.704998 -1.290133)
    (xy 0.636531 -1.230803) (xy 0.587793 -1.19174) (xy 0.565835 -1.178076) (xy 0.521024 -1.183287)
    (xy 0.497943 -1.198414) (xy 0.484007 -1.215311) (xy 0.478369 -1.235035) (xy 0.483419 -1.263009)
    (xy 0.501542 -1.304654) (xy 0.535128 -1.365392) (xy 0.586562 -1.450646) (xy 0.658233 -1.565836)
    (xy 0.663297 -1.573925) (xy 0.833683 -1.846099) (xy 0.937309 -1.836143)) (layer F.SilkS) (width 0.01))
  (fp_poly (pts (xy -4.97851 -0.335282) (xy -4.760251 -0.334803) (xy -4.530185 -0.333933) (xy -4.529667 -0.33393)
    (xy -3.249084 -0.328084) (xy -3.242206 -0.268004) (xy -3.250948 -0.202956) (xy -3.271945 -0.167462)
    (xy -3.280777 -0.15918) (xy -3.293259 -0.152112) (xy -3.312582 -0.146161) (xy -3.341937 -0.141232)
    (xy -3.384518 -0.137228) (xy -3.443516 -0.134053) (xy -3.522123 -0.131612) (xy -3.623533 -0.129809)
    (xy -3.750936 -0.128548) (xy -3.907525 -0.127732) (xy -4.096492 -0.127266) (xy -4.32103 -0.127055)
    (xy -4.58433 -0.127001) (xy -4.618279 -0.127) (xy -4.888981 -0.127096) (xy -5.120386 -0.12743)
    (xy -5.315527 -0.128078) (xy -5.477439 -0.129112) (xy -5.609156 -0.130607) (xy -5.713714 -0.132636)
    (xy -5.794147 -0.135274) (xy -5.85349 -0.138593) (xy -5.894778 -0.142668) (xy -5.921045 -0.147572)
    (xy -5.935325 -0.15338) (xy -5.940325 -0.159131) (xy -5.941238 -0.209369) (xy -5.919085 -0.266859)
    (xy -5.883112 -0.313158) (xy -5.855196 -0.328908) (xy -5.826428 -0.33076) (xy -5.759143 -0.332322)
    (xy -5.657156 -0.33358) (xy -5.524284 -0.33452) (xy -5.364342 -0.335127) (xy -5.181145 -0.335386)
    (xy -4.97851 -0.335282)) (layer F.SilkS) (width 0.01))
  (fp_poly (pts (xy 7.66395 -0.868071) (xy 7.668205 -0.806156) (xy 7.670654 -0.704568) (xy 7.671278 -0.564618)
    (xy 7.670058 -0.387618) (xy 7.667689 -0.216959) (xy 7.664633 0.004407) (xy 7.663664 0.187271)
    (xy 7.665175 0.33543) (xy 7.669557 0.452682) (xy 7.677203 0.542824) (xy 7.688505 0.609655)
    (xy 7.703855 0.65697) (xy 7.723644 0.688568) (xy 7.748265 0.708246) (xy 7.763933 0.715337)
    (xy 7.825896 0.735729) (xy 7.89489 0.75523) (xy 7.895166 0.7553) (xy 7.950035 0.777844)
    (xy 7.969077 0.810677) (xy 7.96925 0.815076) (xy 7.967397 0.82845) (xy 7.958367 0.838553)
    (xy 7.93695 0.845854) (xy 7.897937 0.850819) (xy 7.83612 0.853917) (xy 7.746289 0.855614)
    (xy 7.623236 0.856377) (xy 7.50618 0.856618) (xy 7.342244 0.85616) (xy 7.217094 0.854161)
    (xy 7.127202 0.850435) (xy 7.069043 0.844797) (xy 7.039091 0.837062) (xy 7.033346 0.831805)
    (xy 7.034039 0.791882) (xy 7.073047 0.763901) (xy 7.117534 0.751721) (xy 7.209641 0.729199)
    (xy 7.26885 0.701419) (xy 7.304577 0.661902) (xy 7.324982 0.608945) (xy 7.333277 0.555795)
    (xy 7.339923 0.469155) (xy 7.344917 0.356665) (xy 7.348254 0.225962) (xy 7.349931 0.084686)
    (xy 7.349943 -0.059525) (xy 7.348287 -0.199031) (xy 7.344957 -0.326194) (xy 7.339951 -0.433375)
    (xy 7.333263 -0.512936) (xy 7.325607 -0.555215) (xy 7.30193 -0.608579) (xy 7.266471 -0.63837)
    (xy 7.211035 -0.656802) (xy 7.135479 -0.676902) (xy 7.092708 -0.691879) (xy 7.074331 -0.70644)
    (xy 7.071959 -0.725296) (xy 7.073407 -0.734042) (xy 7.088599 -0.754973) (xy 7.12964 -0.772742)
    (xy 7.203199 -0.789769) (xy 7.249596 -0.797985) (xy 7.347861 -0.816132) (xy 7.446314 -0.837142)
    (xy 7.524515 -0.856636) (xy 7.528007 -0.85763) (xy 7.593108 -0.875303) (xy 7.642009 -0.886681)
    (xy 7.657908 -0.889) (xy 7.66395 -0.868071)) (layer F.SilkS) (width 0.01))
  (fp_poly (pts (xy 6.162331 -0.876667) (xy 6.171189 -0.851462) (xy 6.177696 -0.795341) (xy 6.180614 -0.719707)
    (xy 6.180666 -0.707835) (xy 6.18262 -0.632552) (xy 6.187788 -0.577323) (xy 6.195125 -0.552394)
    (xy 6.196541 -0.551909) (xy 6.216771 -0.568179) (xy 6.254196 -0.609192) (xy 6.298286 -0.663034)
    (xy 6.396179 -0.767722) (xy 6.497677 -0.833644) (xy 6.608999 -0.864283) (xy 6.66317 -0.867486)
    (xy 6.764767 -0.854041) (xy 6.83432 -0.812948) (xy 6.871878 -0.744165) (xy 6.879166 -0.681986)
    (xy 6.860509 -0.59723) (xy 6.806993 -0.534141) (xy 6.722305 -0.496877) (xy 6.713424 -0.49496)
    (xy 6.670907 -0.490591) (xy 6.635927 -0.502086) (xy 6.595507 -0.535982) (xy 6.561841 -0.571312)
    (xy 6.504757 -0.626517) (xy 6.461161 -0.646411) (xy 6.420915 -0.630811) (xy 6.37388 -0.579531)
    (xy 6.364842 -0.567732) (xy 6.298743 -0.468775) (xy 6.248962 -0.365096) (xy 6.214177 -0.249942)
    (xy 6.193067 -0.116562) (xy 6.184311 0.041798) (xy 6.186587 0.23189) (xy 6.190534 0.323188)
    (xy 6.198498 0.461135) (xy 6.208426 0.562873) (xy 6.223252 0.634515) (xy 6.245909 0.682173)
    (xy 6.279331 0.711962) (xy 6.326451 0.729993) (xy 6.390202 0.742381) (xy 6.391816 0.742637)
    (xy 6.476981 0.762706) (xy 6.522338 0.790409) (xy 6.52995 0.827141) (xy 6.527593 0.834505)
    (xy 6.506261 0.843271) (xy 6.448789 0.849882) (xy 6.353602 0.854417) (xy 6.219124 0.856953)
    (xy 6.062122 0.857591) (xy 5.927588 0.8571) (xy 5.807941 0.855917) (xy 5.709441 0.854167)
    (xy 5.638348 0.851972) (xy 5.600923 0.849456) (xy 5.59682 0.84843) (xy 5.589216 0.82237)
    (xy 5.588 0.802306) (xy 5.599529 0.777031) (xy 5.639162 0.757205) (xy 5.70279 0.741171)
    (xy 5.771548 0.722483) (xy 5.824562 0.700147) (xy 5.843166 0.68651) (xy 5.858703 0.646303)
    (xy 5.871703 0.570758) (xy 5.882122 0.466801) (xy 5.889917 0.341353) (xy 5.895045 0.201337)
    (xy 5.897461 0.053678) (xy 5.897123 -0.094703) (xy 5.893986 -0.236881) (xy 5.888007 -0.365934)
    (xy 5.879142 -0.474939) (xy 5.867348 -0.556972) (xy 5.852581 -0.60511) (xy 5.851313 -0.607222)
    (xy 5.804323 -0.646505) (xy 5.731252 -0.671311) (xy 5.670486 -0.688457) (xy 5.641266 -0.713145)
    (xy 5.634152 -0.736131) (xy 5.637505 -0.771864) (xy 5.669291 -0.782955) (xy 5.679063 -0.783167)
    (xy 5.721302 -0.788261) (xy 5.7927 -0.801958) (xy 5.881534 -0.821877) (xy 5.937367 -0.835583)
    (xy 6.026165 -0.856611) (xy 6.099752 -0.871241) (xy 6.148483 -0.877714) (xy 6.162331 -0.876667)) (layer F.SilkS) (width 0.01))
  (fp_poly (pts (xy 2.271574 -0.874251) (xy 2.280358 -0.847606) (xy 2.283204 -0.788116) (xy 2.279703 -0.704906)
    (xy 2.279349 -0.700229) (xy 2.266894 -0.538711) (xy 2.364326 -0.629445) (xy 2.514679 -0.743098)
    (xy 2.680994 -0.821115) (xy 2.85639 -0.860429) (xy 2.888188 -0.863145) (xy 2.977521 -0.866271)
    (xy 3.06088 -0.864789) (xy 3.11976 -0.859083) (xy 3.203474 -0.82687) (xy 3.282719 -0.769035)
    (xy 3.340867 -0.698529) (xy 3.350701 -0.679211) (xy 3.358579 -0.639992) (xy 3.36597 -0.561228)
    (xy 3.372726 -0.445708) (xy 3.378704 -0.296219) (xy 3.383756 -0.115549) (xy 3.386161 0)
    (xy 3.390745 0.20812) (xy 3.396074 0.375621) (xy 3.402244 0.50421) (xy 3.40935 0.595595)
    (xy 3.417487 0.651484) (xy 3.423506 0.669824) (xy 3.467656 0.708812) (xy 3.548294 0.738931)
    (xy 3.555558 0.740727) (xy 3.619998 0.759412) (xy 3.652145 0.77963) (xy 3.661735 0.807955)
    (xy 3.661833 0.812492) (xy 3.660784 0.82838) (xy 3.653946 0.840138) (xy 3.635779 0.848387)
    (xy 3.600748 0.85375) (xy 3.543312 0.856848) (xy 3.457934 0.858302) (xy 3.339077 0.858734)
    (xy 3.249607 0.858761) (xy 3.098089 0.858056) (xy 2.984671 0.855764) (xy 2.905141 0.851618)
    (xy 2.855286 0.845355) (xy 2.830895 0.836709) (xy 2.827173 0.83216) (xy 2.832495 0.79534)
    (xy 2.865959 0.761338) (xy 2.914348 0.742005) (xy 2.929049 0.740833) (xy 2.975368 0.732763)
    (xy 3.012737 0.706329) (xy 3.041813 0.658196) (xy 3.063251 0.585031) (xy 3.077707 0.483499)
    (xy 3.085837 0.350264) (xy 3.088295 0.181993) (xy 3.085738 -0.02465) (xy 3.085108 -0.052917)
    (xy 3.080147 -0.223087) (xy 3.073211 -0.356272) (xy 3.062987 -0.457813) (xy 3.04816 -0.533055)
    (xy 3.027413 -0.587338) (xy 2.999432 -0.626007) (xy 2.962903 -0.654403) (xy 2.933156 -0.670263)
    (xy 2.878974 -0.691046) (xy 2.827416 -0.694772) (xy 2.757812 -0.682753) (xy 2.753174 -0.68169)
    (xy 2.593174 -0.629647) (xy 2.452475 -0.554061) (xy 2.369792 -0.488346) (xy 2.326689 -0.443517)
    (xy 2.300724 -0.40152) (xy 2.285531 -0.347396) (xy 2.274746 -0.266188) (xy 2.274574 -0.264584)
    (xy 2.269889 -0.191298) (xy 2.267862 -0.091293) (xy 2.268208 0.027097) (xy 2.27064 0.155538)
    (xy 2.27487 0.285696) (xy 2.280612 0.409236) (xy 2.287579 0.517824) (xy 2.295484 0.603126)
    (xy 2.304042 0.656808) (xy 2.306562 0.665161) (xy 2.32225 0.696306) (xy 2.34757 0.717133)
    (xy 2.393636 0.733752) (xy 2.460625 0.749852) (xy 2.505901 0.770932) (xy 2.518833 0.810784)
    (xy 2.518833 0.858761) (xy 1.693333 0.858761) (xy 1.693333 0.810784) (xy 1.706205 0.771041)
    (xy 1.750899 0.75117) (xy 1.751541 0.751039) (xy 1.839142 0.729994) (xy 1.894777 0.706568)
    (xy 1.928711 0.675434) (xy 1.942368 0.652006) (xy 1.951232 0.620019) (xy 1.958168 0.562963)
    (xy 1.963324 0.477372) (xy 1.966851 0.359777) (xy 1.968899 0.206712) (xy 1.969613 0.0202)
    (xy 1.969517 -0.164327) (xy 1.968294 -0.311098) (xy 1.964922 -0.424689) (xy 1.958382 -0.509677)
    (xy 1.947652 -0.57064) (xy 1.931712 -0.612154) (xy 1.909541 -0.638797) (xy 1.880119 -0.655145)
    (xy 1.842425 -0.665775) (xy 1.815418 -0.671311) (xy 1.753681 -0.689095) (xy 1.724392 -0.714684)
    (xy 1.718657 -0.733551) (xy 1.719975 -0.760064) (xy 1.739906 -0.776162) (xy 1.787909 -0.78704)
    (xy 1.82534 -0.792138) (xy 1.905298 -0.805056) (xy 2.003946 -0.825037) (xy 2.094896 -0.846512)
    (xy 2.172351 -0.864256) (xy 2.234302 -0.874428) (xy 2.269143 -0.875208) (xy 2.271574 -0.874251)) (layer F.SilkS) (width 0.01))
  (fp_poly (pts (xy -6.290244 -1.764075) (xy -6.299968 -1.725879) (xy -6.325822 -1.704536) (xy -6.380052 -1.690844)
    (xy -6.390007 -1.689115) (xy -6.481341 -1.662307) (xy -6.539013 -1.615903) (xy -6.569099 -1.54489)
    (xy -6.569961 -1.54074) (xy -6.570603 -1.509351) (xy -6.568312 -1.440822) (xy -6.563436 -1.340218)
    (xy -6.556326 -1.212605) (xy -6.547332 -1.063048) (xy -6.536802 -0.896612) (xy -6.525087 -0.718364)
    (xy -6.512536 -0.533369) (xy -6.4995 -0.346692) (xy -6.486328 -0.163399) (xy -6.47337 0.011445)
    (xy -6.460975 0.172775) (xy -6.449493 0.315524) (xy -6.439274 0.434627) (xy -6.430668 0.525019)
    (xy -6.424025 0.581634) (xy -6.422946 0.588555) (xy -6.395391 0.665814) (xy -6.340266 0.717135)
    (xy -6.252503 0.746685) (xy -6.225303 0.751099) (xy -6.160677 0.762575) (xy -6.12816 0.777685)
    (xy -6.117583 0.802145) (xy -6.117167 0.811858) (xy -6.118116 0.826729) (xy -6.124416 0.837977)
    (xy -6.14125 0.846104) (xy -6.173798 0.851613) (xy -6.227242 0.855006) (xy -6.306764 0.856785)
    (xy -6.417544 0.857452) (xy -6.564764 0.857509) (xy -6.588125 0.857497) (xy -6.740859 0.857272)
    (xy -6.856431 0.85647) (xy -6.940014 0.854629) (xy -6.996777 0.851287) (xy -7.031893 0.84598)
    (xy -7.050534 0.838246) (xy -7.057871 0.827622) (xy -7.059084 0.815372) (xy -7.051156 0.789152)
    (xy -7.021265 0.770658) (xy -6.960249 0.754856) (xy -6.942741 0.75143) (xy -6.869317 0.733445)
    (xy -6.825958 0.710209) (xy -6.800413 0.675151) (xy -6.800363 0.675047) (xy -6.794439 0.654575)
    (xy -6.790574 0.619744) (xy -6.788875 0.567123) (xy -6.789448 0.493283) (xy -6.792399 0.394794)
    (xy -6.797836 0.268227) (xy -6.805863 0.110151) (xy -6.816588 -0.082862) (xy -6.830117 -0.314242)
    (xy -6.832039 -0.346516) (xy -6.88975 -1.313759) (xy -7.098225 -0.820922) (xy -7.223101 -0.525714)
    (xy -7.33256 -0.26707) (xy -7.427699 -0.042573) (xy -7.509611 0.150192) (xy -7.579393 0.313642)
    (xy -7.638141 0.450194) (xy -7.686949 0.562263) (xy -7.726914 0.652266) (xy -7.75913 0.72262)
    (xy -7.784694 0.77574) (xy -7.8047 0.814043) (xy -7.820245 0.839945) (xy -7.832424 0.855863)
    (xy -7.842331 0.864213) (xy -7.851064 0.867411) (xy -7.859716 0.867873) (xy -7.86386 0.867833)
    (xy -7.875574 0.865396) (xy -7.888362 0.856047) (xy -7.903585 0.836732) (xy -7.9226 0.804396)
    (xy -7.946767 0.755984) (xy -7.977445 0.688441) (xy -8.015993 0.598712) (xy -8.06377 0.483741)
    (xy -8.122135 0.340475) (xy -8.192447 0.165858) (xy -8.276066 -0.043165) (xy -8.33618 -0.193868)
    (xy -8.428277 -0.424739) (xy -8.50603 -0.619051) (xy -8.570697 -0.779599) (xy -8.623533 -0.909177)
    (xy -8.665798 -1.010581) (xy -8.698747 -1.086605) (xy -8.723637 -1.140045) (xy -8.741727 -1.173694)
    (xy -8.754274 -1.190348) (xy -8.762533 -1.192801) (xy -8.767763 -1.183849) (xy -8.771221 -1.166286)
    (xy -8.771777 -1.162243) (xy -8.780914 -1.085309) (xy -8.792305 -0.976793) (xy -8.805405 -0.843064)
    (xy -8.81967 -0.69049) (xy -8.834558 -0.525437) (xy -8.849524 -0.354274) (xy -8.864024 -0.183369)
    (xy -8.877515 -0.019089) (xy -8.889453 0.132198) (xy -8.899294 0.264124) (xy -8.906495 0.370321)
    (xy -8.910511 0.444423) (xy -8.911167 0.470097) (xy -8.906576 0.575384) (xy -8.889295 0.647417)
    (xy -8.854065 0.69462) (xy -8.795628 0.725415) (xy -8.742169 0.740753) (xy -8.677656 0.759512)
    (xy -8.645515 0.779853) (xy -8.636069 0.808271) (xy -8.636 0.812014) (xy -8.637245 0.82843)
    (xy -8.644861 0.840364) (xy -8.664667 0.848529) (xy -8.702485 0.853642) (xy -8.764136 0.856415)
    (xy -8.85544 0.857565) (xy -8.982218 0.857805) (xy -9.009005 0.857807) (xy -9.14795 0.857203)
    (xy -9.249905 0.855117) (xy -9.3202 0.851136) (xy -9.364165 0.844847) (xy -9.387129 0.835835)
    (xy -9.393444 0.828009) (xy -9.386857 0.794676) (xy -9.354418 0.761647) (xy -9.310606 0.742099)
    (xy -9.297654 0.740833) (xy -9.227186 0.721393) (xy -9.163069 0.669388) (xy -9.116661 0.594288)
    (xy -9.11415 0.587825) (xy -9.105454 0.549385) (xy -9.093356 0.474096) (xy -9.078436 0.367256)
    (xy -9.061273 0.234163) (xy -9.042446 0.080115) (xy -9.022536 -0.089592) (xy -9.002121 -0.269659)
    (xy -8.981782 -0.45479) (xy -8.962098 -0.639686) (xy -8.943648 -0.819051) (xy -8.927011 -0.987586)
    (xy -8.912768 -1.139994) (xy -8.901498 -1.270978) (xy -8.893781 -1.375241) (xy -8.890195 -1.447483)
    (xy -8.89001 -1.461082) (xy -8.899197 -1.562116) (xy -8.929117 -1.629931) (xy -8.983286 -1.669977)
    (xy -9.033484 -1.683754) (xy -9.113282 -1.69884) (xy -9.159618 -1.713342) (xy -9.1811 -1.731384)
    (xy -9.186334 -1.757011) (xy -9.177152 -1.796343) (xy -9.166911 -1.808673) (xy -9.139473 -1.812171)
    (xy -9.07844 -1.813115) (xy -8.99247 -1.811561) (xy -8.89022 -1.807562) (xy -8.875869 -1.80685)
    (xy -8.60425 -1.793022) (xy -8.183425 -0.747873) (xy -8.103113 -0.548946) (xy -8.027246 -0.362059)
    (xy -7.957337 -0.190864) (xy -7.894895 -0.039014) (xy -7.841433 0.089839) (xy -7.798462 0.192042)
    (xy -7.767493 0.263944) (xy -7.750038 0.301891) (xy -7.746948 0.306948) (xy -7.736089 0.289847)
    (xy -7.710592 0.237151) (xy -7.671996 0.152387) (xy -7.62184 0.039082) (xy -7.561664 -0.099239)
    (xy -7.493008 -0.259049) (xy -7.41741 -0.436822) (xy -7.33641 -0.629033) (xy -7.291637 -0.735981)
    (xy -7.208583 -0.934771) (xy -7.130569 -1.121394) (xy -7.059092 -1.292278) (xy -6.995649 -1.443847)
    (xy -6.941737 -1.572529) (xy -6.898854 -1.67475) (xy -6.868495 -1.746935) (xy -6.852157 -1.785512)
    (xy -6.849697 -1.791107) (xy -6.828975 -1.793081) (xy -6.773808 -1.796719) (xy -6.692026 -1.801544)
    (xy -6.591462 -1.807077) (xy -6.565411 -1.808457) (xy -6.283404 -1.823283) (xy -6.290244 -1.764075)) (layer F.SilkS) (width 0.01))
  (fp_poly (pts (xy -9.933784 -1.810487) (xy -9.806997 -1.808237) (xy -9.692938 -1.804397) (xy -9.598487 -1.798969)
    (xy -9.530521 -1.791959) (xy -9.49592 -1.78337) (xy -9.493119 -1.780609) (xy -9.495084 -1.738395)
    (xy -9.532187 -1.707834) (xy -9.597785 -1.69375) (xy -9.61331 -1.693334) (xy -9.717649 -1.678666)
    (xy -9.792258 -1.635247) (xy -9.835752 -1.563951) (xy -9.839656 -1.550317) (xy -9.846925 -1.499956)
    (xy -9.853554 -1.412878) (xy -9.85945 -1.294697) (xy -9.864521 -1.151028) (xy -9.868675 -0.987483)
    (xy -9.87182 -0.809676) (xy -9.873864 -0.623222) (xy -9.874714 -0.433733) (xy -9.87428 -0.246823)
    (xy -9.872469 -0.068106) (xy -9.869188 0.096805) (xy -9.867586 0.153115) (xy -9.862268 0.319344)
    (xy -9.856562 0.448429) (xy -9.848408 0.545526) (xy -9.835745 0.615789) (xy -9.816512 0.664375)
    (xy -9.788648 0.69644) (xy -9.750093 0.71714) (xy -9.698785 0.73163) (xy -9.632664 0.745066)
    (xy -9.630834 0.745427) (xy -9.555294 0.762424) (xy -9.513099 0.778797) (xy -9.495557 0.798934)
    (xy -9.49325 0.814916) (xy -9.494621 0.827734) (xy -9.501923 0.837664) (xy -9.519946 0.845074)
    (xy -9.553477 0.850333) (xy -9.607305 0.853809) (xy -9.686218 0.85587) (xy -9.795003 0.856884)
    (xy -9.93845 0.85722) (xy -10.043584 0.85725) (xy -10.210219 0.857144) (xy -10.339309 0.856582)
    (xy -10.435641 0.855196) (xy -10.504005 0.852617) (xy -10.549189 0.848476) (xy -10.575979 0.842406)
    (xy -10.589165 0.834038) (xy -10.593535 0.823003) (xy -10.593917 0.814916) (xy -10.587128 0.790329)
    (xy -10.560968 0.772171) (xy -10.506749 0.756051) (xy -10.456336 0.745371) (xy -10.381151 0.727242)
    (xy -10.320853 0.706814) (xy -10.290737 0.690141) (xy -10.27044 0.661343) (xy -10.254481 0.617161)
    (xy -10.242408 0.553067) (xy -10.233774 0.464534) (xy -10.228127 0.347034) (xy -10.225017 0.19604)
    (xy -10.224005 0.01852) (xy -10.2235 -0.460376) (xy -10.289646 -0.473605) (xy -10.331288 -0.477573)
    (xy -10.408168 -0.480816) (xy -10.513198 -0.483332) (xy -10.63929 -0.485123) (xy -10.779356 -0.486188)
    (xy -10.926307 -0.486527) (xy -11.073055 -0.48614) (xy -11.212511 -0.485029) (xy -11.337587 -0.483191)
    (xy -11.441194 -0.480629) (xy -11.516245 -0.477342) (xy -11.554476 -0.47358) (xy -11.620743 -0.460327)
    (xy -11.609055 -0.002622) (xy -11.603961 0.188939) (xy -11.598558 0.342633) (xy -11.591432 0.462909)
    (xy -11.581168 0.554219) (xy -11.56635 0.621014) (xy -11.545562 0.667744) (xy -11.51739 0.698861)
    (xy -11.480418 0.718814) (xy -11.433231 0.732056) (xy -11.374413 0.743037) (xy -11.371792 0.743493)
    (xy -11.298801 0.758071) (xy -11.258635 0.772821) (xy -11.242043 0.792566) (xy -11.2395 0.812474)
    (xy -11.2395 0.858425) (xy -12.319 0.858425) (xy -12.319 0.812474) (xy -12.313549 0.786074)
    (xy -12.291011 0.768149) (xy -12.242112 0.753819) (xy -12.187779 0.743409) (xy -12.114216 0.727015)
    (xy -12.055819 0.707804) (xy -12.029176 0.692913) (xy -12.012903 0.670523) (xy -11.999226 0.636435)
    (xy -11.987974 0.587391) (xy -11.978974 0.520129) (xy -11.972055 0.431389) (xy -11.967044 0.317911)
    (xy -11.963769 0.176436) (xy -11.962059 0.003702) (xy -11.961742 -0.203551) (xy -11.962645 -0.448581)
    (xy -11.963298 -0.556103) (xy -11.965085 -0.794343) (xy -11.967115 -0.993698) (xy -11.969508 -1.157615)
    (xy -11.972385 -1.289542) (xy -11.975867 -1.392925) (xy -11.980075 -1.471213) (xy -11.98513 -1.527853)
    (xy -11.991154 -1.566292) (xy -11.998267 -1.589979) (xy -11.999695 -1.592987) (xy -12.050837 -1.646436)
    (xy -12.140388 -1.682173) (xy -12.244917 -1.698479) (xy -12.292704 -1.710611) (xy -12.312381 -1.743033)
    (xy -12.314603 -1.756834) (xy -12.320788 -1.80975) (xy -11.237709 -1.80975) (xy -11.243896 -1.756834)
    (xy -11.251417 -1.726791) (xy -11.27205 -1.708864) (xy -11.316177 -1.697832) (xy -11.376045 -1.690391)
    (xy -11.436453 -1.68268) (xy -11.484425 -1.670909) (xy -11.521564 -1.650485) (xy -11.549476 -1.616817)
    (xy -11.569764 -1.565311) (xy -11.584031 -1.491375) (xy -11.593883 -1.390417) (xy -11.600923 -1.257844)
    (xy -11.606755 -1.089064) (xy -11.608698 -1.024283) (xy -11.620038 -0.640983) (xy -11.490164 -0.627408)
    (xy -11.416805 -0.622395) (xy -11.310079 -0.618577) (xy -11.178935 -0.615952) (xy -11.032322 -0.61452)
    (xy -10.879188 -0.614279) (xy -10.728484 -0.615227) (xy -10.589159 -0.617362) (xy -10.470161 -0.620682)
    (xy -10.380439 -0.625187) (xy -10.351856 -0.627615) (xy -10.220001 -0.641397) (xy -10.227043 -1.098574)
    (xy -10.230983 -1.279722) (xy -10.236632 -1.419813) (xy -10.244073 -1.520088) (xy -10.253388 -1.581793)
    (xy -10.260095 -1.601149) (xy -10.307083 -1.646096) (xy -10.382589 -1.678494) (xy -10.473417 -1.693023)
    (xy -10.488651 -1.693334) (xy -10.549924 -1.705148) (xy -10.590968 -1.735155) (xy -10.601477 -1.775201)
    (xy -10.59987 -1.781308) (xy -10.576591 -1.79032) (xy -10.517888 -1.79771) (xy -10.430641 -1.803483)
    (xy -10.321728 -1.807643) (xy -10.198029 -1.810194) (xy -10.066421 -1.81114) (xy -9.933784 -1.810487)) (layer F.SilkS) (width 0.01))
  (fp_poly (pts (xy -13.108355 -1.807848) (xy -12.942494 -1.807183) (xy -12.814094 -1.806213) (xy -12.718285 -1.804523)
    (xy -12.650195 -1.8017) (xy -12.604953 -1.797331) (xy -12.577687 -1.791003) (xy -12.563526 -1.782302)
    (xy -12.557599 -1.770816) (xy -12.555751 -1.760971) (xy -12.555372 -1.735705) (xy -12.56841 -1.718369)
    (xy -12.602633 -1.705576) (xy -12.665806 -1.693942) (xy -12.730485 -1.684799) (xy -12.812251 -1.661619)
    (xy -12.867445 -1.614216) (xy -12.901141 -1.536551) (xy -12.913992 -1.466385) (xy -12.917832 -1.413436)
    (xy -12.92111 -1.324386) (xy -12.923827 -1.204925) (xy -12.925983 -1.06074) (xy -12.92758 -0.89752)
    (xy -12.928618 -0.720955) (xy -12.929097 -0.536731) (xy -12.929018 -0.350538) (xy -12.928382 -0.168064)
    (xy -12.927189 0.005001) (xy -12.92544 0.162971) (xy -12.923135 0.300156) (xy -12.920275 0.410867)
    (xy -12.916861 0.489417) (xy -12.913783 0.524917) (xy -12.891221 0.617636) (xy -12.849633 0.681126)
    (xy -12.781261 0.723047) (xy -12.686326 0.749495) (xy -12.614338 0.766739) (xy -12.576001 0.784717)
    (xy -12.562796 0.807876) (xy -12.562417 0.81417) (xy -12.564344 0.826309) (xy -12.573321 0.835733)
    (xy -12.594145 0.842813) (xy -12.631614 0.84792) (xy -12.690524 0.851424) (xy -12.775671 0.853697)
    (xy -12.891853 0.855109) (xy -13.043865 0.856031) (xy -13.107459 0.856311) (xy -13.273132 0.856939)
    (xy -13.401289 0.857005) (xy -13.496746 0.856125) (xy -13.56432 0.853916) (xy -13.608826 0.849996)
    (xy -13.635081 0.843981) (xy -13.647902 0.835487) (xy -13.652106 0.824132) (xy -13.6525 0.812945)
    (xy -13.632765 0.774624) (xy -13.575177 0.750291) (xy -13.482167 0.740911) (xy -13.471118 0.740833)
    (xy -13.421921 0.727347) (xy -13.36832 0.694534) (xy -13.364183 0.691077) (xy -13.344025 0.672813)
    (xy -13.328903 0.653444) (xy -13.317742 0.626656) (xy -13.309466 0.586137) (xy -13.302997 0.525575)
    (xy -13.297261 0.438656) (xy -13.29118 0.31907) (xy -13.287497 0.241285) (xy -13.282966 0.115536)
    (xy -13.279925 -0.032723) (xy -13.278284 -0.197974) (xy -13.277951 -0.374696) (xy -13.278838 -0.557369)
    (xy -13.280853 -0.740473) (xy -13.283907 -0.918488) (xy -13.287909 -1.085894) (xy -13.292768 -1.23717)
    (xy -13.298395 -1.366797) (xy -13.304699 -1.469255) (xy -13.311591 -1.539023) (xy -13.317065 -1.566504)
    (xy -13.346842 -1.621496) (xy -13.396101 -1.658157) (xy -13.47357 -1.681475) (xy -13.534583 -1.690816)
    (xy -13.598969 -1.701158) (xy -13.632295 -1.716113) (xy -13.645791 -1.742214) (xy -13.648105 -1.756834)
    (xy -13.654292 -1.80975) (xy -13.108355 -1.807848)) (layer F.SilkS) (width 0.01))
  (fp_poly (pts (xy 13.111777 -0.856473) (xy 13.185729 -0.852777) (xy 13.240188 -0.844112) (xy 13.286568 -0.828433)
    (xy 13.336286 -0.80369) (xy 13.35124 -0.795479) (xy 13.460227 -0.712246) (xy 13.548894 -0.599108)
    (xy 13.612343 -0.465588) (xy 13.645673 -0.321207) (xy 13.64841 -0.217991) (xy 13.641916 -0.116417)
    (xy 13.070416 -0.09857) (xy 12.919443 -0.093632) (xy 12.782935 -0.088739) (xy 12.666429 -0.084123)
    (xy 12.575461 -0.080019) (xy 12.515566 -0.076659) (xy 12.492281 -0.074276) (xy 12.492205 -0.07422)
    (xy 12.489259 -0.047969) (xy 12.494653 0.008382) (xy 12.506349 0.083892) (xy 12.522309 0.167618)
    (xy 12.540497 0.248619) (xy 12.558873 0.315954) (xy 12.571257 0.35024) (xy 12.647683 0.479384)
    (xy 12.748906 0.58498) (xy 12.867767 0.662321) (xy 12.997109 0.7067) (xy 13.124415 0.713932)
    (xy 13.235148 0.694816) (xy 13.331153 0.655219) (xy 13.426599 0.588351) (xy 13.474673 0.546146)
    (xy 13.543566 0.492015) (xy 13.594617 0.474492) (xy 13.630562 0.49319) (xy 13.646083 0.521809)
    (xy 13.639217 0.557958) (xy 13.603062 0.608274) (xy 13.545197 0.666118) (xy 13.473202 0.724852)
    (xy 13.394656 0.777837) (xy 13.317138 0.818435) (xy 13.29904 0.825783) (xy 13.188361 0.856078)
    (xy 13.055038 0.875405) (xy 12.91721 0.882357) (xy 12.793016 0.87553) (xy 12.749848 0.868336)
    (xy 12.592877 0.814131) (xy 12.452407 0.724972) (xy 12.335482 0.606878) (xy 12.249148 0.465868)
    (xy 12.232677 0.426446) (xy 12.200514 0.309265) (xy 12.180467 0.168281) (xy 12.173732 0.020591)
    (xy 12.1815 -0.116706) (xy 12.190749 -0.173979) (xy 12.207976 -0.227614) (xy 12.507383 -0.227614)
    (xy 12.899904 -0.236454) (xy 13.062321 -0.241464) (xy 13.18597 -0.248266) (xy 13.269764 -0.256773)
    (xy 13.312616 -0.266898) (xy 13.316854 -0.269722) (xy 13.328157 -0.306339) (xy 13.325179 -0.369137)
    (xy 13.310538 -0.445483) (xy 13.286851 -0.522742) (xy 13.256737 -0.588282) (xy 13.247982 -0.602128)
    (xy 13.178997 -0.684321) (xy 13.103925 -0.731443) (xy 13.010248 -0.750263) (xy 12.971958 -0.751417)
    (xy 12.854075 -0.734874) (xy 12.753807 -0.683654) (xy 12.667839 -0.595372) (xy 12.600969 -0.484295)
    (xy 12.564845 -0.406954) (xy 12.535777 -0.335963) (xy 12.520536 -0.288432) (xy 12.507383 -0.227614)
    (xy 12.207976 -0.227614) (xy 12.247715 -0.351332) (xy 12.339267 -0.514509) (xy 12.45981 -0.656158)
    (xy 12.60375 -0.768928) (xy 12.672775 -0.807367) (xy 12.724626 -0.830191) (xy 12.776253 -0.844881)
    (xy 12.839077 -0.853141) (xy 12.924514 -0.856675) (xy 13.006916 -0.85725) (xy 13.111777 -0.856473)) (layer F.SilkS) (width 0.01))
  (fp_poly (pts (xy 10.615083 -0.174632) (xy 10.615497 0.031601) (xy 10.617082 0.199844) (xy 10.620347 0.334436)
    (xy 10.625805 0.439715) (xy 10.633965 0.52002) (xy 10.645339 0.57969) (xy 10.660437 0.623062)
    (xy 10.679772 0.654477) (xy 10.703853 0.678271) (xy 10.716662 0.687851) (xy 10.766006 0.707406)
    (xy 10.836459 0.718563) (xy 10.865538 0.719666) (xy 10.971981 0.702574) (xy 11.092163 0.654147)
    (xy 11.216934 0.578661) (xy 11.292416 0.520285) (xy 11.377083 0.448782) (xy 11.375444 -0.045484)
    (xy 11.374159 -0.231584) (xy 11.370759 -0.379918) (xy 11.363876 -0.495048) (xy 11.35214 -0.581535)
    (xy 11.334182 -0.643941) (xy 11.308634 -0.686826) (xy 11.274124 -0.714753) (xy 11.229286 -0.732282)
    (xy 11.172748 -0.743975) (xy 11.165416 -0.745154) (xy 11.127581 -0.770029) (xy 11.116319 -0.799258)
    (xy 11.114859 -0.818329) (xy 11.121216 -0.831447) (xy 11.141903 -0.839725) (xy 11.183433 -0.844277)
    (xy 11.252317 -0.846217) (xy 11.355068 -0.84666) (xy 11.393483 -0.846667) (xy 11.67741 -0.846667)
    (xy 11.675413 -0.185209) (xy 11.674823 0.016649) (xy 11.675169 0.180445) (xy 11.677612 0.31045)
    (xy 11.683314 0.410937) (xy 11.693437 0.486177) (xy 11.709143 0.54044) (xy 11.731593 0.577998)
    (xy 11.761948 0.603122) (xy 11.80137 0.620083) (xy 11.851022 0.633154) (xy 11.900958 0.644135)
    (xy 11.948208 0.667614) (xy 11.959166 0.696176) (xy 11.949939 0.721804) (xy 11.9161 0.738191)
    (xy 11.855419 0.749142) (xy 11.778477 0.766932) (xy 11.688528 0.798437) (xy 11.627877 0.825684)
    (xy 11.558286 0.858325) (xy 11.499703 0.881125) (xy 11.467857 0.888731) (xy 11.437624 0.868485)
    (xy 11.410856 0.809953) (xy 11.389185 0.717143) (xy 11.383782 0.682216) (xy 11.378518 0.657367)
    (xy 11.366261 0.649921) (xy 11.338553 0.661843) (xy 11.286935 0.695099) (xy 11.265182 0.709759)
    (xy 11.185593 0.759338) (xy 11.101012 0.805739) (xy 11.053516 0.828379) (xy 10.953067 0.859653)
    (xy 10.836032 0.877837) (xy 10.718313 0.881893) (xy 10.615812 0.870785) (xy 10.576034 0.85952)
    (xy 10.461589 0.794817) (xy 10.372639 0.697814) (xy 10.35378 0.66675) (xy 10.343191 0.641999)
    (xy 10.334609 0.606924) (xy 10.3277 0.556648) (xy 10.322131 0.486292) (xy 10.31757 0.39098)
    (xy 10.313683 0.265833) (xy 10.310136 0.105974) (xy 10.308166 -0.000998) (xy 10.304539 -0.192535)
    (xy 10.300405 -0.346123) (xy 10.294748 -0.466146) (xy 10.286551 -0.556985) (xy 10.2748 -0.623021)
    (xy 10.258476 -0.668639) (xy 10.236565 -0.698219) (xy 10.20805 -0.716143) (xy 10.171914 -0.726795)
    (xy 10.138471 -0.732764) (xy 10.083217 -0.745692) (xy 10.058935 -0.766363) (xy 10.054166 -0.796456)
    (xy 10.054166 -0.846667) (xy 10.334625 -0.846673) (xy 10.615083 -0.846679) (xy 10.615083 -0.174632)) (layer F.SilkS) (width 0.01))
  (fp_poly (pts (xy 4.822258 -0.857178) (xy 4.979318 -0.819131) (xy 5.10875 -0.750666) (xy 5.209044 -0.653085)
    (xy 5.278688 -0.52769) (xy 5.316169 -0.375781) (xy 5.322581 -0.275167) (xy 5.323416 -0.116417)
    (xy 4.974166 -0.10347) (xy 4.834906 -0.098654) (xy 4.689832 -0.094228) (xy 4.553183 -0.090589)
    (xy 4.439201 -0.088134) (xy 4.404903 -0.087595) (xy 4.184889 -0.084667) (xy 4.196879 0.073872)
    (xy 4.227417 0.249753) (xy 4.289291 0.405288) (xy 4.379754 0.535762) (xy 4.496058 0.636464)
    (xy 4.54025 0.662684) (xy 4.610665 0.691263) (xy 4.694118 0.705177) (xy 4.773083 0.707896)
    (xy 4.873143 0.702744) (xy 4.956381 0.683656) (xy 5.035791 0.645344) (xy 5.124368 0.582516)
    (xy 5.167799 0.547239) (xy 5.24132 0.495208) (xy 5.294947 0.479023) (xy 5.330768 0.498349)
    (xy 5.342003 0.519492) (xy 5.333996 0.551421) (xy 5.298898 0.59949) (xy 5.244615 0.656018)
    (xy 5.179051 0.713322) (xy 5.110111 0.763722) (xy 5.06146 0.792111) (xy 4.892885 0.85475)
    (xy 4.708278 0.884015) (xy 4.519096 0.878725) (xy 4.410784 0.859117) (xy 4.247592 0.799961)
    (xy 4.111751 0.708686) (xy 4.003816 0.585949) (xy 3.924343 0.432404) (xy 3.873887 0.248708)
    (xy 3.869072 0.219991) (xy 3.856087 0.017153) (xy 3.87956 -0.178222) (xy 3.897024 -0.232834)
    (xy 4.193281 -0.232834) (xy 4.493765 -0.233018) (xy 4.613745 -0.234072) (xy 4.729121 -0.236825)
    (xy 4.828067 -0.240882) (xy 4.898754 -0.245848) (xy 4.907999 -0.24686) (xy 5.021749 -0.260519)
    (xy 5.010349 -0.370975) (xy 4.980299 -0.507587) (xy 4.922895 -0.618466) (xy 4.841377 -0.699712)
    (xy 4.738984 -0.747428) (xy 4.68999 -0.756593) (xy 4.588779 -0.750854) (xy 4.489074 -0.708652)
    (xy 4.385282 -0.627618) (xy 4.384985 -0.627339) (xy 4.32709 -0.565927) (xy 4.284605 -0.500641)
    (xy 4.249548 -0.41724) (xy 4.22619 -0.343959) (xy 4.193281 -0.232834) (xy 3.897024 -0.232834)
    (xy 3.93773 -0.360117) (xy 4.028832 -0.522512) (xy 4.117386 -0.627568) (xy 4.239832 -0.734345)
    (xy 4.362845 -0.805787) (xy 4.498422 -0.847319) (xy 4.639083 -0.863508) (xy 4.822258 -0.857178)) (layer F.SilkS) (width 0.01))
  (fp_poly (pts (xy 0.898611 -0.856473) (xy 0.972563 -0.852777) (xy 1.027021 -0.844112) (xy 1.073402 -0.828433)
    (xy 1.123119 -0.80369) (xy 1.138073 -0.795479) (xy 1.24706 -0.712246) (xy 1.335727 -0.599108)
    (xy 1.399176 -0.465588) (xy 1.432506 -0.321207) (xy 1.435243 -0.217991) (xy 1.42875 -0.116417)
    (xy 0.85725 -0.09857) (xy 0.706276 -0.093632) (xy 0.569768 -0.088739) (xy 0.453262 -0.084123)
    (xy 0.362294 -0.080019) (xy 0.302399 -0.076659) (xy 0.279115 -0.074276) (xy 0.279038 -0.07422)
    (xy 0.276092 -0.047969) (xy 0.281486 0.008382) (xy 0.293182 0.083892) (xy 0.309143 0.167618)
    (xy 0.32733 0.248619) (xy 0.345706 0.315954) (xy 0.35809 0.35024) (xy 0.434516 0.479384)
    (xy 0.535739 0.58498) (xy 0.654601 0.662321) (xy 0.783942 0.7067) (xy 0.911248 0.713932)
    (xy 1.021981 0.694816) (xy 1.117986 0.655219) (xy 1.213432 0.588351) (xy 1.261506 0.546146)
    (xy 1.330399 0.492015) (xy 1.381451 0.474492) (xy 1.417396 0.49319) (xy 1.432916 0.521809)
    (xy 1.42605 0.557958) (xy 1.389895 0.608274) (xy 1.33203 0.666118) (xy 1.260035 0.724852)
    (xy 1.181489 0.777837) (xy 1.103972 0.818435) (xy 1.085873 0.825783) (xy 0.975026 0.856116)
    (xy 0.84152 0.87544) (xy 0.70352 0.882349) (xy 0.579191 0.875438) (xy 0.536442 0.868295)
    (xy 0.373685 0.813056) (xy 0.232735 0.723386) (xy 0.117381 0.603159) (xy 0.03141 0.456251)
    (xy -0.018534 0.300583) (xy -0.04369 0.095521) (xy -0.032772 -0.103749) (xy -0.002822 -0.227614)
    (xy 0.294216 -0.227614) (xy 0.686738 -0.236454) (xy 0.849154 -0.241464) (xy 0.972803 -0.248266)
    (xy 1.056597 -0.256773) (xy 1.099449 -0.266898) (xy 1.103687 -0.269722) (xy 1.11499 -0.306339)
    (xy 1.112012 -0.369137) (xy 1.097371 -0.445483) (xy 1.073685 -0.522742) (xy 1.04357 -0.588282)
    (xy 1.034815 -0.602128) (xy 0.96583 -0.684321) (xy 0.890758 -0.731443) (xy 0.797082 -0.750263)
    (xy 0.758791 -0.751417) (xy 0.640908 -0.734874) (xy 0.54064 -0.683654) (xy 0.454672 -0.595372)
    (xy 0.387802 -0.484295) (xy 0.351678 -0.406954) (xy 0.322611 -0.335963) (xy 0.307369 -0.288432)
    (xy 0.294216 -0.227614) (xy -0.002822 -0.227614) (xy 0.01263 -0.291513) (xy 0.090931 -0.462057)
    (xy 0.200544 -0.609667) (xy 0.247044 -0.6558) (xy 0.345818 -0.739455) (xy 0.435277 -0.79689)
    (xy 0.527714 -0.832633) (xy 0.635424 -0.851215) (xy 0.770701 -0.857167) (xy 0.79375 -0.85725)
    (xy 0.898611 -0.856473)) (layer F.SilkS) (width 0.01))
  (fp_poly (pts (xy -1.229328 -1.812228) (xy -0.977753 -1.749213) (xy -0.977233 -1.749046) (xy -0.879752 -1.718798)
    (xy -0.794398 -1.69415) (xy -0.730701 -1.677736) (xy -0.699039 -1.672167) (xy -0.679265 -1.670516)
    (xy -0.664123 -1.6615) (xy -0.651823 -1.639027) (xy -0.640578 -1.597002) (xy -0.628598 -1.529333)
    (xy -0.614096 -1.429925) (xy -0.601892 -1.341177) (xy -0.585453 -1.211388) (xy -0.577286 -1.117732)
    (xy -0.577857 -1.054734) (xy -0.587633 -1.01692) (xy -0.60708 -0.998816) (xy -0.631399 -0.994834)
    (xy -0.661336 -1.008402) (xy -0.69104 -1.053081) (xy -0.716568 -1.112712) (xy -0.807333 -1.300001)
    (xy -0.922768 -1.452958) (xy -1.062121 -1.571099) (xy -1.224639 -1.65394) (xy -1.40957 -1.700999)
    (xy -1.61616 -1.711792) (xy -1.647329 -1.71035) (xy -1.755627 -1.699949) (xy -1.843108 -1.679743)
    (xy -1.931054 -1.644384) (xy -1.95435 -1.63317) (xy -2.098222 -1.54094) (xy -2.231992 -1.414)
    (xy -2.350194 -1.259718) (xy -2.447367 -1.085461) (xy -2.518045 -0.898599) (xy -2.529099 -0.858095)
    (xy -2.548306 -0.7467) (xy -2.558469 -0.609714) (xy -2.559586 -0.462902) (xy -2.551655 -0.322029)
    (xy -2.534672 -0.20286) (xy -2.529207 -0.179073) (xy -2.465555 0.008495) (xy -2.373693 0.190274)
    (xy -2.25972 0.357524) (xy -2.129738 0.501507) (xy -1.989844 0.613482) (xy -1.96534 0.628812)
    (xy -1.791489 0.709169) (xy -1.606239 0.751481) (xy -1.416554 0.755845) (xy -1.229396 0.72236)
    (xy -1.051729 0.651123) (xy -0.989542 0.615058) (xy -0.889 0.551265) (xy -0.889 0.170287)
    (xy -0.889173 0.03473) (xy -0.890182 -0.064749) (xy -0.892766 -0.134405) (xy -0.897664 -0.180493)
    (xy -0.905613 -0.209268) (xy -0.917351 -0.226985) (xy -0.933618 -0.239899) (xy -0.937732 -0.242621)
    (xy -0.993772 -0.268849) (xy -1.05944 -0.286837) (xy -1.142705 -0.30152) (xy -1.19266 -0.313801)
    (xy -1.217804 -0.327923) (xy -1.226635 -0.348129) (xy -1.227667 -0.37082) (xy -1.227667 -0.423334)
    (xy -0.338667 -0.423334) (xy -0.338667 -0.375161) (xy -0.350613 -0.337411) (xy -0.391806 -0.304039)
    (xy -0.428625 -0.285203) (xy -0.518584 -0.243417) (xy -0.524527 0.084666) (xy -0.525709 0.23366)
    (xy -0.522997 0.343731) (xy -0.516218 0.418122) (xy -0.505199 0.460081) (xy -0.504459 0.461527)
    (xy -0.491154 0.496852) (xy -0.501804 0.525325) (xy -0.540849 0.561414) (xy -0.623301 0.618599)
    (xy -0.73306 0.680436) (xy -0.85662 0.740326) (xy -0.980478 0.791672) (xy -1.08008 0.824855)
    (xy -1.195715 0.849394) (xy -1.337297 0.867494) (xy -1.490355 0.878363) (xy -1.640422 0.88121)
    (xy -1.773026 0.875243) (xy -1.8415 0.866528) (xy -2.076752 0.806042) (xy -2.287486 0.711429)
    (xy -2.475317 0.581865) (xy -2.569115 0.495744) (xy -2.716734 0.321901) (xy -2.825239 0.136073)
    (xy -2.896737 -0.066516) (xy -2.933333 -0.290646) (xy -2.93665 -0.338489) (xy -2.930815 -0.585868)
    (xy -2.887037 -0.8222) (xy -2.807503 -1.043657) (xy -2.694398 -1.246411) (xy -2.549909 -1.426633)
    (xy -2.376223 -1.580496) (xy -2.175526 -1.704172) (xy -2.149333 -1.716993) (xy -1.943077 -1.792601)
    (xy -1.71739 -1.833774) (xy -1.477674 -1.840366) (xy -1.229328 -1.812228)) (layer F.SilkS) (width 0.01))
  (fp_poly (pts (xy 9.615917 -0.871404) (xy 9.617867 -0.869811) (xy 9.625292 -0.860364) (xy 9.631577 -0.84314)
    (xy 9.636817 -0.814833) (xy 9.641111 -0.772131) (xy 9.644555 -0.711727) (xy 9.647246 -0.630312)
    (xy 9.649282 -0.524575) (xy 9.65076 -0.39121) (xy 9.651776 -0.226906) (xy 9.652427 -0.028355)
    (xy 9.652811 0.207753) (xy 9.652921 0.325383) (xy 9.653364 0.600067) (xy 9.654309 0.835483)
    (xy 9.655885 1.034691) (xy 9.658219 1.200755) (xy 9.66144 1.336737) (xy 9.665674 1.4457)
    (xy 9.671049 1.530706) (xy 9.677693 1.594817) (xy 9.685734 1.641096) (xy 9.6953 1.672605)
    (xy 9.706517 1.692408) (xy 9.710076 1.696376) (xy 9.742045 1.711388) (xy 9.799765 1.726025)
    (xy 9.834315 1.731905) (xy 9.898569 1.744375) (xy 9.931497 1.762127) (xy 9.944099 1.791365)
    (xy 9.944513 1.794064) (xy 9.951277 1.8415) (xy 9.056389 1.8415) (xy 9.063152 1.794064)
    (xy 9.074721 1.763766) (xy 9.105828 1.745398) (xy 9.167472 1.732755) (xy 9.17335 1.731905)
    (xy 9.237733 1.719481) (xy 9.284619 1.704525) (xy 9.296704 1.697262) (xy 9.317517 1.661363)
    (xy 9.333375 1.598192) (xy 9.344646 1.504298) (xy 9.351695 1.376231) (xy 9.354891 1.210539)
    (xy 9.355161 1.147861) (xy 9.355666 0.782306) (xy 9.268233 0.826911) (xy 9.150009 0.867383)
    (xy 9.009769 0.884245) (xy 8.860028 0.878373) (xy 8.713304 0.850641) (xy 8.582114 0.801926)
    (xy 8.535022 0.775648) (xy 8.413813 0.676503) (xy 8.308613 0.545922) (xy 8.22627 0.393799)
    (xy 8.182017 0.265427) (xy 8.152204 0.075968) (xy 8.15851 -0.088788) (xy 8.482892 -0.088788)
    (xy 8.484308 0.056085) (xy 8.497685 0.19082) (xy 8.516112 0.276942) (xy 8.578409 0.423439)
    (xy 8.671529 0.55081) (xy 8.788733 0.651532) (xy 8.905832 0.711923) (xy 8.991768 0.729953)
    (xy 9.096796 0.732561) (xy 9.201087 0.720627) (xy 9.284682 0.695094) (xy 9.345083 0.666111)
    (xy 9.345083 -0.500603) (xy 9.288271 -0.586404) (xy 9.217243 -0.664747) (xy 9.138713 -0.717103)
    (xy 9.016578 -0.755633) (xy 8.897778 -0.754184) (xy 8.786208 -0.715107) (xy 8.685764 -0.640753)
    (xy 8.600341 -0.533472) (xy 8.533835 -0.395615) (xy 8.515957 -0.341291) (xy 8.49344 -0.226885)
    (xy 8.482892 -0.088788) (xy 8.15851 -0.088788) (xy 8.159373 -0.111324) (xy 8.201085 -0.290672)
    (xy 8.2749 -0.456302) (xy 8.378379 -0.60244) (xy 8.509085 -0.723308) (xy 8.630932 -0.797595)
    (xy 8.687634 -0.823787) (xy 8.737811 -0.84097) (xy 8.792927 -0.851017) (xy 8.864441 -0.8558)
    (xy 8.963817 -0.857193) (xy 8.995833 -0.857231) (xy 9.107063 -0.856144) (xy 9.18663 -0.851901)
    (xy 9.24517 -0.843001) (xy 9.29332 -0.827943) (xy 9.333184 -0.809606) (xy 9.390934 -0.781993)
    (xy 9.433147 -0.764814) (xy 9.444607 -0.762001) (xy 9.468281 -0.776467) (xy 9.506902 -0.81279)
    (xy 9.522916 -0.830069) (xy 9.5636 -0.871351) (xy 9.590717 -0.883504) (xy 9.615917 -0.871404)) (layer F.SilkS) (width 0.01))
)
