PCBNEW-LibModule-V1  2019-09-25 01:07:50
# encoding utf-8
Units mm
$INDEX
874380243
$EndINDEX
$MODULE 874380243
Po 0 0 0 15 5d8aafd6 00000000 ~~
Li 874380243
Cd 87438-0243
Kw Connector
Sc 0
At SMD
AR 
Op 0 0 0
T0 0.000 -0 1.27 1.27 0 0.254 N V 21 N "J**"
T1 0.000 -0 1.27 1.27 0 0.254 N I 21 N "874380243"
DS -4.05 -2.15 1.7 -2.15 0.2 24
DS 1.7 -2.15 1.7 2.15 0.2 24
DS 1.7 2.15 -4.05 2.15 0.2 24
DS -4.05 2.15 -4.05 -2.15 0.2 24
DS -5.05 -3.15 5.05 -3.15 0.1 24
DS 5.05 -3.15 5.05 3.15 0.1 24
DS 5.05 3.15 -5.05 3.15 0.1 24
DS -5.05 3.15 -5.05 -3.15 0.1 24
DS 1.7 -2.15 -4.05 -2.15 0.1 21
DS -4.05 -2.15 -4.05 2.15 0.1 21
DS -4.05 2.15 1.4 2.15 0.1 21
DS 1.4 2.15 1.7 2.15 0.1 21
$PAD
Po 2.725 -0.75
Sh "1" R 0.850 2.650 0 0 900
At SMD N 00888000
Ne 0 ""
$EndPAD
$PAD
Po -1.175 -0.75
Sh "2" R 0.850 3.550 0 0 900
At SMD N 00888000
Ne 0 ""
$EndPAD
$PAD
Po 2.725 0.75
Sh "3" R 0.850 2.650 0 0 900
At SMD N 00888000
Ne 0 ""
$EndPAD
$PAD
Po -1.175 0.75
Sh "4" R 0.850 3.550 0 0 900
At SMD N 00888000
Ne 0 ""
$EndPAD
$EndMODULE 874380243
$EndLIBRARY
