(module Molex_Pico-Clasp_501190-2027_2x10_1MP_P1mm_Vertical (layer F.Cu) (tedit 5D8A8709)
  (descr 501190-2027-1)
  (tags Connector)
  (attr smd)
  (fp_text reference J** (at 0 0.225) (layer F.SilkS)
    (effects (font (size 1.27 1.27) (thickness 0.254)))
  )
  (fp_text value Molex_Pico-Clasp_501190-2027_2x10_1MP_P1mm_Vertical (at 0 0.225) (layer F.SilkS) hide
    (effects (font (size 1.27 1.27) (thickness 0.254)))
  )
  (fp_text user %R (at 0 0.225) (layer F.Fab)
    (effects (font (size 1.27 1.27) (thickness 0.254)))
  )
  (fp_line (start -6.15 2.8) (end 6.15 2.8) (layer F.Fab) (width 0.2))
  (fp_line (start 6.15 2.8) (end 6.15 -2.8) (layer F.Fab) (width 0.2))
  (fp_line (start 6.15 -2.8) (end -6.15 -2.8) (layer F.Fab) (width 0.2))
  (fp_line (start -6.15 -2.8) (end -6.15 2.8) (layer F.Fab) (width 0.2))
  (fp_line (start -2.45 2.8) (end 2.45 2.8) (layer F.Fab) (width 0.2))
  (fp_line (start 2.45 2.8) (end 2.45 3.8) (layer F.Fab) (width 0.2))
  (fp_line (start 2.45 3.8) (end -2.45 3.8) (layer F.Fab) (width 0.2))
  (fp_line (start -2.45 3.8) (end -2.45 2.8) (layer F.Fab) (width 0.2))
  (fp_line (start -7.25 -4.6) (end 7.25 -4.6) (layer F.CrtYd) (width 0.1))
  (fp_line (start 7.25 -4.6) (end 7.25 5.05) (layer F.CrtYd) (width 0.1))
  (fp_line (start 7.25 5.05) (end -7.25 5.05) (layer F.CrtYd) (width 0.1))
  (fp_line (start -7.25 5.05) (end -7.25 -4.6) (layer F.CrtYd) (width 0.1))
  (fp_line (start -6.15 -2) (end -6.15 -2) (layer F.SilkS) (width 0.1))
  (fp_line (start -6.15 -2) (end -6.15 -2.8) (layer F.SilkS) (width 0.1))
  (fp_line (start -6.15 -2.8) (end -6.15 -2.8) (layer F.SilkS) (width 0.1))
  (fp_line (start -6.15 -2.8) (end -6.15 -2) (layer F.SilkS) (width 0.1))
  (fp_line (start -6.15 -2.8) (end -5.5 -2.8) (layer F.SilkS) (width 0.1))
  (fp_line (start -5.5 -2.8) (end -5.5 -2.8) (layer F.SilkS) (width 0.1))
  (fp_line (start -5.5 -2.8) (end -6.15 -2.8) (layer F.SilkS) (width 0.1))
  (fp_line (start -6.15 -2.8) (end -6.15 -2.8) (layer F.SilkS) (width 0.1))
  (fp_line (start -6.15 1.25) (end -6.15 1.25) (layer F.SilkS) (width 0.1))
  (fp_line (start -6.15 1.25) (end -6.15 2.75) (layer F.SilkS) (width 0.1))
  (fp_line (start -6.15 2.75) (end -6.15 2.75) (layer F.SilkS) (width 0.1))
  (fp_line (start -6.15 2.75) (end -6.15 1.25) (layer F.SilkS) (width 0.1))
  (fp_line (start -6.15 2.8) (end -5.5 2.8) (layer F.SilkS) (width 0.1))
  (fp_line (start -5.5 2.8) (end -5.5 2.8) (layer F.SilkS) (width 0.1))
  (fp_line (start -5.5 2.8) (end -6.15 2.8) (layer F.SilkS) (width 0.1))
  (fp_line (start -6.15 2.8) (end -6.15 2.8) (layer F.SilkS) (width 0.1))
  (fp_line (start 5.5 2.8) (end 6.15 2.8) (layer F.SilkS) (width 0.1))
  (fp_line (start 6.15 2.8) (end 6.15 2.8) (layer F.SilkS) (width 0.1))
  (fp_line (start 6.15 2.8) (end 5.5 2.8) (layer F.SilkS) (width 0.1))
  (fp_line (start 5.5 2.8) (end 5.5 2.8) (layer F.SilkS) (width 0.1))
  (fp_line (start 6.15 2.8) (end 6.15 2.8) (layer F.SilkS) (width 0.1))
  (fp_line (start 6.15 2.8) (end 6.15 1) (layer F.SilkS) (width 0.1))
  (fp_line (start 6.15 1) (end 6.15 1) (layer F.SilkS) (width 0.1))
  (fp_line (start 6.15 1) (end 6.15 2.8) (layer F.SilkS) (width 0.1))
  (fp_line (start 5.5 -2.8) (end 6.15 -2.8) (layer F.SilkS) (width 0.1))
  (fp_line (start 6.15 -2.8) (end 6.15 -2.8) (layer F.SilkS) (width 0.1))
  (fp_line (start 6.15 -2.8) (end 5.5 -2.8) (layer F.SilkS) (width 0.1))
  (fp_line (start 5.5 -2.8) (end 5.5 -2.8) (layer F.SilkS) (width 0.1))
  (fp_line (start 6.15 -2.8) (end 6.15 -2.8) (layer F.SilkS) (width 0.1))
  (fp_line (start 6.15 -2.8) (end 6.15 -2) (layer F.SilkS) (width 0.1))
  (fp_line (start 6.15 -2) (end 6.15 -2) (layer F.SilkS) (width 0.1))
  (fp_line (start 6.15 -2) (end 6.15 -2.8) (layer F.SilkS) (width 0.1))
  (fp_line (start -4.6 4) (end -4.6 4) (layer F.SilkS) (width 0.2))
  (fp_line (start -4.5 4) (end -4.5 4) (layer F.SilkS) (width 0.2))
  (fp_line (start -4.6 4) (end -4.6 4) (layer F.SilkS) (width 0.2))
  (fp_arc (start -4.55 4) (end -4.6 4) (angle -180) (layer F.SilkS) (width 0.2))
  (fp_arc (start -4.55 4) (end -4.5 4) (angle -180) (layer F.SilkS) (width 0.2))
  (fp_arc (start -4.55 4) (end -4.6 4) (angle -180) (layer F.SilkS) (width 0.2))
  (pad 1 smd rect (at -4.5 2.8) (size 0.6 1.6) (layers F.Cu F.Paste F.Mask))
  (pad 2 smd rect (at -4.5 -2.8) (size 0.6 1.6) (layers F.Cu F.Paste F.Mask))
  (pad 3 smd rect (at -3.5 2.8) (size 0.6 1.6) (layers F.Cu F.Paste F.Mask))
  (pad 4 smd rect (at -3.5 -2.8) (size 0.6 1.6) (layers F.Cu F.Paste F.Mask))
  (pad 5 smd rect (at -2.5 2.8) (size 0.6 1.6) (layers F.Cu F.Paste F.Mask))
  (pad 6 smd rect (at -2.5 -2.8) (size 0.6 1.6) (layers F.Cu F.Paste F.Mask))
  (pad 7 smd rect (at -1.5 2.8) (size 0.6 1.6) (layers F.Cu F.Paste F.Mask))
  (pad 8 smd rect (at -1.5 -2.8) (size 0.6 1.6) (layers F.Cu F.Paste F.Mask))
  (pad 9 smd rect (at -0.5 2.8) (size 0.6 1.6) (layers F.Cu F.Paste F.Mask))
  (pad 10 smd rect (at -0.5 -2.8) (size 0.6 1.6) (layers F.Cu F.Paste F.Mask))
  (pad 11 smd rect (at 0.5 2.8) (size 0.6 1.6) (layers F.Cu F.Paste F.Mask))
  (pad 12 smd rect (at 0.5 -2.8) (size 0.6 1.6) (layers F.Cu F.Paste F.Mask))
  (pad 13 smd rect (at 1.5 2.8) (size 0.6 1.6) (layers F.Cu F.Paste F.Mask))
  (pad 14 smd rect (at 1.5 -2.8) (size 0.6 1.6) (layers F.Cu F.Paste F.Mask))
  (pad 15 smd rect (at 2.5 2.8) (size 0.6 1.6) (layers F.Cu F.Paste F.Mask))
  (pad 16 smd rect (at 2.5 -2.8) (size 0.6 1.6) (layers F.Cu F.Paste F.Mask))
  (pad 17 smd rect (at 3.5 2.8) (size 0.6 1.6) (layers F.Cu F.Paste F.Mask))
  (pad 18 smd rect (at 3.5 -2.8) (size 0.6 1.6) (layers F.Cu F.Paste F.Mask))
  (pad 19 smd rect (at 4.5 2.8) (size 0.6 1.6) (layers F.Cu F.Paste F.Mask))
  (pad 20 smd rect (at 4.5 -2.8) (size 0.6 1.6) (layers F.Cu F.Paste F.Mask))
  (pad MP1 smd rect (at -5.825 -0.4) (size 0.85 1.8) (layers F.Cu F.Paste F.Mask))
  (pad MP2 smd rect (at 5.825 -0.4) (size 0.85 1.8) (layers F.Cu F.Paste F.Mask))
  (model ${KROPOTEX3DMOD}/Molex_Pico-Clasp_501190-2027_2x10_1MP_P1mm_Vertical.stp
    (at (xyz 0 0 0))
    (scale (xyz 1 1 1))
    (rotate (xyz -90 0 0))
  )
  (model /home/troupal/Documents/Électronique/Logiciels/KiCAD/Librairies/Misc_KropoteX.3dshapes/Molex_Pico-Clasp_501190-2027_2x10_1MP_P1mm_Vertical.stp
    (at (xyz 0 0 0))
    (scale (xyz 1 1 1))
    (rotate (xyz -90 0 0))
  )
)
