(module Molex_Pico-Spox_87438-0343_1x03_1MP_P1.50mm_Horizontal (layer F.Cu) (tedit 5D8B4E57)
  (descr 87438-0343)
  (tags Connector)
  (attr smd)
  (fp_text reference J** (at 0 -4.826) (layer F.SilkS)
    (effects (font (size 1.27 1.27) (thickness 0.254)))
  )
  (fp_text value 874380343 (at 0 5.08) (layer F.SilkS) hide
    (effects (font (size 1.27 1.27) (thickness 0.254)))
  )
  (fp_text user %R (at 0 -4.826) (layer F.Fab)
    (effects (font (size 1.27 1.27) (thickness 0.254)))
  )
  (fp_line (start -4.336 -2.9) (end 1.414 -2.9) (layer F.Fab) (width 0.2))
  (fp_line (start 1.414 -2.9) (end 1.414 2.9) (layer F.Fab) (width 0.2))
  (fp_line (start 1.414 2.9) (end -4.336 2.9) (layer F.Fab) (width 0.2))
  (fp_line (start -4.336 2.9) (end -4.336 -2.9) (layer F.Fab) (width 0.2))
  (fp_line (start -5.336 -3.9) (end 5.336 -3.9) (layer F.CrtYd) (width 0.1))
  (fp_line (start 5.336 -3.9) (end 5.336 3.9) (layer F.CrtYd) (width 0.1))
  (fp_line (start 5.336 3.9) (end -5.336 3.9) (layer F.CrtYd) (width 0.1))
  (fp_line (start -5.336 3.9) (end -5.336 -3.9) (layer F.CrtYd) (width 0.1))
  (fp_line (start 1.414 -2.9) (end -4.336 -2.9) (layer F.SilkS) (width 0.2))
  (fp_line (start -4.336 -2.9) (end -4.336 2.9) (layer F.SilkS) (width 0.2))
  (fp_line (start -4.336 2.9) (end 1.414 2.9) (layer F.SilkS) (width 0.2))
  (fp_line (start 4.275 -1.527) (end 4.275 -1.527) (layer F.SilkS) (width 0.061))
  (fp_line (start 4.336 -1.527) (end 4.336 -1.527) (layer F.SilkS) (width 0.061))
  (fp_arc (start 4.3055 -1.5265) (end 4.275 -1.527) (angle 180) (layer F.SilkS) (width 0.061))
  (fp_arc (start 4.3055 -1.5265) (end 4.336 -1.527) (angle 180) (layer F.SilkS) (width 0.061))
  (pad 1 smd rect (at 2.264 -1.5 90) (size 0.85 2.65) (layers F.Cu F.Paste F.Mask))
  (pad 2 smd rect (at 2.264 0 90) (size 0.85 2.65) (layers F.Cu F.Paste F.Mask))
  (pad 3 smd rect (at 2.264 1.5 90) (size 0.85 2.65) (layers F.Cu F.Paste F.Mask))
  (pad 1 smd rect (at -1.636 -1.5 90) (size 0.85 3.55) (layers F.Cu F.Paste F.Mask))
  (pad 2 smd rect (at -1.636 0 90) (size 0.85 3.55) (layers F.Cu F.Paste F.Mask))
  (pad 3 smd rect (at -1.636 1.5 90) (size 0.85 3.55) (layers F.Cu F.Paste F.Mask))
  (model :KROPOTEXMOD3D:87438-0342.stp
    (offset (xyz -2 0 2))
    (scale (xyz 1 1 1))
    (rotate (xyz 0 -180 -90))
  )
  (model ${KROPOTEX3DMOD}/Molex_Pico-Spox_87438-0343-_1x02_1MP_P1.50mm_Horizontal.stp
    (offset (xyz -2 0 2))
    (scale (xyz 1 1 1))
    (rotate (xyz 180 0 90))
  )
)
