PCBNEW-LibModule-V1  2019-09-24 09:46:07
# encoding utf-8
Units mm
$INDEX
S3B-XH-SM4-TB
$EndINDEX
$MODULE S3B-XH-SM4-TB
Po 0 0 0 15 5d89d7cf 00000000 ~~
Li S3B-XH-SM4-TB
Cd S3B-XH-SM4-TB
Kw Connector
Sc 0
At SMD
AR 
Op 0 0 0
T0 -0.467 6.019 1.27 1.27 0 0.254 N V 21 N "J**"
T1 -0.467 6.019 1.27 1.27 0 0.254 N I 21 N "S3B-XH-SM4-TB"
DS -6.25 1.407 6.25 1.407 0.2 24
DS 6.25 1.407 6.25 8.407 0.2 24
DS 6.25 8.407 -6.25 8.407 0.2 24
DS -6.25 8.407 -6.25 1.407 0.2 24
DS -4.5 8.407 4.5 8.407 0.2 21
DS -6.25 1.407 -6.25 4.6 0.2 21
DS -6.25 1.407 -3.388 1.407 0.2 21
DS 6.25 1.407 3.391 1.407 0.2 21
DS 6.25 1.407 6.25 4.6 0.2 21
$PAD
Po -2.5 0
Sh "1" R 1.3 4.5 0 0 0
At SMD N 00888000
Ne 0 ""
$EndPAD
$PAD
Po 0 0
Sh "2" R 1.3 4.5 0 0 0
At SMD N 00888000
Ne 0 ""
$EndPAD
$PAD
Po 2.5 0
Sh "3" R 1.3 4.5 0 0 0
At SMD N 00888000
Ne 0 ""
$EndPAD
$PAD
Po -5.7 6.8
Sh "4" R 1.8 3.9 0 0 0
At SMD N 00888000
Ne 0 ""
$EndPAD
$PAD
Po 5.7 6.8
Sh "5" R 1.8 3.9 0 0 0
At SMD N 00888000
Ne 0 ""
$EndPAD
$EndMODULE S3B-XH-SM4-TB
$EndLIBRARY
