(module LOGO (layer F.Cu)
  (at 0 0)
 (fp_text reference "G***" (at 0 0) (layer F.SilkS) hide
  (effects (font (thickness 0.3)))
  )
  (fp_text value "LOGO" (at 0.75 0) (layer F.SilkS) hide
  (effects (font (thickness 0.3)))
  )
  (fp_poly (pts (xy 0.468104 -0.807233) (xy 0.528665 -0.791995) (xy 0.542436 -0.786100) (xy 0.587593 -0.755009) (xy 0.617346 -0.716096) (xy 0.631675 -0.674150) (xy 0.630557 -0.633959) (xy 0.613971 -0.600309)
     (xy 0.581894 -0.577990) (xy 0.543410 -0.571500) (xy 0.498456 -0.583866) (xy 0.457789 -0.619802) (xy 0.431056 -0.661859) (xy 0.406157 -0.701815) (xy 0.380488 -0.720443) (xy 0.348289 -0.721321)
     (xy 0.338698 -0.719225) (xy 0.325313 -0.715410) (xy 0.313892 -0.709926) (xy 0.304267 -0.700854) (xy 0.296267 -0.686272) (xy 0.289725 -0.664262) (xy 0.284470 -0.632903) (xy 0.280334 -0.590275)
     (xy 0.277147 -0.534458) (xy 0.274741 -0.463533) (xy 0.272945 -0.375579) (xy 0.271592 -0.268677) (xy 0.270511 -0.140906) (xy 0.269534 0.009654) (xy 0.269175 0.069809) (xy 0.268281 0.227368)
     (xy 0.267453 0.361420) (xy 0.266447 0.473858) (xy 0.265022 0.566574) (xy 0.262937 0.641460) (xy 0.259949 0.700407) (xy 0.255818 0.745308) (xy 0.250301 0.778054) (xy 0.243156 0.800537)
     (xy 0.234143 0.814650) (xy 0.223018 0.822284) (xy 0.209541 0.825331) (xy 0.193469 0.825683) (xy 0.174561 0.825233) (xy 0.172656 0.825217) (xy 0.129658 0.819308) (xy 0.095119 0.804827)
     (xy 0.092613 0.802992) (xy 0.080806 0.788021) (xy 0.057472 0.753310) (xy 0.023949 0.701020) (xy -0.018425 0.633313) (xy -0.068309 0.552349) (xy -0.124368 0.460290) (xy -0.185261 0.359297)
     (xy -0.249651 0.251530) (xy -0.267048 0.222250) (xy -0.331645 0.113552) (xy -0.392541 0.011367) (xy -0.448472 -0.082198) (xy -0.498169 -0.165038) (xy -0.540365 -0.235048) (xy -0.573794 -0.290120)
     (xy -0.597188 -0.328149) (xy -0.609281 -0.347028) (xy -0.610487 -0.348616) (xy -0.613810 -0.339796) (xy -0.616650 -0.307107) (xy -0.618964 -0.252077) (xy -0.620705 -0.176232) (xy -0.621829 -0.081100)
     (xy -0.622291 0.031793) (xy -0.622300 0.051768) (xy -0.622838 0.204395) (xy -0.624664 0.333760) (xy -0.628099 0.441983) (xy -0.633462 0.531182) (xy -0.641074 0.603477) (xy -0.651254 0.660988)
     (xy -0.664322 0.705833) (xy -0.680599 0.740133) (xy -0.700404 0.766006) (xy -0.724056 0.785572) (xy -0.734008 0.791730) (xy -0.778829 0.808315) (xy -0.838436 0.818288) (xy -0.902895 0.820873)
     (xy -0.962271 0.815299) (xy -0.981085 0.810978) (xy -1.038852 0.785186) (xy -1.080526 0.746850) (xy -1.102355 0.700019) (xy -1.104706 0.677529) (xy -1.101152 0.633549) (xy -1.088040 0.606742)
     (xy -1.061040 0.589422) (xy -1.053293 0.586307) (xy -1.009111 0.582062) (xy -0.965613 0.599793) (xy -0.928475 0.636572) (xy -0.916055 0.657155) (xy -0.887954 0.703731) (xy -0.860915 0.728248)
     (xy -0.831200 0.733592) (xy -0.819682 0.731518) (xy -0.805577 0.727525) (xy -0.793709 0.721837) (xy -0.783870 0.712372) (xy -0.775851 0.697050) (xy -0.769444 0.673789) (xy -0.764442 0.640511)
     (xy -0.760637 0.595133) (xy -0.757820 0.535575) (xy -0.755783 0.459756) (xy -0.754320 0.365597) (xy -0.753220 0.251015) (xy -0.752277 0.113931) (xy -0.751905 0.053544) (xy -0.748159 -0.559661)
     (xy -0.776821 -0.610658) (xy -0.813928 -0.659264) (xy -0.860143 -0.694207) (xy -0.908522 -0.710578) (xy -0.919075 -0.711201) (xy -0.942887 -0.714993) (xy -0.951626 -0.731600) (xy -0.952500 -0.749300)
     (xy -0.952500 -0.787400) (xy -0.784225 -0.786940) (xy -0.615950 -0.786479) (xy -0.292100 -0.239530) (xy -0.208060 -0.097650) (xy -0.135978 0.023842) (xy -0.074903 0.126433) (xy -0.023882 0.211609)
     (xy 0.018036 0.280857) (xy 0.051803 0.335663) (xy 0.078371 0.377514) (xy 0.098692 0.407896) (xy 0.113718 0.428295) (xy 0.124401 0.440198) (xy 0.131693 0.445093) (xy 0.136544 0.444464)
     (xy 0.139909 0.439799) (xy 0.141112 0.436981) (xy 0.143278 0.419158) (xy 0.145331 0.378881) (xy 0.147209 0.319097) (xy 0.148850 0.242750) (xy 0.150193 0.152786) (xy 0.151175 0.052152)
     (xy 0.151735 -0.056207) (xy 0.151772 -0.069850) (xy 0.152487 -0.219687) (xy 0.154096 -0.346271) (xy 0.156957 -0.451743) (xy 0.161432 -0.538245) (xy 0.167880 -0.607918) (xy 0.176660 -0.662903)
     (xy 0.188133 -0.705341) (xy 0.202659 -0.737375) (xy 0.220598 -0.761145) (xy 0.242310 -0.778793) (xy 0.268153 -0.792459) (xy 0.273629 -0.794811) (xy 0.329762 -0.808992) (xy 0.398195 -0.813015)
     (xy 0.468104 -0.807233) )(layer F.SilkS) (width  0.010000)
  )
  (fp_poly (pts (xy 0.897188 0.533788) (xy 0.971593 0.535344) (xy 1.026051 0.538654) (xy 1.063286 0.544305) (xy 1.086022 0.552882) (xy 1.096983 0.564973) (xy 1.098892 0.581163) (xy 1.095836 0.597065)
     (xy 1.088743 0.617072) (xy 1.077176 0.632391) (xy 1.058002 0.643637) (xy 1.028092 0.651427) (xy 0.984313 0.656379) (xy 0.923535 0.659110) (xy 0.842626 0.660235) (xy 0.774414 0.660400)
     (xy 0.675634 0.659864) (xy 0.600419 0.658190) (xy 0.546956 0.655279) (xy 0.513430 0.651029) (xy 0.498029 0.645342) (xy 0.497840 0.645160) (xy 0.484134 0.622438) (xy 0.489426 0.596029)
     (xy 0.508921 0.566862) (xy 0.535243 0.533400) (xy 0.800114 0.533400) (xy 0.897188 0.533788) )(layer F.SilkS) (width  0.010000)
  )
  (fp_poly (pts (xy 0.875317 -0.311958) (xy 0.948360 -0.285816) (xy 1.008238 -0.240581) (xy 1.021950 -0.225625) (xy 1.068120 -0.155483) (xy 1.095280 -0.073631) (xy 1.104605 0.023573) (xy 1.104621 0.030837)
     (xy 1.093798 0.125082) (xy 1.062949 0.207539) (xy 1.013577 0.275496) (xy 0.947183 0.326240) (xy 0.938358 0.330935) (xy 0.887379 0.348866) (xy 0.823865 0.360152) (xy 0.759560 0.363475)
     (xy 0.706207 0.357516) (xy 0.704850 0.357167) (xy 0.625955 0.324261) (xy 0.561453 0.272757) (xy 0.512893 0.205970) (xy 0.481831 0.127220) (xy 0.469816 0.039823) (xy 0.473305 0.002138)
     (xy 0.623568 0.002138) (xy 0.632895 0.097810) (xy 0.636654 0.116849) (xy 0.652469 0.167734) (xy 0.679324 0.210253) (xy 0.704833 0.238125) (xy 0.755327 0.278155) (xy 0.803237 0.293359)
     (xy 0.850301 0.283938) (xy 0.887785 0.259422) (xy 0.922468 0.217271) (xy 0.943246 0.159552) (xy 0.950789 0.083705) (xy 0.949019 0.025053) (xy 0.935484 -0.066837) (xy 0.909091 -0.142579)
     (xy 0.871132 -0.200034) (xy 0.822898 -0.237060) (xy 0.783208 -0.249760) (xy 0.752097 -0.251950) (xy 0.727847 -0.243383) (xy 0.699987 -0.219866) (xy 0.694173 -0.214114) (xy 0.654861 -0.157583)
     (xy 0.631108 -0.084246) (xy 0.623568 0.002138) (xy 0.473305 0.002138) (xy 0.478403 -0.052905) (xy 0.490862 -0.100091) (xy 0.529454 -0.183031) (xy 0.584751 -0.247794) (xy 0.654710 -0.292857)
     (xy 0.737287 -0.316696) (xy 0.786121 -0.320206) (xy 0.875317 -0.311958) )(layer F.SilkS) (width  0.010000)
  )
)
