(module LOGO (layer F.Cu)
  (at 0 0)
 (fp_text reference "G***" (at 0 0) (layer F.SilkS) hide
  (effects (font (thickness 0.3)))
  )
  (fp_text value "LOGO" (at 0.75 0) (layer F.SilkS) hide
  (effects (font (thickness 0.3)))
  )
  (fp_poly (pts (xy 4.196951 -1.928580) (xy 4.196580 -1.672533) (xy 4.196181 -1.433071) (xy 4.195753 -1.209846) (xy 4.195293 -1.002509) (xy 4.194801 -0.810713) (xy 4.194272 -0.634109) (xy 4.193707 -0.472349)
     (xy 4.193103 -0.325085) (xy 4.192458 -0.191969) (xy 4.191770 -0.072651) (xy 4.191038 0.033215) (xy 4.190259 0.125978) (xy 4.189432 0.205986) (xy 4.188554 0.273588) (xy 4.187625 0.329132)
     (xy 4.186641 0.372965) (xy 4.185601 0.405437) (xy 4.184503 0.426895) (xy 4.184111 0.431800) (xy 4.150773 0.704105) (xy 4.101681 0.971149) (xy 4.036986 1.232453) (xy 3.956838 1.487536)
     (xy 3.861388 1.735919) (xy 3.750786 1.977122) (xy 3.628133 2.205566) (xy 3.573576 2.295919) (xy 3.510261 2.393868) (xy 3.440857 2.495683) (xy 3.368035 2.597636) (xy 3.294465 2.695996)
     (xy 3.222817 2.787033) (xy 3.155762 2.867018) (xy 3.149264 2.874433) (xy 3.114902 2.912276) (xy 3.071092 2.958724) (xy 3.020760 3.010823) (xy 2.966830 3.065617) (xy 2.912228 3.120151)
     (xy 2.859879 3.171471) (xy 2.812709 3.216622) (xy 2.785239 3.242150) (xy 2.605101 3.396409) (xy 2.411597 3.542532) (xy 2.206864 3.679190) (xy 1.993041 3.805052) (xy 1.772266 3.918789)
     (xy 1.546677 4.019071) (xy 1.515534 4.031681) (xy 1.290146 4.114018) (xy 1.057106 4.184111) (xy 0.819784 4.241171) (xy 0.581551 4.284414) (xy 0.345777 4.313051) (xy 0.290119 4.317650)
     (xy 0.242421 4.320696) (xy 0.185202 4.323511) (xy 0.121714 4.326018) (xy 0.055211 4.328135) (xy -0.011054 4.329784) (xy -0.073828 4.330885) (xy -0.129857 4.331358) (xy -0.175888 4.331124)
     (xy -0.208667 4.330103) (xy -0.211666 4.329917) (xy -0.236726 4.328238) (xy -0.274345 4.325731) (xy -0.320186 4.322685) (xy -0.369911 4.319387) (xy -0.391532 4.317956) (xy -0.571072 4.301720)
     (xy -0.750249 4.276504) (xy -0.933829 4.241545) (xy -1.079500 4.207924) (xy -1.337366 4.135726) (xy -1.588850 4.048106) (xy -1.833326 3.945403) (xy -2.070171 3.827957) (xy -2.298761 3.696105)
     (xy -2.518474 3.550187) (xy -2.728684 3.390543) (xy -2.928769 3.217512) (xy -2.967566 3.181282) (xy -3.145437 3.004599) (xy -3.307962 2.825112) (xy -3.456717 2.640680) (xy -3.593276 2.449165)
     (xy -3.719214 2.248425) (xy -3.836106 2.036321) (xy -3.891251 1.926166) (xy -3.997589 1.689723) (xy -4.088134 1.450910) (xy -4.163292 1.208234) (xy -4.223475 0.960203) (xy -4.269090 0.705323)
     (xy -4.300548 0.442102) (xy -4.301856 0.427566) (xy -4.305671 0.371679) (xy -4.308594 0.302600) (xy -4.310624 0.223908) (xy -4.311760 0.139179) (xy -4.311997 0.051990) (xy -4.311336 -0.034083)
     (xy -4.311148 -0.043886) (xy -3.711608 -0.043886) (xy -3.709622 0.026548) (xy -3.704233 0.090625) (xy -3.696506 0.138296) (xy -3.660121 0.267280) (xy -3.609607 0.387799) (xy -3.545824 0.499026)
     (xy -3.469631 0.600137) (xy -3.381889 0.690307) (xy -3.283458 0.768710) (xy -3.175196 0.834520) (xy -3.057966 0.886913) (xy -2.932626 0.925063) (xy -2.861733 0.939475) (xy -2.820133 0.943890)
     (xy -2.766525 0.945754) (xy -2.705610 0.945269) (xy -2.642087 0.942634) (xy -2.580657 0.938048) (xy -2.526021 0.931710) (xy -2.482880 0.923821) (xy -2.480733 0.923296) (xy -2.355184 0.883685)
     (xy -2.237056 0.829601) (xy -2.127645 0.761872) (xy -2.028251 0.681323) (xy -1.940172 0.588782) (xy -1.923967 0.568830) (xy -1.889002 0.524596) (xy -1.886417 0.707465) (xy -1.883833 0.890334)
     (xy -1.852207 0.919300) (xy -1.828696 0.937960) (xy -1.807023 0.946457) (xy -1.783007 0.948266) (xy -1.743149 0.940467) (xy -1.710670 0.918589) (xy -1.688571 0.884910) (xy -1.684617 0.873559)
     (xy -1.682941 0.860296) (xy -1.681494 0.832692) (xy -1.680275 0.790468) (xy -1.679282 0.733348) (xy -1.678512 0.661057) (xy -1.677964 0.573317) (xy -1.677636 0.469852) (xy -1.677525 0.350386)
     (xy -1.677629 0.214641) (xy -1.677946 0.062341) (xy -1.678114 0.002735) (xy -1.678531 -0.135011) (xy -1.678921 -0.256833) (xy -1.679309 -0.363741) (xy -1.679717 -0.456745) (xy -1.680170 -0.536855)
     (xy -1.680692 -0.605079) (xy -1.681306 -0.662429) (xy -1.682037 -0.709912) (xy -1.682907 -0.748540) (xy -1.683941 -0.779322) (xy -1.685163 -0.803266) (xy -1.686596 -0.821384) (xy -1.688265 -0.834685)
     (xy -1.690193 -0.844178) (xy -1.692403 -0.850874) (xy -1.694920 -0.855781) (xy -1.697768 -0.859909) (xy -1.698476 -0.860859) (xy -1.718692 -0.880020) (xy -1.744689 -0.895459) (xy -1.748134 -0.896865)
     (xy -1.786599 -0.903083) (xy -1.824075 -0.894072) (xy -1.856410 -0.871238) (xy -1.868740 -0.855998) (xy -1.877207 -0.841766) (xy -1.882783 -0.826592) (xy -1.886059 -0.806623) (xy -1.887622 -0.778006)
     (xy -1.888061 -0.736888) (xy -1.888066 -0.729470) (xy -1.888066 -0.631711) (xy -1.909518 -0.660872) (xy -1.937121 -0.694499) (xy -1.974272 -0.734348) (xy -2.016956 -0.776507) (xy -2.061156 -0.817062)
     (xy -2.102856 -0.852101) (xy -2.116975 -0.862979) (xy -2.221842 -0.930915) (xy -2.334389 -0.984527) (xy -2.452840 -1.023534) (xy -2.575416 -1.047659) (xy -2.700341 -1.056621) (xy -2.825836 -1.050141)
     (xy -2.950124 -1.027942) (xy -3.026741 -1.005847) (xy -3.145848 -0.957477) (xy -3.256425 -0.895067) (xy -3.357498 -0.819730) (xy -3.448093 -0.732580) (xy -3.527236 -0.634731) (xy -3.593953 -0.527295)
     (xy -3.647271 -0.411387) (xy -3.686215 -0.288120) (xy -3.697079 -0.239395) (xy -3.705345 -0.182250) (xy -3.710186 -0.115283) (xy -3.711608 -0.043886) (xy -4.311148 -0.043886) (xy -4.309772 -0.115462)
     (xy -4.307305 -0.188570) (xy -4.303933 -0.249831) (xy -4.302266 -0.270934) (xy -4.272305 -0.530638) (xy -4.229028 -0.781149) (xy -4.171917 -1.024360) (xy -4.123393 -1.185835) (xy -1.718015 -1.185835)
     (xy -1.713874 -1.167748) (xy -1.701599 -1.149810) (xy -1.690756 -1.137602) (xy -1.660808 -1.104901) (xy -1.456266 -1.099249) (xy -1.455788 -0.124175) (xy -1.455665 0.035531) (xy -1.455454 0.178987)
     (xy -1.455149 0.306876) (xy -1.454743 0.419881) (xy -1.454228 0.518685) (xy -1.453597 0.603971) (xy -1.452843 0.676422) (xy -1.451959 0.736722) (xy -1.450937 0.785552) (xy -1.449771 0.823597)
     (xy -1.448453 0.851539) (xy -1.446976 0.870062) (xy -1.445332 0.879848) (xy -1.445205 0.880240) (xy -1.425991 0.912202) (xy -1.396226 0.934740) (xy -1.360386 0.946230) (xy -1.322950 0.945051)
     (xy -1.295737 0.934419) (xy -1.288065 0.930249) (xy -1.281198 0.926691) (xy -1.275092 0.922833) (xy -1.269702 0.917765) (xy -1.264984 0.910576) (xy -1.260893 0.900355) (xy -1.257385 0.886193)
     (xy -1.254416 0.867178) (xy -1.251940 0.842399) (xy -1.249914 0.810946) (xy -1.248293 0.771909) (xy -1.247033 0.724376) (xy -1.246088 0.667438) (xy -1.245416 0.600183) (xy -1.244971 0.521701)
     (xy -1.244708 0.431082) (xy -1.244584 0.327413) (xy -1.244554 0.209786) (xy -1.244573 0.077290) (xy -1.244598 -0.070987) (xy -1.244600 -0.113226) (xy -1.244600 -0.839894) (xy -1.016000 -0.839894)
     (xy -1.016000 2.211493) (xy -0.987213 2.240280) (xy -0.967328 2.257894) (xy -0.948785 2.266410) (xy -0.923605 2.268982) (xy -0.914400 2.269066) (xy -0.885975 2.267582) (xy -0.866394 2.261026)
     (xy -0.847679 2.246243) (xy -0.841586 2.240280) (xy -0.812800 2.211493) (xy -0.812779 2.165774) (xy -0.582824 2.165774) (xy -0.582528 2.207200) (xy -0.581878 2.237985) (xy -0.580897 2.255521)
     (xy -0.580402 2.258283) (xy -0.569728 2.266474) (xy -0.554832 2.269066) (xy -0.544262 2.268389) (xy -0.537905 2.264069) (xy -0.534689 2.252675) (xy -0.533544 2.230777) (xy -0.533400 2.200359)
     (xy -0.533400 2.131652) (xy -0.511710 2.145864) (xy -0.488316 2.155627) (xy -0.460262 2.160440) (xy -0.457536 2.160524) (xy -0.416452 2.153488) (xy -0.382556 2.132578) (xy -0.357483 2.099914)
     (xy -0.342864 2.057618) (xy -0.340907 2.019915) (xy -0.287866 2.019915) (xy -0.287657 2.070244) (xy -0.286852 2.106226) (xy -0.285182 2.130444) (xy -0.282380 2.145482) (xy -0.278176 2.153923)
     (xy -0.273561 2.157697) (xy -0.258478 2.163823) (xy -0.248098 2.161103) (xy -0.241608 2.147619) (xy -0.238196 2.121450) (xy -0.237050 2.080675) (xy -0.237022 2.071310) (xy -0.235907 2.036076)
     (xy -0.133973 2.036076) (xy -0.124278 2.076180) (xy -0.104755 2.110711) (xy -0.077266 2.137684) (xy -0.043678 2.155117) (xy -0.005854 2.161025) (xy 0.034342 2.153427) (xy 0.063583 2.138558)
     (xy 0.090533 2.111467) (xy 0.108638 2.073907) (xy 0.117029 2.030346) (xy 0.114837 1.985250) (xy 0.101477 1.943656) (xy 0.075956 1.906221) (xy 0.061931 1.896533) (xy 0.135467 1.896533)
     (xy 0.143082 1.912149) (xy 0.156634 1.918456) (xy 0.177800 1.923769) (xy 0.177800 2.035740) (xy 0.178231 2.077723) (xy 0.179411 2.113474) (xy 0.181168 2.139649) (xy 0.183334 2.152905)
     (xy 0.183802 2.153712) (xy 0.196234 2.157578) (xy 0.207085 2.157240) (xy 0.214017 2.155269) (xy 0.218889 2.149887) (xy 0.222145 2.138406) (xy 0.224233 2.118136) (xy 0.225598 2.086389)
     (xy 0.226687 2.040478) (xy 0.226715 2.039066) (xy 0.288614 2.039066) (xy 0.300667 2.084706) (xy 0.325264 2.123595) (xy 0.338166 2.136111) (xy 0.358121 2.150114) (xy 0.379355 2.156992)
     (xy 0.409199 2.158972) (xy 0.413400 2.158986) (xy 0.452937 2.155533) (xy 0.485936 2.146277) (xy 0.490433 2.144170) (xy 0.517675 2.126435) (xy 0.531146 2.108846) (xy 0.531041 2.107739)
     (xy 0.567267 2.107739) (xy 0.575099 2.126617) (xy 0.596156 2.142740) (xy 0.626781 2.154667) (xy 0.663318 2.160956) (xy 0.700727 2.160334) (xy 0.725265 2.152312) (xy 0.749967 2.136724)
     (xy 0.753644 2.133497) (xy 0.772861 2.109425) (xy 0.775607 2.097433) (xy 0.814004 2.097433) (xy 0.814901 2.114603) (xy 0.826125 2.132218) (xy 0.834179 2.138750) (xy 0.877410 2.158068)
     (xy 0.924336 2.161359) (xy 0.976057 2.148700) (xy 0.976183 2.148652) (xy 1.000061 2.131589) (xy 1.017505 2.104188) (xy 1.024463 2.072877) (xy 1.024467 2.072104) (xy 1.016652 2.049324)
     (xy 0.995209 2.026091) (xy 0.985766 2.019915) (xy 1.066801 2.019915) (xy 1.067009 2.070244) (xy 1.067815 2.106226) (xy 1.069484 2.130444) (xy 1.072287 2.145482) (xy 1.076491 2.153923)
     (xy 1.081106 2.157697) (xy 1.093795 2.163493) (xy 1.103171 2.163383) (xy 1.109726 2.155483) (xy 1.113953 2.137908) (xy 1.116345 2.108774) (xy 1.117395 2.066195) (xy 1.117556 2.028434)
     (xy 1.171072 2.028434) (xy 1.179026 2.070444) (xy 1.197312 2.108010) (xy 1.225789 2.137863) (xy 1.257301 2.154523) (xy 1.293077 2.162125) (xy 1.326883 2.157344) (xy 1.358901 2.142979)
     (xy 1.383717 2.121180) (xy 1.404426 2.088119) (xy 1.411941 2.067027) (xy 1.474535 2.067027) (xy 1.475387 2.109213) (xy 1.478042 2.138022) (xy 1.482889 2.155216) (xy 1.490318 2.162557)
     (xy 1.500716 2.161807) (xy 1.507956 2.158524) (xy 1.515055 2.153011) (xy 1.519707 2.143437) (xy 1.522415 2.126615) (xy 1.523679 2.099361) (xy 1.524000 2.058490) (xy 1.524001 2.056545)
     (xy 1.524790 2.016883) (xy 1.526927 1.982250) (xy 1.530062 1.956924) (xy 1.532982 1.946371) (xy 1.551706 1.927063) (xy 1.577603 1.918736) (xy 1.605258 1.921044) (xy 1.629260 1.933640)
     (xy 1.643246 1.953440) (xy 1.646455 1.970166) (xy 1.649017 1.999286) (xy 1.650618 2.036267) (xy 1.651001 2.065712) (xy 1.651621 2.110340) (xy 1.654019 2.140116) (xy 1.659000 2.157094)
     (xy 1.667366 2.163325) (xy 1.679924 2.160865) (xy 1.686984 2.157558) (xy 1.693466 2.152160) (xy 1.697761 2.141889) (xy 1.700297 2.123715) (xy 1.701501 2.094609) (xy 1.701720 2.063824)
     (xy 1.762309 2.063824) (xy 1.762623 2.100344) (xy 1.764115 2.125251) (xy 1.766987 2.141195) (xy 1.771445 2.150828) (xy 1.773796 2.153586) (xy 1.789429 2.162217) (xy 1.799412 2.161967)
     (xy 1.805425 2.155975) (xy 1.809238 2.141682) (xy 1.811251 2.116266) (xy 1.811866 2.076909) (xy 1.811867 2.074485) (xy 1.812414 2.023178) (xy 1.814530 1.986042) (xy 1.818933 1.960334)
     (xy 1.826336 1.943314) (xy 1.837456 1.932241) (xy 1.850811 1.925268) (xy 1.882766 1.918852) (xy 1.910467 1.926257) (xy 1.929886 1.946371) (xy 1.933558 1.961445) (xy 1.936505 1.989170)
     (xy 1.938377 2.025266) (xy 1.938867 2.056545) (xy 1.939176 2.098121) (xy 1.940427 2.125932) (xy 1.943107 2.143141) (xy 1.947700 2.152912) (xy 1.954503 2.158305) (xy 1.967994 2.162851)
     (xy 1.977672 2.158616) (xy 1.984102 2.143813) (xy 1.987848 2.116655) (xy 1.989473 2.075354) (xy 1.989667 2.046819) (xy 1.989419 2.034125) (xy 2.040184 2.034125) (xy 2.049556 2.078873)
     (xy 2.061310 2.104178) (xy 2.089576 2.137138) (xy 2.126498 2.156850) (xy 2.169534 2.162772) (xy 2.216144 2.154359) (xy 2.243074 2.143075) (xy 2.270648 2.125329) (xy 2.283920 2.108015)
     (xy 2.281877 2.092609) (xy 2.279589 2.089934) (xy 2.269526 2.085218) (xy 2.253452 2.088600) (xy 2.232285 2.098168) (xy 2.191399 2.113535) (xy 2.155975 2.115042) (xy 2.130699 2.107266)
     (xy 2.111278 2.091665) (xy 2.096310 2.068449) (xy 2.094298 2.060503) (xy 2.338080 2.060503) (xy 2.338674 2.095920) (xy 2.340047 2.120841) (xy 2.342315 2.137410) (xy 2.345597 2.147770)
     (xy 2.349948 2.154004) (xy 2.362538 2.165244) (xy 2.371421 2.164575) (xy 2.382762 2.154161) (xy 2.387519 2.141007) (xy 2.391361 2.114018) (xy 2.394278 2.076267) (xy 2.396262 2.030829)
     (xy 2.397305 1.980776) (xy 2.397347 1.957268) (xy 2.455334 1.957268) (xy 2.455334 2.160124) (xy 2.478617 2.157445) (xy 2.501901 2.154766) (xy 2.503323 2.032090) (xy 2.553072 2.032090)
     (xy 2.562546 2.075982) (xy 2.580343 2.113325) (xy 2.585089 2.119775) (xy 2.615071 2.144550) (xy 2.653978 2.158826) (xy 2.696795 2.161720) (xy 2.738510 2.152350) (xy 2.747434 2.148360)
     (xy 2.771374 2.133060) (xy 2.789204 2.115459) (xy 2.797178 2.099646) (xy 2.796716 2.094598) (xy 2.786515 2.084172) (xy 2.767786 2.086264) (xy 2.741288 2.099701) (xy 2.704584 2.114586)
     (xy 2.669112 2.115718) (xy 2.638316 2.103974) (xy 2.615640 2.080232) (xy 2.609049 2.065999) (xy 2.600148 2.040466) (xy 2.687915 2.040466) (xy 2.725976 2.039989) (xy 2.758544 2.038703)
     (xy 2.781345 2.036825) (xy 2.789075 2.035327) (xy 2.799287 2.023164) (xy 2.802138 2.000450) (xy 2.797896 1.971751) (xy 2.786830 1.941633) (xy 2.783150 1.934633) (xy 2.755962 1.900555)
     (xy 2.722518 1.880044) (xy 2.685704 1.872414) (xy 2.648407 1.876977) (xy 2.613511 1.893046) (xy 2.583901 1.919934) (xy 2.562464 1.956954) (xy 2.553748 1.989256) (xy 2.553072 2.032090)
     (xy 2.503323 2.032090) (xy 2.504170 1.959080) (xy 2.504757 1.891694) (xy 2.504571 1.839501) (xy 2.503322 1.800771) (xy 2.500723 1.773769) (xy 2.496482 1.756765) (xy 2.490312 1.748026)
     (xy 2.481923 1.745819) (xy 2.471024 1.748412) (xy 2.469107 1.749126) (xy 2.464737 1.752396) (xy 2.461389 1.759761) (xy 2.458931 1.773216) (xy 2.457231 1.794762) (xy 2.456155 1.826396)
     (xy 2.455573 1.870116) (xy 2.455351 1.927920) (xy 2.455334 1.957268) (xy 2.397347 1.957268) (xy 2.397399 1.929184) (xy 2.396534 1.879125) (xy 2.394703 1.833674) (xy 2.391896 1.795904)
     (xy 2.388106 1.768890) (xy 2.383863 1.756334) (xy 2.371652 1.745236) (xy 2.358129 1.748227) (xy 2.356346 1.749283) (xy 2.351359 1.753609) (xy 2.347526 1.761120) (xy 2.344660 1.773954)
     (xy 2.342574 1.794253) (xy 2.341079 1.824156) (xy 2.339988 1.865803) (xy 2.339112 1.921336) (xy 2.338760 1.949604) (xy 2.338148 2.012446) (xy 2.338080 2.060503) (xy 2.094298 2.060503)
     (xy 2.091267 2.048534) (xy 2.099211 2.045074) (xy 2.120965 2.042401) (xy 2.153415 2.040798) (xy 2.179562 2.040466) (xy 2.226065 2.039701) (xy 2.257950 2.036571) (xy 2.277496 2.029826)
     (xy 2.286981 2.018216) (xy 2.288684 2.000492) (xy 2.286146 1.981995) (xy 2.270816 1.937116) (xy 2.244749 1.902841) (xy 2.210561 1.880583) (xy 2.170868 1.871753) (xy 2.128284 1.877766)
     (xy 2.108328 1.885963) (xy 2.077147 1.910489) (xy 2.054829 1.945988) (xy 2.042224 1.988515) (xy 2.040184 2.034125) (xy 1.989419 2.034125) (xy 1.988610 1.992911) (xy 1.984859 1.953030)
     (xy 1.977542 1.924366) (xy 1.965788 1.904112) (xy 1.948725 1.889459) (xy 1.939144 1.883976) (xy 1.899195 1.872138) (xy 1.858911 1.876983) (xy 1.842493 1.883966) (xy 1.824879 1.891791)
     (xy 1.814710 1.890305) (xy 1.807006 1.881797) (xy 1.794968 1.871819) (xy 1.780613 1.876277) (xy 1.774621 1.881671) (xy 1.770295 1.891127) (xy 1.767293 1.907309) (xy 1.765271 1.932879)
     (xy 1.763885 1.970498) (xy 1.762968 2.013039) (xy 1.762309 2.063824) (xy 1.701720 2.063824) (xy 1.701801 2.052596) (xy 1.700350 1.993196) (xy 1.695994 1.950401) (xy 1.689767 1.926457)
     (xy 1.669192 1.897382) (xy 1.638567 1.878651) (xy 1.602162 1.871572) (xy 1.564248 1.877450) (xy 1.549806 1.883623) (xy 1.532693 1.891287) (xy 1.524423 1.890000) (xy 1.520630 1.883030)
     (xy 1.508873 1.873321) (xy 1.496522 1.872656) (xy 1.489355 1.874224) (xy 1.484199 1.878241) (xy 1.480661 1.887211) (xy 1.478351 1.903636) (xy 1.476877 1.930022) (xy 1.475848 1.968870)
     (xy 1.475097 2.009700) (xy 1.474535 2.067027) (xy 1.411941 2.067027) (xy 1.418216 2.049419) (xy 1.422401 2.015945) (xy 1.416431 1.975042) (xy 1.400472 1.935303) (xy 1.377453 1.903104)
     (xy 1.365956 1.893050) (xy 1.338716 1.880514) (xy 1.304293 1.874039) (xy 1.270203 1.874355) (xy 1.245427 1.881358) (xy 1.210628 1.908442) (xy 1.186731 1.944163) (xy 1.173593 1.985250)
     (xy 1.171072 2.028434) (xy 1.117556 2.028434) (xy 1.117601 2.018128) (xy 1.117375 1.965348) (xy 1.116559 1.927164) (xy 1.114946 1.901240) (xy 1.112328 1.885244) (xy 1.108498 1.876842)
     (xy 1.104793 1.874153) (xy 1.088092 1.874879) (xy 1.079393 1.879689) (xy 1.074385 1.886987) (xy 1.070842 1.900861) (xy 1.068546 1.923756) (xy 1.067277 1.958115) (xy 1.066816 2.006384)
     (xy 1.066801 2.019915) (xy 0.985766 2.019915) (xy 0.963147 2.005122) (xy 0.938098 1.994018) (xy 0.911329 1.981852) (xy 0.889466 1.968129) (xy 0.883139 1.962467) (xy 0.873466 1.949931)
     (xy 0.875306 1.940878) (xy 0.887895 1.929592) (xy 0.905200 1.917684) (xy 0.920748 1.914658) (xy 0.940529 1.920536) (xy 0.959901 1.929856) (xy 0.988787 1.940747) (xy 1.007687 1.939247)
     (xy 1.015759 1.925485) (xy 1.016001 1.921222) (xy 1.008330 1.902519) (xy 0.988073 1.887564) (xy 0.959366 1.877425) (xy 0.926341 1.873170) (xy 0.893134 1.875867) (xy 0.869814 1.883461)
     (xy 0.841890 1.904209) (xy 0.825924 1.932111) (xy 0.824018 1.962922) (xy 0.826262 1.971409) (xy 0.835916 1.986578) (xy 0.856100 2.002946) (xy 0.889272 2.022403) (xy 0.899484 2.027766)
     (xy 0.929642 2.044388) (xy 0.953626 2.059538) (xy 0.967626 2.070735) (xy 0.969538 2.073441) (xy 0.967987 2.089843) (xy 0.954336 2.104980) (xy 0.933202 2.114870) (xy 0.919438 2.116635)
     (xy 0.894443 2.112089) (xy 0.867794 2.101007) (xy 0.864678 2.099194) (xy 0.843580 2.089058) (xy 0.827041 2.085738) (xy 0.824462 2.086260) (xy 0.814004 2.097433) (xy 0.775607 2.097433)
     (xy 0.778918 2.082977) (xy 0.778934 2.081286) (xy 0.774486 2.051863) (xy 0.759535 2.028922) (xy 0.731668 2.009736) (xy 0.705142 1.997850) (xy 0.677458 1.986268) (xy 0.655459 1.975975)
     (xy 0.645584 1.970312) (xy 0.635535 1.954020) (xy 0.639129 1.935599) (xy 0.655083 1.920918) (xy 0.656516 1.920234) (xy 0.672538 1.915479) (xy 0.689776 1.917806) (xy 0.714524 1.928167)
     (xy 0.716996 1.929361) (xy 0.746296 1.940545) (xy 0.763874 1.939764) (xy 0.770078 1.926932) (xy 0.769120 1.916482) (xy 0.757883 1.898624) (xy 0.734239 1.884315) (xy 0.702626 1.875375)
     (xy 0.667481 1.873627) (xy 0.665137 1.873810) (xy 0.635315 1.878774) (xy 0.614268 1.889750) (xy 0.599520 1.904045) (xy 0.580648 1.930830) (xy 0.575565 1.954919) (xy 0.584944 1.977679)
     (xy 0.609459 2.000475) (xy 0.649783 2.024673) (xy 0.662117 2.030954) (xy 0.699958 2.052185) (xy 0.721734 2.070628) (xy 0.727947 2.086996) (xy 0.719102 2.102003) (xy 0.714736 2.105523)
     (xy 0.687596 2.115586) (xy 0.654477 2.113150) (xy 0.620968 2.098909) (xy 0.594796 2.087141) (xy 0.576475 2.088129) (xy 0.567752 2.101585) (xy 0.567267 2.107739) (xy 0.531041 2.107739)
     (xy 0.529656 2.093168) (xy 0.526989 2.089934) (xy 0.516926 2.085218) (xy 0.500852 2.088600) (xy 0.479685 2.098168) (xy 0.438444 2.113778) (xy 0.404270 2.115082) (xy 0.374988 2.101964)
     (xy 0.363416 2.091917) (xy 0.345165 2.071979) (xy 0.337641 2.057889) (xy 0.342123 2.048671) (xy 0.359888 2.043348) (xy 0.392215 2.040944) (xy 0.430764 2.040466) (xy 0.477452 2.039724)
     (xy 0.509520 2.036756) (xy 0.529242 2.030445) (xy 0.538894 2.019677) (xy 0.540752 2.003338) (xy 0.538569 1.987642) (xy 0.523043 1.942511) (xy 0.496721 1.906993) (xy 0.462069 1.883207)
     (xy 0.421555 1.873270) (xy 0.405572 1.873528) (xy 0.362802 1.883683) (xy 0.329829 1.906856) (xy 0.304924 1.943656) (xy 0.289801 1.990706) (xy 0.288614 2.039066) (xy 0.226715 2.039066)
     (xy 0.226719 2.038889) (xy 0.229071 1.923012) (xy 0.252119 1.920356) (xy 0.271148 1.913255) (xy 0.277885 1.898558) (xy 0.276548 1.884287) (xy 0.264354 1.876599) (xy 0.254170 1.874130)
     (xy 0.237467 1.869462) (xy 0.230413 1.860816) (xy 0.229713 1.842653) (xy 0.230286 1.834005) (xy 0.233702 1.810809) (xy 0.239379 1.802442) (xy 1.068176 1.802442) (xy 1.071537 1.823138)
     (xy 1.084861 1.834939) (xy 1.102703 1.835346) (xy 1.117263 1.824973) (xy 1.125904 1.805399) (xy 1.119628 1.789836) (xy 1.100448 1.782395) (xy 1.096318 1.782233) (xy 1.077373 1.785155)
     (xy 1.069320 1.796514) (xy 1.068176 1.802442) (xy 0.239379 1.802442) (xy 0.241208 1.799747) (xy 0.251269 1.796541) (xy 0.273253 1.788585) (xy 0.283776 1.774865) (xy 0.280491 1.759100)
     (xy 0.277291 1.755328) (xy 0.258116 1.746747) (xy 0.232649 1.747742) (xy 0.207600 1.757038) (xy 0.190744 1.771755) (xy 0.182781 1.791530) (xy 0.178222 1.819160) (xy 0.177800 1.829766)
     (xy 0.176734 1.854384) (xy 0.171925 1.867231) (xy 0.160963 1.873418) (xy 0.156634 1.874610) (xy 0.139170 1.884969) (xy 0.135467 1.896533) (xy 0.061931 1.896533) (xy 0.042671 1.883229)
     (xy 0.000829 1.873245) (xy -0.041303 1.877093) (xy -0.077706 1.896665) (xy -0.107662 1.931508) (xy -0.116416 1.947079) (xy -0.131974 1.992381) (xy -0.133973 2.036076) (xy -0.235907 2.036076)
     (xy -0.235387 2.019674) (xy -0.229813 1.982048) (xy -0.219200 1.955748) (xy -0.202449 1.938091) (xy -0.178462 1.926392) (xy -0.177554 1.926084) (xy -0.156737 1.916128) (xy -0.148716 1.902679)
     (xy -0.148166 1.895777) (xy -0.154413 1.878804) (xy -0.170683 1.872211) (xy -0.193266 1.876468) (xy -0.212819 1.887580) (xy -0.229021 1.898310) (xy -0.235939 1.898451) (xy -0.237066 1.892287)
     (xy -0.243623 1.878120) (xy -0.258749 1.873269) (xy -0.275274 1.879689) (xy -0.280282 1.886987) (xy -0.283824 1.900861) (xy -0.286120 1.923756) (xy -0.287389 1.958115) (xy -0.287851 2.006384)
     (xy -0.287866 2.019915) (xy -0.340907 2.019915) (xy -0.340300 2.008245) (xy -0.347826 1.960031) (xy -0.363227 1.924098) (xy -0.388180 1.896966) (xy -0.397068 1.890499) (xy -0.435424 1.874177)
     (xy -0.476339 1.873218) (xy -0.507594 1.883623) (xy -0.524707 1.891287) (xy -0.532977 1.890000) (xy -0.536770 1.883030) (xy -0.548527 1.873321) (xy -0.560878 1.872656) (xy -0.567102 1.873897)
     (xy -0.571829 1.877028) (xy -0.575298 1.884165) (xy -0.577748 1.897423) (xy -0.579421 1.918919) (xy -0.580554 1.950767) (xy -0.581388 1.995083) (xy -0.582162 2.053983) (xy -0.582253 2.061433)
     (xy -0.582741 2.116316) (xy -0.582824 2.165774) (xy -0.812779 2.165774) (xy -0.812450 1.466429) (xy -0.584070 1.466429) (xy -0.583922 1.527140) (xy -0.583287 1.572948) (xy -0.582031 1.605881)
     (xy -0.580022 1.627965) (xy -0.577127 1.641228) (xy -0.573212 1.647695) (xy -0.572104 1.648462) (xy -0.555698 1.652684) (xy -0.529081 1.654668) (xy -0.497149 1.654631) (xy -0.464796 1.652790)
     (xy -0.436918 1.649360) (xy -0.418412 1.644558) (xy -0.414044 1.641480) (xy -0.408790 1.628016) (xy -0.414572 1.619053) (xy -0.433251 1.613602) (xy -0.466690 1.610675) (xy -0.472516 1.610416)
     (xy -0.533044 1.607932) (xy -0.534085 1.532237) (xy -0.394822 1.532237) (xy -0.383927 1.573999) (xy -0.363678 1.609495) (xy -0.336243 1.636706) (xy -0.303793 1.653615) (xy -0.268500 1.658203)
     (xy -0.232532 1.648452) (xy -0.224481 1.644022) (xy -0.207012 1.634357) (xy -0.196894 1.634082) (xy -0.187171 1.643531) (xy -0.185235 1.645909) (xy -0.173211 1.657373) (xy -0.162617 1.655586)
     (xy -0.157603 1.651805) (xy -0.152225 1.644909) (xy -0.148430 1.632861) (xy -0.145964 1.613049) (xy -0.144570 1.582861) (xy -0.143994 1.539683) (xy -0.143933 1.511956) (xy -0.144350 1.457756)
     (xy -0.145904 1.418265) (xy -0.149054 1.391273) (xy -0.149907 1.388533) (xy 0.004234 1.388533) (xy 0.011179 1.401367) (xy 0.023284 1.409591) (xy 0.031048 1.413782) (xy 0.036354 1.420272)
     (xy 0.039669 1.431977) (xy 0.041459 1.451812) (xy 0.042192 1.482693) (xy 0.042334 1.527535) (xy 0.042334 1.528547) (xy 0.042942 1.579883) (xy 0.045131 1.616413) (xy 0.049450 1.640235)
     (xy 0.056445 1.653447) (xy 0.066666 1.658144) (xy 0.076024 1.657491) (xy 0.081266 1.653881) (xy 0.085076 1.643755) (xy 0.087755 1.624682) (xy 0.089606 1.594231) (xy 0.090928 1.549971)
     (xy 0.091250 1.534477) (xy 0.091775 1.509819) (xy 0.154366 1.509819) (xy 0.160043 1.551711) (xy 0.175367 1.589761) (xy 0.198830 1.621555) (xy 0.228930 1.644681) (xy 0.264159 1.656724)
     (xy 0.303014 1.655272) (xy 0.319066 1.650436) (xy 0.356796 1.627723) (xy 0.384612 1.593832) (xy 0.401478 1.552003) (xy 0.406356 1.505480) (xy 0.405210 1.498732) (xy 0.456793 1.498732)
     (xy 0.457602 1.541259) (xy 0.459153 1.581259) (xy 0.461381 1.615072) (xy 0.464217 1.639040) (xy 0.467361 1.649306) (xy 0.480245 1.658554) (xy 0.493275 1.655027) (xy 0.496612 1.652985)
     (xy 0.501545 1.641436) (xy 0.505561 1.614733) (xy 0.508438 1.574641) (xy 0.509312 1.552379) (xy 0.511821 1.503272) (xy 0.511926 1.502506) (xy 0.627058 1.502506) (xy 0.627525 1.545364)
     (xy 0.628924 1.585154) (xy 0.631234 1.617880) (xy 0.634438 1.639549) (xy 0.636177 1.644650) (xy 0.650390 1.657953) (xy 0.667536 1.655782) (xy 0.676015 1.648356) (xy 0.679922 1.635697)
     (xy 0.683431 1.609730) (xy 0.686162 1.574081) (xy 0.687635 1.537065) (xy 0.688823 1.494370) (xy 0.690433 1.465270) (xy 0.693170 1.446433) (xy 0.697737 1.434522) (xy 0.704839 1.426204)
     (xy 0.712300 1.420282) (xy 0.739006 1.408883) (xy 0.765460 1.414346) (xy 0.783117 1.427792) (xy 0.788913 1.437566) (xy 0.792752 1.454987) (xy 0.794948 1.482840) (xy 0.795818 1.523913)
     (xy 0.795867 1.540501) (xy 0.796349 1.586035) (xy 0.798001 1.617381) (xy 0.801135 1.637264) (xy 0.806060 1.648407) (xy 0.808459 1.650910) (xy 0.822040 1.659525) (xy 0.832076 1.658525)
     (xy 0.839155 1.646354) (xy 0.843864 1.621456) (xy 0.846791 1.582276) (xy 0.848082 1.545980) (xy 0.849865 1.497173) (xy 0.852891 1.462513) (xy 0.858201 1.439218) (xy 0.866837 1.424501)
     (xy 0.879840 1.415580) (xy 0.898251 1.409669) (xy 0.899158 1.409446) (xy 0.919065 1.408679) (xy 0.937310 1.419488) (xy 0.943608 1.425437) (xy 0.952945 1.435683) (xy 0.959113 1.446534)
     (xy 0.962768 1.461574) (xy 0.964563 1.484388) (xy 0.965153 1.518560) (xy 0.965201 1.543745) (xy 0.965703 1.588447) (xy 0.967432 1.619030) (xy 0.970716 1.638283) (xy 0.975887 1.648996)
     (xy 0.977901 1.651000) (xy 0.991452 1.657271) (xy 1.003301 1.651000) (xy 1.009332 1.637515) (xy 1.013583 1.611254) (xy 1.016042 1.576282) (xy 1.016673 1.538106) (xy 1.068100 1.538106)
     (xy 1.070329 1.552855) (xy 1.084114 1.587954) (xy 1.109270 1.620753) (xy 1.140721 1.644939) (xy 1.146814 1.647961) (xy 1.178245 1.655557) (xy 1.211515 1.653532) (xy 1.239158 1.642599)
     (xy 1.244201 1.638661) (xy 1.259251 1.627328) (xy 1.267586 1.629625) (xy 1.272646 1.643269) (xy 1.282318 1.656993) (xy 1.292684 1.657978) (xy 1.298386 1.655593) (xy 1.302568 1.649355)
     (xy 1.305526 1.636856) (xy 1.307554 1.615688) (xy 1.308946 1.583445) (xy 1.309998 1.537719) (xy 1.310423 1.513121) (xy 1.311122 1.460510) (xy 1.311104 1.422398) (xy 1.310174 1.396357)
     (xy 1.309203 1.388533) (xy 1.354667 1.388533) (xy 1.362282 1.404149) (xy 1.375834 1.410456) (xy 1.397001 1.415769) (xy 1.397001 1.527457) (xy 1.397659 1.579372) (xy 1.399900 1.616456)
     (xy 1.404119 1.640770) (xy 1.410714 1.654375) (xy 1.420079 1.659331) (xy 1.422401 1.659466) (xy 1.432047 1.654252) (xy 1.437640 1.649306) (xy 1.442550 1.635934) (xy 1.445832 1.606965)
     (xy 1.447528 1.561911) (xy 1.447801 1.527128) (xy 1.447841 1.509623) (xy 1.532467 1.509623) (xy 1.532796 1.556439) (xy 1.533705 1.597198) (xy 1.535079 1.628944) (xy 1.536802 1.648721)
     (xy 1.538112 1.653822) (xy 1.553785 1.659127) (xy 1.571534 1.650797) (xy 1.573107 1.649306) (xy 1.577783 1.636227) (xy 1.581165 1.610118) (xy 1.583284 1.574667) (xy 1.584173 1.533562)
     (xy 1.584017 1.511823) (xy 1.631648 1.511823) (xy 1.638053 1.557716) (xy 1.655599 1.596877) (xy 1.681779 1.627641) (xy 1.714087 1.648344) (xy 1.750017 1.657322) (xy 1.787064 1.652912)
     (xy 1.819078 1.636280) (xy 1.849853 1.607721) (xy 1.868224 1.575118) (xy 1.876859 1.533263) (xy 1.877748 1.521792) (xy 1.877854 1.514532) (xy 1.930401 1.514532) (xy 1.930878 1.568652)
     (xy 1.932634 1.607923) (xy 1.936157 1.634411) (xy 1.941932 1.650181) (xy 1.950447 1.657301) (xy 1.962189 1.657834) (xy 1.964091 1.657506) (xy 1.969774 1.653393) (xy 1.973973 1.641868)
     (xy 1.977093 1.620399) (xy 1.979539 1.586456) (xy 1.981201 1.550661) (xy 1.983117 1.506971) (xy 1.985193 1.476843) (xy 1.988200 1.456917) (xy 1.992906 1.443833) (xy 2.000080 1.434230)
     (xy 2.009909 1.425250) (xy 2.037865 1.410105) (xy 2.065620 1.411642) (xy 2.091219 1.429696) (xy 2.093384 1.432165) (xy 2.100102 1.443012) (xy 2.104495 1.458818) (xy 2.107004 1.482944)
     (xy 2.108070 1.518749) (xy 2.108201 1.545067) (xy 2.109198 1.594297) (xy 2.112586 1.628425) (xy 2.118956 1.649187) (xy 2.128900 1.658319) (xy 2.143011 1.657558) (xy 2.146193 1.656446)
     (xy 2.152104 1.646066) (xy 2.156389 1.622597) (xy 2.159049 1.589807) (xy 2.160083 1.551462) (xy 2.159494 1.511328) (xy 2.157280 1.473172) (xy 2.153443 1.440762) (xy 2.147983 1.417863)
     (xy 2.146157 1.413656) (xy 2.122659 1.384990) (xy 2.090476 1.368355) (xy 2.053814 1.364804) (xy 2.016882 1.375389) (xy 2.009541 1.379472) (xy 1.991866 1.389669) (xy 1.983566 1.390945)
     (xy 1.979620 1.383293) (xy 1.978584 1.379441) (xy 1.968394 1.366557) (xy 1.952363 1.363717) (xy 1.938391 1.371455) (xy 1.935540 1.376525) (xy 1.933715 1.389444) (xy 1.932175 1.415902)
     (xy 1.931047 1.452507) (xy 1.930458 1.495867) (xy 1.930401 1.514532) (xy 1.877854 1.514532) (xy 1.878255 1.487150) (xy 1.873777 1.460982) (xy 1.862809 1.435187) (xy 1.860999 1.431758)
     (xy 1.833979 1.395240) (xy 1.801549 1.372820) (xy 1.766211 1.363625) (xy 1.730466 1.366781) (xy 1.696816 1.381417) (xy 1.667762 1.406657) (xy 1.645806 1.441630) (xy 1.633450 1.485461)
     (xy 1.631648 1.511823) (xy 1.584017 1.511823) (xy 1.583863 1.490492) (xy 1.582389 1.449144) (xy 1.579781 1.413208) (xy 1.576072 1.386370) (xy 1.571294 1.372321) (xy 1.570675 1.371689)
     (xy 1.554056 1.365153) (xy 1.545275 1.366153) (xy 1.540414 1.370474) (xy 1.536923 1.380684) (xy 1.534592 1.399122) (xy 1.533215 1.428126) (xy 1.532580 1.470032) (xy 1.532467 1.509623)
     (xy 1.447841 1.509623) (xy 1.447907 1.481770) (xy 1.448533 1.450592) (xy 1.450135 1.430841) (xy 1.453169 1.419765) (xy 1.458094 1.414610) (xy 1.465366 1.412623) (xy 1.466851 1.412405)
     (xy 1.482779 1.403994) (xy 1.485901 1.392766) (xy 1.478782 1.376385) (xy 1.466851 1.367475) (xy 1.453228 1.356944) (xy 1.448107 1.337985) (xy 1.447801 1.328295) (xy 1.444472 1.304693)
     (xy 1.439135 1.293838) (xy 1.526999 1.293838) (xy 1.528799 1.311187) (xy 1.532217 1.316265) (xy 1.549416 1.326568) (xy 1.561360 1.327558) (xy 1.574557 1.321095) (xy 1.578953 1.303954)
     (xy 1.579034 1.299633) (xy 1.576697 1.281420) (xy 1.567016 1.274783) (xy 1.558790 1.274233) (xy 1.538002 1.279930) (xy 1.526999 1.293838) (xy 1.439135 1.293838) (xy 1.436288 1.288050)
     (xy 1.435101 1.286933) (xy 1.419449 1.281475) (xy 1.406522 1.290490) (xy 1.398522 1.311525) (xy 1.397001 1.329385) (xy 1.395170 1.351309) (xy 1.387514 1.362204) (xy 1.375834 1.366610)
     (xy 1.358370 1.376969) (xy 1.354667 1.388533) (xy 1.309203 1.388533) (xy 1.308138 1.379960) (xy 1.304801 1.370782) (xy 1.299969 1.366394) (xy 1.298615 1.365804) (xy 1.281994 1.367469)
     (xy 1.273753 1.375059) (xy 1.264992 1.384266) (xy 1.254524 1.384365) (xy 1.237298 1.376435) (xy 1.198624 1.364446) (xy 1.161685 1.367426) (xy 1.128342 1.383411) (xy 1.100453 1.410435)
     (xy 1.079877 1.446535) (xy 1.068473 1.489747) (xy 1.068100 1.538106) (xy 1.016673 1.538106) (xy 1.016697 1.536664) (xy 1.015536 1.496463) (xy 1.012548 1.459745) (xy 1.007721 1.430574)
     (xy 1.003967 1.418457) (xy 0.983765 1.389992) (xy 0.954001 1.371822) (xy 0.919161 1.364781) (xy 0.883726 1.369703) (xy 0.852182 1.387422) (xy 0.849622 1.389734) (xy 0.832944 1.401653)
     (xy 0.823040 1.400666) (xy 0.822938 1.400520) (xy 0.799420 1.378792) (xy 0.768068 1.366489) (xy 0.734941 1.364892) (xy 0.706095 1.375284) (xy 0.705525 1.375677) (xy 0.691087 1.383724)
     (xy 0.681666 1.380547) (xy 0.677205 1.375677) (xy 0.660040 1.364061) (xy 0.643582 1.368933) (xy 0.634894 1.380266) (xy 0.631441 1.395458) (xy 0.628996 1.423559) (xy 0.627542 1.460572)
     (xy 0.627058 1.502506) (xy 0.511926 1.502506) (xy 0.516620 1.468319) (xy 0.524921 1.444774) (xy 0.537939 1.429889) (xy 0.556884 1.420919) (xy 0.568717 1.417848) (xy 0.591223 1.408046)
     (xy 0.599529 1.393065) (xy 0.592578 1.375725) (xy 0.576027 1.364477) (xy 0.555065 1.367380) (xy 0.533550 1.379959) (xy 0.517485 1.390782) (xy 0.510101 1.391766) (xy 0.506299 1.382911)
     (xy 0.505519 1.379959) (xy 0.495332 1.366737) (xy 0.479370 1.363615) (xy 0.465359 1.371206) (xy 0.462340 1.376525) (xy 0.459501 1.392573) (xy 0.457676 1.420730) (xy 0.456796 1.457336)
     (xy 0.456793 1.498732) (xy 0.405210 1.498732) (xy 0.398208 1.457504) (xy 0.388575 1.433256) (xy 0.363219 1.397757) (xy 0.329891 1.374931) (xy 0.292012 1.364926) (xy 0.253005 1.367890)
     (xy 0.216292 1.383971) (xy 0.185297 1.413316) (xy 0.177966 1.424163) (xy 0.159838 1.466499) (xy 0.154366 1.509819) (xy 0.091775 1.509819) (xy 0.092258 1.487177) (xy 0.093435 1.454218)
     (xy 0.095244 1.433010) (xy 0.098150 1.420963) (xy 0.102616 1.415488) (xy 0.109106 1.413995) (xy 0.112840 1.413933) (xy 0.132472 1.409881) (xy 0.141844 1.404169) (xy 0.147200 1.389538)
     (xy 0.140069 1.374654) (xy 0.124012 1.364674) (xy 0.113516 1.363133) (xy 0.100217 1.361686) (xy 0.094578 1.354245) (xy 0.094172 1.336157) (xy 0.094764 1.327190) (xy 0.097685 1.304167)
     (xy 0.104474 1.292749) (xy 0.118822 1.287608) (xy 0.122664 1.286908) (xy 0.143673 1.278384) (xy 0.150910 1.264951) (xy 0.143491 1.250615) (xy 0.132218 1.243507) (xy 0.110849 1.238119)
     (xy 0.087319 1.243533) (xy 0.084336 1.244737) (xy 0.060189 1.261516) (xy 0.046561 1.288657) (xy 0.042334 1.327810) (xy 0.039640 1.351197) (xy 0.029695 1.364066) (xy 0.023284 1.367475)
     (xy 0.008602 1.378546) (xy 0.004234 1.388533) (xy -0.149907 1.388533) (xy -0.154255 1.374568) (xy -0.161965 1.365940) (xy -0.172640 1.363178) (xy -0.174689 1.363133) (xy -0.185271 1.370179)
     (xy -0.190696 1.380684) (xy -0.195925 1.392644) (xy -0.203529 1.391199) (xy -0.212089 1.383916) (xy -0.230444 1.373981) (xy -0.256579 1.366942) (xy -0.264239 1.365901) (xy -0.304726 1.369637)
     (xy -0.340413 1.388039) (xy -0.369062 1.419035) (xy -0.388433 1.460551) (xy -0.394191 1.486226) (xy -0.394822 1.532237) (xy -0.534085 1.532237) (xy -0.535338 1.441192) (xy -0.536223 1.383991)
     (xy -0.537240 1.341495) (xy -0.538629 1.311474) (xy -0.540627 1.291701) (xy -0.543475 1.279946) (xy -0.547411 1.273980) (xy -0.552674 1.271576) (xy -0.553552 1.271393) (xy -0.570256 1.274070)
     (xy -0.576705 1.279750) (xy -0.578890 1.291353) (xy -0.580822 1.317178) (xy -0.582396 1.354510) (xy -0.583503 1.400639) (xy -0.584038 1.452851) (xy -0.584070 1.466429) (xy -0.812450 1.466429)
     (xy -0.812402 1.366096) (xy -0.812004 0.520700) (xy -0.789728 0.550333) (xy -0.766906 0.577621) (xy -0.734872 0.611876) (xy -0.697037 0.649839) (xy -0.656817 0.688251) (xy -0.617623 0.723852)
     (xy -0.582871 0.753384) (xy -0.555972 0.773586) (xy -0.555793 0.773704) (xy -0.438858 0.841399) (xy -0.318254 0.892570) (xy -0.194007 0.927211) (xy -0.066143 0.945313) (xy 0.011079 0.948232)
     (xy 0.141904 0.940114) (xy 0.267971 0.915851) (xy 0.388557 0.875744) (xy 0.502941 0.820092) (xy 0.610401 0.749197) (xy 0.710216 0.663357) (xy 0.720724 0.652990) (xy 0.808259 0.554191)
     (xy 0.880696 0.447817) (xy 0.938326 0.333360) (xy 0.981438 0.210311) (xy 0.988444 0.184235) (xy 0.996976 0.148952) (xy 1.003050 0.117730) (xy 1.007086 0.086299) (xy 1.009502 0.050393)
     (xy 1.010719 0.005742) (xy 1.011141 -0.046567) (xy 1.010924 -0.063500) (xy 1.123025 -0.063500) (xy 1.123408 0.001018) (xy 1.125507 0.052855) (xy 1.129622 0.096204) (xy 1.136054 0.135257)
     (xy 1.137862 0.143933) (xy 1.173498 0.270569) (xy 1.223499 0.389358) (xy 1.286889 0.499372) (xy 1.362692 0.599681) (xy 1.449933 0.689356) (xy 1.547636 0.767468) (xy 1.654825 0.833089)
     (xy 1.770524 0.885287) (xy 1.893757 0.923136) (xy 1.972734 0.938863) (xy 2.020687 0.944023) (xy 2.079458 0.946605) (xy 2.143138 0.946670) (xy 2.205820 0.944279) (xy 2.261594 0.939491)
     (xy 2.288455 0.935640) (xy 2.414019 0.905455) (xy 2.534168 0.860090) (xy 2.647267 0.800510) (xy 2.751679 0.727681) (xy 2.845769 0.642568) (xy 2.910692 0.568587) (xy 2.946401 0.523412)
     (xy 2.946456 0.699856) (xy 2.946599 0.759635) (xy 2.947117 0.804939) (xy 2.948212 0.838225) (xy 2.950084 0.861951) (xy 2.952933 0.878575) (xy 2.956960 0.890553) (xy 2.962366 0.900343)
     (xy 2.962880 0.901129) (xy 2.990828 0.931006) (xy 3.026097 0.945846) (xy 3.048001 0.947934) (xy 3.079427 0.942397) (xy 3.110558 0.927711) (xy 3.134447 0.907564) (xy 3.140360 0.898913)
     (xy 3.142051 0.887162) (xy 3.143610 0.858484) (xy 3.145036 0.812882) (xy 3.146328 0.750362) (xy 3.147488 0.670928) (xy 3.148514 0.574584) (xy 3.149408 0.461337) (xy 3.150168 0.331190)
     (xy 3.150795 0.184148) (xy 3.151278 0.024276) (xy 3.151615 -0.115431) (xy 3.151877 -0.239199) (xy 3.152049 -0.348020) (xy 3.152117 -0.442889) (xy 3.152066 -0.524800) (xy 3.151881 -0.594745)
     (xy 3.151547 -0.653718) (xy 3.151051 -0.702713) (xy 3.150377 -0.742724) (xy 3.149511 -0.774743) (xy 3.148438 -0.799765) (xy 3.147144 -0.818784) (xy 3.145614 -0.832792) (xy 3.143833 -0.842784)
     (xy 3.141787 -0.849753) (xy 3.139461 -0.854692) (xy 3.138316 -0.856521) (xy 3.116169 -0.878719) (xy 3.085741 -0.896506) (xy 3.054919 -0.905547) (xy 3.048417 -0.905934) (xy 3.019013 -0.899187)
     (xy 2.988209 -0.881524) (xy 2.964081 -0.858395) (xy 2.956494 -0.847016) (xy 2.951420 -0.833465) (xy 2.948366 -0.814252) (xy 2.946834 -0.785889) (xy 2.946330 -0.744886) (xy 2.946307 -0.733342)
     (xy 2.946213 -0.630767) (xy 2.923419 -0.660401) (xy 2.880513 -0.710979) (xy 2.828129 -0.764716) (xy 2.771391 -0.816812) (xy 2.715422 -0.862467) (xy 2.682851 -0.885770) (xy 2.569574 -0.951540)
     (xy 2.451211 -1.001579) (xy 2.329074 -1.035808) (xy 2.204470 -1.054147) (xy 2.078711 -1.056514) (xy 1.953105 -1.042829) (xy 1.828962 -1.013013) (xy 1.707592 -0.966985) (xy 1.667934 -0.948004)
     (xy 1.558382 -0.883390) (xy 1.458671 -0.805541) (xy 1.369725 -0.715618) (xy 1.292467 -0.614780) (xy 1.227819 -0.504187) (xy 1.176707 -0.385000) (xy 1.149280 -0.296334) (xy 1.139287 -0.256699)
     (xy 1.132248 -0.223426) (xy 1.127633 -0.191798) (xy 1.124909 -0.157097) (xy 1.123544 -0.114606) (xy 1.123025 -0.063500) (xy 1.010924 -0.063500) (xy 1.010128 -0.125406) (xy 1.005997 -0.192107)
     (xy 0.997995 -0.251301) (xy 0.985368 -0.307617) (xy 0.967363 -0.365685) (xy 0.952686 -0.405862) (xy 0.899074 -0.523996) (xy 0.833291 -0.631390) (xy 0.756568 -0.727653) (xy 0.670138 -0.812395)
     (xy 0.575233 -0.885222) (xy 0.473083 -0.945745) (xy 0.364923 -0.993571) (xy 0.251982 -1.028310) (xy 0.135494 -1.049570) (xy 0.016690 -1.056959) (xy -0.103197 -1.050087) (xy -0.222937 -1.028563)
     (xy -0.341296 -0.991994) (xy -0.457043 -0.939989) (xy -0.551841 -0.883765) (xy -0.586556 -0.858032) (xy -0.628228 -0.823084) (xy -0.672889 -0.782639) (xy -0.716567 -0.740418) (xy -0.755293 -0.700137)
     (xy -0.785094 -0.665518) (xy -0.785787 -0.664634) (xy -0.812232 -0.630767) (xy -0.812516 -0.735330) (xy -0.812800 -0.839894) (xy -0.841087 -0.868181) (xy -0.876303 -0.895027) (xy -0.911400 -0.904941)
     (xy -0.946488 -0.897923) (xy -0.981676 -0.873973) (xy -0.987712 -0.868181) (xy -1.016000 -0.839894) (xy -1.244600 -0.839894) (xy -1.244600 -1.100139) (xy -0.886883 -1.102520) (xy -0.799527 -1.103131)
     (xy -0.727504 -1.103749) (xy -0.669210 -1.104453) (xy -0.623044 -1.105325) (xy -0.587406 -1.106448) (xy -0.560693 -1.107900) (xy -0.541303 -1.109766) (xy -0.527636 -1.112124) (xy -0.518090 -1.115058)
     (xy -0.511063 -1.118647) (xy -0.506462 -1.121834) (xy -0.479556 -1.151113) (xy -0.466379 -1.185840) (xy -0.466435 -1.222280) (xy -0.479225 -1.256699) (xy -0.504251 -1.285364) (xy -0.530316 -1.300660)
     (xy -0.540889 -1.303707) (xy -0.557618 -1.306208) (xy -0.581971 -1.308209) (xy -0.615419 -1.309755) (xy -0.659430 -1.310893) (xy -0.715473 -1.311670) (xy -0.785018 -1.312131) (xy -0.869534 -1.312322)
     (xy -0.901428 -1.312334) (xy -1.244600 -1.312334) (xy -1.244600 -1.446691) (xy -1.242304 -1.544239) (xy -1.235163 -1.627039) (xy -1.222795 -1.696678) (xy -1.204815 -1.754744) (xy -1.180843 -1.802824)
     (xy -1.150495 -1.842504) (xy -1.148763 -1.844340) (xy -1.134390 -1.859215) (xy -1.121301 -1.871219) (xy -1.107546 -1.880690) (xy -1.091174 -1.887967) (xy -1.070238 -1.893389) (xy -1.042788 -1.897296)
     (xy -1.006874 -1.900026) (xy -0.960547 -1.901920) (xy -0.901859 -1.903315) (xy -0.828859 -1.904551) (xy -0.800100 -1.905000) (xy -0.724867 -1.906231) (xy -0.664691 -1.907406) (xy -0.617695 -1.908661)
     (xy -0.582003 -1.910131) (xy -0.555739 -1.911952) (xy -0.537027 -1.914258) (xy -0.523991 -1.917186) (xy -0.514755 -1.920870) (xy -0.507443 -1.925445) (xy -0.506462 -1.926167) (xy -0.480808 -1.952847)
     (xy -0.467977 -1.986775) (xy -0.465666 -2.015590) (xy -0.468842 -2.041353) (xy -0.480598 -2.063982) (xy -0.494638 -2.080808) (xy -0.523609 -2.112434) (xy -0.776154 -2.115075) (xy -0.867799 -2.115617)
     (xy -0.944374 -2.115178) (xy -1.005422 -2.113768) (xy -1.050485 -2.111398) (xy -1.079108 -2.108078) (xy -1.079500 -2.108004) (xy -1.157044 -2.084805) (xy -1.228076 -2.046835) (xy -1.291268 -1.995441)
     (xy -1.345295 -1.931974) (xy -1.388830 -1.857780) (xy -1.420548 -1.774207) (xy -1.425398 -1.756324) (xy -1.435013 -1.708513) (xy -1.443279 -1.647952) (xy -1.449818 -1.578796) (xy -1.454253 -1.505199)
     (xy -1.456207 -1.431315) (xy -1.456266 -1.416697) (xy -1.456266 -1.312334) (xy -1.541205 -1.312334) (xy -1.601180 -1.309914) (xy -1.646591 -1.301982) (xy -1.679198 -1.287531) (xy -1.700760 -1.265552)
     (xy -1.713036 -1.235036) (xy -1.716720 -1.211771) (xy -1.718015 -1.185835) (xy -4.123393 -1.185835) (xy -4.100454 -1.262168) (xy -4.014119 -1.496468) (xy -3.912394 -1.729154) (xy -3.891076 -1.773767)
     (xy -3.773371 -2.000642) (xy -3.645607 -2.215365) (xy -3.506421 -2.419828) (xy -3.354452 -2.615921) (xy -3.188337 -2.805537) (xy -3.034247 -2.963769) (xy -2.855671 -3.130234) (xy -2.674185 -3.281696)
     (xy -2.487063 -3.420086) (xy -2.291580 -3.547334) (xy -2.085011 -3.665370) (xy -1.934633 -3.742432) (xy -1.713632 -3.843995) (xy -1.493224 -3.931181) (xy -1.270936 -4.004681) (xy -1.044292 -4.065185)
     (xy -0.810818 -4.113386) (xy -0.568039 -4.149973) (xy -0.414866 -4.166832) (xy -0.398266 -4.167965) (xy -0.372521 -4.169036) (xy -0.337205 -4.170046) (xy -0.291892 -4.170998) (xy -0.236154 -4.171894)
     (xy -0.169566 -4.172738) (xy -0.091701 -4.173531) (xy -0.002133 -4.174275) (xy 0.099564 -4.174973) (xy 0.213818 -4.175628) (xy 0.341055 -4.176241) (xy 0.481700 -4.176816) (xy 0.636181 -4.177354)
     (xy 0.804924 -4.177858) (xy 0.988355 -4.178331) (xy 1.186901 -4.178774) (xy 1.400988 -4.179190) (xy 1.631043 -4.179582) (xy 1.877492 -4.179952) (xy 1.945486 -4.180046) (xy 4.200004 -4.183127)
     (xy 4.196951 -1.928580) )(layer F.SilkS) (width  0.010000)
  )
  (fp_poly (pts (xy 0.071526 -0.841932) (xy 0.113416 -0.840496) (xy 0.146822 -0.837624) (xy 0.175964 -0.832907) (xy 0.205062 -0.825931) (xy 0.215900 -0.822912) (xy 0.327504 -0.782592) (xy 0.430219 -0.728326)
     (xy 0.523059 -0.660992) (xy 0.605039 -0.581465) (xy 0.675173 -0.490621) (xy 0.732477 -0.389336) (xy 0.751160 -0.347134) (xy 0.779389 -0.263873) (xy 0.796680 -0.176639) (xy 0.803847 -0.080906)
     (xy 0.804151 -0.052012) (xy 0.796628 0.063832) (xy 0.774238 0.172104) (xy 0.736580 0.273797) (xy 0.683253 0.369908) (xy 0.613854 0.461428) (xy 0.583250 0.495141) (xy 0.497967 0.573095)
     (xy 0.404439 0.636435) (xy 0.303463 0.684863) (xy 0.195834 0.718084) (xy 0.082349 0.735802) (xy -0.036197 0.737719) (xy -0.063500 0.735942) (xy -0.172020 0.719025) (xy -0.275980 0.686680)
     (xy -0.374003 0.640111) (xy -0.464716 0.580520) (xy -0.546741 0.509111) (xy -0.618705 0.427087) (xy -0.679232 0.335652) (xy -0.726945 0.236008) (xy -0.760471 0.129358) (xy -0.761405 0.125365)
     (xy -0.777972 0.037301) (xy -0.784481 -0.042244) (xy -0.781263 -0.118123) (xy -0.779169 -0.135664) (xy -0.755701 -0.255268) (xy -0.718383 -0.365223) (xy -0.667064 -0.465833) (xy -0.601594 -0.557405)
     (xy -0.535336 -0.627765) (xy -0.486591 -0.671596) (xy -0.441890 -0.706230) (xy -0.395130 -0.735806) (xy -0.340212 -0.764465) (xy -0.319008 -0.774543) (xy -0.261509 -0.799681) (xy -0.209443 -0.818018)
     (xy -0.158132 -0.830501) (xy -0.102896 -0.838072) (xy -0.039055 -0.841678) (xy 0.016934 -0.842347) (xy 0.071526 -0.841932) )(layer F.SilkS) (width  0.010000)
  )
  (fp_poly (pts (xy -0.444204 1.919075) (xy -0.442083 1.919715) (xy -0.418431 1.935557) (xy -0.401572 1.962644) (xy -0.392111 1.996458) (xy -0.390656 2.032481) (xy -0.397815 2.066194) (xy -0.414194 2.093080)
     (xy -0.418271 2.096934) (xy -0.447940 2.113661) (xy -0.477588 2.114286) (xy -0.504645 2.098853) (xy -0.508108 2.095384) (xy -0.521906 2.071039) (xy -0.530245 2.037174) (xy -0.532409 2.000521)
     (xy -0.527685 1.967815) (xy -0.522922 1.955799) (xy -0.502170 1.931809) (xy -0.473988 1.918701) (xy -0.444204 1.919075) )(layer F.SilkS) (width  0.010000)
  )
  (fp_poly (pts (xy 0.020357 1.921625) (xy 0.043331 1.938768) (xy 0.058949 1.967341) (xy 0.066192 2.003070) (xy 0.064037 2.041681) (xy 0.055751 2.069690) (xy 0.036704 2.097923) (xy 0.010606 2.113885)
     (xy -0.018549 2.116358) (xy -0.046767 2.104122) (xy -0.049614 2.101849) (xy -0.062429 2.084728) (xy -0.074008 2.059006) (xy -0.077458 2.047749) (xy -0.081955 2.007379) (xy -0.075039 1.971516)
     (xy -0.058698 1.942727) (xy -0.034924 1.923576) (xy -0.005705 1.916630) (xy 0.020357 1.921625) )(layer F.SilkS) (width  0.010000)
  )
  (fp_poly (pts (xy 1.331485 1.928626) (xy 1.353199 1.949886) (xy 1.367011 1.979951) (xy 1.371339 2.016210) (xy 1.364601 2.056051) (xy 1.359617 2.069690) (xy 1.340019 2.098449) (xy 1.312778 2.114290)
     (xy 1.281660 2.115820) (xy 1.258624 2.107077) (xy 1.243039 2.090775) (xy 1.229357 2.064488) (xy 1.220696 2.035124) (xy 1.219201 2.019743) (xy 1.224309 1.986131) (xy 1.237704 1.954917)
     (xy 1.256494 1.931541) (xy 1.270684 1.922963) (xy 1.303453 1.918782) (xy 1.331485 1.928626) )(layer F.SilkS) (width  0.010000)
  )
  (fp_poly (pts (xy 2.190793 1.922806) (xy 2.211880 1.938239) (xy 2.215131 1.941878) (xy 2.228690 1.961993) (xy 2.235119 1.980093) (xy 2.235201 1.981672) (xy 2.233747 1.989685) (xy 2.227188 1.994581)
     (xy 2.212224 1.997113) (xy 2.185559 1.998037) (xy 2.163234 1.998133) (xy 2.128200 1.997800) (xy 2.106796 1.996300) (xy 2.095724 1.992877) (xy 2.091686 1.986778) (xy 2.091267 1.981672)
     (xy 2.096573 1.964382) (xy 2.109528 1.944048) (xy 2.111337 1.941878) (xy 2.132214 1.924361) (xy 2.158194 1.918635) (xy 2.163234 1.918546) (xy 2.190793 1.922806) )(layer F.SilkS) (width  0.010000)
  )
  (fp_poly (pts (xy 2.717348 1.927410) (xy 2.729218 1.937511) (xy 2.740950 1.956519) (xy 2.747692 1.974849) (xy 2.753503 1.998133) (xy 2.680618 1.998133) (xy 2.645475 1.997894) (xy 2.623954 1.996597)
     (xy 2.612746 1.993376) (xy 2.608540 1.987360) (xy 2.608003 1.979083) (xy 2.615716 1.951939) (xy 2.635007 1.931657) (xy 2.661375 1.919779) (xy 2.690322 1.917849) (xy 2.717348 1.927410) )(layer F.SilkS) (width  0.010000)
  )
  (fp_poly (pts (xy 0.437648 1.920824) (xy 0.463179 1.938318) (xy 0.477773 1.959977) (xy 0.486524 1.979680) (xy 0.490939 1.992089) (xy 0.491067 1.993062) (xy 0.483227 1.995283) (xy 0.462211 1.997010)
     (xy 0.431774 1.997995) (xy 0.413949 1.998133) (xy 0.336831 1.998133) (xy 0.342642 1.974849) (xy 0.357449 1.943610) (xy 0.380844 1.923904) (xy 0.408890 1.916164) (xy 0.437648 1.920824) )(layer F.SilkS) (width  0.010000)
  )
  (fp_poly (pts (xy -0.248941 1.413304) (xy -0.222991 1.435059) (xy -0.213290 1.447911) (xy -0.200296 1.471703) (xy -0.196003 1.496078) (xy -0.197029 1.518280) (xy -0.206475 1.560832) (xy -0.225414 1.589940)
     (xy -0.253476 1.605124) (xy -0.265305 1.607053) (xy -0.292227 1.605273) (xy -0.313457 1.592187) (xy -0.316819 1.588949) (xy -0.336651 1.558052) (xy -0.344587 1.520535) (xy -0.341042 1.481403)
     (xy -0.326435 1.445660) (xy -0.302700 1.419409) (xy -0.275752 1.408011) (xy -0.248941 1.413304) )(layer F.SilkS) (width  0.010000)
  )
  (fp_poly (pts (xy 0.303824 1.413401) (xy 0.328632 1.431578) (xy 0.343455 1.454398) (xy 0.353384 1.489967) (xy 0.353459 1.528869) (xy 0.344329 1.564684) (xy 0.329941 1.587776) (xy 0.304432 1.604409)
     (xy 0.274801 1.608498) (xy 0.247112 1.599755) (xy 0.237514 1.592179) (xy 0.219029 1.563438) (xy 0.208915 1.526159) (xy 0.208721 1.487306) (xy 0.211305 1.474544) (xy 0.226882 1.440178)
     (xy 0.249676 1.418200) (xy 0.276414 1.409108) (xy 0.303824 1.413401) )(layer F.SilkS) (width  0.010000)
  )
  (fp_poly (pts (xy 1.230082 1.423043) (xy 1.251230 1.448049) (xy 1.261790 1.474152) (xy 1.265482 1.507278) (xy 1.261292 1.542462) (xy 1.250628 1.573688) (xy 1.234902 1.594943) (xy 1.233176 1.596238)
     (xy 1.207981 1.606494) (xy 1.179909 1.607507) (xy 1.156211 1.599482) (xy 1.149634 1.593850) (xy 1.125726 1.554438) (xy 1.117445 1.510675) (xy 1.125203 1.465642) (xy 1.130709 1.452369)
     (xy 1.151071 1.424522) (xy 1.176653 1.410723) (xy 1.204107 1.410415) (xy 1.230082 1.423043) )(layer F.SilkS) (width  0.010000)
  )
  (fp_poly (pts (xy 1.767174 1.410108) (xy 1.782558 1.416616) (xy 1.806604 1.435793) (xy 1.821674 1.463546) (xy 1.828243 1.496253) (xy 1.826786 1.530294) (xy 1.817776 1.562047) (xy 1.801688 1.587891)
     (xy 1.778998 1.604205) (xy 1.757475 1.607998) (xy 1.735327 1.606172) (xy 1.720672 1.602999) (xy 1.706085 1.589459) (xy 1.693592 1.564493) (xy 1.685418 1.533611) (xy 1.683456 1.510864)
     (xy 1.689288 1.466853) (xy 1.706339 1.433977) (xy 1.730551 1.415110) (xy 1.749900 1.408156) (xy 1.767174 1.410108) )(layer F.SilkS) (width  0.010000)
  )
  (fp_poly (pts (xy -2.609997 -0.841123) (xy -2.496762 -0.818907) (xy -2.442633 -0.802407) (xy -2.346523 -0.761012) (xy -2.255293 -0.704966) (xy -2.171101 -0.636334) (xy -2.096105 -0.557178) (xy -2.032464 -0.469561)
     (xy -1.982334 -0.375547) (xy -1.973018 -0.353425) (xy -1.951826 -0.296979) (xy -1.936726 -0.246791) (xy -1.926810 -0.197730) (xy -1.921169 -0.144665) (xy -1.918898 -0.082468) (xy -1.918741 -0.046567)
     (xy -1.919206 0.005454) (xy -1.920594 0.045022) (xy -1.923421 0.076612) (xy -1.928203 0.104700) (xy -1.935455 0.133762) (xy -1.942142 0.156633) (xy -1.984008 0.267940) (xy -2.038753 0.369418)
     (xy -2.105244 0.460294) (xy -2.182347 0.539797) (xy -2.268932 0.607153) (xy -2.363863 0.661590) (xy -2.466009 0.702335) (xy -2.574236 0.728615) (xy -2.687412 0.739658) (xy -2.791675 0.736017)
     (xy -2.901805 0.716965) (xy -3.007961 0.681822) (xy -3.108872 0.631214) (xy -3.203266 0.565765) (xy -3.280833 0.495470) (xy -3.353955 0.409111) (xy -3.412835 0.314987) (xy -3.457309 0.214745)
     (xy -3.487212 0.110031) (xy -3.502381 0.002491) (xy -3.502650 -0.106229) (xy -3.487856 -0.214483) (xy -3.457835 -0.320626) (xy -3.412422 -0.423010) (xy -3.378266 -0.481107) (xy -3.308610 -0.573926)
     (xy -3.228632 -0.654039) (xy -3.139725 -0.720969) (xy -3.043282 -0.774237) (xy -2.940694 -0.813365) (xy -2.833356 -0.837874) (xy -2.722659 -0.847286) (xy -2.609997 -0.841123) )(layer F.SilkS) (width  0.010000)
  )
  (fp_poly (pts (xy 2.164700 -0.844273) (xy 2.237021 -0.838889) (xy 2.301343 -0.828815) (xy 2.324288 -0.823289) (xy 2.429901 -0.786997) (xy 2.526077 -0.737987) (xy 2.615548 -0.674707) (xy 2.668587 -0.627881)
     (xy 2.748439 -0.541371) (xy 2.812897 -0.448208) (xy 2.862492 -0.347489) (xy 2.897431 -0.239619) (xy 2.911172 -0.162096) (xy 2.916816 -0.076034) (xy 2.914426 0.012271) (xy 2.904067 0.096523)
     (xy 2.893521 0.144524) (xy 2.856122 0.253407) (xy 2.804608 0.354313) (xy 2.740173 0.446059) (xy 2.664009 0.527458) (xy 2.577309 0.597327) (xy 2.481266 0.654480) (xy 2.377072 0.697733)
     (xy 2.319867 0.714388) (xy 2.218904 0.733313) (xy 2.117273 0.738960) (xy 2.043187 0.735346) (xy 1.973895 0.726329) (xy 1.908766 0.710847) (xy 1.841668 0.687172) (xy 1.786467 0.663049)
     (xy 1.686073 0.607186) (xy 1.595697 0.538208) (xy 1.516389 0.457363) (xy 1.449201 0.365900) (xy 1.395183 0.265068) (xy 1.355388 0.156117) (xy 1.353148 0.148166) (xy 1.341693 0.091288)
     (xy 1.334755 0.023447) (xy 1.332336 -0.049997) (xy 1.334437 -0.123688) (xy 1.341060 -0.192265) (xy 1.352207 -0.250373) (xy 1.353027 -0.253435) (xy 1.391641 -0.363897) (xy 1.444281 -0.465737)
     (xy 1.509870 -0.557927) (xy 1.587330 -0.639439) (xy 1.675584 -0.709245) (xy 1.773553 -0.766317) (xy 1.880162 -0.809627) (xy 1.958576 -0.831035) (xy 2.019595 -0.840470) (xy 2.090264 -0.844842)
     (xy 2.164700 -0.844273) )(layer F.SilkS) (width  0.010000)
  )
)
