(module LOGO (layer F.Cu)
  (at 0 0)
 (fp_text reference "G***" (at 0 0) (layer F.SilkS) hide
  (effects (font (thickness 0.3)))
  )
  (fp_text value "LOGO" (at 0.75 0) (layer F.SilkS) hide
  (effects (font (thickness 0.3)))
  )
  (fp_poly (pts (xy 5.731856 0.916208) (xy 5.738479 0.922601) (xy 5.740271 0.932735) (xy 5.732359 0.936490) (xy 5.709774 0.943436) (xy 5.674380 0.953120) (xy 5.628041 0.965089) (xy 5.572621 0.978893)
     (xy 5.509984 0.994078) (xy 5.441993 1.010192) (xy 5.370512 1.026785) (xy 5.297407 1.043403) (xy 5.224539 1.059594) (xy 5.156200 1.074390) (xy 4.672467 1.170964) (xy 4.187754 1.254614)
     (xy 3.704788 1.324929) (xy 3.226297 1.381498) (xy 2.933700 1.409434) (xy 2.876322 1.414262) (xy 2.817608 1.418897) (xy 2.754822 1.423530) (xy 2.685229 1.428352) (xy 2.606094 1.433554)
     (xy 2.514682 1.439329) (xy 2.442634 1.443770) (xy 2.338059 1.449281) (xy 2.220591 1.453925) (xy 2.093590 1.457666) (xy 1.960414 1.460470) (xy 1.824420 1.462303) (xy 1.688967 1.463130)
     (xy 1.557414 1.462917) (xy 1.433119 1.461629) (xy 1.319441 1.459232) (xy 1.231900 1.456221) (xy 1.148573 1.452589) (xy 1.080607 1.449326) (xy 1.026440 1.446261) (xy 0.984508 1.443225)
     (xy 0.953249 1.440047) (xy 0.931099 1.436558) (xy 0.916495 1.432588) (xy 0.907873 1.427967) (xy 0.903672 1.422526) (xy 0.902975 1.420469) (xy 0.901603 1.411372) (xy 0.905815 1.406690)
     (xy 0.919025 1.405629) (xy 0.944649 1.407392) (xy 0.955103 1.408339) (xy 1.022276 1.413465) (xy 1.104151 1.417941) (xy 1.198510 1.421722) (xy 1.303132 1.424763) (xy 1.415798 1.427017)
     (xy 1.534288 1.428440) (xy 1.656382 1.428986) (xy 1.779862 1.428608) (xy 1.888067 1.427475) (xy 1.968991 1.426270) (xy 2.045398 1.425020) (xy 2.115479 1.423761) (xy 2.177428 1.422532)
     (xy 2.229435 1.421369) (xy 2.269692 1.420312) (xy 2.296392 1.419396) (xy 2.307167 1.418747) (xy 2.324524 1.417261) (xy 2.355046 1.415310) (xy 2.394977 1.413109) (xy 2.440561 1.410874)
     (xy 2.459567 1.410017) (xy 2.507751 1.407783) (xy 2.553130 1.405465) (xy 2.591490 1.403295) (xy 2.618618 1.401501) (xy 2.624667 1.401005) (xy 2.653701 1.398537) (xy 2.690789 1.395582)
     (xy 2.722034 1.393216) (xy 3.027921 1.367618) (xy 3.341431 1.335375) (xy 3.659661 1.296946) (xy 3.979711 1.252791) (xy 4.298680 1.203368) (xy 4.613667 1.149136) (xy 4.921770 1.090555)
     (xy 5.220088 1.028084) (xy 5.505720 0.962181) (xy 5.611402 0.936064) (xy 5.660187 0.924167) (xy 5.694999 0.916932) (xy 5.718126 0.914299) (xy 5.731856 0.916208) )(layer F.SilkS) (width  0.010000)
  )
  (fp_poly (pts (xy -0.750604 1.130154) (xy -0.720535 1.136869) (xy -0.677930 1.147902) (xy -0.657431 1.153445) (xy -0.460287 1.203393) (xy -0.250745 1.249501) (xy -0.033057 1.291028) (xy 0.188529 1.327233)
     (xy 0.409762 1.357376) (xy 0.626392 1.380717) (xy 0.668867 1.384510) (xy 0.719740 1.388999) (xy 0.765725 1.393264) (xy 0.803782 1.397005) (xy 0.830868 1.399925) (xy 0.843616 1.401656)
     (xy 0.858445 1.409030) (xy 0.867854 1.420793) (xy 0.867958 1.431260) (xy 0.865347 1.433430) (xy 0.855412 1.433652) (xy 0.831356 1.432406) (xy 0.795906 1.429888) (xy 0.751794 1.426291)
     (xy 0.701749 1.421810) (xy 0.700469 1.421690) (xy 0.397550 1.388852) (xy 0.107392 1.348052) (xy -0.172366 1.298947) (xy -0.254000 1.282671) (xy -0.302571 1.272328) (xy -0.359081 1.259657)
     (xy -0.420879 1.245314) (xy -0.485315 1.229955) (xy -0.549738 1.214236) (xy -0.611495 1.198813) (xy -0.667937 1.184342) (xy -0.716412 1.171479) (xy -0.754270 1.160881) (xy -0.778858 1.153202)
     (xy -0.782303 1.151939) (xy -0.798307 1.144701) (xy -0.800098 1.138670) (xy -0.792035 1.131641) (xy -0.783711 1.127968) (xy -0.770782 1.127330) (xy -0.750604 1.130154) )(layer F.SilkS) (width  0.010000)
  )
  (fp_poly (pts (xy 0.919345 1.291514) (xy 0.950819 1.293543) (xy 0.981352 1.296449) (xy 1.006500 1.300006) (xy 1.007534 1.300196) (xy 1.022397 1.301556) (xy 1.048090 1.302676) (xy 1.073150 1.303219)
     (xy 1.102217 1.304141) (xy 1.118176 1.306869) (xy 1.124847 1.312705) (xy 1.126067 1.321244) (xy 1.124734 1.328349) (xy 1.119333 1.333277) (xy 1.107758 1.336102) (xy 1.087904 1.336903)
     (xy 1.057666 1.335754) (xy 1.014939 1.332733) (xy 0.957617 1.327915) (xy 0.953031 1.327515) (xy 0.911600 1.322786) (xy 0.884603 1.316602) (xy 0.869548 1.307999) (xy 0.863941 1.296010)
     (xy 0.863730 1.292930) (xy 0.871355 1.290983) (xy 0.891375 1.290586) (xy 0.919345 1.291514) )(layer F.SilkS) (width  0.010000)
  )
  (fp_poly (pts (xy -0.491474 0.936907) (xy -0.464454 0.946528) (xy -0.425535 0.962069) (xy -0.403933 0.970991) (xy -0.219623 1.041559) (xy -0.022324 1.105808) (xy 0.184951 1.162960) (xy 0.399189 1.212235)
     (xy 0.617377 1.252854) (xy 0.778837 1.276780) (xy 0.808214 1.282273) (xy 0.823732 1.289772) (xy 0.828141 1.297620) (xy 0.827084 1.305148) (xy 0.819200 1.309686) (xy 0.802632 1.311198)
     (xy 0.775521 1.309649) (xy 0.736008 1.305003) (xy 0.682233 1.297227) (xy 0.664633 1.294525) (xy 0.411508 1.249088) (xy 0.165166 1.192398) (xy -0.072400 1.125005) (xy -0.299199 1.047459)
     (xy -0.457200 0.984594) (xy -0.493328 0.969293) (xy -0.516345 0.959108) (xy -0.528647 0.952359) (xy -0.532634 0.947368) (xy -0.530704 0.942458) (xy -0.525790 0.936599) (xy -0.519676 0.932638)
     (xy -0.509059 0.932509) (xy -0.491474 0.936907) )(layer F.SilkS) (width  0.010000)
  )
  (fp_poly (pts (xy 3.575886 1.093788) (xy 3.579270 1.105383) (xy 3.573605 1.117088) (xy 3.567065 1.120665) (xy 3.549784 1.124658) (xy 3.518667 1.130763) (xy 3.476610 1.138487) (xy 3.426509 1.147335)
     (xy 3.371260 1.156813) (xy 3.313758 1.166426) (xy 3.256900 1.175680) (xy 3.203580 1.184082) (xy 3.156695 1.191136) (xy 3.141134 1.193366) (xy 2.956316 1.217257) (xy 2.762909 1.238341)
     (xy 2.567386 1.256022) (xy 2.376217 1.269703) (xy 2.226734 1.277542) (xy 2.177164 1.279401) (xy 2.120825 1.281085) (xy 2.060043 1.282567) (xy 1.997145 1.283821) (xy 1.934457 1.284819)
     (xy 1.874306 1.285534) (xy 1.819020 1.285941) (xy 1.770924 1.286012) (xy 1.732345 1.285720) (xy 1.705610 1.285038) (xy 1.693045 1.283941) (xy 1.692460 1.283690) (xy 1.683290 1.282399)
     (xy 1.660122 1.280709) (xy 1.625882 1.278791) (xy 1.583495 1.276815) (xy 1.553634 1.275605) (xy 1.457227 1.270960) (xy 1.356377 1.264358) (xy 1.254497 1.256132) (xy 1.155001 1.246615)
     (xy 1.061305 1.236142) (xy 0.976823 1.225045) (xy 0.904969 1.213658) (xy 0.888732 1.210683) (xy 0.863635 1.205991) (xy 0.846607 1.202936) (xy 0.842265 1.202267) (xy 0.838772 1.195288)
     (xy 0.835609 1.184804) (xy 0.834565 1.172680) (xy 0.843469 1.170242) (xy 0.853671 1.171920) (xy 0.903502 1.180803) (xy 0.967071 1.190269) (xy 1.041209 1.199973) (xy 1.122747 1.209569)
     (xy 1.208514 1.218712) (xy 1.295342 1.227058) (xy 1.380061 1.234261) (xy 1.459502 1.239977) (xy 1.501558 1.242456) (xy 1.556776 1.244772) (xy 1.622850 1.246515) (xy 1.697604 1.247706)
     (xy 1.778866 1.248370) (xy 1.864460 1.248531) (xy 1.952212 1.248211) (xy 2.039949 1.247435) (xy 2.125496 1.246227) (xy 2.206680 1.244609) (xy 2.281325 1.242606) (xy 2.347259 1.240241)
     (xy 2.402306 1.237538) (xy 2.444294 1.234521) (xy 2.466588 1.231963) (xy 2.482909 1.230171) (xy 2.511258 1.227717) (xy 2.546766 1.225010) (xy 2.565400 1.223707) (xy 2.650108 1.216966)
     (xy 2.747708 1.207497) (xy 2.854466 1.195775) (xy 2.966648 1.182278) (xy 3.080519 1.167481) (xy 3.192345 1.151860) (xy 3.298390 1.135892) (xy 3.394920 1.120052) (xy 3.437467 1.112509)
     (xy 3.480270 1.104725) (xy 3.517671 1.097979) (xy 3.546209 1.092891) (xy 3.562425 1.090081) (xy 3.564160 1.089805) (xy 3.575886 1.093788) )(layer F.SilkS) (width  0.010000)
  )
  (fp_poly (pts (xy 2.041980 0.157235) (xy 2.088234 0.177498) (xy 2.125932 0.210821) (xy 2.129590 0.215440) (xy 2.153739 0.257722) (xy 2.170596 0.312328) (xy 2.180616 0.380824) (xy 2.181653 0.393700)
     (xy 2.180147 0.482499) (xy 2.163212 0.568447) (xy 2.131684 0.649107) (xy 2.086397 0.722045) (xy 2.057406 0.756413) (xy 2.000030 0.808458) (xy 1.940425 0.844872) (xy 1.879599 0.865432)
     (xy 1.818558 0.869916) (xy 1.758311 0.858099) (xy 1.706805 0.834074) (xy 1.681375 0.819060) (xy 1.666845 0.812170) (xy 1.659659 0.812708) (xy 1.656261 0.819980) (xy 1.655305 0.824004)
     (xy 1.650677 0.846153) (xy 1.644414 0.878482) (xy 1.637083 0.917793) (xy 1.629249 0.960888) (xy 1.621480 1.004567) (xy 1.614341 1.045633) (xy 1.608400 1.080886) (xy 1.604224 1.107129)
     (xy 1.602378 1.121161) (xy 1.602409 1.122632) (xy 1.614737 1.126460) (xy 1.642076 1.129588) (xy 1.682520 1.132036) (xy 1.734163 1.133826) (xy 1.795099 1.134979) (xy 1.863421 1.135516)
     (xy 1.937222 1.135458) (xy 2.014597 1.134827) (xy 2.093639 1.133644) (xy 2.172442 1.131931) (xy 2.249099 1.129708) (xy 2.321705 1.126996) (xy 2.388352 1.123818) (xy 2.447134 1.120195)
     (xy 2.496145 1.116146) (xy 2.529417 1.112287) (xy 2.552025 1.110004) (xy 2.562518 1.112631) (xy 2.565358 1.121623) (xy 2.565400 1.124015) (xy 2.562245 1.134865) (xy 2.550120 1.141436)
     (xy 2.525184 1.145877) (xy 2.469471 1.151547) (xy 2.399449 1.156504) (xy 2.317728 1.160663) (xy 2.226920 1.163936) (xy 2.129637 1.166237) (xy 2.028490 1.167482) (xy 1.926091 1.167584)
     (xy 1.877745 1.167206) (xy 1.592517 1.164127) (xy 1.587730 1.183197) (xy 1.585262 1.190621) (xy 1.580433 1.195815) (xy 1.570576 1.199178) (xy 1.553025 1.201107) (xy 1.525113 1.201999)
     (xy 1.484175 1.202254) (xy 1.459955 1.202267) (xy 1.336966 1.202267) (xy 1.347818 1.144421) (xy 1.298326 1.138681) (xy 1.228542 1.129992) (xy 1.150434 1.119276) (xy 1.070021 1.107425)
     (xy 0.993324 1.095333) (xy 0.926361 1.083891) (xy 0.915717 1.081952) (xy 0.868847 1.072753) (xy 0.836373 1.064876) (xy 0.815887 1.057578) (xy 0.804977 1.050113) (xy 0.802848 1.047091)
     (xy 0.797268 1.033447) (xy 0.797298 1.028849) (xy 0.806187 1.029369) (xy 0.828380 1.032710) (xy 0.860583 1.038329) (xy 0.899504 1.045682) (xy 0.901700 1.046111) (xy 0.953257 1.055696)
     (xy 1.009876 1.065349) (xy 1.069115 1.074746) (xy 1.128534 1.083559) (xy 1.185691 1.091464) (xy 1.238145 1.098135) (xy 1.283457 1.103246) (xy 1.319184 1.106471) (xy 1.342886 1.107484)
     (xy 1.351954 1.106202) (xy 1.354272 1.097310) (xy 1.359379 1.073309) (xy 1.366975 1.035738) (xy 1.376760 0.986137) (xy 1.388433 0.926047) (xy 1.401694 0.857006) (xy 1.416244 0.780555)
     (xy 1.431782 0.698233) (xy 1.439951 0.654694) (xy 1.440780 0.650267) (xy 1.685551 0.650267) (xy 1.689394 0.681049) (xy 1.700614 0.702898) (xy 1.720257 0.719393) (xy 1.721077 0.719898)
     (xy 1.757394 0.734613) (xy 1.791018 0.732685) (xy 1.812100 0.722172) (xy 1.846832 0.688930) (xy 1.876112 0.642376) (xy 1.898862 0.585554) (xy 1.914008 0.521510) (xy 1.920471 0.453290)
     (xy 1.920024 0.416789) (xy 1.914797 0.367031) (xy 1.904343 0.331964) (xy 1.887757 0.309904) (xy 1.864134 0.299170) (xy 1.856051 0.297956) (xy 1.826124 0.303132) (xy 1.796622 0.323393)
     (xy 1.768543 0.356904) (xy 1.742887 0.401827) (xy 1.720653 0.456325) (xy 1.702838 0.518560) (xy 1.690443 0.586696) (xy 1.688039 0.606975) (xy 1.685551 0.650267) (xy 1.440780 0.650267)
     (xy 1.455960 0.569267) (xy 1.471148 0.488345) (xy 1.485209 0.413555) (xy 1.497837 0.346521) (xy 1.508724 0.288868) (xy 1.517564 0.242222) (xy 1.524050 0.208208) (xy 1.527876 0.188452)
     (xy 1.528667 0.184558) (xy 1.533633 0.161682) (xy 1.649467 0.162238) (xy 1.692133 0.162665) (xy 1.728545 0.163448) (xy 1.755440 0.164486) (xy 1.769559 0.165678) (xy 1.770769 0.166019)
     (xy 1.772608 0.175491) (xy 1.770333 0.194957) (xy 1.769120 0.200801) (xy 1.765166 0.221675) (xy 1.764265 0.233968) (xy 1.764624 0.234979) (xy 1.772435 0.232067) (xy 1.790272 0.221888)
     (xy 1.812519 0.207784) (xy 1.872441 0.175308) (xy 1.932029 0.156091) (xy 1.989227 0.150083) (xy 2.041980 0.157235) )(layer F.SilkS) (width  0.010000)
  )
  (fp_poly (pts (xy -0.314962 0.773909) (xy -0.297122 0.781845) (xy -0.281768 0.790344) (xy -0.115239 0.877148) (xy 0.064000 0.955839) (xy 0.253312 1.025461) (xy 0.450061 1.085055) (xy 0.651609 1.133667)
     (xy 0.681182 1.139768) (xy 0.727753 1.149477) (xy 0.760059 1.157139) (xy 0.780526 1.163570) (xy 0.791580 1.169586) (xy 0.795645 1.176003) (xy 0.795867 1.178360) (xy 0.795216 1.185415)
     (xy 0.791804 1.189968) (xy 0.783445 1.191827) (xy 0.767951 1.190801) (xy 0.743137 1.186698) (xy 0.706814 1.179326) (xy 0.656797 1.168495) (xy 0.639233 1.164639) (xy 0.418672 1.110098)
     (xy 0.211551 1.046299) (xy 0.016909 0.972901) (xy -0.166210 0.889558) (xy -0.252276 0.844849) (xy -0.291473 0.823323) (xy -0.317616 0.807978) (xy -0.332709 0.797250) (xy -0.338757 0.789573)
     (xy -0.337761 0.783382) (xy -0.335078 0.780183) (xy -0.326033 0.773657) (xy -0.314962 0.773909) )(layer F.SilkS) (width  0.010000)
  )
  (fp_poly (pts (xy -2.264931 0.410489) (xy -2.240350 0.422181) (xy -2.206317 0.442878) (xy -2.161131 0.473526) (xy -2.159000 0.475020) (xy -1.963974 0.602994) (xy -1.755464 0.722971) (xy -1.535373 0.834016)
     (xy -1.305606 0.935193) (xy -1.068069 1.025568) (xy -0.967323 1.059792) (xy -0.922454 1.075022) (xy -0.884036 1.089056) (xy -0.854620 1.100879) (xy -0.836759 1.109477) (xy -0.832509 1.113367)
     (xy -0.839856 1.120938) (xy -0.856178 1.122957) (xy -0.882946 1.119166) (xy -0.921629 1.109304) (xy -0.973695 1.093112) (xy -1.003300 1.083210) (xy -1.180785 1.019375) (xy -1.356201 0.949496)
     (xy -1.525697 0.875247) (xy -1.685423 0.798305) (xy -1.811866 0.731352) (xy -1.854193 0.707077) (xy -1.904394 0.677039) (xy -1.959929 0.642876) (xy -2.018258 0.606227) (xy -2.076840 0.568730)
     (xy -2.133135 0.532022) (xy -2.184602 0.497744) (xy -2.228701 0.467531) (xy -2.262891 0.443024) (xy -2.281766 0.428322) (xy -2.307166 0.407009) (xy -2.281766 0.406856) (xy -2.264931 0.410489) )(layer F.SilkS) (width  0.010000)
  )
  (fp_poly (pts (xy 0.257801 -0.109577) (xy 0.296347 -0.108057) (xy 0.320009 -0.105430) (xy 0.329801 -0.101620) (xy 0.330200 -0.100469) (xy 0.328683 -0.090419) (xy 0.324337 -0.065425) (xy 0.317474 -0.027181)
     (xy 0.308402 0.022617) (xy 0.297434 0.082273) (xy 0.284877 0.150093) (xy 0.271044 0.224380) (xy 0.258233 0.292838) (xy 0.243546 0.371336) (xy 0.229865 0.444812) (xy 0.217502 0.511575)
     (xy 0.206766 0.569934) (xy 0.197967 0.618198) (xy 0.191415 0.654676) (xy 0.187421 0.677676) (xy 0.186267 0.685407) (xy 0.194686 0.688984) (xy 0.219800 0.691651) (xy 0.261396 0.693396)
     (xy 0.319259 0.694206) (xy 0.343862 0.694267) (xy 0.501456 0.694267) (xy 0.495570 0.734484) (xy 0.489820 0.769639) (xy 0.482892 0.806707) (xy 0.481207 0.814917) (xy 0.472730 0.855134)
     (xy 0.370139 0.855134) (xy 0.327548 0.855717) (xy 0.296424 0.857367) (xy 0.278660 0.859927) (xy 0.275590 0.862820) (xy 0.288636 0.870172) (xy 0.315259 0.881363) (xy 0.352783 0.895483)
     (xy 0.398532 0.911619) (xy 0.449830 0.928859) (xy 0.504000 0.946292) (xy 0.558368 0.963007) (xy 0.610256 0.978091) (xy 0.629615 0.983436) (xy 0.680342 0.997500) (xy 0.716732 1.008454)
     (xy 0.740919 1.017121) (xy 0.755035 1.024326) (xy 0.761213 1.030892) (xy 0.762000 1.034604) (xy 0.761535 1.041800) (xy 0.758624 1.046286) (xy 0.750992 1.047760) (xy 0.736365 1.045917)
     (xy 0.712469 1.040452) (xy 0.677030 1.031062) (xy 0.627773 1.017442) (xy 0.622310 1.015922) (xy 0.534890 0.990363) (xy 0.447296 0.962479) (xy 0.363889 0.933759) (xy 0.289027 0.905697)
     (xy 0.235695 0.883618) (xy 0.211106 0.873002) (xy 0.190973 0.865418) (xy 0.171696 0.860356) (xy 0.149675 0.857307) (xy 0.121312 0.855760) (xy 0.083005 0.855205) (xy 0.034612 0.855134)
     (xy -0.017815 0.855292) (xy -0.055423 0.854834) (xy -0.080307 0.852362) (xy -0.094562 0.846477) (xy -0.100285 0.835783) (xy -0.099571 0.818879) (xy -0.094515 0.794369) (xy -0.089587 0.772270)
     (xy -0.078168 0.719040) (xy -0.156032 0.661280) (xy -0.262525 0.575168) (xy -0.355296 0.484387) (xy -0.437498 0.385674) (xy -0.479920 0.325967) (xy -0.511805 0.276157) (xy -0.533293 0.237127)
     (xy -0.544108 0.209466) (xy -0.543972 0.193761) (xy -0.542911 0.192392) (xy -0.530730 0.189924) (xy -0.516841 0.197435) (xy -0.508413 0.210484) (xy -0.508000 0.214015) (xy -0.503560 0.224111)
     (xy -0.491468 0.245162) (xy -0.473564 0.274101) (xy -0.451691 0.307859) (xy -0.451447 0.308228) (xy -0.415832 0.357023) (xy -0.370334 0.411790) (xy -0.318416 0.468940) (xy -0.263544 0.524886)
     (xy -0.209182 0.576037) (xy -0.158795 0.618804) (xy -0.132776 0.638340) (xy -0.106213 0.656554) (xy -0.085527 0.669793) (xy -0.074052 0.675961) (xy -0.072823 0.676054) (xy -0.070738 0.667148)
     (xy -0.065867 0.642951) (xy -0.058467 0.604829) (xy -0.048797 0.554148) (xy -0.037111 0.492276) (xy -0.023669 0.420578) (xy -0.008726 0.340420) (xy 0.007460 0.253170) (xy 0.024632 0.160194)
     (xy 0.042533 0.062858) (xy 0.043192 0.059267) (xy 0.051796 0.012763) (xy 0.059658 -0.029034) (xy 0.066134 -0.062744) (xy 0.070577 -0.084987) (xy 0.071898 -0.091017) (xy 0.074257 -0.098337)
     (xy 0.078939 -0.103491) (xy 0.088562 -0.106860) (xy 0.105747 -0.108822) (xy 0.133112 -0.109758) (xy 0.173278 -0.110046) (xy 0.203361 -0.110067) (xy 0.257801 -0.109577) )(layer F.SilkS) (width  0.010000)
  )
  (fp_poly (pts (xy -1.418090 0.339893) (xy -1.399266 0.352318) (xy -1.372690 0.373282) (xy -1.336246 0.404210) (xy -1.329452 0.410096) (xy -1.163727 0.544307) (xy -0.988851 0.666840) (xy -0.802664 0.779127)
     (xy -0.658110 0.855578) (xy -0.620290 0.874562) (xy -0.588401 0.890679) (xy -0.565249 0.902502) (xy -0.553640 0.908606) (xy -0.552835 0.909101) (xy -0.557537 0.914228) (xy -0.566929 0.920691)
     (xy -0.576883 0.924180) (xy -0.590781 0.922689) (xy -0.611872 0.915267) (xy -0.643405 0.900961) (xy -0.657561 0.894127) (xy -0.856710 0.787826) (xy -1.050783 0.665502) (xy -1.239429 0.527392)
     (xy -1.417523 0.378013) (xy -1.439300 0.358017) (xy -1.449715 0.346154) (xy -1.450309 0.339590) (xy -1.442624 0.335493) (xy -1.440951 0.334947) (xy -1.431279 0.334578) (xy -1.418090 0.339893) )(layer F.SilkS) (width  0.010000)
  )
  (fp_poly (pts (xy 0.995751 0.155837) (xy 1.037657 0.169793) (xy 1.071498 0.190427) (xy 1.091229 0.212923) (xy 1.104546 0.232103) (xy 1.113360 0.235224) (xy 1.117375 0.222258) (xy 1.117600 0.215344)
     (xy 1.118410 0.195617) (xy 1.122464 0.181505) (xy 1.132199 0.172036) (xy 1.150053 0.166238) (xy 1.178462 0.163138) (xy 1.219864 0.161764) (xy 1.252934 0.161355) (xy 1.301585 0.161209)
     (xy 1.335547 0.161973) (xy 1.357050 0.163840) (xy 1.368325 0.167006) (xy 1.371600 0.171664) (xy 1.371600 0.171682) (xy 1.370088 0.181957) (xy 1.365827 0.206643) (xy 1.359233 0.243516)
     (xy 1.350719 0.290351) (xy 1.340700 0.344925) (xy 1.329591 0.405013) (xy 1.317805 0.468390) (xy 1.305757 0.532833) (xy 1.293861 0.596118) (xy 1.282532 0.656019) (xy 1.272185 0.710314)
     (xy 1.263232 0.756776) (xy 1.256090 0.793183) (xy 1.252556 0.810684) (xy 1.243400 0.855134) (xy 0.998867 0.855134) (xy 1.004461 0.820147) (xy 1.010056 0.785161) (xy 0.955840 0.815480)
     (xy 0.896877 0.843442) (xy 0.838291 0.861985) (xy 0.783312 0.870527) (xy 0.735171 0.868487) (xy 0.706967 0.860318) (xy 0.675803 0.839715) (xy 0.645245 0.807494) (xy 0.619362 0.768612)
     (xy 0.604616 0.735636) (xy 0.595097 0.694331) (xy 0.589821 0.642394) (xy 0.589353 0.616391) (xy 0.847571 0.616391) (xy 0.850175 0.645812) (xy 0.861796 0.684963) (xy 0.881628 0.711956)
     (xy 0.907301 0.725680) (xy 0.936445 0.725019) (xy 0.966690 0.708860) (xy 0.972866 0.703481) (xy 1.000543 0.668946) (xy 1.025627 0.621129) (xy 1.046936 0.563622) (xy 1.063288 0.500018)
     (xy 1.073500 0.433908) (xy 1.076341 0.389065) (xy 1.072581 0.345267) (xy 1.060202 0.314378) (xy 1.040972 0.295932) (xy 1.016662 0.289465) (xy 0.989039 0.294514) (xy 0.959872 0.310613)
     (xy 0.930931 0.337299) (xy 0.903985 0.374106) (xy 0.880803 0.420572) (xy 0.872729 0.442510) (xy 0.857955 0.499385) (xy 0.849310 0.559687) (xy 0.847571 0.616391) (xy 0.589353 0.616391)
     (xy 0.588798 0.585588) (xy 0.592042 0.529678) (xy 0.599563 0.480426) (xy 0.604077 0.462856) (xy 0.637181 0.375352) (xy 0.679680 0.301773) (xy 0.731772 0.241826) (xy 0.777430 0.205517)
     (xy 0.827723 0.175983) (xy 0.874971 0.158532) (xy 0.925509 0.151150) (xy 0.950328 0.150573) (xy 0.995751 0.155837) )(layer F.SilkS) (width  0.010000)
  )
  (fp_poly (pts (xy 3.084339 0.153335) (xy 3.125265 0.164157) (xy 3.158813 0.184542) (xy 3.178653 0.203672) (xy 3.196163 0.222337) (xy 3.208778 0.234458) (xy 3.212591 0.237067) (xy 3.215439 0.229525)
     (xy 3.218144 0.210559) (xy 3.218963 0.201083) (xy 3.221567 0.165100) (xy 3.346450 0.164087) (xy 3.390249 0.164175) (xy 3.427336 0.165096) (xy 3.454759 0.166708) (xy 3.469569 0.168871)
     (xy 3.471334 0.170020) (xy 3.469778 0.181813) (xy 3.465824 0.203962) (xy 3.463156 0.217600) (xy 3.458506 0.241388) (xy 3.451673 0.277216) (xy 3.443529 0.320468) (xy 3.434947 0.366531)
     (xy 3.433836 0.372533) (xy 3.425521 0.417199) (xy 3.414921 0.473705) (xy 3.402938 0.537262) (xy 3.390477 0.603079) (xy 3.378440 0.666367) (xy 3.377559 0.670983) (xy 3.342424 0.855134)
     (xy 3.097312 0.855134) (xy 3.103188 0.820350) (xy 3.109065 0.785566) (xy 3.055212 0.815682) (xy 2.988790 0.846987) (xy 2.925585 0.865328) (xy 2.867445 0.870445) (xy 2.816216 0.862080)
     (xy 2.793215 0.852470) (xy 2.755406 0.823432) (xy 2.725557 0.781741) (xy 2.703846 0.729782) (xy 2.690454 0.669942) (xy 2.685558 0.604605) (xy 2.686085 0.595055) (xy 2.946525 0.595055)
     (xy 2.950468 0.647579) (xy 2.962028 0.687625) (xy 2.980420 0.714334) (xy 3.004862 0.726846) (xy 3.034568 0.724301) (xy 3.055548 0.714630) (xy 3.083313 0.689952) (xy 3.109278 0.651376)
     (xy 3.132365 0.601918) (xy 3.151497 0.544599) (xy 3.165596 0.482435) (xy 3.173586 0.418447) (xy 3.175000 0.379871) (xy 3.173834 0.349200) (xy 3.169093 0.329194) (xy 3.158912 0.313670)
     (xy 3.153211 0.307642) (xy 3.134272 0.292736) (xy 3.114308 0.289246) (xy 3.101013 0.290788) (xy 3.065153 0.304805) (xy 3.031933 0.333362) (xy 3.002535 0.374133) (xy 2.978142 0.424786)
     (xy 2.959937 0.482993) (xy 2.949102 0.546425) (xy 2.946525 0.595055) (xy 2.686085 0.595055) (xy 2.689337 0.536160) (xy 2.701971 0.466991) (xy 2.723639 0.399485) (xy 2.754493 0.336070)
     (xy 2.797835 0.275035) (xy 2.849271 0.224382) (xy 2.906414 0.185706) (xy 2.966879 0.160603) (xy 3.028280 0.150668) (xy 3.031924 0.150589) (xy 3.084339 0.153335) )(layer F.SilkS) (width  0.010000)
  )
  (fp_poly (pts (xy 4.051261 0.158793) (xy 4.126875 0.182318) (xy 4.157305 0.195033) (xy 4.133936 0.235747) (xy 4.113726 0.270921) (xy 4.099467 0.293685) (xy 4.088288 0.306086) (xy 4.077320 0.310170)
     (xy 4.063694 0.307984) (xy 4.044540 0.301573) (xy 4.042566 0.300899) (xy 3.990975 0.291754) (xy 3.940321 0.298635) (xy 3.892781 0.320679) (xy 3.850531 0.357022) (xy 3.828335 0.385773)
     (xy 3.795390 0.449114) (xy 3.779054 0.514221) (xy 3.779448 0.580362) (xy 3.788681 0.623377) (xy 3.806308 0.664321) (xy 3.831688 0.692453) (xy 3.865842 0.708082) (xy 3.909792 0.711516)
     (xy 3.964560 0.703063) (xy 4.009989 0.690205) (xy 4.019986 0.688891) (xy 4.028230 0.694450) (xy 4.037022 0.709841) (xy 4.048663 0.738019) (xy 4.050128 0.741797) (xy 4.061555 0.773725)
     (xy 4.066030 0.793430) (xy 4.064091 0.803874) (xy 4.061806 0.806018) (xy 4.049611 0.811440) (xy 4.025318 0.820500) (xy 3.992971 0.831728) (xy 3.970867 0.839061) (xy 3.906419 0.856111)
     (xy 3.839935 0.866676) (xy 3.775888 0.870451) (xy 3.718755 0.867135) (xy 3.679742 0.858763) (xy 3.637847 0.837984) (xy 3.597281 0.804992) (xy 3.562422 0.764233) (xy 3.537647 0.720151)
     (xy 3.534150 0.710929) (xy 3.523045 0.662298) (xy 3.518562 0.604299) (xy 3.520596 0.543109) (xy 3.529044 0.484898) (xy 3.538560 0.449694) (xy 3.572660 0.374291) (xy 3.619340 0.308218)
     (xy 3.676594 0.252389) (xy 3.742416 0.207714) (xy 3.814800 0.175105) (xy 3.891740 0.155474) (xy 3.971229 0.149732) (xy 4.051261 0.158793) )(layer F.SilkS) (width  0.010000)
  )
  (fp_poly (pts (xy 4.669187 0.155671) (xy 4.729542 0.171823) (xy 4.777778 0.198114) (xy 4.813205 0.234028) (xy 4.835136 0.279049) (xy 4.842881 0.332663) (xy 4.842886 0.333877) (xy 4.836852 0.366240)
     (xy 4.820910 0.402473) (xy 4.798461 0.435978) (xy 4.780891 0.454113) (xy 4.738034 0.483095) (xy 4.683040 0.509475) (xy 4.620673 0.531693) (xy 4.555697 0.548189) (xy 4.492876 0.557402)
     (xy 4.461242 0.558800) (xy 4.417503 0.558800) (xy 4.421370 0.605432) (xy 4.431603 0.649171) (xy 4.453359 0.681300) (xy 4.485523 0.701483) (xy 4.526981 0.709379) (xy 4.576618 0.704650)
     (xy 4.633318 0.686956) (xy 4.656330 0.676837) (xy 4.683033 0.664639) (xy 4.702866 0.656394) (xy 4.711789 0.653773) (xy 4.711899 0.653841) (xy 4.716413 0.661997) (xy 4.726378 0.681261)
     (xy 4.739699 0.707580) (xy 4.740653 0.709481) (xy 4.767379 0.762796) (xy 4.697206 0.795663) (xy 4.623420 0.826079) (xy 4.549424 0.848895) (xy 4.478106 0.863644) (xy 4.412357 0.869857)
     (xy 4.355067 0.867065) (xy 4.315774 0.857486) (xy 4.267655 0.833896) (xy 4.229907 0.801529) (xy 4.198835 0.756922) (xy 4.189465 0.739020) (xy 4.173650 0.703663) (xy 4.164459 0.672499)
     (xy 4.159828 0.637194) (xy 4.158520 0.614034) (xy 4.162684 0.527418) (xy 4.181757 0.446359) (xy 4.184452 0.440245) (xy 4.432341 0.440245) (xy 4.432509 0.440564) (xy 4.442339 0.443048)
     (xy 4.463868 0.443208) (xy 4.492077 0.441408) (xy 4.521945 0.438013) (xy 4.548454 0.433388) (xy 4.555801 0.431603) (xy 4.593235 0.415586) (xy 4.621063 0.392095) (xy 4.638422 0.364079)
     (xy 4.644451 0.334489) (xy 4.638287 0.306274) (xy 4.619066 0.282386) (xy 4.602437 0.272073) (xy 4.573328 0.266843) (xy 4.540494 0.274649) (xy 4.508246 0.293617) (xy 4.480891 0.321877)
     (xy 4.477894 0.326174) (xy 4.464316 0.349611) (xy 4.451077 0.377514) (xy 4.440071 0.405106) (xy 4.433193 0.427609) (xy 4.432341 0.440245) (xy 4.184452 0.440245) (xy 4.214429 0.372241)
     (xy 4.259389 0.306449) (xy 4.315328 0.250368) (xy 4.380937 0.205382) (xy 4.454904 0.172875) (xy 4.535920 0.154233) (xy 4.597400 0.150172) (xy 4.669187 0.155671) )(layer F.SilkS) (width  0.010000)
  )
  (fp_poly (pts (xy 2.602846 -0.160529) (xy 2.638132 -0.159394) (xy 2.660618 -0.157275) (xy 2.672368 -0.153986) (xy 2.675467 -0.149799) (xy 2.673958 -0.140222) (xy 2.669652 -0.115795) (xy 2.662884 -0.078311)
     (xy 2.653987 -0.029560) (xy 2.643294 0.028666) (xy 2.631139 0.094574) (xy 2.617856 0.166373) (xy 2.603777 0.242272) (xy 2.589236 0.320478) (xy 2.574567 0.399199) (xy 2.560104 0.476644)
     (xy 2.546179 0.551022) (xy 2.533126 0.620540) (xy 2.521280 0.683406) (xy 2.510972 0.737829) (xy 2.502537 0.782017) (xy 2.496308 0.814178) (xy 2.492761 0.831850) (xy 2.487855 0.855134)
     (xy 2.365761 0.855134) (xy 2.322482 0.854774) (xy 2.285952 0.853784) (xy 2.259153 0.852299) (xy 2.245071 0.850453) (xy 2.243667 0.849619) (xy 2.245186 0.840527) (xy 2.249563 0.816257)
     (xy 2.256525 0.778272) (xy 2.265802 0.728035) (xy 2.277122 0.667011) (xy 2.290213 0.596662) (xy 2.304805 0.518452) (xy 2.320625 0.433844) (xy 2.336800 0.347514) (xy 2.353550 0.258107)
     (xy 2.369333 0.173675) (xy 2.383877 0.095683) (xy 2.396912 0.025596) (xy 2.408165 -0.035122) (xy 2.417365 -0.085006) (xy 2.424240 -0.122590) (xy 2.428520 -0.146409) (xy 2.429934 -0.154972)
     (xy 2.437904 -0.157056) (xy 2.459830 -0.158816) (xy 2.492735 -0.160110) (xy 2.533643 -0.160795) (xy 2.552700 -0.160867) (xy 2.602846 -0.160529) )(layer F.SilkS) (width  0.010000)
  )
  (fp_poly (pts (xy -0.897770 0.266389) (xy -0.880698 0.279478) (xy -0.858131 0.303715) (xy -0.841482 0.323850) (xy -0.766071 0.409938) (xy -0.678416 0.497007) (xy -0.582561 0.581407) (xy -0.482548 0.659486)
     (xy -0.425203 0.699781) (xy -0.392745 0.722293) (xy -0.372913 0.738014) (xy -0.363788 0.748823) (xy -0.363447 0.756595) (xy -0.364856 0.758718) (xy -0.375740 0.768593) (xy -0.379920 0.770137)
     (xy -0.388720 0.765454) (xy -0.408075 0.753125) (xy -0.434708 0.735276) (xy -0.452967 0.722700) (xy -0.536260 0.661150) (xy -0.620472 0.592232) (xy -0.702277 0.519033) (xy -0.778348 0.444640)
     (xy -0.845361 0.372139) (xy -0.891892 0.315383) (xy -0.911735 0.289027) (xy -0.922169 0.273287) (xy -0.924209 0.265434) (xy -0.918871 0.262741) (xy -0.911615 0.262467) (xy -0.897770 0.266389) )(layer F.SilkS) (width  0.010000)
  )
  (fp_poly (pts (xy -3.240476 -0.754941) (xy -3.228045 -0.748364) (xy -3.225800 -0.744758) (xy -3.221877 -0.735320) (xy -3.211086 -0.713929) (xy -3.194887 -0.683375) (xy -3.174746 -0.646449) (xy -3.165251 -0.629329)
     (xy -3.052784 -0.443663) (xy -2.925577 -0.262956) (xy -2.785586 -0.089493) (xy -2.634765 0.074440) (xy -2.475068 0.226558) (xy -2.328333 0.349156) (xy -2.298700 0.372346) (xy -2.328333 0.372120)
     (xy -2.341200 0.370625) (xy -2.355326 0.365295) (xy -2.373019 0.354560) (xy -2.396589 0.336854) (xy -2.428347 0.310608) (xy -2.463800 0.280157) (xy -2.639140 0.117205) (xy -2.801582 -0.056404)
     (xy -2.950656 -0.240125) (xy -3.085895 -0.433415) (xy -3.111801 -0.474064) (xy -3.137370 -0.515768) (xy -3.163820 -0.560515) (xy -3.189827 -0.605878) (xy -3.214066 -0.649430) (xy -3.235213 -0.688743)
     (xy -3.251945 -0.721390) (xy -3.262937 -0.744943) (xy -3.266865 -0.756975) (xy -3.266615 -0.757874) (xy -3.256247 -0.759048) (xy -3.240476 -0.754941) )(layer F.SilkS) (width  0.010000)
  )
  (fp_poly (pts (xy -1.993530 -0.443701) (xy -1.981391 -0.433466) (xy -1.963601 -0.407986) (xy -1.940538 -0.367838) (xy -1.926266 -0.340733) (xy -1.859648 -0.221644) (xy -1.781331 -0.099540) (xy -1.694681 0.020857)
     (xy -1.603064 0.134828) (xy -1.525552 0.221276) (xy -1.498593 0.250136) (xy -1.476533 0.274537) (xy -1.461661 0.291892) (xy -1.456266 0.299593) (xy -1.463512 0.303548) (xy -1.476886 0.304800)
     (xy -1.488462 0.301419) (xy -1.504360 0.290275) (xy -1.526234 0.269865) (xy -1.555741 0.238689) (xy -1.581917 0.209550) (xy -1.662446 0.115827) (xy -1.732890 0.027217) (xy -1.796832 -0.061160)
     (xy -1.857858 -0.154187) (xy -1.900841 -0.224825) (xy -1.921044 -0.259931) (xy -1.942324 -0.298578) (xy -1.963205 -0.337871) (xy -1.982213 -0.374919) (xy -1.997873 -0.406828) (xy -2.008710 -0.430706)
     (xy -2.013249 -0.443658) (xy -2.013108 -0.445047) (xy -2.003567 -0.445652) (xy -1.993530 -0.443701) )(layer F.SilkS) (width  0.010000)
  )
  (fp_poly (pts (xy -1.180191 -0.306366) (xy -1.172589 -0.287665) (xy -1.160767 -0.246458) (xy -1.141491 -0.194124) (xy -1.116268 -0.133901) (xy -1.086606 -0.069028) (xy -1.054014 -0.002743) (xy -1.020000 0.061715)
     (xy -0.986072 0.121106) (xy -0.970197 0.146964) (xy -0.950682 0.178183) (xy -0.935078 0.203711) (xy -0.925275 0.220420) (xy -0.922867 0.225280) (xy -0.930003 0.227967) (xy -0.940090 0.228600)
     (xy -0.953037 0.222925) (xy -0.970276 0.204985) (xy -0.993060 0.173405) (xy -0.999920 0.162983) (xy -1.029092 0.114584) (xy -1.061633 0.054805) (xy -1.095292 -0.011758) (xy -1.127823 -0.080510)
     (xy -1.156975 -0.146855) (xy -1.180249 -0.205515) (xy -1.195846 -0.248891) (xy -1.205394 -0.278938) (xy -1.209206 -0.298018) (xy -1.207594 -0.308496) (xy -1.200869 -0.312735) (xy -1.194473 -0.313266)
     (xy -1.180191 -0.306366) )(layer F.SilkS) (width  0.010000)
  )
  (fp_poly (pts (xy -0.654138 -0.251571) (xy -0.648262 -0.242262) (xy -0.643273 -0.223039) (xy -0.638146 -0.190868) (xy -0.636473 -0.178569) (xy -0.623554 -0.105893) (xy -0.604013 -0.026791) (xy -0.580005 0.050683)
     (xy -0.562882 0.096702) (xy -0.553042 0.123686) (xy -0.547380 0.144466) (xy -0.546997 0.153852) (xy -0.557993 0.161452) (xy -0.571071 0.152650) (xy -0.585886 0.127803) (xy -0.596333 0.103083)
     (xy -0.642134 -0.040080) (xy -0.664653 -0.143933) (xy -0.672171 -0.189010) (xy -0.676109 -0.220026) (xy -0.676404 -0.239484) (xy -0.672995 -0.249886) (xy -0.665818 -0.253734) (xy -0.661924 -0.254000)
     (xy -0.654138 -0.251571) )(layer F.SilkS) (width  0.010000)
  )
  (fp_poly (pts (xy -0.596251 -0.886414) (xy -0.594658 -0.875417) (xy -0.596766 -0.865716) (xy -0.619325 -0.760456) (xy -0.636507 -0.644937) (xy -0.647603 -0.525178) (xy -0.651904 -0.407198) (xy -0.651933 -0.397036)
     (xy -0.652079 -0.352315) (xy -0.652796 -0.321817) (xy -0.654506 -0.302834) (xy -0.657628 -0.292654) (xy -0.662582 -0.288570) (xy -0.668867 -0.287866) (xy -0.675718 -0.288784) (xy -0.680421 -0.293317)
     (xy -0.683379 -0.304136) (xy -0.684993 -0.323912) (xy -0.685666 -0.355314) (xy -0.685800 -0.400303) (xy -0.683860 -0.474212) (xy -0.678459 -0.555954) (xy -0.670227 -0.638866) (xy -0.659795 -0.716284)
     (xy -0.651384 -0.764334) (xy -0.641727 -0.812366) (xy -0.634302 -0.846212) (xy -0.628249 -0.868332) (xy -0.622709 -0.881189) (xy -0.616822 -0.887245) (xy -0.609727 -0.888960) (xy -0.607838 -0.889000)
     (xy -0.596251 -0.886414) )(layer F.SilkS) (width  0.010000)
  )
  (fp_poly (pts (xy -1.216743 -1.780766) (xy -1.216330 -1.780117) (xy -1.215927 -1.769252) (xy -1.218446 -1.746471) (xy -1.223352 -1.716435) (xy -1.224103 -1.712420) (xy -1.235820 -1.643265) (xy -1.247324 -1.561583)
     (xy -1.258114 -1.471775) (xy -1.267690 -1.378246) (xy -1.275551 -1.285398) (xy -1.279764 -1.223164) (xy -1.284199 -1.088249) (xy -1.282009 -0.949230) (xy -1.273543 -0.809758) (xy -1.259154 -0.673481)
     (xy -1.239191 -0.544051) (xy -1.214006 -0.425115) (xy -1.197017 -0.361950) (xy -1.198687 -0.350083) (xy -1.209262 -0.347323) (xy -1.222849 -0.354534) (xy -1.225799 -0.357716) (xy -1.230976 -0.369827)
     (xy -1.238534 -0.394795) (xy -1.247431 -0.428895) (xy -1.256021 -0.465666) (xy -1.291736 -0.664231) (xy -1.312483 -0.868341) (xy -1.318048 -1.075236) (xy -1.313301 -1.211990) (xy -1.303074 -1.352849)
     (xy -1.289613 -1.488190) (xy -1.273321 -1.614619) (xy -1.254602 -1.728739) (xy -1.247947 -1.763183) (xy -1.239951 -1.780239) (xy -1.227885 -1.786991) (xy -1.216743 -1.780766) )(layer F.SilkS) (width  0.010000)
  )
  (fp_poly (pts (xy -2.233645 -2.419484) (xy -2.228935 -2.413085) (xy -2.227277 -2.398250) (xy -2.228533 -2.372569) (xy -2.232560 -2.333633) (xy -2.235207 -2.311400) (xy -2.242100 -2.242051) (xy -2.247693 -2.159904)
     (xy -2.251969 -2.068115) (xy -2.254907 -1.969843) (xy -2.256489 -1.868245) (xy -2.256694 -1.766479) (xy -2.255504 -1.667702) (xy -2.252900 -1.575073) (xy -2.248862 -1.491748) (xy -2.243371 -1.420885)
     (xy -2.240794 -1.397000) (xy -2.215870 -1.219111) (xy -2.184526 -1.053239) (xy -2.145714 -0.895342) (xy -2.098381 -0.741378) (xy -2.041477 -0.587305) (xy -2.011403 -0.514350) (xy -2.004092 -0.492514)
     (xy -2.007189 -0.483281) (xy -2.021717 -0.485157) (xy -2.029435 -0.488058) (xy -2.038362 -0.498597) (xy -2.051093 -0.523245) (xy -2.066863 -0.559805) (xy -2.084909 -0.606079) (xy -2.104468 -0.659870)
     (xy -2.124775 -0.718982) (xy -2.145067 -0.781217) (xy -2.164579 -0.844379) (xy -2.182547 -0.906269) (xy -2.198209 -0.964692) (xy -2.205630 -0.994833) (xy -2.241408 -1.171781) (xy -2.268009 -1.360423)
     (xy -2.285317 -1.558148) (xy -2.293211 -1.762343) (xy -2.291573 -1.970394) (xy -2.280283 -2.179689) (xy -2.266276 -2.328220) (xy -2.261265 -2.369032) (xy -2.256611 -2.395791) (xy -2.251545 -2.411341)
     (xy -2.245303 -2.418524) (xy -2.241550 -2.419857) (xy -2.233645 -2.419484) )(layer F.SilkS) (width  0.010000)
  )
  (fp_poly (pts (xy -3.499594 -1.427151) (xy -3.491491 -1.414733) (xy -3.481984 -1.391280) (xy -3.470048 -1.354522) (xy -3.464356 -1.335557) (xy -3.450031 -1.289496) (xy -3.431871 -1.234572) (xy -3.412210 -1.177694)
     (xy -3.393498 -1.126066) (xy -3.375774 -1.079202) (xy -3.359010 -1.036314) (xy -3.341574 -0.993464) (xy -3.321833 -0.946711) (xy -3.298156 -0.892117) (xy -3.271613 -0.831850) (xy -3.264305 -0.813571)
     (xy -3.265150 -0.805936) (xy -3.274939 -0.804338) (xy -3.276344 -0.804333) (xy -3.291418 -0.811363) (xy -3.307583 -0.833334) (xy -3.313599 -0.844550) (xy -3.328521 -0.876393) (xy -3.346753 -0.919041)
     (xy -3.367435 -0.970121) (xy -3.389708 -1.027262) (xy -3.412712 -1.088091) (xy -3.435589 -1.150237) (xy -3.457478 -1.211328) (xy -3.477520 -1.268992) (xy -3.494856 -1.320858) (xy -3.508626 -1.364552)
     (xy -3.517970 -1.397704) (xy -3.522030 -1.417941) (xy -3.522133 -1.420047) (xy -3.515180 -1.429178) (xy -3.507317 -1.430807) (xy -3.499594 -1.427151) )(layer F.SilkS) (width  0.010000)
  )
)
