(module LOGO (layer F.Cu)
  (at 0 0)
 (fp_text reference "G***" (at 0 0) (layer F.SilkS) hide
  (effects (font (thickness 0.3)))
  )
  (fp_text value "LOGO" (at 0.75 0) (layer F.SilkS) hide
  (effects (font (thickness 0.3)))
  )
  (fp_poly (pts (xy -3.040529 -0.317569) (xy -3.040529 -0.282662) (xy -3.047144 -0.256659) (xy -3.072257 -0.242040) (xy -3.091050 -0.237422) (xy -3.117084 -0.230412) (xy -3.140873 -0.218996) (xy -3.163893 -0.200630)
     (xy -3.187623 -0.172767) (xy -3.213540 -0.132865) (xy -3.243121 -0.078377) (xy -3.277844 -0.006760) (xy -3.319185 0.084531) (xy -3.368623 0.198041) (xy -3.427635 0.336314) (xy -3.437081 0.358588)
     (xy -3.486140 0.473881) (xy -3.532008 0.580826) (xy -3.573280 0.676210) (xy -3.608550 0.756822) (xy -3.636414 0.819448) (xy -3.655466 0.860876) (xy -3.664217 0.877794) (xy -3.694608 0.894997)
     (xy -3.732643 0.891903) (xy -3.765790 0.870258) (xy -3.771397 0.862853) (xy -3.782215 0.841121) (xy -3.802651 0.795260) (xy -3.831181 0.728867) (xy -3.866283 0.645542) (xy -3.906437 0.548885)
     (xy -3.950120 0.442493) (xy -3.975152 0.381000) (xy -4.020471 0.269731) (xy -4.063334 0.165255) (xy -4.102161 0.071361) (xy -4.135376 -0.008163) (xy -4.161398 -0.069527) (xy -4.178651 -0.108941)
     (xy -4.183645 -0.119529) (xy -4.229151 -0.186675) (xy -4.284863 -0.227320) (xy -4.312659 -0.237261) (xy -4.345696 -0.253830) (xy -4.355353 -0.282563) (xy -4.355353 -0.316446) (xy -4.093882 -0.317288)
     (xy -3.999824 -0.317469) (xy -3.931449 -0.316987) (xy -3.884557 -0.315348) (xy -3.854949 -0.312059) (xy -3.838425 -0.306626) (xy -3.830787 -0.298556) (xy -3.827835 -0.287355) (xy -3.827629 -0.285998)
     (xy -3.827394 -0.264802) (xy -3.839014 -0.251225) (xy -3.869112 -0.240555) (xy -3.902386 -0.232802) (xy -3.935170 -0.217215) (xy -3.951039 -0.197078) (xy -3.947803 -0.177962) (xy -3.935422 -0.135508)
     (xy -3.915545 -0.074242) (xy -3.889816 0.001307) (xy -3.859881 0.086612) (xy -3.827388 0.177146) (xy -3.793983 0.268381) (xy -3.761310 0.355790) (xy -3.731018 0.434844) (xy -3.704752 0.501016)
     (xy -3.684159 0.549780) (xy -3.670884 0.576606) (xy -3.668608 0.579666) (xy -3.653050 0.577817) (xy -3.638866 0.563764) (xy -3.626664 0.540980) (xy -3.605597 0.495323) (xy -3.577705 0.431739)
     (xy -3.545026 0.355178) (xy -3.509598 0.270587) (xy -3.473460 0.182916) (xy -3.438650 0.097112) (xy -3.407206 0.018123) (xy -3.381168 -0.049102) (xy -3.362573 -0.099615) (xy -3.353460 -0.128468)
     (xy -3.353209 -0.129656) (xy -3.355918 -0.179455) (xy -3.384743 -0.216054) (xy -3.437201 -0.237209) (xy -3.473072 -0.248728) (xy -3.487248 -0.268025) (xy -3.488765 -0.284137) (xy -3.488765 -0.320519)
     (xy -3.040529 -0.317569) )(layer F.SilkS) (width  0.010000)
  )
  (fp_poly (pts (xy -0.310872 -0.875314) (xy -0.210143 -0.841545) (xy -0.118754 -0.779844) (xy -0.072845 -0.733728) (xy 0.012505 -0.614263) (xy 0.078877 -0.474130) (xy 0.125507 -0.316351) (xy 0.151629 -0.143951)
     (xy 0.156475 0.040046) (xy 0.149789 0.145155) (xy 0.127307 0.310134) (xy 0.092879 0.451213) (xy 0.045369 0.572351) (xy 0.006809 0.642471) (xy -0.039765 0.702534) (xy -0.103204 0.764934)
     (xy -0.172945 0.820142) (xy -0.226368 0.852824) (xy -0.302960 0.879305) (xy -0.392820 0.891290) (xy -0.482674 0.887985) (xy -0.550010 0.872237) (xy -0.624713 0.831241) (xy -0.698863 0.765577)
     (xy -0.767869 0.680186) (xy -0.827141 0.580010) (xy -0.833360 0.567274) (xy -0.895987 0.403346) (xy -0.935405 0.225439) (xy -0.951207 0.038889) (xy -0.947876 -0.038024) (xy -0.700768 -0.038024)
     (xy -0.699200 0.113091) (xy -0.689397 0.259319) (xy -0.671200 0.393896) (xy -0.652024 0.482835) (xy -0.616636 0.598365) (xy -0.577092 0.686239) (xy -0.531648 0.748587) (xy -0.478563 0.787539)
     (xy -0.416094 0.805225) (xy -0.386990 0.806823) (xy -0.341827 0.804380) (xy -0.307861 0.793545) (xy -0.273031 0.769056) (xy -0.246747 0.745665) (xy -0.197065 0.690001) (xy -0.159448 0.623373)
     (xy -0.131648 0.540187) (xy -0.111416 0.434846) (xy -0.106215 0.395881) (xy -0.098925 0.315457) (xy -0.093832 0.215974) (xy -0.090947 0.104975) (xy -0.090277 -0.009993) (xy -0.091833 -0.121386)
     (xy -0.095624 -0.221657) (xy -0.101659 -0.303263) (xy -0.105316 -0.333315) (xy -0.123354 -0.426673) (xy -0.149274 -0.520806) (xy -0.180307 -0.607814) (xy -0.213681 -0.679798) (xy -0.242272 -0.723821)
     (xy -0.299247 -0.775076) (xy -0.360248 -0.798297) (xy -0.422716 -0.794597) (xy -0.484092 -0.765091) (xy -0.541817 -0.710893) (xy -0.593331 -0.633115) (xy -0.627839 -0.556037) (xy -0.657637 -0.453030)
     (xy -0.679829 -0.327849) (xy -0.694259 -0.187258) (xy -0.700768 -0.038024) (xy -0.947876 -0.038024) (xy -0.942983 -0.150968) (xy -0.910326 -0.338797) (xy -0.904429 -0.362162) (xy -0.865348 -0.476724)
     (xy -0.811249 -0.585228) (xy -0.745829 -0.682771) (xy -0.672786 -0.764451) (xy -0.595817 -0.825365) (xy -0.531485 -0.856678) (xy -0.418725 -0.880557) (xy -0.310872 -0.875314) )(layer F.SilkS) (width  0.010000)
  )
  (fp_poly (pts (xy 4.324893 -0.879617) (xy 4.324415 -0.863214) (xy 4.317058 -0.826776) (xy 4.307113 -0.788150) (xy 4.292292 -0.739842) (xy 4.277990 -0.712891) (xy 4.258031 -0.699532) (xy 4.231409 -0.692951)
     (xy 4.200069 -0.690226) (xy 4.144691 -0.688601) (xy 4.071098 -0.688116) (xy 3.985114 -0.688814) (xy 3.899192 -0.690560) (xy 3.618892 -0.697909) (xy 3.610808 -0.644043) (xy 3.602735 -0.584426)
     (xy 3.594652 -0.514785) (xy 3.587109 -0.441342) (xy 3.580657 -0.370320) (xy 3.575847 -0.307942) (xy 3.573229 -0.260428) (xy 3.573354 -0.234003) (xy 3.574236 -0.230784) (xy 3.592172 -0.229405)
     (xy 3.628634 -0.234980) (xy 3.651026 -0.240091) (xy 3.700902 -0.247712) (xy 3.770758 -0.251801) (xy 3.850846 -0.251874) (xy 3.873226 -0.251131) (xy 3.980446 -0.241711) (xy 4.066460 -0.221185)
     (xy 4.138872 -0.186377) (xy 4.205287 -0.134112) (xy 4.241490 -0.097344) (xy 4.293696 -0.035399) (xy 4.330064 0.023241) (xy 4.353192 0.086286) (xy 4.365682 0.161447) (xy 4.370133 0.256436)
     (xy 4.370294 0.284657) (xy 4.369921 0.359661) (xy 4.367678 0.413366) (xy 4.361876 0.454355) (xy 4.350828 0.491210) (xy 4.332846 0.532514) (xy 4.313931 0.571299) (xy 4.247613 0.679725)
     (xy 4.165089 0.765794) (xy 4.061074 0.834760) (xy 4.036115 0.847509) (xy 3.991054 0.867484) (xy 3.948355 0.880259) (xy 3.898386 0.887693) (xy 3.831512 0.891643) (xy 3.802717 0.892536)
     (xy 3.726575 0.893381) (xy 3.670072 0.890248) (xy 3.623087 0.881849) (xy 3.575497 0.866896) (xy 3.562203 0.861938) (xy 3.505547 0.837864) (xy 3.453031 0.811403) (xy 3.424033 0.793665)
     (xy 3.380886 0.749674) (xy 3.362600 0.701995) (xy 3.366423 0.656387) (xy 3.389603 0.618609) (xy 3.429391 0.594420) (xy 3.483035 0.589580) (xy 3.517793 0.597365) (xy 3.565750 0.624636)
     (xy 3.618197 0.677301) (xy 3.637436 0.701272) (xy 3.692620 0.764685) (xy 3.742865 0.802370) (xy 3.793171 0.816778) (xy 3.848543 0.810360) (xy 3.855845 0.808283) (xy 3.933822 0.770055)
     (xy 4.000710 0.708286) (xy 4.055220 0.627667) (xy 4.096064 0.532887) (xy 4.121952 0.428634) (xy 4.131595 0.319600) (xy 4.123705 0.210473) (xy 4.096993 0.105943) (xy 4.067174 0.039429)
     (xy 4.013825 -0.031711) (xy 3.942467 -0.088542) (xy 3.862263 -0.124232) (xy 3.840980 -0.129227) (xy 3.794395 -0.131960) (xy 3.728457 -0.128274) (xy 3.652694 -0.119409) (xy 3.576636 -0.106604)
     (xy 3.509815 -0.091100) (xy 3.482422 -0.082574) (xy 3.445604 -0.071755) (xy 3.423816 -0.069542) (xy 3.421297 -0.071633) (xy 3.422960 -0.088713) (xy 3.427763 -0.131466) (xy 3.435241 -0.195904)
     (xy 3.444926 -0.278037) (xy 3.456351 -0.373874) (xy 3.468694 -0.476488) (xy 3.516322 -0.870799) (xy 3.674367 -0.861547) (xy 3.747551 -0.859340) (xy 3.840226 -0.859621) (xy 3.942118 -0.862200)
     (xy 4.042956 -0.866886) (xy 4.075649 -0.868959) (xy 4.157567 -0.874198) (xy 4.228465 -0.878022) (xy 4.283242 -0.880215) (xy 4.316797 -0.880556) (xy 4.324893 -0.879617) )(layer F.SilkS) (width  0.010000)
  )
  (fp_poly (pts (xy -2.198258 -0.867070) (xy -2.196326 -0.825618) (xy -2.194794 -0.760059) (xy -2.193689 -0.673279) (xy -2.193036 -0.568167) (xy -2.192861 -0.447607) (xy -2.193190 -0.314489) (xy -2.194050 -0.171697)
     (xy -2.194108 -0.164266) (xy -2.195036 -0.017477) (xy -2.195482 0.122736) (xy -2.195465 0.253018) (xy -2.195005 0.370012) (xy -2.194123 0.470364) (xy -2.192839 0.550717) (xy -2.191174 0.607716)
     (xy -2.189267 0.637091) (xy -2.173453 0.708217) (xy -2.143825 0.755787) (xy -2.095406 0.784775) (xy -2.026534 0.799749) (xy -1.978290 0.807198) (xy -1.952894 0.816465) (xy -1.943363 0.831162)
     (xy -1.942353 0.843332) (xy -1.942353 0.876397) (xy -2.308412 0.876933) (xy -2.422286 0.876997) (xy -2.509750 0.876640) (xy -2.574280 0.875597) (xy -2.619346 0.873605) (xy -2.648422 0.870401)
     (xy -2.664982 0.865720) (xy -2.672498 0.859299) (xy -2.674444 0.850874) (xy -2.674471 0.849148) (xy -2.673429 0.833709) (xy -2.666443 0.822980) (xy -2.647718 0.814307) (xy -2.611459 0.805038)
     (xy -2.551873 0.792522) (xy -2.549871 0.792111) (xy -2.518012 0.785480) (xy -2.491523 0.778090) (xy -2.469909 0.767316) (xy -2.452673 0.750538) (xy -2.439320 0.725131) (xy -2.429357 0.688473)
     (xy -2.422286 0.637941) (xy -2.417614 0.570913) (xy -2.414844 0.484766) (xy -2.413482 0.376876) (xy -2.413032 0.244622) (xy -2.412999 0.085380) (xy -2.413000 0.067235) (xy -2.413143 -0.091331)
     (xy -2.413738 -0.222578) (xy -2.415031 -0.329067) (xy -2.417270 -0.413361) (xy -2.420700 -0.478023) (xy -2.425569 -0.525613) (xy -2.432124 -0.558695) (xy -2.440611 -0.579831) (xy -2.451278 -0.591582)
     (xy -2.464372 -0.596512) (xy -2.477026 -0.597261) (xy -2.503242 -0.592420) (xy -2.548229 -0.580038) (xy -2.602646 -0.562704) (xy -2.607235 -0.561144) (xy -2.661949 -0.543231) (xy -2.696250 -0.535102)
     (xy -2.717703 -0.536049) (xy -2.733877 -0.545362) (xy -2.737971 -0.548905) (xy -2.758463 -0.571995) (xy -2.764118 -0.584687) (xy -2.751402 -0.595481) (xy -2.716802 -0.615723) (xy -2.665636 -0.642492)
     (xy -2.604684 -0.672182) (xy -2.526157 -0.710380) (xy -2.443159 -0.752646) (xy -2.367706 -0.792780) (xy -2.328968 -0.814458) (xy -2.276039 -0.844255) (xy -2.232771 -0.867253) (xy -2.205716 -0.880028)
     (xy -2.200564 -0.881529) (xy -2.198258 -0.867070) )(layer F.SilkS) (width  0.010000)
  )
  (fp_poly (pts (xy -1.334997 0.590350) (xy -1.288996 0.621083) (xy -1.275976 0.633506) (xy -1.236399 0.689239) (xy -1.223671 0.746543) (xy -1.237238 0.800130) (xy -1.276547 0.844715) (xy -1.299583 0.858963)
     (xy -1.361657 0.879459) (xy -1.417510 0.871666) (xy -1.461990 0.843772) (xy -1.502512 0.793056) (xy -1.516989 0.736015) (xy -1.506200 0.679494) (xy -1.470924 0.630336) (xy -1.434842 0.605370)
     (xy -1.380809 0.585609) (xy -1.334997 0.590350) )(layer F.SilkS) (width  0.010000)
  )
  (fp_poly (pts (xy 2.226235 0.254000) (xy 2.339276 0.254000) (xy 2.422397 0.258315) (xy 2.478724 0.271003) (xy 2.507668 0.291677) (xy 2.508634 0.319952) (xy 2.486639 0.350050) (xy 2.463795 0.363169)
     (xy 2.423948 0.370652) (xy 2.361368 0.373449) (xy 2.344698 0.373529) (xy 2.226235 0.373529) (xy 2.226235 0.552823) (xy 2.227520 0.640964) (xy 2.233071 0.703985) (xy 2.245433 0.746599)
     (xy 2.267153 0.773519) (xy 2.300775 0.789458) (xy 2.348846 0.799128) (xy 2.360113 0.800684) (xy 2.405299 0.808513) (xy 2.427890 0.819114) (xy 2.435142 0.836604) (xy 2.435412 0.843395)
     (xy 2.434773 0.854052) (xy 2.430406 0.862105) (xy 2.418632 0.867923) (xy 2.395773 0.871875) (xy 2.358150 0.874332) (xy 2.302086 0.875664) (xy 2.223901 0.876240) (xy 2.119918 0.876430)
     (xy 2.106706 0.876443) (xy 1.778000 0.876771) (xy 1.778000 0.843519) (xy 1.781681 0.823782) (xy 1.797443 0.811798) (xy 1.832366 0.803799) (xy 1.859703 0.800058) (xy 1.914370 0.789775)
     (xy 1.951131 0.772148) (xy 1.979233 0.744896) (xy 1.995976 0.722999) (xy 2.006890 0.700469) (xy 2.013212 0.670498) (xy 2.016180 0.626275) (xy 2.017031 0.560992) (xy 2.017059 0.536736)
     (xy 2.017059 0.373529) (xy 1.709782 0.373529) (xy 1.613251 0.372835) (xy 1.526965 0.370891) (xy 1.455653 0.367903) (xy 1.404046 0.364077) (xy 1.376870 0.359622) (xy 1.375178 0.358904)
     (xy 1.351147 0.334967) (xy 1.331686 0.297913) (xy 1.331656 0.297827) (xy 1.327273 0.282245) (xy 1.326748 0.266039) (xy 1.331572 0.246995) (xy 1.449294 0.246995) (xy 1.463470 0.249176)
     (xy 1.502939 0.251081) (xy 1.563112 0.252595) (xy 1.639400 0.253605) (xy 1.727214 0.253998) (xy 1.733177 0.254000) (xy 2.017059 0.254000) (xy 2.017059 -0.585993) (xy 1.952803 -0.498438)
     (xy 1.906218 -0.433998) (xy 1.852557 -0.358181) (xy 1.794234 -0.274559) (xy 1.733661 -0.186703) (xy 1.673250 -0.098185) (xy 1.615414 -0.012578) (xy 1.562566 0.066547) (xy 1.517119 0.135618)
     (xy 1.481485 0.191064) (xy 1.458076 0.229311) (xy 1.449306 0.246789) (xy 1.449294 0.246995) (xy 1.331572 0.246995) (xy 1.331868 0.245829) (xy 1.344422 0.218235) (xy 1.366196 0.179875)
     (xy 1.398979 0.127371) (xy 1.444559 0.057340) (xy 1.504722 -0.033597) (xy 1.515527 -0.049871) (xy 1.614375 -0.196852) (xy 1.712288 -0.338924) (xy 1.806493 -0.472231) (xy 1.894216 -0.592919)
     (xy 1.972683 -0.697133) (xy 2.039121 -0.781017) (xy 2.057515 -0.803088) (xy 2.096422 -0.846270) (xy 2.125960 -0.870215) (xy 2.153941 -0.880134) (xy 2.175097 -0.881529) (xy 2.226235 -0.881529)
     (xy 2.226235 0.254000) )(layer F.SilkS) (width  0.010000)
  )
  (fp_poly (pts (xy 2.961102 0.605913) (xy 3.006670 0.648765) (xy 3.024002 0.678591) (xy 3.040769 0.739134) (xy 3.028997 0.792689) (xy 2.988045 0.842016) (xy 2.985458 0.844220) (xy 2.927678 0.876576)
     (xy 2.868542 0.880033) (xy 2.812316 0.854731) (xy 2.792851 0.837855) (xy 2.756790 0.784111) (xy 2.747529 0.726063) (xy 2.765151 0.670190) (xy 2.790265 0.638861) (xy 2.848028 0.600133)
     (xy 2.906597 0.589426) (xy 2.961102 0.605913) )(layer F.SilkS) (width  0.010000)
  )
  (fp_poly (pts (xy 0.899743 0.074825) (xy 0.983846 0.075373) (xy 1.045199 0.076637) (xy 1.087367 0.078905) (xy 1.113918 0.082463) (xy 1.128416 0.087599) (xy 1.134427 0.094599) (xy 1.135529 0.102573)
     (xy 1.126640 0.133369) (xy 1.105191 0.169004) (xy 1.104563 0.169808) (xy 1.073596 0.209176) (xy 0.388471 0.209176) (xy 0.388471 0.166669) (xy 0.389814 0.139180) (xy 0.396057 0.117785)
     (xy 0.410514 0.101723) (xy 0.436505 0.090233) (xy 0.477344 0.082554) (xy 0.536350 0.077926) (xy 0.616840 0.075587) (xy 0.722129 0.074776) (xy 0.789324 0.074706) (xy 0.899743 0.074825) )(layer F.SilkS) (width  0.010000)
  )
)
