(module LOGO (layer F.Cu)
  (at 0 0)
 (fp_text reference "G***" (at 0 0) (layer F.SilkS) hide
  (effects (font (thickness 0.3)))
  )
  (fp_text value "LOGO" (at 0.75 0) (layer F.SilkS) hide
  (effects (font (thickness 0.3)))
  )
  (fp_poly (pts (xy 0.615471 -3.417145) (xy 0.943649 -3.416311) (xy 1.271024 -3.415064) (xy 1.586770 -3.413451) (xy 1.880066 -3.411516) (xy 2.140087 -3.409306) (xy 2.279650 -3.407819) (xy 3.251200 -3.396426)
     (xy 3.251200 -3.270962) (xy 1.527336 -3.280215) (xy -0.196528 -3.289469) (xy -0.066514 -3.236293) (xy 0.108993 -3.155823) (xy 0.283855 -3.060071) (xy 0.445789 -2.956810) (xy 0.582513 -2.853811)
     (xy 0.673745 -2.767887) (xy 0.723192 -2.713249) (xy 0.621946 -2.731835) (xy 0.555999 -2.754274) (xy 0.462707 -2.799387) (xy 0.355911 -2.860112) (xy 0.294450 -2.898907) (xy 0.002597 -3.062000)
     (xy -0.304643 -3.180025) (xy -0.621648 -3.251891) (xy -0.942796 -3.276505) (xy -1.262466 -3.252773) (xy -1.397000 -3.227669) (xy -1.564741 -3.186691) (xy -1.704648 -3.141943) (xy -1.837004 -3.085480)
     (xy -1.982091 -3.009353) (xy -2.043511 -2.974351) (xy -2.278138 -2.813396) (xy -2.498028 -2.613997) (xy -2.693549 -2.386985) (xy -2.855070 -2.143190) (xy -2.947028 -1.958377) (xy -3.051070 -1.651929)
     (xy -3.108778 -1.335813) (xy -3.120942 -1.016202) (xy -3.088353 -0.699271) (xy -3.011802 -0.391194) (xy -2.892079 -0.098146) (xy -2.729974 0.173701) (xy -2.662514 0.263776) (xy -2.445154 0.497946)
     (xy -2.192273 0.700952) (xy -1.911801 0.867950) (xy -1.611666 0.994096) (xy -1.351300 1.064713) (xy -1.233348 1.080532) (xy -1.081753 1.089065) (xy -0.913121 1.090485) (xy -0.744057 1.084969)
     (xy -0.591167 1.072692) (xy -0.478752 1.055508) (xy -0.167672 0.964546) (xy 0.121386 0.830482) (xy 0.385049 0.657469) (xy 0.619941 0.449656) (xy 0.822688 0.211193) (xy 0.989914 -0.053769)
     (xy 1.118247 -0.341081) (xy 1.204310 -0.646592) (xy 1.244729 -0.966152) (xy 1.247463 -1.067410) (xy 1.230263 -1.340755) (xy 1.179298 -1.614849) (xy 1.098263 -1.877532) (xy 0.990853 -2.116643)
     (xy 0.870893 -2.306719) (xy 0.834485 -2.361514) (xy 0.819049 -2.397860) (xy 0.820189 -2.403457) (xy 0.854272 -2.405690) (xy 0.911522 -2.383290) (xy 0.976633 -2.344792) (xy 1.034296 -2.298733)
     (xy 1.059806 -2.269824) (xy 1.155385 -2.111053) (xy 1.246568 -1.910898) (xy 1.334125 -1.667157) (xy 1.418822 -1.377629) (xy 1.501427 -1.040113) (xy 1.523616 -0.939800) (xy 1.600392 -0.586957)
     (xy 1.678893 -0.228794) (xy 1.756648 0.123522) (xy 1.831182 0.458822) (xy 1.900025 0.765941) (xy 1.956662 1.016000) (xy 1.990129 1.163197) (xy 2.031973 1.347852) (xy 2.079457 1.557851)
     (xy 2.129845 1.781082) (xy 2.180400 2.005433) (xy 2.223512 2.197100) (xy 2.265884 2.385125) (xy 2.305169 2.558429) (xy 2.339857 2.710423) (xy 2.368435 2.834522) (xy 2.389393 2.924137)
     (xy 2.401218 2.972681) (xy 2.402727 2.978150) (xy 2.402410 3.009901) (xy 2.367117 3.021743) (xy 2.340223 3.022600) (xy 2.314838 3.023588) (xy 2.294963 3.022753) (xy 2.278573 3.014391)
     (xy 2.263646 2.992800) (xy 2.248157 2.952275) (xy 2.230083 2.887116) (xy 2.207401 2.791618) (xy 2.178087 2.660079) (xy 2.140118 2.486796) (xy 2.123919 2.413000) (xy 2.083518 2.229267)
     (xy 2.035759 2.012075) (xy 1.984194 1.777580) (xy 1.932376 1.541937) (xy 1.883858 1.321300) (xy 1.869783 1.257300) (xy 1.821153 1.036009) (xy 1.765760 0.783707) (xy 1.707690 0.519011)
     (xy 1.651026 0.260538) (xy 1.599852 0.026905) (xy 1.588403 -0.025400) (xy 1.548478 -0.207436) (xy 1.510508 -0.379798) (xy 1.476339 -0.534171) (xy 1.447815 -0.662237) (xy 1.426781 -0.755681)
     (xy 1.416544 -0.800100) (xy 1.386425 -0.927100) (xy 1.365990 -0.749300) (xy 1.318218 -0.485947) (xy 1.234722 -0.228583) (xy 1.112771 0.028246) (xy 0.949630 0.289991) (xy 0.742568 0.562106)
     (xy 0.659459 0.660521) (xy 0.603096 0.725563) (xy 0.550590 0.785657) (xy 0.498397 0.844619) (xy 0.442972 0.906266) (xy 0.380772 0.974414) (xy 0.308252 1.052879) (xy 0.221867 1.145478)
     (xy 0.118074 1.256027) (xy -0.006672 1.388342) (xy -0.155915 1.546240) (xy -0.333199 1.733536) (xy -0.531550 1.942944) (xy -0.687798 2.108057) (xy -0.840588 2.269853) (xy -0.984542 2.422616)
     (xy -1.114283 2.560624) (xy -1.224435 2.678162) (xy -1.309620 2.769508) (xy -1.358900 2.822857) (xy -1.441470 2.911288) (xy -1.500795 2.968210) (xy -1.546763 3.000619) (xy -1.589265 3.015511)
     (xy -1.637346 3.019862) (xy -1.737991 3.022600) (xy -1.622028 2.901950) (xy -1.577846 2.855509) (xy -1.503748 2.777073) (xy -1.404529 2.671738) (xy -1.284983 2.544604) (xy -1.149902 2.400767)
     (xy -1.004081 2.245326) (xy -0.863669 2.095500) (xy -0.706025 1.927421) (xy -0.549268 1.760687) (xy -0.399236 1.601478) (xy -0.261765 1.455975) (xy -0.142694 1.330359) (xy -0.047862 1.230810)
     (xy 0.005995 1.174750) (xy 0.089639 1.087210) (xy 0.157170 1.014475) (xy 0.202472 0.963288) (xy 0.219432 0.940395) (xy 0.218991 0.939800) (xy 0.190601 0.950377) (xy 0.130476 0.978002)
     (xy 0.057909 1.013572) (xy -0.238578 1.134945) (xy -0.547682 1.210109) (xy -0.863854 1.240298) (xy -1.181542 1.226744) (xy -1.495196 1.170679) (xy -1.799265 1.073335) (xy -2.088200 0.935946)
     (xy -2.356450 0.759742) (xy -2.598464 0.545958) (xy -2.734019 0.393700) (xy -2.793258 0.318507) (xy -2.842723 0.252217) (xy -2.867410 0.215900) (xy -2.898026 0.165100) (xy -2.885113 0.215900)
     (xy -2.874724 0.253159) (xy -2.852047 0.332194) (xy -2.819104 0.446033) (xy -2.777916 0.587710) (xy -2.730505 0.750255) (xy -2.680700 0.920527) (xy -2.629877 1.095032) (xy -2.584124 1.254014)
     (xy -2.545310 1.390824) (xy -2.515306 1.498812) (xy -2.495979 1.571329) (xy -2.489200 1.601664) (xy -2.510729 1.618980) (xy -2.557583 1.620937) (xy -2.608567 1.603904) (xy -2.637930 1.558272)
     (xy -2.647965 1.524000) (xy -2.660710 1.476671) (xy -2.685606 1.387840) (xy -2.720578 1.264772) (xy -2.763553 1.114732) (xy -2.812457 0.944985) (xy -2.865215 0.762797) (xy -2.869134 0.749300)
     (xy -2.960412 0.432768) (xy -3.037528 0.159785) (xy -3.101580 -0.074553) (xy -3.153667 -0.275152) (xy -3.194887 -0.446915) (xy -3.226339 -0.594748) (xy -3.249121 -0.723555) (xy -3.264333 -0.838240)
     (xy -3.273071 -0.943709) (xy -3.276436 -1.044866) (xy -3.276566 -1.069823) (xy -3.251854 -1.404001) (xy -3.179663 -1.728551) (xy -3.063089 -2.038601) (xy -2.905230 -2.329279) (xy -2.709183 -2.595714)
     (xy -2.478046 -2.833033) (xy -2.214915 -3.036365) (xy -1.922888 -3.200838) (xy -1.921333 -3.201568) (xy -1.824699 -3.246657) (xy -1.739246 -3.284920) (xy -1.659929 -3.316922) (xy -1.581707 -3.343231)
     (xy -1.499537 -3.364413) (xy -1.408376 -3.381034) (xy -1.303180 -3.393660) (xy -1.178908 -3.402859) (xy -1.030517 -3.409197) (xy -0.852963 -3.413239) (xy -0.641204 -3.415554) (xy -0.390197 -3.416706)
     (xy -0.094899 -3.417263) (xy 0.000000 -3.417394) (xy 0.297313 -3.417521) (xy 0.615471 -3.417145) )(layer F.SilkS) (width  0.010000)
  )
  (fp_poly (pts (xy 1.787567 1.084833) (xy 1.799307 1.119595) (xy 1.803400 1.170255) (xy 1.793933 1.213640) (xy 1.761473 1.265272) (xy 1.699927 1.333111) (xy 1.620755 1.408944) (xy 1.375774 1.603413)
     (xy 1.098628 1.766191) (xy 0.800934 1.891351) (xy 0.528120 1.966304) (xy 0.376348 1.988235) (xy 0.194037 2.000270) (xy 0.000542 2.002076) (xy -0.184784 1.993318) (xy -0.300112 1.980603)
     (xy -0.393677 1.964307) (xy -0.442384 1.946850) (xy -0.452075 1.923858) (xy -0.428591 1.890960) (xy -0.424876 1.887189) (xy -0.401798 1.871125) (xy -0.364518 1.859543) (xy -0.305306 1.851699)
     (xy -0.216435 1.846849) (xy -0.090175 1.844251) (xy 0.030812 1.843344) (xy 0.212649 1.840913) (xy 0.354744 1.834842) (xy 0.468086 1.824215) (xy 0.563658 1.808116) (xy 0.622300 1.794060)
     (xy 0.931802 1.686098) (xy 1.222992 1.533954) (xy 1.487609 1.342370) (xy 1.619084 1.221651) (xy 1.689787 1.154387) (xy 1.747135 1.106218) (xy 1.782027 1.084534) (xy 1.787567 1.084833) )(layer F.SilkS) (width  0.010000)
  )
  (fp_poly (pts (xy -1.630323 1.192325) (xy -1.554850 1.223672) (xy -1.465221 1.270762) (xy -1.370685 1.329270) (xy -1.292255 1.385623) (xy -1.180022 1.465433) (xy -1.049284 1.547099) (xy -0.913746 1.623069)
     (xy -0.787113 1.685790) (xy -0.683089 1.727708) (xy -0.657915 1.735209) (xy -0.618327 1.748752) (xy -0.618558 1.768907) (xy -0.646714 1.802309) (xy -0.685044 1.836489) (xy -0.726843 1.849367)
     (xy -0.782834 1.839611) (xy -0.863741 1.805891) (xy -0.944870 1.765288) (xy -1.053628 1.706571) (xy -1.167110 1.641323) (xy -1.249670 1.590651) (xy -1.323388 1.538812) (xy -1.409177 1.471935)
     (xy -1.497935 1.398004) (xy -1.580556 1.325003) (xy -1.647937 1.260915) (xy -1.690975 1.213725) (xy -1.701800 1.194154) (xy -1.682389 1.181044) (xy -1.630323 1.192325) )(layer F.SilkS) (width  0.010000)
  )
  (fp_poly (pts (xy 2.654783 -2.844800) (xy 2.702800 -2.833185) (xy 2.717800 -2.811212) (xy 2.715267 -2.776017) (xy 2.708107 -2.696772) (xy 2.696975 -2.579949) (xy 2.682529 -2.432024) (xy 2.665425 -2.259469)
     (xy 2.646320 -2.068758) (xy 2.625869 -1.866365) (xy 2.604730 -1.658765) (xy 2.583558 -1.452429) (xy 2.563011 -1.253834) (xy 2.543745 -1.069451) (xy 2.526416 -0.905755) (xy 2.511681 -0.769219)
     (xy 2.500974 -0.673100) (xy 2.461086 -0.370094) (xy 2.413809 -0.090722) (xy 2.360922 0.155530) (xy 2.312406 0.333262) (xy 2.279443 0.426073) (xy 2.234688 0.533842) (xy 2.183299 0.646164)
     (xy 2.130435 0.752633) (xy 2.081256 0.842846) (xy 2.040920 0.906396) (xy 2.015195 0.932701) (xy 1.989793 0.918309) (xy 1.969898 0.869965) (xy 1.969869 0.869834) (xy 1.969773 0.798848)
     (xy 2.002020 0.712565) (xy 2.018437 0.681728) (xy 2.129150 0.438857) (xy 2.209188 0.167226) (xy 2.255921 -0.119564) (xy 2.266714 -0.407914) (xy 2.257371 -0.552781) (xy 2.200978 -0.886565)
     (xy 2.103353 -1.202571) (xy 1.967189 -1.495528) (xy 1.795183 -1.760168) (xy 1.590027 -1.991223) (xy 1.465707 -2.100737) (xy 1.294372 -2.230537) (xy 1.135210 -2.331306) (xy 0.968874 -2.413852)
     (xy 0.776014 -2.488981) (xy 0.761469 -2.494085) (xy 0.672979 -2.524407) (xy 0.600481 -2.546386) (xy 0.533027 -2.561364) (xy 0.459673 -2.570682) (xy 0.369471 -2.575682) (xy 0.251475 -2.577707)
     (xy 0.094739 -2.578099) (xy 0.076200 -2.578100) (xy -0.087106 -2.577660) (xy -0.210425 -2.575544) (xy -0.304570 -2.570564) (xy -0.380353 -2.561530) (xy -0.448585 -2.547253) (xy -0.520078 -2.526544)
     (xy -0.584200 -2.505450) (xy -0.837268 -2.403502) (xy -1.079316 -2.274035) (xy -1.297591 -2.124876) (xy -1.479335 -1.963851) (xy -1.496678 -1.945611) (xy -1.558066 -1.892665) (xy -1.606869 -1.884249)
     (xy -1.651945 -1.918838) (xy -1.651999 -1.918903) (xy -1.664918 -1.946005) (xy -1.654163 -1.979103) (xy -1.614262 -2.028776) (xy -1.572559 -2.072463) (xy -1.382401 -2.239175) (xy -1.154671 -2.393629)
     (xy -0.902377 -2.528244) (xy -0.638532 -2.635436) (xy -0.566334 -2.658898) (xy -0.473620 -2.685882) (xy -0.392285 -2.704793) (xy -0.309566 -2.717068) (xy -0.212701 -2.724144) (xy -0.088929 -2.727459)
     (xy 0.050800 -2.728402) (xy 0.209658 -2.727896) (xy 0.331332 -2.724538) (xy 0.429417 -2.716875) (xy 0.517509 -2.703452) (xy 0.609204 -2.682816) (xy 0.697364 -2.659288) (xy 0.941483 -2.574761)
     (xy 1.185603 -2.459513) (xy 1.409309 -2.323789) (xy 1.502459 -2.255156) (xy 1.750858 -2.031562) (xy 1.957458 -1.784990) (xy 2.125133 -1.510884) (xy 2.256754 -1.204688) (xy 2.339637 -0.927100)
     (xy 2.360921 -0.848915) (xy 2.377353 -0.802422) (xy 2.385961 -0.795674) (xy 2.386499 -0.800100) (xy 2.389793 -0.842816) (xy 2.397043 -0.925521) (xy 2.407293 -1.037641) (xy 2.419585 -1.168604)
     (xy 2.424410 -1.219200) (xy 2.437928 -1.360891) (xy 2.454784 -1.538391) (xy 2.473579 -1.736934) (xy 2.492916 -1.941752) (xy 2.511396 -2.138076) (xy 2.513362 -2.159000) (xy 2.532534 -2.362805)
     (xy 2.547959 -2.521644) (xy 2.560792 -2.641119) (xy 2.572187 -2.726827) (xy 2.583300 -2.784368) (xy 2.595284 -2.819340) (xy 2.609295 -2.837342) (xy 2.626486 -2.843973) (xy 2.648013 -2.844832)
     (xy 2.654783 -2.844800) )(layer F.SilkS) (width  0.010000)
  )
  (fp_poly (pts (xy -2.171773 -0.301729) (xy -2.150389 -0.285810) (xy -2.134961 -0.246989) (xy -2.120930 -0.175211) (xy -2.108892 -0.095851) (xy -2.064773 0.128843) (xy -1.999948 0.356571) (xy -1.920854 0.566578)
     (xy -1.870449 0.673100) (xy -1.829038 0.752938) (xy -1.797339 0.814683) (xy -1.782416 0.844550) (xy -1.787657 0.861056) (xy -1.831978 0.849697) (xy -1.900989 0.818159) (xy -1.967233 0.761918)
     (xy -2.033680 0.663595) (xy -2.097072 0.531794) (xy -2.154151 0.375116) (xy -2.201657 0.202161) (xy -2.236334 0.021532) (xy -2.251399 -0.106886) (xy -2.267904 -0.304800) (xy -2.203674 -0.304800)
     (xy -2.171773 -0.301729) )(layer F.SilkS) (width  0.010000)
  )
  (fp_poly (pts (xy -2.132628 -1.635908) (xy -2.059700 -1.621755) (xy -1.970665 -1.601450) (xy -1.921163 -1.583550) (xy -1.900685 -1.561726) (xy -1.898721 -1.529650) (xy -1.899198 -1.525094) (xy -1.911370 -1.465760)
     (xy -1.934802 -1.453130) (xy -1.978163 -1.483179) (xy -1.981997 -1.486621) (xy -2.055945 -1.525357) (xy -2.157708 -1.544037) (xy -2.268190 -1.542092) (xy -2.368292 -1.518953) (xy -2.408378 -1.499324)
     (xy -2.499546 -1.414796) (xy -2.557152 -1.304468) (xy -2.581526 -1.179827) (xy -2.572994 -1.052363) (xy -2.531883 -0.933563) (xy -2.458522 -0.834916) (xy -2.387997 -0.783923) (xy -2.257558 -0.741459)
     (xy -2.121385 -0.748114) (xy -1.989782 -0.801171) (xy -1.924768 -0.837392) (xy -1.891960 -0.848069) (xy -1.880778 -0.835037) (xy -1.879989 -0.820221) (xy -1.891735 -0.761521) (xy -1.932409 -0.718132)
     (xy -2.011947 -0.680352) (xy -2.029881 -0.673848) (xy -2.155246 -0.642479) (xy -2.277603 -0.642947) (xy -2.417590 -0.675125) (xy -2.544099 -0.738734) (xy -2.643214 -0.837416) (xy -2.710969 -0.961168)
     (xy -2.743399 -1.099989) (xy -2.736541 -1.243877) (xy -2.693109 -1.370211) (xy -2.621039 -1.476220) (xy -2.523179 -1.553293) (xy -2.388373 -1.609845) (xy -2.366847 -1.616335) (xy -2.282003 -1.637751)
     (xy -2.211776 -1.644137) (xy -2.132628 -1.635908) )(layer F.SilkS) (width  0.010000)
  )
  (fp_poly (pts (xy 0.711200 -1.144500) (xy 0.710161 -0.993406) (xy 0.707272 -0.860407) (xy 0.702870 -0.753592) (xy 0.697292 -0.681054) (xy 0.690876 -0.650883) (xy 0.690593 -0.650663) (xy 0.667640 -0.664301)
     (xy 0.616052 -0.709863) (xy 0.541530 -0.781834) (xy 0.449777 -0.874702) (xy 0.346494 -0.982951) (xy 0.341343 -0.988440) (xy 0.012700 -1.338952) (xy -0.001434 -0.660400) (xy -0.127000 -0.660400)
     (xy -0.127000 -1.143000) (xy -0.126413 -1.314948) (xy -0.124349 -1.442184) (xy -0.120362 -1.530786) (xy -0.114002 -1.586832) (xy -0.104820 -1.616399) (xy -0.092367 -1.625566) (xy -0.091357 -1.625600)
     (xy -0.063316 -1.608050) (xy -0.006543 -1.559197) (xy 0.072889 -1.484745) (xy 0.168906 -1.390393) (xy 0.275434 -1.281842) (xy 0.280729 -1.276350) (xy 0.617172 -0.927100) (xy 0.582910 -1.625600)
     (xy 0.711200 -1.625600) (xy 0.711200 -1.144500) )(layer F.SilkS) (width  0.010000)
  )
  (fp_poly (pts (xy -1.309597 -1.625062) (xy -1.226295 -1.622449) (xy -1.176602 -1.616268) (xy -1.151922 -1.605023) (xy -1.143661 -1.587220) (xy -1.143000 -1.574800) (xy -1.146998 -1.550156) (xy -1.165596 -1.535077)
     (xy -1.208701 -1.527245) (xy -1.286221 -1.524342) (xy -1.360113 -1.524000) (xy -1.577225 -1.524000) (xy -1.569663 -1.365250) (xy -1.562100 -1.206500) (xy -1.403350 -1.215414) (xy -1.316863 -1.219311)
     (xy -1.269384 -1.215820) (xy -1.249217 -1.200681) (xy -1.244668 -1.169629) (xy -1.244600 -1.157556) (xy -1.244600 -1.090786) (xy -1.574800 -1.124616) (xy -1.574800 -0.756235) (xy -1.352550 -0.765468)
     (xy -1.245956 -0.769109) (xy -1.180258 -0.767982) (xy -1.145638 -0.760249) (xy -1.132279 -0.744075) (xy -1.130300 -0.723900) (xy -1.133604 -0.702174) (xy -1.149172 -0.687355) (xy -1.185492 -0.677795)
     (xy -1.251053 -0.671846) (xy -1.354342 -0.667860) (xy -1.428750 -0.665944) (xy -1.727200 -0.658788) (xy -1.727200 -1.625600) (xy -1.435100 -1.625600) (xy -1.309597 -1.625062) )(layer F.SilkS) (width  0.010000)
  )
  (fp_poly (pts (xy -0.762000 -1.625571) (xy -0.603890 -1.618406) (xy -0.488573 -1.595157) (xy -0.409822 -1.553071) (xy -0.361410 -1.489392) (xy -0.344653 -1.440966) (xy -0.333450 -1.367576) (xy -0.348250 -1.312349)
     (xy -0.371858 -1.275866) (xy -0.430602 -1.216133) (xy -0.504451 -1.164946) (xy -0.509806 -1.162139) (xy -0.564483 -1.130395) (xy -0.592067 -1.106669) (xy -0.592933 -1.102995) (xy -0.575936 -1.078502)
     (xy -0.533212 -1.024131) (xy -0.471860 -0.948776) (xy -0.421483 -0.888130) (xy -0.351746 -0.803557) (xy -0.296225 -0.733820) (xy -0.261822 -0.687735) (xy -0.254000 -0.674225) (xy -0.276294 -0.664931)
     (xy -0.330817 -0.660469) (xy -0.339304 -0.660400) (xy -0.389868 -0.665553) (xy -0.430324 -0.687605) (xy -0.473391 -0.736452) (xy -0.515761 -0.797687) (xy -0.595512 -0.911099) (xy -0.671103 -1.006449)
     (xy -0.736048 -1.076380) (xy -0.783861 -1.113533) (xy -0.797763 -1.117600) (xy -0.812676 -1.101822) (xy -0.819995 -1.050565) (xy -0.820228 -0.957946) (xy -0.817604 -0.889000) (xy -0.806944 -0.660400)
     (xy -0.886072 -0.660400) (xy -0.941213 -0.662185) (xy -0.966085 -0.666506) (xy -0.966181 -0.666750) (xy -0.966761 -0.692902) (xy -0.967787 -0.761859) (xy -0.969154 -0.865626) (xy -0.970756 -0.996213)
     (xy -0.972489 -1.145626) (xy -0.972531 -1.149360) (xy -0.977040 -1.549400) (xy -0.812800 -1.549400) (xy -0.812800 -1.193800) (xy -0.735339 -1.193800) (xy -0.654118 -1.206105) (xy -0.585915 -1.231014)
     (xy -0.520280 -1.288752) (xy -0.493697 -1.364008) (xy -0.506308 -1.441888) (xy -0.558256 -1.507499) (xy -0.583113 -1.523418) (xy -0.641742 -1.541339) (xy -0.717711 -1.549369) (xy -0.722231 -1.549400)
     (xy -0.812800 -1.549400) (xy -0.977040 -1.549400) (xy -0.977900 -1.625620) (xy -0.762000 -1.625571) )(layer F.SilkS) (width  0.010000)
  )
)
