PCBNEW-LibModule-V1  2019-09-14 12:10:19
# encoding utf-8
Units mm
$INDEX
QFN40P800X800X100-69N
$EndINDEX
$MODULE QFN40P800X800X100-69N
Po 0 0 0 15 5d7cca9b 00000000 ~~
Li QFN40P800X800X100-69N
Cd 68-pin QFN 8x8 with 0.4 mm Pitch Package Outline (Sawn Version)
Kw Integrated Circuit
Sc 0
At SMD
AR 
Op 0 0 0
T0 0 0 1.27 1.27 0 0.254 N V 21 N "IC**"
T1 0 0 1.27 1.27 0 0.254 N I 21 N "QFN40P800X800X100-69N"
DS -4.625 -4.625 4.625 -4.625 0.05 24
DS 4.625 -4.625 4.625 4.625 0.05 24
DS 4.625 4.625 -4.625 4.625 0.05 24
DS -4.625 4.625 -4.625 -4.625 0.05 24
DS -4 -4 4 -4 0.1 24
DS 4 -4 4 4 0.1 24
DS 4 4 -4 4 0.1 24
DS -4 4 -4 -4 0.1 24
DS -4 -3.6 -3.6 -4 0.1 24
DC -4.375 -3.8 -4.275 -3.8 0.254 21
$PAD
Po -3.95 -3.2
Sh "1" R 0.2 0.85 0 0 900
At SMD N 00888000
Ne 0 ""
$EndPAD
$PAD
Po -3.95 -2.8
Sh "2" R 0.2 0.85 0 0 900
At SMD N 00888000
Ne 0 ""
$EndPAD
$PAD
Po -3.95 -2.4
Sh "3" R 0.2 0.85 0 0 900
At SMD N 00888000
Ne 0 ""
$EndPAD
$PAD
Po -3.95 -2
Sh "4" R 0.2 0.85 0 0 900
At SMD N 00888000
Ne 0 ""
$EndPAD
$PAD
Po -3.95 -1.6
Sh "5" R 0.2 0.85 0 0 900
At SMD N 00888000
Ne 0 ""
$EndPAD
$PAD
Po -3.95 -1.2
Sh "6" R 0.2 0.85 0 0 900
At SMD N 00888000
Ne 0 ""
$EndPAD
$PAD
Po -3.95 -0.8
Sh "7" R 0.2 0.85 0 0 900
At SMD N 00888000
Ne 0 ""
$EndPAD
$PAD
Po -3.95 -0.4
Sh "8" R 0.2 0.85 0 0 900
At SMD N 00888000
Ne 0 ""
$EndPAD
$PAD
Po -3.95 0
Sh "9" R 0.2 0.85 0 0 900
At SMD N 00888000
Ne 0 ""
$EndPAD
$PAD
Po -3.95 0.4
Sh "10" R 0.2 0.85 0 0 900
At SMD N 00888000
Ne 0 ""
$EndPAD
$PAD
Po -3.95 0.8
Sh "11" R 0.2 0.85 0 0 900
At SMD N 00888000
Ne 0 ""
$EndPAD
$PAD
Po -3.95 1.2
Sh "12" R 0.2 0.85 0 0 900
At SMD N 00888000
Ne 0 ""
$EndPAD
$PAD
Po -3.95 1.6
Sh "13" R 0.2 0.85 0 0 900
At SMD N 00888000
Ne 0 ""
$EndPAD
$PAD
Po -3.95 2
Sh "14" R 0.2 0.85 0 0 900
At SMD N 00888000
Ne 0 ""
$EndPAD
$PAD
Po -3.95 2.4
Sh "15" R 0.2 0.85 0 0 900
At SMD N 00888000
Ne 0 ""
$EndPAD
$PAD
Po -3.95 2.8
Sh "16" R 0.2 0.85 0 0 900
At SMD N 00888000
Ne 0 ""
$EndPAD
$PAD
Po -3.95 3.2
Sh "17" R 0.2 0.85 0 0 900
At SMD N 00888000
Ne 0 ""
$EndPAD
$PAD
Po -3.2 3.95
Sh "18" R 0.2 0.85 0 0 0
At SMD N 00888000
Ne 0 ""
$EndPAD
$PAD
Po -2.8 3.95
Sh "19" R 0.2 0.85 0 0 0
At SMD N 00888000
Ne 0 ""
$EndPAD
$PAD
Po -2.4 3.95
Sh "20" R 0.2 0.85 0 0 0
At SMD N 00888000
Ne 0 ""
$EndPAD
$PAD
Po -2 3.95
Sh "21" R 0.2 0.85 0 0 0
At SMD N 00888000
Ne 0 ""
$EndPAD
$PAD
Po -1.6 3.95
Sh "22" R 0.2 0.85 0 0 0
At SMD N 00888000
Ne 0 ""
$EndPAD
$PAD
Po -1.2 3.95
Sh "23" R 0.2 0.85 0 0 0
At SMD N 00888000
Ne 0 ""
$EndPAD
$PAD
Po -0.8 3.95
Sh "24" R 0.2 0.85 0 0 0
At SMD N 00888000
Ne 0 ""
$EndPAD
$PAD
Po -0.4 3.95
Sh "25" R 0.2 0.85 0 0 0
At SMD N 00888000
Ne 0 ""
$EndPAD
$PAD
Po 0 3.95
Sh "26" R 0.2 0.85 0 0 0
At SMD N 00888000
Ne 0 ""
$EndPAD
$PAD
Po 0.4 3.95
Sh "27" R 0.2 0.85 0 0 0
At SMD N 00888000
Ne 0 ""
$EndPAD
$PAD
Po 0.8 3.95
Sh "28" R 0.2 0.85 0 0 0
At SMD N 00888000
Ne 0 ""
$EndPAD
$PAD
Po 1.2 3.95
Sh "29" R 0.2 0.85 0 0 0
At SMD N 00888000
Ne 0 ""
$EndPAD
$PAD
Po 1.6 3.95
Sh "30" R 0.2 0.85 0 0 0
At SMD N 00888000
Ne 0 ""
$EndPAD
$PAD
Po 2 3.95
Sh "31" R 0.2 0.85 0 0 0
At SMD N 00888000
Ne 0 ""
$EndPAD
$PAD
Po 2.4 3.95
Sh "32" R 0.2 0.85 0 0 0
At SMD N 00888000
Ne 0 ""
$EndPAD
$PAD
Po 2.8 3.95
Sh "33" R 0.2 0.85 0 0 0
At SMD N 00888000
Ne 0 ""
$EndPAD
$PAD
Po 3.2 3.95
Sh "34" R 0.2 0.85 0 0 0
At SMD N 00888000
Ne 0 ""
$EndPAD
$PAD
Po 3.95 3.2
Sh "35" R 0.2 0.85 0 0 900
At SMD N 00888000
Ne 0 ""
$EndPAD
$PAD
Po 3.95 2.8
Sh "36" R 0.2 0.85 0 0 900
At SMD N 00888000
Ne 0 ""
$EndPAD
$PAD
Po 3.95 2.4
Sh "37" R 0.2 0.85 0 0 900
At SMD N 00888000
Ne 0 ""
$EndPAD
$PAD
Po 3.95 2
Sh "38" R 0.2 0.85 0 0 900
At SMD N 00888000
Ne 0 ""
$EndPAD
$PAD
Po 3.95 1.6
Sh "39" R 0.2 0.85 0 0 900
At SMD N 00888000
Ne 0 ""
$EndPAD
$PAD
Po 3.95 1.2
Sh "40" R 0.2 0.85 0 0 900
At SMD N 00888000
Ne 0 ""
$EndPAD
$PAD
Po 3.95 0.8
Sh "41" R 0.2 0.85 0 0 900
At SMD N 00888000
Ne 0 ""
$EndPAD
$PAD
Po 3.95 0.4
Sh "42" R 0.2 0.85 0 0 900
At SMD N 00888000
Ne 0 ""
$EndPAD
$PAD
Po 3.95 0
Sh "43" R 0.2 0.85 0 0 900
At SMD N 00888000
Ne 0 ""
$EndPAD
$PAD
Po 3.95 -0.4
Sh "44" R 0.2 0.85 0 0 900
At SMD N 00888000
Ne 0 ""
$EndPAD
$PAD
Po 3.95 -0.8
Sh "45" R 0.2 0.85 0 0 900
At SMD N 00888000
Ne 0 ""
$EndPAD
$PAD
Po 3.95 -1.2
Sh "46" R 0.2 0.85 0 0 900
At SMD N 00888000
Ne 0 ""
$EndPAD
$PAD
Po 3.95 -1.6
Sh "47" R 0.2 0.85 0 0 900
At SMD N 00888000
Ne 0 ""
$EndPAD
$PAD
Po 3.95 -2
Sh "48" R 0.2 0.85 0 0 900
At SMD N 00888000
Ne 0 ""
$EndPAD
$PAD
Po 3.95 -2.4
Sh "49" R 0.2 0.85 0 0 900
At SMD N 00888000
Ne 0 ""
$EndPAD
$PAD
Po 3.95 -2.8
Sh "50" R 0.2 0.85 0 0 900
At SMD N 00888000
Ne 0 ""
$EndPAD
$PAD
Po 3.95 -3.2
Sh "51" R 0.2 0.85 0 0 900
At SMD N 00888000
Ne 0 ""
$EndPAD
$PAD
Po 3.2 -3.95
Sh "52" R 0.2 0.85 0 0 0
At SMD N 00888000
Ne 0 ""
$EndPAD
$PAD
Po 2.8 -3.95
Sh "53" R 0.2 0.85 0 0 0
At SMD N 00888000
Ne 0 ""
$EndPAD
$PAD
Po 2.4 -3.95
Sh "54" R 0.2 0.85 0 0 0
At SMD N 00888000
Ne 0 ""
$EndPAD
$PAD
Po 2 -3.95
Sh "55" R 0.2 0.85 0 0 0
At SMD N 00888000
Ne 0 ""
$EndPAD
$PAD
Po 1.6 -3.95
Sh "56" R 0.2 0.85 0 0 0
At SMD N 00888000
Ne 0 ""
$EndPAD
$PAD
Po 1.2 -3.95
Sh "57" R 0.2 0.85 0 0 0
At SMD N 00888000
Ne 0 ""
$EndPAD
$PAD
Po 0.8 -3.95
Sh "58" R 0.2 0.85 0 0 0
At SMD N 00888000
Ne 0 ""
$EndPAD
$PAD
Po 0.4 -3.95
Sh "59" R 0.2 0.85 0 0 0
At SMD N 00888000
Ne 0 ""
$EndPAD
$PAD
Po 0 -3.95
Sh "60" R 0.2 0.85 0 0 0
At SMD N 00888000
Ne 0 ""
$EndPAD
$PAD
Po -0.4 -3.95
Sh "61" R 0.2 0.85 0 0 0
At SMD N 00888000
Ne 0 ""
$EndPAD
$PAD
Po -0.8 -3.95
Sh "62" R 0.2 0.85 0 0 0
At SMD N 00888000
Ne 0 ""
$EndPAD
$PAD
Po -1.2 -3.95
Sh "63" R 0.2 0.85 0 0 0
At SMD N 00888000
Ne 0 ""
$EndPAD
$PAD
Po -1.6 -3.95
Sh "64" R 0.2 0.85 0 0 0
At SMD N 00888000
Ne 0 ""
$EndPAD
$PAD
Po -2 -3.95
Sh "65" R 0.2 0.85 0 0 0
At SMD N 00888000
Ne 0 ""
$EndPAD
$PAD
Po -2.4 -3.95
Sh "66" R 0.2 0.85 0 0 0
At SMD N 00888000
Ne 0 ""
$EndPAD
$PAD
Po -2.8 -3.95
Sh "67" R 0.2 0.85 0 0 0
At SMD N 00888000
Ne 0 ""
$EndPAD
$PAD
Po -3.2 -3.95
Sh "68" R 0.2 0.85 0 0 0
At SMD N 00888000
Ne 0 ""
$EndPAD
$PAD
Po 0 0
Sh "69" R 5.8 5.8 0 0 0
At SMD N 00888000
Ne 0 ""
$EndPAD
$EndMODULE QFN40P800X800X100-69N
$EndLIBRARY
