PCBNEW-LibModule-V1  2019-09-18 09:07:12
# encoding utf-8
Units mm
$INDEX
SOTFL50P160X60-6N
$EndINDEX
$MODULE SOTFL50P160X60-6N
Po 0 0 0 15 5d81e5b0 00000000 ~~
Li SOTFL50P160X60-6N
Cd SOT666
Kw Transistor
Sc 0
At SMD
AR 
Op 0 0 0
T0 0 0 1.27 1.27 0 0.254 N V 21 N "Q**"
T1 0 0 1.27 1.27 0 0.254 N I 21 N "SOTFL50P160X60-6N"
DS -1.225 -1 1.225 -1 0.05 24
DS 1.225 -1 1.225 1 0.05 24
DS 1.225 1 -1.225 1 0.05 24
DS -1.225 1 -1.225 -1 0.05 24
DS -0.6 -0.8 0.6 -0.8 0.1 24
DS 0.6 -0.8 0.6 0.8 0.1 24
DS 0.6 0.8 -0.6 0.8 0.1 24
DS -0.6 0.8 -0.6 -0.8 0.1 24
DS -0.6 -0.3 -0.1 -0.8 0.1 24
DS -0.25 -0.8 0.25 -0.8 0.2 21
DS 0.25 -0.8 0.25 0.8 0.2 21
DS 0.25 0.8 -0.25 0.8 0.2 21
DS -0.25 0.8 -0.25 -0.8 0.2 21
DS -1.075 -0.9 -0.6 -0.9 0.2 21
$PAD
Po -0.838 -0.5
Sh "1" R 0.3 0.475 0 0 900
At SMD N 00888000
Ne 0 ""
$EndPAD
$PAD
Po -0.838 0
Sh "2" R 0.3 0.475 0 0 900
At SMD N 00888000
Ne 0 ""
$EndPAD
$PAD
Po -0.838 0.5
Sh "3" R 0.3 0.475 0 0 900
At SMD N 00888000
Ne 0 ""
$EndPAD
$PAD
Po 0.838 0.5
Sh "4" R 0.3 0.475 0 0 900
At SMD N 00888000
Ne 0 ""
$EndPAD
$PAD
Po 0.838 0
Sh "5" R 0.3 0.475 0 0 900
At SMD N 00888000
Ne 0 ""
$EndPAD
$PAD
Po 0.838 -0.5
Sh "6" R 0.3 0.475 0 0 900
At SMD N 00888000
Ne 0 ""
$EndPAD
$EndMODULE SOTFL50P160X60-6N
$EndLIBRARY
