PCBNEW-LibModule-V1  2019-09-24 13:45:45
# encoding utf-8
Units mm
$INDEX
Molex_Pico-Clasp_501190-2027_2x10_1MP_P1mm_Vertical
$EndINDEX
$MODULE Molex_Pico-Clasp_501190-2027_2x10_1MP_P1mm_Vertical
Po 0 0 0 15 5d8a0ff9 00000000 ~~
Li 5011902027
Cd 501190-2027-1
Kw Connector
Sc 0
At SMD
AR 
Op 0 0 0
T0 0.000 0.225 1.27 1.27 0 0.254 N V 21 N "J**"
T1 0.000 0.225 1.27 1.27 0 0.254 N I 21 N "5011902027"
DS -6.15 2.8 6.15 2.8 0.2 24
DS 6.15 2.8 6.15 -2.8 0.2 24
DS 6.15 -2.8 -6.15 -2.8 0.2 24
DS -6.15 -2.8 -6.15 2.8 0.2 24
DS -2.45 2.8 2.45 2.8 0.2 24
DS 2.45 2.8 2.45 3.8 0.2 24
DS 2.45 3.8 -2.45 3.8 0.2 24
DS -2.45 3.8 -2.45 2.8 0.2 24
DS -7.25 -4.6 7.25 -4.6 0.1 24
DS 7.25 -4.6 7.25 5.05 0.1 24
DS 7.25 5.05 -7.25 5.05 0.1 24
DS -7.25 5.05 -7.25 -4.6 0.1 24
DS -6.15 -2 -6.15 -2 0.1 21
DS -6.15 -2 -6.15 -2.8 0.1 21
DS -6.15 -2.8 -6.15 -2.8 0.1 21
DS -6.15 -2.8 -6.15 -2 0.1 21
DS -6.15 -2.8 -5.5 -2.8 0.1 21
DS -5.5 -2.8 -5.5 -2.8 0.1 21
DS -5.5 -2.8 -6.15 -2.8 0.1 21
DS -6.15 -2.8 -6.15 -2.8 0.1 21
DS -6.15 1.25 -6.15 1.25 0.1 21
DS -6.15 1.25 -6.15 2.75 0.1 21
DS -6.15 2.75 -6.15 2.75 0.1 21
DS -6.15 2.75 -6.15 1.25 0.1 21
DS -6.15 2.8 -5.5 2.8 0.1 21
DS -5.5 2.8 -5.5 2.8 0.1 21
DS -5.5 2.8 -6.15 2.8 0.1 21
DS -6.15 2.8 -6.15 2.8 0.1 21
DS 5.5 2.8 6.15 2.8 0.1 21
DS 6.15 2.8 6.15 2.8 0.1 21
DS 6.15 2.8 5.5 2.8 0.1 21
DS 5.5 2.8 5.5 2.8 0.1 21
DS 6.15 2.8 6.15 2.8 0.1 21
DS 6.15 2.8 6.15 1 0.1 21
DS 6.15 1 6.15 1 0.1 21
DS 6.15 1 6.15 2.8 0.1 21
DS 5.5 -2.8 6.15 -2.8 0.1 21
DS 6.15 -2.8 6.15 -2.8 0.1 21
DS 6.15 -2.8 5.5 -2.8 0.1 21
DS 5.5 -2.8 5.5 -2.8 0.1 21
DS 6.15 -2.8 6.15 -2.8 0.1 21
DS 6.15 -2.8 6.15 -2 0.1 21
DS 6.15 -2 6.15 -2 0.1 21
DS 6.15 -2 6.15 -2.8 0.1 21
DS -4.6 4 -4.6 4 0.2 21
DS -4.5 4 -4.5 4 0.2 21
DS -4.6 4 -4.6 4 0.2 21
DA -4.55 4 -4.600 4 -1800 0.2 21
DA -4.55 4 -4.500 4 -1800 0.2 21
DA -4.55 4 -4.600 4 -1800 0.2 21
$PAD
Po -4.500 2.8
Sh "1" R 0.600 1.600 0 0 0
At SMD N 00888000
Ne 0 ""
$EndPAD
$PAD
Po -4.500 -2.8
Sh "2" R 0.600 1.600 0 0 0
At SMD N 00888000
Ne 0 ""
$EndPAD
$PAD
Po -3.500 2.8
Sh "3" R 0.600 1.600 0 0 0
At SMD N 00888000
Ne 0 ""
$EndPAD
$PAD
Po -3.500 -2.8
Sh "4" R 0.600 1.600 0 0 0
At SMD N 00888000
Ne 0 ""
$EndPAD
$PAD
Po -2.500 2.8
Sh "5" R 0.600 1.600 0 0 0
At SMD N 00888000
Ne 0 ""
$EndPAD
$PAD
Po -2.500 -2.8
Sh "6" R 0.600 1.600 0 0 0
At SMD N 00888000
Ne 0 ""
$EndPAD
$PAD
Po -1.500 2.8
Sh "7" R 0.600 1.600 0 0 0
At SMD N 00888000
Ne 0 ""
$EndPAD
$PAD
Po -1.500 -2.8
Sh "8" R 0.600 1.600 0 0 0
At SMD N 00888000
Ne 0 ""
$EndPAD
$PAD
Po -0.500 2.8
Sh "9" R 0.600 1.600 0 0 0
At SMD N 00888000
Ne 0 ""
$EndPAD
$PAD
Po -0.500 -2.8
Sh "10" R 0.600 1.600 0 0 0
At SMD N 00888000
Ne 0 ""
$EndPAD
$PAD
Po 0.500 2.8
Sh "11" R 0.600 1.600 0 0 0
At SMD N 00888000
Ne 0 ""
$EndPAD
$PAD
Po 0.500 -2.8
Sh "12" R 0.600 1.600 0 0 0
At SMD N 00888000
Ne 0 ""
$EndPAD
$PAD
Po 1.500 2.8
Sh "13" R 0.600 1.600 0 0 0
At SMD N 00888000
Ne 0 ""
$EndPAD
$PAD
Po 1.500 -2.8
Sh "14" R 0.600 1.600 0 0 0
At SMD N 00888000
Ne 0 ""
$EndPAD
$PAD
Po 2.500 2.8
Sh "15" R 0.600 1.600 0 0 0
At SMD N 00888000
Ne 0 ""
$EndPAD
$PAD
Po 2.500 -2.8
Sh "16" R 0.600 1.600 0 0 0
At SMD N 00888000
Ne 0 ""
$EndPAD
$PAD
Po 3.500 2.8
Sh "17" R 0.600 1.600 0 0 0
At SMD N 00888000
Ne 0 ""
$EndPAD
$PAD
Po 3.500 -2.8
Sh "18" R 0.600 1.600 0 0 0
At SMD N 00888000
Ne 0 ""
$EndPAD
$PAD
Po 4.500 2.8
Sh "19" R 0.600 1.600 0 0 0
At SMD N 00888000
Ne 0 ""
$EndPAD
$PAD
Po 4.500 -2.8
Sh "20" R 0.600 1.600 0 0 0
At SMD N 00888000
Ne 0 ""
$EndPAD
$PAD
Po -5.825 -0.4
Sh "MP1" R 0.850 1.800 0 0 0
At SMD N 00888000
Ne 0 ""
$EndPAD
$PAD
Po 5.825 -0.4
Sh "MP2" R 0.850 1.800 0 0 0
At SMD N 00888000
Ne 0 ""
$EndPAD
$EndMODULE Molex_Pico-Clasp_501190-2027_2x10_1MP_P1mm_Vertical
$EndLIBRARY
