(Source "DipTrace-ElementLibrary")
  (Library
    (Name "CY8C5888LTI-LP097")
    (Hint "CY8C5888LTI-LP097")
    (Subfolders
    )
    (Categories 0
    )
    (Components
      (Component
        (Part "CY8C5888LTI-LP097" "IC"
          (Enabled "Y")
          (PartType 0)
          (PartName "CY8C5888LTI-LP097")
          (ShowNumbers 1)
          (Type 0)
          (Number1 0)
          (Number2 0)
          (Width 60.96)
          (Height 91.44)
          (Value "")
          (LockProperties "N")
          (OriginX 0)
          (OriginY 0)
          (Datasheet "http://uk.rs-online.com/web/p/products/1242972P")
          (ModelType 0)
          (ModelString "")
          (ModelBody
          )
          (Manufacturer "Cypress Semiconductor")
          (CategoryName "")
          (CategoryIndex -1)
          (CategoryTypes 0
          )
          (SubfolderIndex 0)
          (Verification "N" "N" "N" "N" "N" "N" "N")
          (Pins
            (Pin 0 15.24 -0
              (Enabled "Y")
              (Locked "N")
              (ModelSig "")
              (Type 0)
              (Orientation 0)
              (Number 1)
              (Length 15.24)
              (Name "(TRACEDATA[2],_GPIO)_P2[6]")
              (StringNumber "1")
              (ShowName "Y")
              (PinNumXShift 0)
              (PinNumYShift 0)
              (PinNamexShift 0)
              (PinNameYShift 0)
              (ElectricType 0)
              (NameFontSize 5)
              (NameFontWidth -2)
              (NameFontScale 1)
              (SignalDelay 0)
            )
            (Pin 1 15.24 7.62
              (Enabled "Y")
              (Locked "N")
              (ModelSig "")
              (Type 0)
              (Orientation 0)
              (Number 2)
              (Length 15.24)
              (Name "(TRACEDATA[3],_GPIO)_P2[7]")
              (StringNumber "2")
              (ShowName "Y")
              (PinNumXShift 0)
              (PinNumYShift 0)
              (PinNamexShift 0)
              (PinNameYShift 0)
              (ElectricType 0)
              (NameFontSize 5)
              (NameFontWidth -2)
              (NameFontScale 1)
              (SignalDelay 0)
            )
            (Pin 2 15.24 15.24
              (Enabled "Y")
              (Locked "N")
              (ModelSig "")
              (Type 0)
              (Orientation 0)
              (Number 3)
              (Length 15.24)
              (Name "(I2C0:_SCL,_SIO)_P12[4]")
              (StringNumber "3")
              (ShowName "Y")
              (PinNumXShift 0)
              (PinNumYShift 0)
              (PinNamexShift 0)
              (PinNameYShift 0)
              (ElectricType 0)
              (NameFontSize 5)
              (NameFontWidth -2)
              (NameFontScale 1)
              (SignalDelay 0)
            )
            (Pin 3 15.24 22.86
              (Enabled "Y")
              (Locked "N")
              (ModelSig "")
              (Type 0)
              (Orientation 0)
              (Number 4)
              (Length 15.24)
              (Name "(I2C0:_SDA,_SIO)_P12[5]")
              (StringNumber "4")
              (ShowName "Y")
              (PinNumXShift 0)
              (PinNumYShift 0)
              (PinNamexShift 0)
              (PinNameYShift 0)
              (ElectricType 0)
              (NameFontSize 5)
              (NameFontWidth -2)
              (NameFontScale 1)
              (SignalDelay 0)
            )
            (Pin 4 15.24 30.48
              (Enabled "Y")
              (Locked "N")
              (ModelSig "")
              (Type 0)
              (Orientation 0)
              (Number 5)
              (Length 15.24)
              (Name "VSSB")
              (StringNumber "5")
              (ShowName "Y")
              (PinNumXShift 0)
              (PinNumYShift 0)
              (PinNamexShift 0)
              (PinNameYShift 0)
              (ElectricType 0)
              (NameFontSize 5)
              (NameFontWidth -2)
              (NameFontScale 1)
              (SignalDelay 0)
            )
            (Pin 5 15.24 38.1
              (Enabled "Y")
              (Locked "N")
              (ModelSig "")
              (Type 0)
              (Orientation 0)
              (Number 6)
              (Length 15.24)
              (Name "IND")
              (StringNumber "6")
              (ShowName "Y")
              (PinNumXShift 0)
              (PinNumYShift 0)
              (PinNamexShift 0)
              (PinNameYShift 0)
              (ElectricType 0)
              (NameFontSize 5)
              (NameFontWidth -2)
              (NameFontScale 1)
              (SignalDelay 0)
            )
            (Pin 6 15.24 45.72
              (Enabled "Y")
              (Locked "N")
              (ModelSig "")
              (Type 0)
              (Orientation 0)
              (Number 7)
              (Length 15.24)
              (Name "VBOOST")
              (StringNumber "7")
              (ShowName "Y")
              (PinNumXShift 0)
              (PinNumYShift 0)
              (PinNamexShift 0)
              (PinNameYShift 0)
              (ElectricType 0)
              (NameFontSize 5)
              (NameFontWidth -2)
              (NameFontScale 1)
              (SignalDelay 0)
            )
            (Pin 7 15.24 53.34
              (Enabled "Y")
              (Locked "N")
              (ModelSig "")
              (Type 0)
              (Orientation 0)
              (Number 8)
              (Length 15.24)
              (Name "VBAT")
              (StringNumber "8")
              (ShowName "Y")
              (PinNumXShift 0)
              (PinNumYShift 0)
              (PinNamexShift 0)
              (PinNameYShift 0)
              (ElectricType 0)
              (NameFontSize 5)
              (NameFontWidth -2)
              (NameFontScale 1)
              (SignalDelay 0)
            )
            (Pin 8 15.24 60.96
              (Enabled "Y")
              (Locked "N")
              (ModelSig "")
              (Type 0)
              (Orientation 0)
              (Number 9)
              (Length 15.24)
              (Name "VSSD_1")
              (StringNumber "9")
              (ShowName "Y")
              (PinNumXShift 0)
              (PinNumYShift 0)
              (PinNamexShift 0)
              (PinNameYShift 0)
              (ElectricType 0)
              (NameFontSize 5)
              (NameFontWidth -2)
              (NameFontScale 1)
              (SignalDelay 0)
            )
            (Pin 9 15.24 68.58
              (Enabled "Y")
              (Locked "N")
              (ModelSig "")
              (Type 0)
              (Orientation 0)
              (Number 10)
              (Length 15.24)
              (Name "~XRES")
              (StringNumber "10")
              (ShowName "Y")
              (PinNumXShift 0)
              (PinNumYShift 0)
              (PinNamexShift 0)
              (PinNameYShift 0)
              (ElectricType 0)
              (NameFontSize 5)
              (NameFontWidth -2)
              (NameFontScale 1)
              (SignalDelay 0)
            )
            (Pin 10 15.24 76.2
              (Enabled "Y")
              (Locked "N")
              (ModelSig "")
              (Type 0)
              (Orientation 0)
              (Number 11)
              (Length 15.24)
              (Name "(TMS,_SWDIO,_GPIO)_P1[0]")
              (StringNumber "11")
              (ShowName "Y")
              (PinNumXShift 0)
              (PinNumYShift 0)
              (PinNamexShift 0)
              (PinNameYShift 0)
              (ElectricType 0)
              (NameFontSize 5)
              (NameFontWidth -2)
              (NameFontScale 1)
              (SignalDelay 0)
            )
            (Pin 11 15.24 83.82
              (Enabled "Y")
              (Locked "N")
              (ModelSig "")
              (Type 0)
              (Orientation 0)
              (Number 12)
              (Length 15.24)
              (Name "(TCK,_SWDCK,_GPIO)_P1[1]")
              (StringNumber "12")
              (ShowName "Y")
              (PinNumXShift 0)
              (PinNumYShift 0)
              (PinNamexShift 0)
              (PinNameYShift 0)
              (ElectricType 0)
              (NameFontSize 5)
              (NameFontWidth -2)
              (NameFontScale 1)
              (SignalDelay 0)
            )
            (Pin 12 15.24 91.44
              (Enabled "Y")
              (Locked "N")
              (ModelSig "")
              (Type 0)
              (Orientation 0)
              (Number 13)
              (Length 15.24)
              (Name "(CONFIGURABLE_XRES,_GPIO)_P1[2]")
              (StringNumber "13")
              (ShowName "Y")
              (PinNumXShift 0)
              (PinNumYShift 0)
              (PinNamexShift 0)
              (PinNameYShift 0)
              (ElectricType 0)
              (NameFontSize 5)
              (NameFontWidth -2)
              (NameFontScale 1)
              (SignalDelay 0)
            )
            (Pin 13 15.24 99.06
              (Enabled "Y")
              (Locked "N")
              (ModelSig "")
              (Type 0)
              (Orientation 0)
              (Number 14)
              (Length 15.24)
              (Name "(TDO,_SWV,_GPIO)_P1[3]")
              (StringNumber "14")
              (ShowName "Y")
              (PinNumXShift 0)
              (PinNumYShift 0)
              (PinNamexShift 0)
              (PinNameYShift 0)
              (ElectricType 0)
              (NameFontSize 5)
              (NameFontWidth -2)
              (NameFontScale 1)
              (SignalDelay 0)
            )
            (Pin 14 15.24 106.68
              (Enabled "Y")
              (Locked "N")
              (ModelSig "")
              (Type 0)
              (Orientation 0)
              (Number 15)
              (Length 15.24)
              (Name "(TDI,_GPIO)_P1[4]")
              (StringNumber "15")
              (ShowName "Y")
              (PinNumXShift 0)
              (PinNumYShift 0)
              (PinNamexShift 0)
              (PinNameYShift 0)
              (ElectricType 0)
              (NameFontSize 5)
              (NameFontWidth -2)
              (NameFontScale 1)
              (SignalDelay 0)
            )
            (Pin 15 15.24 114.3
              (Enabled "Y")
              (Locked "N")
              (ModelSig "")
              (Type 0)
              (Orientation 0)
              (Number 16)
              (Length 15.24)
              (Name "(NTRST,_GPIO)_P1[5]")
              (StringNumber "16")
              (ShowName "Y")
              (PinNumXShift 0)
              (PinNumYShift 0)
              (PinNamexShift 0)
              (PinNameYShift 0)
              (ElectricType 0)
              (NameFontSize 5)
              (NameFontWidth -2)
              (NameFontScale 1)
              (SignalDelay 0)
            )
            (Pin 16 15.24 121.92
              (Enabled "Y")
              (Locked "N")
              (ModelSig "")
              (Type 0)
              (Orientation 0)
              (Number 17)
              (Length 15.24)
              (Name "VDDIO1")
              (StringNumber "17")
              (ShowName "Y")
              (PinNumXShift 0)
              (PinNumYShift 0)
              (PinNamexShift 0)
              (PinNameYShift 0)
              (ElectricType 0)
              (NameFontSize 5)
              (NameFontWidth -2)
              (NameFontScale 1)
              (SignalDelay 0)
            )
            (Pin 17 91.44 251.46
              (Enabled "Y")
              (Locked "N")
              (ModelSig "")
              (Type 0)
              (Orientation 3)
              (Number 18)
              (Length 15.24)
              (Name "(GPIO)_P1[6]")
              (StringNumber "18")
              (ShowName "Y")
              (PinNumXShift 0)
              (PinNumYShift 0)
              (PinNamexShift 0)
              (PinNameYShift 0)
              (ElectricType 0)
              (NameFontSize 5)
              (NameFontWidth -2)
              (NameFontScale 1)
              (SignalDelay 0)
            )
            (Pin 18 99.06 251.46
              (Enabled "Y")
              (Locked "N")
              (ModelSig "")
              (Type 0)
              (Orientation 3)
              (Number 19)
              (Length 15.24)
              (Name "(GPIO)_P1[7]")
              (StringNumber "19")
              (ShowName "Y")
              (PinNumXShift 0)
              (PinNumYShift 0)
              (PinNamexShift 0)
              (PinNameYShift 0)
              (ElectricType 0)
              (NameFontSize 5)
              (NameFontWidth -2)
              (NameFontScale 1)
              (SignalDelay 0)
            )
            (Pin 19 106.68 251.46
              (Enabled "Y")
              (Locked "N")
              (ModelSig "")
              (Type 0)
              (Orientation 3)
              (Number 20)
              (Length 15.24)
              (Name "(SIO)_P12[6]")
              (StringNumber "20")
              (ShowName "Y")
              (PinNumXShift 0)
              (PinNumYShift 0)
              (PinNamexShift 0)
              (PinNameYShift 0)
              (ElectricType 0)
              (NameFontSize 5)
              (NameFontWidth -2)
              (NameFontScale 1)
              (SignalDelay 0)
            )
            (Pin 20 114.3 251.46
              (Enabled "Y")
              (Locked "N")
              (ModelSig "")
              (Type 0)
              (Orientation 3)
              (Number 21)
              (Length 15.24)
              (Name "(SIO)_P12[7]")
              (StringNumber "21")
              (ShowName "Y")
              (PinNumXShift 0)
              (PinNumYShift 0)
              (PinNamexShift 0)
              (PinNameYShift 0)
              (ElectricType 0)
              (NameFontSize 5)
              (NameFontWidth -2)
              (NameFontScale 1)
              (SignalDelay 0)
            )
            (Pin 21 121.92 251.46
              (Enabled "Y")
              (Locked "N")
              (ModelSig "")
              (Type 0)
              (Orientation 3)
              (Number 22)
              (Length 15.24)
              (Name "(USBIO,_D+,_SWDIO)_P15[6]")
              (StringNumber "22")
              (ShowName "Y")
              (PinNumXShift 0)
              (PinNumYShift 0)
              (PinNamexShift 0)
              (PinNameYShift 0)
              (ElectricType 0)
              (NameFontSize 5)
              (NameFontWidth -2)
              (NameFontScale 1)
              (SignalDelay 0)
            )
            (Pin 22 129.54 251.46
              (Enabled "Y")
              (Locked "N")
              (ModelSig "")
              (Type 0)
              (Orientation 3)
              (Number 23)
              (Length 15.24)
              (Name "(USBIO,_D-,_SWDCK)_P15[7]")
              (StringNumber "23")
              (ShowName "Y")
              (PinNumXShift 0)
              (PinNumYShift 0)
              (PinNamexShift 0)
              (PinNameYShift 0)
              (ElectricType 0)
              (NameFontSize 5)
              (NameFontWidth -2)
              (NameFontScale 1)
              (SignalDelay 0)
            )
            (Pin 23 137.16 251.46
              (Enabled "Y")
              (Locked "N")
              (ModelSig "")
              (Type 0)
              (Orientation 3)
              (Number 24)
              (Length 15.24)
              (Name "VDDD_1")
              (StringNumber "24")
              (ShowName "Y")
              (PinNumXShift 0)
              (PinNumYShift 0)
              (PinNamexShift 0)
              (PinNameYShift 0)
              (ElectricType 0)
              (NameFontSize 5)
              (NameFontWidth -2)
              (NameFontScale 1)
              (SignalDelay 0)
            )
            (Pin 24 144.78 251.46
              (Enabled "Y")
              (Locked "N")
              (ModelSig "")
              (Type 0)
              (Orientation 3)
              (Number 25)
              (Length 15.24)
              (Name "VSSD_2")
              (StringNumber "25")
              (ShowName "Y")
              (PinNumXShift 0)
              (PinNumYShift 0)
              (PinNamexShift 0)
              (PinNameYShift 0)
              (ElectricType 0)
              (NameFontSize 5)
              (NameFontWidth -2)
              (NameFontScale 1)
              (SignalDelay 0)
            )
            (Pin 25 152.4 251.46
              (Enabled "Y")
              (Locked "N")
              (ModelSig "")
              (Type 0)
              (Orientation 3)
              (Number 26)
              (Length 15.24)
              (Name "VCCD_1")
              (StringNumber "26")
              (ShowName "Y")
              (PinNumXShift 0)
              (PinNumYShift 0)
              (PinNamexShift 0)
              (PinNameYShift 0)
              (ElectricType 0)
              (NameFontSize 5)
              (NameFontWidth -2)
              (NameFontScale 1)
              (SignalDelay 0)
            )
            (Pin 26 160.02 251.46
              (Enabled "Y")
              (Locked "N")
              (ModelSig "")
              (Type 0)
              (Orientation 3)
              (Number 27)
              (Length 15.24)
              (Name "(MHZ_XTAL:_XO,_GPIO)_P15[0]")
              (StringNumber "27")
              (ShowName "Y")
              (PinNumXShift 0)
              (PinNumYShift 0)
              (PinNamexShift 0)
              (PinNameYShift 0)
              (ElectricType 0)
              (NameFontSize 5)
              (NameFontWidth -2)
              (NameFontScale 1)
              (SignalDelay 0)
            )
            (Pin 27 167.64 251.46
              (Enabled "Y")
              (Locked "N")
              (ModelSig "")
              (Type 0)
              (Orientation 3)
              (Number 28)
              (Length 15.24)
              (Name "(MHZ_XTAL:_XI,_GPIO)_P15[1]")
              (StringNumber "28")
              (ShowName "Y")
              (PinNumXShift 0)
              (PinNumYShift 0)
              (PinNamexShift 0)
              (PinNameYShift 0)
              (ElectricType 0)
              (NameFontSize 5)
              (NameFontWidth -2)
              (NameFontScale 1)
              (SignalDelay 0)
            )
            (Pin 28 175.26 251.46
              (Enabled "Y")
              (Locked "N")
              (ModelSig "")
              (Type 0)
              (Orientation 3)
              (Number 29)
              (Length 15.24)
              (Name "(IDAC1,_GPIO)_P3[0]")
              (StringNumber "29")
              (ShowName "Y")
              (PinNumXShift 0)
              (PinNumYShift 0)
              (PinNamexShift 0)
              (PinNameYShift 0)
              (ElectricType 0)
              (NameFontSize 5)
              (NameFontWidth -2)
              (NameFontScale 1)
              (SignalDelay 0)
            )
            (Pin 29 182.88 251.46
              (Enabled "Y")
              (Locked "N")
              (ModelSig "")
              (Type 0)
              (Orientation 3)
              (Number 30)
              (Length 15.24)
              (Name "(IDAC3,_GPIO)_P3[1]")
              (StringNumber "30")
              (ShowName "Y")
              (PinNumXShift 0)
              (PinNumYShift 0)
              (PinNamexShift 0)
              (PinNameYShift 0)
              (ElectricType 0)
              (NameFontSize 5)
              (NameFontWidth -2)
              (NameFontScale 1)
              (SignalDelay 0)
            )
            (Pin 30 190.5 251.46
              (Enabled "Y")
              (Locked "N")
              (ModelSig "")
              (Type 0)
              (Orientation 3)
              (Number 31)
              (Length 15.24)
              (Name "(OPAMP3-,_EXTREF1,_GPIO)_P3[2]")
              (StringNumber "31")
              (ShowName "Y")
              (PinNumXShift 0)
              (PinNumYShift 0)
              (PinNamexShift 0)
              (PinNameYShift 0)
              (ElectricType 0)
              (NameFontSize 5)
              (NameFontWidth -2)
              (NameFontScale 1)
              (SignalDelay 0)
            )
            (Pin 31 198.12 251.46
              (Enabled "Y")
              (Locked "N")
              (ModelSig "")
              (Type 0)
              (Orientation 3)
              (Number 32)
              (Length 15.24)
              (Name "(OPAMP3+,_GPIO)_P3[3]")
              (StringNumber "32")
              (ShowName "Y")
              (PinNumXShift 0)
              (PinNumYShift 0)
              (PinNamexShift 0)
              (PinNameYShift 0)
              (ElectricType 0)
              (NameFontSize 5)
              (NameFontWidth -2)
              (NameFontScale 1)
              (SignalDelay 0)
            )
            (Pin 32 205.74 251.46
              (Enabled "Y")
              (Locked "N")
              (ModelSig "")
              (Type 0)
              (Orientation 3)
              (Number 33)
              (Length 15.24)
              (Name "(OPAMP1-,_GPIO)_P3[4]")
              (StringNumber "33")
              (ShowName "Y")
              (PinNumXShift 0)
              (PinNumYShift 0)
              (PinNamexShift 0)
              (PinNameYShift 0)
              (ElectricType 0)
              (NameFontSize 5)
              (NameFontWidth -2)
              (NameFontScale 1)
              (SignalDelay 0)
            )
            (Pin 33 213.36 251.46
              (Enabled "Y")
              (Locked "N")
              (ModelSig "")
              (Type 0)
              (Orientation 3)
              (Number 34)
              (Length 15.24)
              (Name "(OPAMP1+,_GPIO)_P3[5]")
              (StringNumber "34")
              (ShowName "Y")
              (PinNumXShift 0)
              (PinNumYShift 0)
              (PinNamexShift 0)
              (PinNameYShift 0)
              (ElectricType 0)
              (NameFontSize 5)
              (NameFontWidth -2)
              (NameFontScale 1)
              (SignalDelay 0)
            )
            (Pin 34 289.56 -0
              (Enabled "Y")
              (Locked "N")
              (ModelSig "")
              (Type 0)
              (Orientation 2)
              (Number 35)
              (Length 15.24)
              (Name "P0[3]_(GPIO,_OPAMP0-,_EXTREF0)")
              (StringNumber "51")
              (ShowName "Y")
              (PinNumXShift 0)
              (PinNumYShift 0)
              (PinNamexShift 0)
              (PinNameYShift 0)
              (ElectricType 0)
              (NameFontSize 5)
              (NameFontWidth -2)
              (NameFontScale 1)
              (SignalDelay 0)
            )
            (Pin 35 289.56 7.62
              (Enabled "Y")
              (Locked "N")
              (ModelSig "")
              (Type 0)
              (Orientation 2)
              (Number 36)
              (Length 15.24)
              (Name "P0[2]_(GPIO,_OPAMP0+,_SAR1_EXTREF)")
              (StringNumber "50")
              (ShowName "Y")
              (PinNumXShift 0)
              (PinNumYShift 0)
              (PinNamexShift 0)
              (PinNameYShift 0)
              (ElectricType 0)
              (NameFontSize 5)
              (NameFontWidth -2)
              (NameFontScale 1)
              (SignalDelay 0)
            )
            (Pin 36 289.56 15.24
              (Enabled "Y")
              (Locked "N")
              (ModelSig "")
              (Type 0)
              (Orientation 2)
              (Number 37)
              (Length 15.24)
              (Name "P0[1]_(GPIO,_OPAMP0OUT)")
              (StringNumber "49")
              (ShowName "Y")
              (PinNumXShift 0)
              (PinNumYShift 0)
              (PinNamexShift 0)
              (PinNameYShift 0)
              (ElectricType 0)
              (NameFontSize 5)
              (NameFontWidth -2)
              (NameFontScale 1)
              (SignalDelay 0)
            )
            (Pin 37 289.56 22.86
              (Enabled "Y")
              (Locked "N")
              (ModelSig "")
              (Type 0)
              (Orientation 2)
              (Number 38)
              (Length 15.24)
              (Name "P0[0]_(GPIO,_OPAMP2OUT)")
              (StringNumber "48")
              (ShowName "Y")
              (PinNumXShift 0)
              (PinNumYShift 0)
              (PinNamexShift 0)
              (PinNameYShift 0)
              (ElectricType 0)
              (NameFontSize 5)
              (NameFontWidth -2)
              (NameFontScale 1)
              (SignalDelay 0)
            )
            (Pin 38 289.56 30.48
              (Enabled "Y")
              (Locked "N")
              (ModelSig "")
              (Type 0)
              (Orientation 2)
              (Number 39)
              (Length 15.24)
              (Name "P12[3]_(SIO")
              (StringNumber "47")
              (ShowName "Y")
              (PinNumXShift 0)
              (PinNumYShift 0)
              (PinNamexShift 0)
              (PinNameYShift 0)
              (ElectricType 0)
              (NameFontSize 5)
              (NameFontWidth -2)
              (NameFontScale 1)
              (SignalDelay 0)
            )
            (Pin 39 289.56 38.1
              (Enabled "Y")
              (Locked "N")
              (ModelSig "")
              (Type 0)
              (Orientation 2)
              (Number 40)
              (Length 15.24)
              (Name "P12[2]_(SIO)")
              (StringNumber "46")
              (ShowName "Y")
              (PinNumXShift 0)
              (PinNumYShift 0)
              (PinNamexShift 0)
              (PinNameYShift 0)
              (ElectricType 0)
              (NameFontSize 5)
              (NameFontWidth -2)
              (NameFontScale 1)
              (SignalDelay 0)
            )
            (Pin 40 289.56 45.72
              (Enabled "Y")
              (Locked "N")
              (ModelSig "")
              (Type 0)
              (Orientation 2)
              (Number 41)
              (Length 15.24)
              (Name "VSSD_3")
              (StringNumber "45")
              (ShowName "Y")
              (PinNumXShift 0)
              (PinNumYShift 0)
              (PinNamexShift 0)
              (PinNameYShift 0)
              (ElectricType 0)
              (NameFontSize 5)
              (NameFontWidth -2)
              (NameFontScale 1)
              (SignalDelay 0)
            )
            (Pin 41 289.56 53.34
              (Enabled "Y")
              (Locked "N")
              (ModelSig "")
              (Type 0)
              (Orientation 2)
              (Number 42)
              (Length 15.24)
              (Name "VDDA")
              (StringNumber "44")
              (ShowName "Y")
              (PinNumXShift 0)
              (PinNumYShift 0)
              (PinNamexShift 0)
              (PinNameYShift 0)
              (ElectricType 0)
              (NameFontSize 5)
              (NameFontWidth -2)
              (NameFontScale 1)
              (SignalDelay 0)
            )
            (Pin 42 289.56 60.96
              (Enabled "Y")
              (Locked "N")
              (ModelSig "")
              (Type 0)
              (Orientation 2)
              (Number 43)
              (Length 15.24)
              (Name "VSSA")
              (StringNumber "43")
              (ShowName "Y")
              (PinNumXShift 0)
              (PinNumYShift 0)
              (PinNamexShift 0)
              (PinNameYShift 0)
              (ElectricType 0)
              (NameFontSize 5)
              (NameFontWidth -2)
              (NameFontScale 1)
              (SignalDelay 0)
            )
            (Pin 43 289.56 68.58
              (Enabled "Y")
              (Locked "N")
              (ModelSig "")
              (Type 0)
              (Orientation 2)
              (Number 44)
              (Length 15.24)
              (Name "VCCA")
              (StringNumber "42")
              (ShowName "Y")
              (PinNumXShift 0)
              (PinNumYShift 0)
              (PinNamexShift 0)
              (PinNameYShift 0)
              (ElectricType 0)
              (NameFontSize 5)
              (NameFontWidth -2)
              (NameFontScale 1)
              (SignalDelay 0)
            )
            (Pin 44 289.56 76.2
              (Enabled "Y")
              (Locked "N")
              (ModelSig "")
              (Type 0)
              (Orientation 2)
              (Number 45)
              (Length 15.24)
              (Name "P15[3]_(GPIO,_KHZ_XTAL:_XI)")
              (StringNumber "41")
              (ShowName "Y")
              (PinNumXShift 0)
              (PinNumYShift 0)
              (PinNamexShift 0)
              (PinNameYShift 0)
              (ElectricType 0)
              (NameFontSize 5)
              (NameFontWidth -2)
              (NameFontScale 1)
              (SignalDelay 0)
            )
            (Pin 45 289.56 83.82
              (Enabled "Y")
              (Locked "N")
              (ModelSig "")
              (Type 0)
              (Orientation 2)
              (Number 46)
              (Length 15.24)
              (Name "P15[2]_(GPIO,_KHZ_XTAL:_XO)")
              (StringNumber "40")
              (ShowName "Y")
              (PinNumXShift 0)
              (PinNumYShift 0)
              (PinNamexShift 0)
              (PinNameYShift 0)
              (ElectricType 0)
              (NameFontSize 5)
              (NameFontWidth -2)
              (NameFontScale 1)
              (SignalDelay 0)
            )
            (Pin 46 289.56 91.44
              (Enabled "Y")
              (Locked "N")
              (ModelSig "")
              (Type 0)
              (Orientation 2)
              (Number 47)
              (Length 15.24)
              (Name "P12[1]_(SIO,_I2C1:_SDA)")
              (StringNumber "39")
              (ShowName "Y")
              (PinNumXShift 0)
              (PinNumYShift 0)
              (PinNamexShift 0)
              (PinNameYShift 0)
              (ElectricType 0)
              (NameFontSize 5)
              (NameFontWidth -2)
              (NameFontScale 1)
              (SignalDelay 0)
            )
            (Pin 47 289.56 99.06
              (Enabled "Y")
              (Locked "N")
              (ModelSig "")
              (Type 0)
              (Orientation 2)
              (Number 48)
              (Length 15.24)
              (Name "P12[0]_(SIO,_12C1:_SCL)")
              (StringNumber "38")
              (ShowName "Y")
              (PinNumXShift 0)
              (PinNumYShift 0)
              (PinNamexShift 0)
              (PinNameYShift 0)
              (ElectricType 0)
              (NameFontSize 5)
              (NameFontWidth -2)
              (NameFontScale 1)
              (SignalDelay 0)
            )
            (Pin 48 289.56 106.68
              (Enabled "Y")
              (Locked "N")
              (ModelSig "")
              (Type 0)
              (Orientation 2)
              (Number 49)
              (Length 15.24)
              (Name "P3[7]_(GPIO,_OPAMP3OUT)")
              (StringNumber "37")
              (ShowName "Y")
              (PinNumXShift 0)
              (PinNumYShift 0)
              (PinNamexShift 0)
              (PinNameYShift 0)
              (ElectricType 0)
              (NameFontSize 5)
              (NameFontWidth -2)
              (NameFontScale 1)
              (SignalDelay 0)
            )
            (Pin 49 289.56 114.3
              (Enabled "Y")
              (Locked "N")
              (ModelSig "")
              (Type 0)
              (Orientation 2)
              (Number 50)
              (Length 15.24)
              (Name "P3[6]_(GPIO,_OPAMP1OUT)")
              (StringNumber "36")
              (ShowName "Y")
              (PinNumXShift 0)
              (PinNumYShift 0)
              (PinNamexShift 0)
              (PinNameYShift 0)
              (ElectricType 0)
              (NameFontSize 5)
              (NameFontWidth -2)
              (NameFontScale 1)
              (SignalDelay 0)
            )
            (Pin 50 289.56 121.92
              (Enabled "Y")
              (Locked "N")
              (ModelSig "")
              (Type 0)
              (Orientation 2)
              (Number 51)
              (Length 15.24)
              (Name "VDDIO3")
              (StringNumber "35")
              (ShowName "Y")
              (PinNumXShift 0)
              (PinNumYShift 0)
              (PinNamexShift 0)
              (PinNameYShift 0)
              (ElectricType 0)
              (NameFontSize 5)
              (NameFontWidth -2)
              (NameFontScale 1)
              (SignalDelay 0)
            )
            (Pin 51 83.82 -144.78
              (Enabled "Y")
              (Locked "N")
              (ModelSig "")
              (Type 0)
              (Orientation 1)
              (Number 52)
              (Length 15.24)
              (Name "EP_GND")
              (StringNumber "69")
              (ShowName "Y")
              (PinNumXShift 0)
              (PinNumYShift 0)
              (PinNamexShift 0)
              (PinNameYShift 0)
              (ElectricType 0)
              (NameFontSize 5)
              (NameFontWidth -2)
              (NameFontScale 1)
              (SignalDelay 0)
            )
            (Pin 52 91.44 -144.78
              (Enabled "Y")
              (Locked "N")
              (ModelSig "")
              (Type 0)
              (Orientation 1)
              (Number 53)
              (Length 15.24)
              (Name "P2[5]_(GPIO,_TRACEDATA[1])")
              (StringNumber "68")
              (ShowName "Y")
              (PinNumXShift 0)
              (PinNumYShift 0)
              (PinNamexShift 0)
              (PinNameYShift 0)
              (ElectricType 0)
              (NameFontSize 5)
              (NameFontWidth -2)
              (NameFontScale 1)
              (SignalDelay 0)
            )
            (Pin 53 99.06 -144.78
              (Enabled "Y")
              (Locked "N")
              (ModelSig "")
              (Type 0)
              (Orientation 1)
              (Number 54)
              (Length 15.24)
              (Name "VDDIO2")
              (StringNumber "67")
              (ShowName "Y")
              (PinNumXShift 0)
              (PinNumYShift 0)
              (PinNamexShift 0)
              (PinNameYShift 0)
              (ElectricType 0)
              (NameFontSize 5)
              (NameFontWidth -2)
              (NameFontScale 1)
              (SignalDelay 0)
            )
            (Pin 54 106.68 -144.78
              (Enabled "Y")
              (Locked "N")
              (ModelSig "")
              (Type 0)
              (Orientation 1)
              (Number 55)
              (Length 15.24)
              (Name "P2[4]_(GPIO,_TRACEDATA[0])")
              (StringNumber "66")
              (ShowName "Y")
              (PinNumXShift 0)
              (PinNumYShift 0)
              (PinNamexShift 0)
              (PinNameYShift 0)
              (ElectricType 0)
              (NameFontSize 5)
              (NameFontWidth -2)
              (NameFontScale 1)
              (SignalDelay 0)
            )
            (Pin 55 114.3 -144.78
              (Enabled "Y")
              (Locked "N")
              (ModelSig "")
              (Type 0)
              (Orientation 1)
              (Number 56)
              (Length 15.24)
              (Name "P2[3]_(GPIO,_TRACECLK)")
              (StringNumber "65")
              (ShowName "Y")
              (PinNumXShift 0)
              (PinNumYShift 0)
              (PinNamexShift 0)
              (PinNameYShift 0)
              (ElectricType 0)
              (NameFontSize 5)
              (NameFontWidth -2)
              (NameFontScale 1)
              (SignalDelay 0)
            )
            (Pin 56 121.92 -144.78
              (Enabled "Y")
              (Locked "N")
              (ModelSig "")
              (Type 0)
              (Orientation 1)
              (Number 57)
              (Length 15.24)
              (Name "P2[2]_(GPIO)")
              (StringNumber "64")
              (ShowName "Y")
              (PinNumXShift 0)
              (PinNumYShift 0)
              (PinNamexShift 0)
              (PinNameYShift 0)
              (ElectricType 0)
              (NameFontSize 5)
              (NameFontWidth -2)
              (NameFontScale 1)
              (SignalDelay 0)
            )
            (Pin 57 129.54 -144.78
              (Enabled "Y")
              (Locked "N")
              (ModelSig "")
              (Type 0)
              (Orientation 1)
              (Number 58)
              (Length 15.24)
              (Name "P2[1]_(GPIO)")
              (StringNumber "63")
              (ShowName "Y")
              (PinNumXShift 0)
              (PinNumYShift 0)
              (PinNamexShift 0)
              (PinNameYShift 0)
              (ElectricType 0)
              (NameFontSize 5)
              (NameFontWidth -2)
              (NameFontScale 1)
              (SignalDelay 0)
            )
            (Pin 58 137.16 -144.78
              (Enabled "Y")
              (Locked "N")
              (ModelSig "")
              (Type 0)
              (Orientation 1)
              (Number 59)
              (Length 15.24)
              (Name "P2[0]_(GPIO)")
              (StringNumber "62")
              (ShowName "Y")
              (PinNumXShift 0)
              (PinNumYShift 0)
              (PinNamexShift 0)
              (PinNameYShift 0)
              (ElectricType 0)
              (NameFontSize 5)
              (NameFontWidth -2)
              (NameFontScale 1)
              (SignalDelay 0)
            )
            (Pin 59 144.78 -144.78
              (Enabled "Y")
              (Locked "N")
              (ModelSig "")
              (Type 0)
              (Orientation 1)
              (Number 60)
              (Length 15.24)
              (Name "P15[5]_(GPOI)")
              (StringNumber "61")
              (ShowName "Y")
              (PinNumXShift 0)
              (PinNumYShift 0)
              (PinNamexShift 0)
              (PinNameYShift 0)
              (ElectricType 0)
              (NameFontSize 5)
              (NameFontWidth -2)
              (NameFontScale 1)
              (SignalDelay 0)
            )
            (Pin 60 152.4 -144.78
              (Enabled "Y")
              (Locked "N")
              (ModelSig "")
              (Type 0)
              (Orientation 1)
              (Number 61)
              (Length 15.24)
              (Name "P15[4]_(GPIO)")
              (StringNumber "60")
              (ShowName "Y")
              (PinNumXShift 0)
              (PinNumYShift 0)
              (PinNamexShift 0)
              (PinNameYShift 0)
              (ElectricType 0)
              (NameFontSize 5)
              (NameFontWidth -2)
              (NameFontScale 1)
              (SignalDelay 0)
            )
            (Pin 61 160.02 -144.78
              (Enabled "Y")
              (Locked "N")
              (ModelSig "")
              (Type 0)
              (Orientation 1)
              (Number 62)
              (Length 15.24)
              (Name "VDDD_2")
              (StringNumber "59")
              (ShowName "Y")
              (PinNumXShift 0)
              (PinNumYShift 0)
              (PinNamexShift 0)
              (PinNameYShift 0)
              (ElectricType 0)
              (NameFontSize 5)
              (NameFontWidth -2)
              (NameFontScale 1)
              (SignalDelay 0)
            )
            (Pin 62 167.64 -144.78
              (Enabled "Y")
              (Locked "N")
              (ModelSig "")
              (Type 0)
              (Orientation 1)
              (Number 63)
              (Length 15.24)
              (Name "VSSD_4")
              (StringNumber "58")
              (ShowName "Y")
              (PinNumXShift 0)
              (PinNumYShift 0)
              (PinNamexShift 0)
              (PinNameYShift 0)
              (ElectricType 0)
              (NameFontSize 5)
              (NameFontWidth -2)
              (NameFontScale 1)
              (SignalDelay 0)
            )
            (Pin 63 175.26 -144.78
              (Enabled "Y")
              (Locked "N")
              (ModelSig "")
              (Type 0)
              (Orientation 1)
              (Number 64)
              (Length 15.24)
              (Name "VCCD_2")
              (StringNumber "57")
              (ShowName "Y")
              (PinNumXShift 0)
              (PinNumYShift 0)
              (PinNamexShift 0)
              (PinNameYShift 0)
              (ElectricType 0)
              (NameFontSize 5)
              (NameFontWidth -2)
              (NameFontScale 1)
              (SignalDelay 0)
            )
            (Pin 64 182.88 -144.78
              (Enabled "Y")
              (Locked "N")
              (ModelSig "")
              (Type 0)
              (Orientation 1)
              (Number 65)
              (Length 15.24)
              (Name "P0[7]_(GPIO,_IDAC2)")
              (StringNumber "56")
              (ShowName "Y")
              (PinNumXShift 0)
              (PinNumYShift 0)
              (PinNamexShift 0)
              (PinNameYShift 0)
              (ElectricType 0)
              (NameFontSize 5)
              (NameFontWidth -2)
              (NameFontScale 1)
              (SignalDelay 0)
            )
            (Pin 65 190.5 -144.78
              (Enabled "Y")
              (Locked "N")
              (ModelSig "")
              (Type 0)
              (Orientation 1)
              (Number 66)
              (Length 15.24)
              (Name "P0[6]_(GPIO,_IDAC0)")
              (StringNumber "55")
              (ShowName "Y")
              (PinNumXShift 0)
              (PinNumYShift 0)
              (PinNamexShift 0)
              (PinNameYShift 0)
              (ElectricType 0)
              (NameFontSize 5)
              (NameFontWidth -2)
              (NameFontScale 1)
              (SignalDelay 0)
            )
            (Pin 66 198.12 -144.78
              (Enabled "Y")
              (Locked "N")
              (ModelSig "")
              (Type 0)
              (Orientation 1)
              (Number 67)
              (Length 15.24)
              (Name "P0[5]_(GPIO,_OPAMP2-)")
              (StringNumber "54")
              (ShowName "Y")
              (PinNumXShift 0)
              (PinNumYShift 0)
              (PinNamexShift 0)
              (PinNameYShift 0)
              (ElectricType 0)
              (NameFontSize 5)
              (NameFontWidth -2)
              (NameFontScale 1)
              (SignalDelay 0)
            )
            (Pin 67 205.74 -144.78
              (Enabled "Y")
              (Locked "N")
              (ModelSig "")
              (Type 0)
              (Orientation 1)
              (Number 68)
              (Length 15.24)
              (Name "P0[4]_(GPIO,_OPAMP2+,_SAR0_EXTREF)")
              (StringNumber "53")
              (ShowName "Y")
              (PinNumXShift 0)
              (PinNumYShift 0)
              (PinNamexShift 0)
              (PinNameYShift 0)
              (ElectricType 0)
              (NameFontSize 5)
              (NameFontWidth -2)
              (NameFontScale 1)
              (SignalDelay 0)
            )
            (Pin 68 213.36 -144.78
              (Enabled "Y")
              (Locked "N")
              (ModelSig "")
              (Type 0)
              (Orientation 1)
              (Number 69)
              (Length 15.24)
              (Name "VDDIO0")
              (StringNumber "52")
              (ShowName "Y")
              (PinNumXShift 0)
              (PinNumYShift 0)
              (PinNamexShift 0)
              (PinNameYShift 0)
              (ElectricType 0)
              (NameFontSize 5)
              (NameFontWidth -2)
              (NameFontScale 1)
              (SignalDelay 0)
            )
          )
          (Shapes
            (Shape 0
              (Enabled "Y")
              (Locked "N")
              (VectorFont "N")
              (FontWidth 0)
              (FontScale 0)
              (Orientation 0)
              (Type 1)
              (FontSize 0)
              (FontColor 0)
              (FontType 0)
              (FontName "")
              (Name "")
              (Width 0.762)
              (Points
                (pt 15.24 -144.78)
                (pt 289.56 -144.78)
              )
            )
            (Shape 1
              (Enabled "Y")
              (Locked "N")
              (VectorFont "N")
              (FontWidth 0)
              (FontScale 0)
              (Orientation 0)
              (Type 1)
              (FontSize 0)
              (FontColor 0)
              (FontType 0)
              (FontName "")
              (Name "")
              (Width 0.762)
              (Points
                (pt 289.56 251.46)
                (pt 289.56 -144.78)
              )
            )
            (Shape 2
              (Enabled "Y")
              (Locked "N")
              (VectorFont "N")
              (FontWidth 0)
              (FontScale 0)
              (Orientation 0)
              (Type 1)
              (FontSize 0)
              (FontColor 0)
              (FontType 0)
              (FontName "")
              (Name "")
              (Width 0.762)
              (Points
                (pt 289.56 251.46)
                (pt 15.24 251.46)
              )
            )
            (Shape 3
              (Enabled "Y")
              (Locked "N")
              (VectorFont "N")
              (FontWidth 0)
              (FontScale 0)
              (Orientation 0)
              (Type 1)
              (FontSize 0)
              (FontColor 0)
              (FontType 0)
              (FontName "")
              (Name "")
              (Width 0.762)
              (Points
                (pt 15.24 -144.78)
                (pt 15.24 251.46)
              )
            )
          )
          (UserFields
            (UserField "RS Part Number" "1242972P" 0)
            (UserField "RS Price/Stock" "http://uk.rs-online.com/web/p/products/1242972P" 0)
            (UserField "Manufacturer_Name" "Cypress Semiconductor" 0)
            (UserField "Manufacturer_Part_Number" "CY8C5888LTI-LP097" 0)
            (UserField "Height" "1 mm" 0)
            (UserField "Description" "ARM Microcontrollers - MCU 256KB Flash 64KBSRAM PSoC 5LP" 0)
          )
        )
        (Pattern "QFN40P800X800X100-69N"
          (Type 0)
          (VariableParameter1 "N")
          (VariableParameter2 "N")
          (VariableParameter3 "N")
          (VariableParameter4 "N")
          (InternalConnections
          )
          (Number1 0)
          (Number2 0)
          (Spacing1 0)
          (Spacing2 0)
          (VariableParameter5 "N")
          (Spacing3 0)
          (LockProperties "N")
          (PatternOrientation 0)
          (Width 25.425)
          (Height 24)
          (PadWidth 0.6)
          (PadHeight 2.55)
          (PadShape 2)
          (PadHole 0)
          (PadHoleH 0)
          (PadHoleType 0)
          (SurfacePad "Y")
          (OriginX 0)
          (OriginY 0)
          (PadPoints
          )
          (Pads
            (Pad 0 "" "" 0 0
              (Number 0)
              (Inverted "N")
              (Locked "N")
              (Sided "N")
              (DisableTopMask "N" 0)
              (DisableBottomMask "N" 0)
              (DisableTopPaste "N" 0)
              (DisableBottomPaste "N" 0)
              (CustomSwell 0)
              (CustomShrink 0)
              (PadWidth 0)
              (PadHeight 0)
              (PadHole 0)
              (PadHoleH 0)
              (PadHoleType 0)
              (SurfacePad "N")
              (PadShape 0)
              (Standard "N")
              (Point
              )
            )
            (Pad 1 "1" "" -11.85 -9.6
              (Number 1)
              (Inverted "N")
              (Locked "N")
              (Sided "N")
              (DisableTopMask "N" 0)
              (DisableBottomMask "N" 0)
              (DisableTopPaste "N" 0)
              (DisableBottomPaste "N" 0)
              (CustomSwell -1000)
              (CustomShrink -1000)
              (PadWidth 2.55)
              (PadHeight 0.6)
              (PadHole 0)
              (PadHoleH 0)
              (PadHoleType 0)
              (SurfacePad "Y")
              (PadShape 2)
              (Standard "N")
              (Point
              )
            )
            (Pad 2 "2" "" -11.85 -8.4
              (Number 2)
              (Inverted "N")
              (Locked "N")
              (Sided "N")
              (DisableTopMask "N" 0)
              (DisableBottomMask "N" 0)
              (DisableTopPaste "N" 0)
              (DisableBottomPaste "N" 0)
              (CustomSwell -1000)
              (CustomShrink -1000)
              (PadWidth 2.55)
              (PadHeight 0.6)
              (PadHole 0)
              (PadHoleH 0)
              (PadHoleType 0)
              (SurfacePad "Y")
              (PadShape 2)
              (Standard "N")
              (Point
              )
            )
            (Pad 3 "3" "" -11.85 -7.2
              (Number 3)
              (Inverted "N")
              (Locked "N")
              (Sided "N")
              (DisableTopMask "N" 0)
              (DisableBottomMask "N" 0)
              (DisableTopPaste "N" 0)
              (DisableBottomPaste "N" 0)
              (CustomSwell -1000)
              (CustomShrink -1000)
              (PadWidth 2.55)
              (PadHeight 0.6)
              (PadHole 0)
              (PadHoleH 0)
              (PadHoleType 0)
              (SurfacePad "Y")
              (PadShape 2)
              (Standard "N")
              (Point
              )
            )
            (Pad 4 "4" "" -11.85 -6
              (Number 4)
              (Inverted "N")
              (Locked "N")
              (Sided "N")
              (DisableTopMask "N" 0)
              (DisableBottomMask "N" 0)
              (DisableTopPaste "N" 0)
              (DisableBottomPaste "N" 0)
              (CustomSwell -1000)
              (CustomShrink -1000)
              (PadWidth 2.55)
              (PadHeight 0.6)
              (PadHole 0)
              (PadHoleH 0)
              (PadHoleType 0)
              (SurfacePad "Y")
              (PadShape 2)
              (Standard "N")
              (Point
              )
            )
            (Pad 5 "5" "" -11.85 -4.8
              (Number 5)
              (Inverted "N")
              (Locked "N")
              (Sided "N")
              (DisableTopMask "N" 0)
              (DisableBottomMask "N" 0)
              (DisableTopPaste "N" 0)
              (DisableBottomPaste "N" 0)
              (CustomSwell -1000)
              (CustomShrink -1000)
              (PadWidth 2.55)
              (PadHeight 0.6)
              (PadHole 0)
              (PadHoleH 0)
              (PadHoleType 0)
              (SurfacePad "Y")
              (PadShape 2)
              (Standard "N")
              (Point
              )
            )
            (Pad 6 "6" "" -11.85 -3.6
              (Number 6)
              (Inverted "N")
              (Locked "N")
              (Sided "N")
              (DisableTopMask "N" 0)
              (DisableBottomMask "N" 0)
              (DisableTopPaste "N" 0)
              (DisableBottomPaste "N" 0)
              (CustomSwell -1000)
              (CustomShrink -1000)
              (PadWidth 2.55)
              (PadHeight 0.6)
              (PadHole 0)
              (PadHoleH 0)
              (PadHoleType 0)
              (SurfacePad "Y")
              (PadShape 2)
              (Standard "N")
              (Point
              )
            )
            (Pad 7 "7" "" -11.85 -2.4
              (Number 7)
              (Inverted "N")
              (Locked "N")
              (Sided "N")
              (DisableTopMask "N" 0)
              (DisableBottomMask "N" 0)
              (DisableTopPaste "N" 0)
              (DisableBottomPaste "N" 0)
              (CustomSwell -1000)
              (CustomShrink -1000)
              (PadWidth 2.55)
              (PadHeight 0.6)
              (PadHole 0)
              (PadHoleH 0)
              (PadHoleType 0)
              (SurfacePad "Y")
              (PadShape 2)
              (Standard "N")
              (Point
              )
            )
            (Pad 8 "8" "" -11.85 -1.2
              (Number 8)
              (Inverted "N")
              (Locked "N")
              (Sided "N")
              (DisableTopMask "N" 0)
              (DisableBottomMask "N" 0)
              (DisableTopPaste "N" 0)
              (DisableBottomPaste "N" 0)
              (CustomSwell -1000)
              (CustomShrink -1000)
              (PadWidth 2.55)
              (PadHeight 0.6)
              (PadHole 0)
              (PadHoleH 0)
              (PadHoleType 0)
              (SurfacePad "Y")
              (PadShape 2)
              (Standard "N")
              (Point
              )
            )
            (Pad 9 "9" "" -11.85 0
              (Number 9)
              (Inverted "N")
              (Locked "N")
              (Sided "N")
              (DisableTopMask "N" 0)
              (DisableBottomMask "N" 0)
              (DisableTopPaste "N" 0)
              (DisableBottomPaste "N" 0)
              (CustomSwell -1000)
              (CustomShrink -1000)
              (PadWidth 2.55)
              (PadHeight 0.6)
              (PadHole 0)
              (PadHoleH 0)
              (PadHoleType 0)
              (SurfacePad "Y")
              (PadShape 2)
              (Standard "N")
              (Point
              )
            )
            (Pad 10 "10" "" -11.85 1.2
              (Number 10)
              (Inverted "N")
              (Locked "N")
              (Sided "N")
              (DisableTopMask "N" 0)
              (DisableBottomMask "N" 0)
              (DisableTopPaste "N" 0)
              (DisableBottomPaste "N" 0)
              (CustomSwell -1000)
              (CustomShrink -1000)
              (PadWidth 2.55)
              (PadHeight 0.6)
              (PadHole 0)
              (PadHoleH 0)
              (PadHoleType 0)
              (SurfacePad "Y")
              (PadShape 2)
              (Standard "N")
              (Point
              )
            )
            (Pad 11 "11" "" -11.85 2.4
              (Number 11)
              (Inverted "N")
              (Locked "N")
              (Sided "N")
              (DisableTopMask "N" 0)
              (DisableBottomMask "N" 0)
              (DisableTopPaste "N" 0)
              (DisableBottomPaste "N" 0)
              (CustomSwell -1000)
              (CustomShrink -1000)
              (PadWidth 2.55)
              (PadHeight 0.6)
              (PadHole 0)
              (PadHoleH 0)
              (PadHoleType 0)
              (SurfacePad "Y")
              (PadShape 2)
              (Standard "N")
              (Point
              )
            )
            (Pad 12 "12" "" -11.85 3.6
              (Number 12)
              (Inverted "N")
              (Locked "N")
              (Sided "N")
              (DisableTopMask "N" 0)
              (DisableBottomMask "N" 0)
              (DisableTopPaste "N" 0)
              (DisableBottomPaste "N" 0)
              (CustomSwell -1000)
              (CustomShrink -1000)
              (PadWidth 2.55)
              (PadHeight 0.6)
              (PadHole 0)
              (PadHoleH 0)
              (PadHoleType 0)
              (SurfacePad "Y")
              (PadShape 2)
              (Standard "N")
              (Point
              )
            )
            (Pad 13 "13" "" -11.85 4.8
              (Number 13)
              (Inverted "N")
              (Locked "N")
              (Sided "N")
              (DisableTopMask "N" 0)
              (DisableBottomMask "N" 0)
              (DisableTopPaste "N" 0)
              (DisableBottomPaste "N" 0)
              (CustomSwell -1000)
              (CustomShrink -1000)
              (PadWidth 2.55)
              (PadHeight 0.6)
              (PadHole 0)
              (PadHoleH 0)
              (PadHoleType 0)
              (SurfacePad "Y")
              (PadShape 2)
              (Standard "N")
              (Point
              )
            )
            (Pad 14 "14" "" -11.85 6
              (Number 14)
              (Inverted "N")
              (Locked "N")
              (Sided "N")
              (DisableTopMask "N" 0)
              (DisableBottomMask "N" 0)
              (DisableTopPaste "N" 0)
              (DisableBottomPaste "N" 0)
              (CustomSwell -1000)
              (CustomShrink -1000)
              (PadWidth 2.55)
              (PadHeight 0.6)
              (PadHole 0)
              (PadHoleH 0)
              (PadHoleType 0)
              (SurfacePad "Y")
              (PadShape 2)
              (Standard "N")
              (Point
              )
            )
            (Pad 15 "15" "" -11.85 7.2
              (Number 15)
              (Inverted "N")
              (Locked "N")
              (Sided "N")
              (DisableTopMask "N" 0)
              (DisableBottomMask "N" 0)
              (DisableTopPaste "N" 0)
              (DisableBottomPaste "N" 0)
              (CustomSwell -1000)
              (CustomShrink -1000)
              (PadWidth 2.55)
              (PadHeight 0.6)
              (PadHole 0)
              (PadHoleH 0)
              (PadHoleType 0)
              (SurfacePad "Y")
              (PadShape 2)
              (Standard "N")
              (Point
              )
            )
            (Pad 16 "16" "" -11.85 8.4
              (Number 16)
              (Inverted "N")
              (Locked "N")
              (Sided "N")
              (DisableTopMask "N" 0)
              (DisableBottomMask "N" 0)
              (DisableTopPaste "N" 0)
              (DisableBottomPaste "N" 0)
              (CustomSwell -1000)
              (CustomShrink -1000)
              (PadWidth 2.55)
              (PadHeight 0.6)
              (PadHole 0)
              (PadHoleH 0)
              (PadHoleType 0)
              (SurfacePad "Y")
              (PadShape 2)
              (Standard "N")
              (Point
              )
            )
            (Pad 17 "17" "" -11.85 9.6
              (Number 17)
              (Inverted "N")
              (Locked "N")
              (Sided "N")
              (DisableTopMask "N" 0)
              (DisableBottomMask "N" 0)
              (DisableTopPaste "N" 0)
              (DisableBottomPaste "N" 0)
              (CustomSwell -1000)
              (CustomShrink -1000)
              (PadWidth 2.55)
              (PadHeight 0.6)
              (PadHole 0)
              (PadHoleH 0)
              (PadHoleType 0)
              (SurfacePad "Y")
              (PadShape 2)
              (Standard "N")
              (Point
              )
            )
            (Pad 18 "18" "" -9.6 11.85
              (Number 18)
              (Inverted "N")
              (Locked "N")
              (Sided "N")
              (DisableTopMask "N" 0)
              (DisableBottomMask "N" 0)
              (DisableTopPaste "N" 0)
              (DisableBottomPaste "N" 0)
              (CustomSwell -1000)
              (CustomShrink -1000)
              (PadWidth 0.6)
              (PadHeight 2.55)
              (PadHole 0)
              (PadHoleH 0)
              (PadHoleType 0)
              (SurfacePad "Y")
              (PadShape 2)
              (Standard "N")
              (Point
              )
            )
            (Pad 19 "19" "" -8.4 11.85
              (Number 19)
              (Inverted "N")
              (Locked "N")
              (Sided "N")
              (DisableTopMask "N" 0)
              (DisableBottomMask "N" 0)
              (DisableTopPaste "N" 0)
              (DisableBottomPaste "N" 0)
              (CustomSwell -1000)
              (CustomShrink -1000)
              (PadWidth 0.6)
              (PadHeight 2.55)
              (PadHole 0)
              (PadHoleH 0)
              (PadHoleType 0)
              (SurfacePad "Y")
              (PadShape 2)
              (Standard "N")
              (Point
              )
            )
            (Pad 20 "20" "" -7.2 11.85
              (Number 20)
              (Inverted "N")
              (Locked "N")
              (Sided "N")
              (DisableTopMask "N" 0)
              (DisableBottomMask "N" 0)
              (DisableTopPaste "N" 0)
              (DisableBottomPaste "N" 0)
              (CustomSwell -1000)
              (CustomShrink -1000)
              (PadWidth 0.6)
              (PadHeight 2.55)
              (PadHole 0)
              (PadHoleH 0)
              (PadHoleType 0)
              (SurfacePad "Y")
              (PadShape 2)
              (Standard "N")
              (Point
              )
            )
            (Pad 21 "21" "" -6 11.85
              (Number 21)
              (Inverted "N")
              (Locked "N")
              (Sided "N")
              (DisableTopMask "N" 0)
              (DisableBottomMask "N" 0)
              (DisableTopPaste "N" 0)
              (DisableBottomPaste "N" 0)
              (CustomSwell -1000)
              (CustomShrink -1000)
              (PadWidth 0.6)
              (PadHeight 2.55)
              (PadHole 0)
              (PadHoleH 0)
              (PadHoleType 0)
              (SurfacePad "Y")
              (PadShape 2)
              (Standard "N")
              (Point
              )
            )
            (Pad 22 "22" "" -4.8 11.85
              (Number 22)
              (Inverted "N")
              (Locked "N")
              (Sided "N")
              (DisableTopMask "N" 0)
              (DisableBottomMask "N" 0)
              (DisableTopPaste "N" 0)
              (DisableBottomPaste "N" 0)
              (CustomSwell -1000)
              (CustomShrink -1000)
              (PadWidth 0.6)
              (PadHeight 2.55)
              (PadHole 0)
              (PadHoleH 0)
              (PadHoleType 0)
              (SurfacePad "Y")
              (PadShape 2)
              (Standard "N")
              (Point
              )
            )
            (Pad 23 "23" "" -3.6 11.85
              (Number 23)
              (Inverted "N")
              (Locked "N")
              (Sided "N")
              (DisableTopMask "N" 0)
              (DisableBottomMask "N" 0)
              (DisableTopPaste "N" 0)
              (DisableBottomPaste "N" 0)
              (CustomSwell -1000)
              (CustomShrink -1000)
              (PadWidth 0.6)
              (PadHeight 2.55)
              (PadHole 0)
              (PadHoleH 0)
              (PadHoleType 0)
              (SurfacePad "Y")
              (PadShape 2)
              (Standard "N")
              (Point
              )
            )
            (Pad 24 "24" "" -2.4 11.85
              (Number 24)
              (Inverted "N")
              (Locked "N")
              (Sided "N")
              (DisableTopMask "N" 0)
              (DisableBottomMask "N" 0)
              (DisableTopPaste "N" 0)
              (DisableBottomPaste "N" 0)
              (CustomSwell -1000)
              (CustomShrink -1000)
              (PadWidth 0.6)
              (PadHeight 2.55)
              (PadHole 0)
              (PadHoleH 0)
              (PadHoleType 0)
              (SurfacePad "Y")
              (PadShape 2)
              (Standard "N")
              (Point
              )
            )
            (Pad 25 "25" "" -1.2 11.85
              (Number 25)
              (Inverted "N")
              (Locked "N")
              (Sided "N")
              (DisableTopMask "N" 0)
              (DisableBottomMask "N" 0)
              (DisableTopPaste "N" 0)
              (DisableBottomPaste "N" 0)
              (CustomSwell -1000)
              (CustomShrink -1000)
              (PadWidth 0.6)
              (PadHeight 2.55)
              (PadHole 0)
              (PadHoleH 0)
              (PadHoleType 0)
              (SurfacePad "Y")
              (PadShape 2)
              (Standard "N")
              (Point
              )
            )
            (Pad 26 "26" "" 0 11.85
              (Number 26)
              (Inverted "N")
              (Locked "N")
              (Sided "N")
              (DisableTopMask "N" 0)
              (DisableBottomMask "N" 0)
              (DisableTopPaste "N" 0)
              (DisableBottomPaste "N" 0)
              (CustomSwell -1000)
              (CustomShrink -1000)
              (PadWidth 0.6)
              (PadHeight 2.55)
              (PadHole 0)
              (PadHoleH 0)
              (PadHoleType 0)
              (SurfacePad "Y")
              (PadShape 2)
              (Standard "N")
              (Point
              )
            )
            (Pad 27 "27" "" 1.2 11.85
              (Number 27)
              (Inverted "N")
              (Locked "N")
              (Sided "N")
              (DisableTopMask "N" 0)
              (DisableBottomMask "N" 0)
              (DisableTopPaste "N" 0)
              (DisableBottomPaste "N" 0)
              (CustomSwell -1000)
              (CustomShrink -1000)
              (PadWidth 0.6)
              (PadHeight 2.55)
              (PadHole 0)
              (PadHoleH 0)
              (PadHoleType 0)
              (SurfacePad "Y")
              (PadShape 2)
              (Standard "N")
              (Point
              )
            )
            (Pad 28 "28" "" 2.4 11.85
              (Number 28)
              (Inverted "N")
              (Locked "N")
              (Sided "N")
              (DisableTopMask "N" 0)
              (DisableBottomMask "N" 0)
              (DisableTopPaste "N" 0)
              (DisableBottomPaste "N" 0)
              (CustomSwell -1000)
              (CustomShrink -1000)
              (PadWidth 0.6)
              (PadHeight 2.55)
              (PadHole 0)
              (PadHoleH 0)
              (PadHoleType 0)
              (SurfacePad "Y")
              (PadShape 2)
              (Standard "N")
              (Point
              )
            )
            (Pad 29 "29" "" 3.6 11.85
              (Number 29)
              (Inverted "N")
              (Locked "N")
              (Sided "N")
              (DisableTopMask "N" 0)
              (DisableBottomMask "N" 0)
              (DisableTopPaste "N" 0)
              (DisableBottomPaste "N" 0)
              (CustomSwell -1000)
              (CustomShrink -1000)
              (PadWidth 0.6)
              (PadHeight 2.55)
              (PadHole 0)
              (PadHoleH 0)
              (PadHoleType 0)
              (SurfacePad "Y")
              (PadShape 2)
              (Standard "N")
              (Point
              )
            )
            (Pad 30 "30" "" 4.8 11.85
              (Number 30)
              (Inverted "N")
              (Locked "N")
              (Sided "N")
              (DisableTopMask "N" 0)
              (DisableBottomMask "N" 0)
              (DisableTopPaste "N" 0)
              (DisableBottomPaste "N" 0)
              (CustomSwell -1000)
              (CustomShrink -1000)
              (PadWidth 0.6)
              (PadHeight 2.55)
              (PadHole 0)
              (PadHoleH 0)
              (PadHoleType 0)
              (SurfacePad "Y")
              (PadShape 2)
              (Standard "N")
              (Point
              )
            )
            (Pad 31 "31" "" 6 11.85
              (Number 31)
              (Inverted "N")
              (Locked "N")
              (Sided "N")
              (DisableTopMask "N" 0)
              (DisableBottomMask "N" 0)
              (DisableTopPaste "N" 0)
              (DisableBottomPaste "N" 0)
              (CustomSwell -1000)
              (CustomShrink -1000)
              (PadWidth 0.6)
              (PadHeight 2.55)
              (PadHole 0)
              (PadHoleH 0)
              (PadHoleType 0)
              (SurfacePad "Y")
              (PadShape 2)
              (Standard "N")
              (Point
              )
            )
            (Pad 32 "32" "" 7.2 11.85
              (Number 32)
              (Inverted "N")
              (Locked "N")
              (Sided "N")
              (DisableTopMask "N" 0)
              (DisableBottomMask "N" 0)
              (DisableTopPaste "N" 0)
              (DisableBottomPaste "N" 0)
              (CustomSwell -1000)
              (CustomShrink -1000)
              (PadWidth 0.6)
              (PadHeight 2.55)
              (PadHole 0)
              (PadHoleH 0)
              (PadHoleType 0)
              (SurfacePad "Y")
              (PadShape 2)
              (Standard "N")
              (Point
              )
            )
            (Pad 33 "33" "" 8.4 11.85
              (Number 33)
              (Inverted "N")
              (Locked "N")
              (Sided "N")
              (DisableTopMask "N" 0)
              (DisableBottomMask "N" 0)
              (DisableTopPaste "N" 0)
              (DisableBottomPaste "N" 0)
              (CustomSwell -1000)
              (CustomShrink -1000)
              (PadWidth 0.6)
              (PadHeight 2.55)
              (PadHole 0)
              (PadHoleH 0)
              (PadHoleType 0)
              (SurfacePad "Y")
              (PadShape 2)
              (Standard "N")
              (Point
              )
            )
            (Pad 34 "34" "" 9.6 11.85
              (Number 34)
              (Inverted "N")
              (Locked "N")
              (Sided "N")
              (DisableTopMask "N" 0)
              (DisableBottomMask "N" 0)
              (DisableTopPaste "N" 0)
              (DisableBottomPaste "N" 0)
              (CustomSwell -1000)
              (CustomShrink -1000)
              (PadWidth 0.6)
              (PadHeight 2.55)
              (PadHole 0)
              (PadHoleH 0)
              (PadHoleType 0)
              (SurfacePad "Y")
              (PadShape 2)
              (Standard "N")
              (Point
              )
            )
            (Pad 35 "35" "" 11.85 9.6
              (Number 35)
              (Inverted "N")
              (Locked "N")
              (Sided "N")
              (DisableTopMask "N" 0)
              (DisableBottomMask "N" 0)
              (DisableTopPaste "N" 0)
              (DisableBottomPaste "N" 0)
              (CustomSwell -1000)
              (CustomShrink -1000)
              (PadWidth 2.55)
              (PadHeight 0.6)
              (PadHole 0)
              (PadHoleH 0)
              (PadHoleType 0)
              (SurfacePad "Y")
              (PadShape 2)
              (Standard "N")
              (Point
              )
            )
            (Pad 36 "36" "" 11.85 8.4
              (Number 36)
              (Inverted "N")
              (Locked "N")
              (Sided "N")
              (DisableTopMask "N" 0)
              (DisableBottomMask "N" 0)
              (DisableTopPaste "N" 0)
              (DisableBottomPaste "N" 0)
              (CustomSwell -1000)
              (CustomShrink -1000)
              (PadWidth 2.55)
              (PadHeight 0.6)
              (PadHole 0)
              (PadHoleH 0)
              (PadHoleType 0)
              (SurfacePad "Y")
              (PadShape 2)
              (Standard "N")
              (Point
              )
            )
            (Pad 37 "37" "" 11.85 7.2
              (Number 37)
              (Inverted "N")
              (Locked "N")
              (Sided "N")
              (DisableTopMask "N" 0)
              (DisableBottomMask "N" 0)
              (DisableTopPaste "N" 0)
              (DisableBottomPaste "N" 0)
              (CustomSwell -1000)
              (CustomShrink -1000)
              (PadWidth 2.55)
              (PadHeight 0.6)
              (PadHole 0)
              (PadHoleH 0)
              (PadHoleType 0)
              (SurfacePad "Y")
              (PadShape 2)
              (Standard "N")
              (Point
              )
            )
            (Pad 38 "38" "" 11.85 6
              (Number 38)
              (Inverted "N")
              (Locked "N")
              (Sided "N")
              (DisableTopMask "N" 0)
              (DisableBottomMask "N" 0)
              (DisableTopPaste "N" 0)
              (DisableBottomPaste "N" 0)
              (CustomSwell -1000)
              (CustomShrink -1000)
              (PadWidth 2.55)
              (PadHeight 0.6)
              (PadHole 0)
              (PadHoleH 0)
              (PadHoleType 0)
              (SurfacePad "Y")
              (PadShape 2)
              (Standard "N")
              (Point
              )
            )
            (Pad 39 "39" "" 11.85 4.8
              (Number 39)
              (Inverted "N")
              (Locked "N")
              (Sided "N")
              (DisableTopMask "N" 0)
              (DisableBottomMask "N" 0)
              (DisableTopPaste "N" 0)
              (DisableBottomPaste "N" 0)
              (CustomSwell -1000)
              (CustomShrink -1000)
              (PadWidth 2.55)
              (PadHeight 0.6)
              (PadHole 0)
              (PadHoleH 0)
              (PadHoleType 0)
              (SurfacePad "Y")
              (PadShape 2)
              (Standard "N")
              (Point
              )
            )
            (Pad 40 "40" "" 11.85 3.6
              (Number 40)
              (Inverted "N")
              (Locked "N")
              (Sided "N")
              (DisableTopMask "N" 0)
              (DisableBottomMask "N" 0)
              (DisableTopPaste "N" 0)
              (DisableBottomPaste "N" 0)
              (CustomSwell -1000)
              (CustomShrink -1000)
              (PadWidth 2.55)
              (PadHeight 0.6)
              (PadHole 0)
              (PadHoleH 0)
              (PadHoleType 0)
              (SurfacePad "Y")
              (PadShape 2)
              (Standard "N")
              (Point
              )
            )
            (Pad 41 "41" "" 11.85 2.4
              (Number 41)
              (Inverted "N")
              (Locked "N")
              (Sided "N")
              (DisableTopMask "N" 0)
              (DisableBottomMask "N" 0)
              (DisableTopPaste "N" 0)
              (DisableBottomPaste "N" 0)
              (CustomSwell -1000)
              (CustomShrink -1000)
              (PadWidth 2.55)
              (PadHeight 0.6)
              (PadHole 0)
              (PadHoleH 0)
              (PadHoleType 0)
              (SurfacePad "Y")
              (PadShape 2)
              (Standard "N")
              (Point
              )
            )
            (Pad 42 "42" "" 11.85 1.2
              (Number 42)
              (Inverted "N")
              (Locked "N")
              (Sided "N")
              (DisableTopMask "N" 0)
              (DisableBottomMask "N" 0)
              (DisableTopPaste "N" 0)
              (DisableBottomPaste "N" 0)
              (CustomSwell -1000)
              (CustomShrink -1000)
              (PadWidth 2.55)
              (PadHeight 0.6)
              (PadHole 0)
              (PadHoleH 0)
              (PadHoleType 0)
              (SurfacePad "Y")
              (PadShape 2)
              (Standard "N")
              (Point
              )
            )
            (Pad 43 "43" "" 11.85 0
              (Number 43)
              (Inverted "N")
              (Locked "N")
              (Sided "N")
              (DisableTopMask "N" 0)
              (DisableBottomMask "N" 0)
              (DisableTopPaste "N" 0)
              (DisableBottomPaste "N" 0)
              (CustomSwell -1000)
              (CustomShrink -1000)
              (PadWidth 2.55)
              (PadHeight 0.6)
              (PadHole 0)
              (PadHoleH 0)
              (PadHoleType 0)
              (SurfacePad "Y")
              (PadShape 2)
              (Standard "N")
              (Point
              )
            )
            (Pad 44 "44" "" 11.85 -1.2
              (Number 44)
              (Inverted "N")
              (Locked "N")
              (Sided "N")
              (DisableTopMask "N" 0)
              (DisableBottomMask "N" 0)
              (DisableTopPaste "N" 0)
              (DisableBottomPaste "N" 0)
              (CustomSwell -1000)
              (CustomShrink -1000)
              (PadWidth 2.55)
              (PadHeight 0.6)
              (PadHole 0)
              (PadHoleH 0)
              (PadHoleType 0)
              (SurfacePad "Y")
              (PadShape 2)
              (Standard "N")
              (Point
              )
            )
            (Pad 45 "45" "" 11.85 -2.4
              (Number 45)
              (Inverted "N")
              (Locked "N")
              (Sided "N")
              (DisableTopMask "N" 0)
              (DisableBottomMask "N" 0)
              (DisableTopPaste "N" 0)
              (DisableBottomPaste "N" 0)
              (CustomSwell -1000)
              (CustomShrink -1000)
              (PadWidth 2.55)
              (PadHeight 0.6)
              (PadHole 0)
              (PadHoleH 0)
              (PadHoleType 0)
              (SurfacePad "Y")
              (PadShape 2)
              (Standard "N")
              (Point
              )
            )
            (Pad 46 "46" "" 11.85 -3.6
              (Number 46)
              (Inverted "N")
              (Locked "N")
              (Sided "N")
              (DisableTopMask "N" 0)
              (DisableBottomMask "N" 0)
              (DisableTopPaste "N" 0)
              (DisableBottomPaste "N" 0)
              (CustomSwell -1000)
              (CustomShrink -1000)
              (PadWidth 2.55)
              (PadHeight 0.6)
              (PadHole 0)
              (PadHoleH 0)
              (PadHoleType 0)
              (SurfacePad "Y")
              (PadShape 2)
              (Standard "N")
              (Point
              )
            )
            (Pad 47 "47" "" 11.85 -4.8
              (Number 47)
              (Inverted "N")
              (Locked "N")
              (Sided "N")
              (DisableTopMask "N" 0)
              (DisableBottomMask "N" 0)
              (DisableTopPaste "N" 0)
              (DisableBottomPaste "N" 0)
              (CustomSwell -1000)
              (CustomShrink -1000)
              (PadWidth 2.55)
              (PadHeight 0.6)
              (PadHole 0)
              (PadHoleH 0)
              (PadHoleType 0)
              (SurfacePad "Y")
              (PadShape 2)
              (Standard "N")
              (Point
              )
            )
            (Pad 48 "48" "" 11.85 -6
              (Number 48)
              (Inverted "N")
              (Locked "N")
              (Sided "N")
              (DisableTopMask "N" 0)
              (DisableBottomMask "N" 0)
              (DisableTopPaste "N" 0)
              (DisableBottomPaste "N" 0)
              (CustomSwell -1000)
              (CustomShrink -1000)
              (PadWidth 2.55)
              (PadHeight 0.6)
              (PadHole 0)
              (PadHoleH 0)
              (PadHoleType 0)
              (SurfacePad "Y")
              (PadShape 2)
              (Standard "N")
              (Point
              )
            )
            (Pad 49 "49" "" 11.85 -7.2
              (Number 49)
              (Inverted "N")
              (Locked "N")
              (Sided "N")
              (DisableTopMask "N" 0)
              (DisableBottomMask "N" 0)
              (DisableTopPaste "N" 0)
              (DisableBottomPaste "N" 0)
              (CustomSwell -1000)
              (CustomShrink -1000)
              (PadWidth 2.55)
              (PadHeight 0.6)
              (PadHole 0)
              (PadHoleH 0)
              (PadHoleType 0)
              (SurfacePad "Y")
              (PadShape 2)
              (Standard "N")
              (Point
              )
            )
            (Pad 50 "50" "" 11.85 -8.4
              (Number 50)
              (Inverted "N")
              (Locked "N")
              (Sided "N")
              (DisableTopMask "N" 0)
              (DisableBottomMask "N" 0)
              (DisableTopPaste "N" 0)
              (DisableBottomPaste "N" 0)
              (CustomSwell -1000)
              (CustomShrink -1000)
              (PadWidth 2.55)
              (PadHeight 0.6)
              (PadHole 0)
              (PadHoleH 0)
              (PadHoleType 0)
              (SurfacePad "Y")
              (PadShape 2)
              (Standard "N")
              (Point
              )
            )
            (Pad 51 "51" "" 11.85 -9.6
              (Number 51)
              (Inverted "N")
              (Locked "N")
              (Sided "N")
              (DisableTopMask "N" 0)
              (DisableBottomMask "N" 0)
              (DisableTopPaste "N" 0)
              (DisableBottomPaste "N" 0)
              (CustomSwell -1000)
              (CustomShrink -1000)
              (PadWidth 2.55)
              (PadHeight 0.6)
              (PadHole 0)
              (PadHoleH 0)
              (PadHoleType 0)
              (SurfacePad "Y")
              (PadShape 2)
              (Standard "N")
              (Point
              )
            )
            (Pad 52 "52" "" 9.6 -11.85
              (Number 52)
              (Inverted "N")
              (Locked "N")
              (Sided "N")
              (DisableTopMask "N" 0)
              (DisableBottomMask "N" 0)
              (DisableTopPaste "N" 0)
              (DisableBottomPaste "N" 0)
              (CustomSwell -1000)
              (CustomShrink -1000)
              (PadWidth 0.6)
              (PadHeight 2.55)
              (PadHole 0)
              (PadHoleH 0)
              (PadHoleType 0)
              (SurfacePad "Y")
              (PadShape 2)
              (Standard "N")
              (Point
              )
            )
            (Pad 53 "53" "" 8.4 -11.85
              (Number 53)
              (Inverted "N")
              (Locked "N")
              (Sided "N")
              (DisableTopMask "N" 0)
              (DisableBottomMask "N" 0)
              (DisableTopPaste "N" 0)
              (DisableBottomPaste "N" 0)
              (CustomSwell -1000)
              (CustomShrink -1000)
              (PadWidth 0.6)
              (PadHeight 2.55)
              (PadHole 0)
              (PadHoleH 0)
              (PadHoleType 0)
              (SurfacePad "Y")
              (PadShape 2)
              (Standard "N")
              (Point
              )
            )
            (Pad 54 "54" "" 7.2 -11.85
              (Number 54)
              (Inverted "N")
              (Locked "N")
              (Sided "N")
              (DisableTopMask "N" 0)
              (DisableBottomMask "N" 0)
              (DisableTopPaste "N" 0)
              (DisableBottomPaste "N" 0)
              (CustomSwell -1000)
              (CustomShrink -1000)
              (PadWidth 0.6)
              (PadHeight 2.55)
              (PadHole 0)
              (PadHoleH 0)
              (PadHoleType 0)
              (SurfacePad "Y")
              (PadShape 2)
              (Standard "N")
              (Point
              )
            )
            (Pad 55 "55" "" 6 -11.85
              (Number 55)
              (Inverted "N")
              (Locked "N")
              (Sided "N")
              (DisableTopMask "N" 0)
              (DisableBottomMask "N" 0)
              (DisableTopPaste "N" 0)
              (DisableBottomPaste "N" 0)
              (CustomSwell -1000)
              (CustomShrink -1000)
              (PadWidth 0.6)
              (PadHeight 2.55)
              (PadHole 0)
              (PadHoleH 0)
              (PadHoleType 0)
              (SurfacePad "Y")
              (PadShape 2)
              (Standard "N")
              (Point
              )
            )
            (Pad 56 "56" "" 4.8 -11.85
              (Number 56)
              (Inverted "N")
              (Locked "N")
              (Sided "N")
              (DisableTopMask "N" 0)
              (DisableBottomMask "N" 0)
              (DisableTopPaste "N" 0)
              (DisableBottomPaste "N" 0)
              (CustomSwell -1000)
              (CustomShrink -1000)
              (PadWidth 0.6)
              (PadHeight 2.55)
              (PadHole 0)
              (PadHoleH 0)
              (PadHoleType 0)
              (SurfacePad "Y")
              (PadShape 2)
              (Standard "N")
              (Point
              )
            )
            (Pad 57 "57" "" 3.6 -11.85
              (Number 57)
              (Inverted "N")
              (Locked "N")
              (Sided "N")
              (DisableTopMask "N" 0)
              (DisableBottomMask "N" 0)
              (DisableTopPaste "N" 0)
              (DisableBottomPaste "N" 0)
              (CustomSwell -1000)
              (CustomShrink -1000)
              (PadWidth 0.6)
              (PadHeight 2.55)
              (PadHole 0)
              (PadHoleH 0)
              (PadHoleType 0)
              (SurfacePad "Y")
              (PadShape 2)
              (Standard "N")
              (Point
              )
            )
            (Pad 58 "58" "" 2.4 -11.85
              (Number 58)
              (Inverted "N")
              (Locked "N")
              (Sided "N")
              (DisableTopMask "N" 0)
              (DisableBottomMask "N" 0)
              (DisableTopPaste "N" 0)
              (DisableBottomPaste "N" 0)
              (CustomSwell -1000)
              (CustomShrink -1000)
              (PadWidth 0.6)
              (PadHeight 2.55)
              (PadHole 0)
              (PadHoleH 0)
              (PadHoleType 0)
              (SurfacePad "Y")
              (PadShape 2)
              (Standard "N")
              (Point
              )
            )
            (Pad 59 "59" "" 1.2 -11.85
              (Number 59)
              (Inverted "N")
              (Locked "N")
              (Sided "N")
              (DisableTopMask "N" 0)
              (DisableBottomMask "N" 0)
              (DisableTopPaste "N" 0)
              (DisableBottomPaste "N" 0)
              (CustomSwell -1000)
              (CustomShrink -1000)
              (PadWidth 0.6)
              (PadHeight 2.55)
              (PadHole 0)
              (PadHoleH 0)
              (PadHoleType 0)
              (SurfacePad "Y")
              (PadShape 2)
              (Standard "N")
              (Point
              )
            )
            (Pad 60 "60" "" 0 -11.85
              (Number 60)
              (Inverted "N")
              (Locked "N")
              (Sided "N")
              (DisableTopMask "N" 0)
              (DisableBottomMask "N" 0)
              (DisableTopPaste "N" 0)
              (DisableBottomPaste "N" 0)
              (CustomSwell -1000)
              (CustomShrink -1000)
              (PadWidth 0.6)
              (PadHeight 2.55)
              (PadHole 0)
              (PadHoleH 0)
              (PadHoleType 0)
              (SurfacePad "Y")
              (PadShape 2)
              (Standard "N")
              (Point
              )
            )
            (Pad 61 "61" "" -1.2 -11.85
              (Number 61)
              (Inverted "N")
              (Locked "N")
              (Sided "N")
              (DisableTopMask "N" 0)
              (DisableBottomMask "N" 0)
              (DisableTopPaste "N" 0)
              (DisableBottomPaste "N" 0)
              (CustomSwell -1000)
              (CustomShrink -1000)
              (PadWidth 0.6)
              (PadHeight 2.55)
              (PadHole 0)
              (PadHoleH 0)
              (PadHoleType 0)
              (SurfacePad "Y")
              (PadShape 2)
              (Standard "N")
              (Point
              )
            )
            (Pad 62 "62" "" -2.4 -11.85
              (Number 62)
              (Inverted "N")
              (Locked "N")
              (Sided "N")
              (DisableTopMask "N" 0)
              (DisableBottomMask "N" 0)
              (DisableTopPaste "N" 0)
              (DisableBottomPaste "N" 0)
              (CustomSwell -1000)
              (CustomShrink -1000)
              (PadWidth 0.6)
              (PadHeight 2.55)
              (PadHole 0)
              (PadHoleH 0)
              (PadHoleType 0)
              (SurfacePad "Y")
              (PadShape 2)
              (Standard "N")
              (Point
              )
            )
            (Pad 63 "63" "" -3.6 -11.85
              (Number 63)
              (Inverted "N")
              (Locked "N")
              (Sided "N")
              (DisableTopMask "N" 0)
              (DisableBottomMask "N" 0)
              (DisableTopPaste "N" 0)
              (DisableBottomPaste "N" 0)
              (CustomSwell -1000)
              (CustomShrink -1000)
              (PadWidth 0.6)
              (PadHeight 2.55)
              (PadHole 0)
              (PadHoleH 0)
              (PadHoleType 0)
              (SurfacePad "Y")
              (PadShape 2)
              (Standard "N")
              (Point
              )
            )
            (Pad 64 "64" "" -4.8 -11.85
              (Number 64)
              (Inverted "N")
              (Locked "N")
              (Sided "N")
              (DisableTopMask "N" 0)
              (DisableBottomMask "N" 0)
              (DisableTopPaste "N" 0)
              (DisableBottomPaste "N" 0)
              (CustomSwell -1000)
              (CustomShrink -1000)
              (PadWidth 0.6)
              (PadHeight 2.55)
              (PadHole 0)
              (PadHoleH 0)
              (PadHoleType 0)
              (SurfacePad "Y")
              (PadShape 2)
              (Standard "N")
              (Point
              )
            )
            (Pad 65 "65" "" -6 -11.85
              (Number 65)
              (Inverted "N")
              (Locked "N")
              (Sided "N")
              (DisableTopMask "N" 0)
              (DisableBottomMask "N" 0)
              (DisableTopPaste "N" 0)
              (DisableBottomPaste "N" 0)
              (CustomSwell -1000)
              (CustomShrink -1000)
              (PadWidth 0.6)
              (PadHeight 2.55)
              (PadHole 0)
              (PadHoleH 0)
              (PadHoleType 0)
              (SurfacePad "Y")
              (PadShape 2)
              (Standard "N")
              (Point
              )
            )
            (Pad 66 "66" "" -7.2 -11.85
              (Number 66)
              (Inverted "N")
              (Locked "N")
              (Sided "N")
              (DisableTopMask "N" 0)
              (DisableBottomMask "N" 0)
              (DisableTopPaste "N" 0)
              (DisableBottomPaste "N" 0)
              (CustomSwell -1000)
              (CustomShrink -1000)
              (PadWidth 0.6)
              (PadHeight 2.55)
              (PadHole 0)
              (PadHoleH 0)
              (PadHoleType 0)
              (SurfacePad "Y")
              (PadShape 2)
              (Standard "N")
              (Point
              )
            )
            (Pad 67 "67" "" -8.4 -11.85
              (Number 67)
              (Inverted "N")
              (Locked "N")
              (Sided "N")
              (DisableTopMask "N" 0)
              (DisableBottomMask "N" 0)
              (DisableTopPaste "N" 0)
              (DisableBottomPaste "N" 0)
              (CustomSwell -1000)
              (CustomShrink -1000)
              (PadWidth 0.6)
              (PadHeight 2.55)
              (PadHole 0)
              (PadHoleH 0)
              (PadHoleType 0)
              (SurfacePad "Y")
              (PadShape 2)
              (Standard "N")
              (Point
              )
            )
            (Pad 68 "68" "" -9.6 -11.85
              (Number 68)
              (Inverted "N")
              (Locked "N")
              (Sided "N")
              (DisableTopMask "N" 0)
              (DisableBottomMask "N" 0)
              (DisableTopPaste "N" 0)
              (DisableBottomPaste "N" 0)
              (CustomSwell -1000)
              (CustomShrink -1000)
              (PadWidth 0.6)
              (PadHeight 2.55)
              (PadHole 0)
              (PadHoleH 0)
              (PadHoleType 0)
              (SurfacePad "Y")
              (PadShape 2)
              (Standard "N")
              (Point
              )
            )
            (Pad 69 "69" "" 0 0
              (Number 69)
              (Inverted "N")
              (Locked "N")
              (Sided "N")
              (DisableTopMask "N" 0)
              (DisableBottomMask "N" 0)
              (DisableTopPaste "N" 0)
              (DisableBottomPaste "N" 0)
              (CustomSwell -1000)
              (CustomShrink -1000)
              (PadWidth 17.4)
              (PadHeight 17.4)
              (PadHole 0)
              (PadHoleH 0)
              (PadHoleType 0)
              (SurfacePad "Y")
              (PadShape 2)
              (Standard "N")
              (Point
              )
            )
            (Pad 70 "" "" 0 0
              (Number 0)
              (Inverted "N")
              (Locked "N")
              (Sided "N")
              (DisableTopMask "N" 0)
              (DisableBottomMask "N" 0)
              (DisableTopPaste "N" 0)
              (DisableBottomPaste "N" 0)
              (CustomSwell 0)
              (CustomShrink 0)
              (PadWidth 0)
              (PadHeight 0)
              (PadHole 0)
              (PadHoleH 0)
              (PadHoleType 0)
              (SurfacePad "N")
              (PadShape 0)
              (Standard "N")
              (Point
              )
            )
          )
          (Shapes
            (Shape 0 "N" 0 0 0 0 0 0 0 "" "" "N" 0 0 0 0 0 0)
            (Shape 8 "N" 1 0 0 0 0 0 0 "" "Tahoma" "Y" 4 1 -2 0 0.3 0)
              (Point
                (pt -0.472 -0.5)
                (pt 0.472 -0.5)
              )
            (Shape 8 "N" 1 0 0 0 0 0 0 "" "Tahoma" "Y" 4 1 -2 0 0.3 0)
              (Point
                (pt 0.472 -0.5)
                (pt 0.472 0.5)
              )
            (Shape 8 "N" 1 0 0 0 0 0 0 "" "Tahoma" "Y" 4 1 -2 0 0.3 0)
              (Point
                (pt 0.472 0.5)
                (pt -0.472 0.5)
              )
            (Shape 8 "N" 1 0 0 0 0 0 0 "" "Tahoma" "Y" 4 1 -2 0 0.3 0)
              (Point
                (pt -0.472 0.5)
                (pt -0.472 -0.5)
              )
            (Shape 8 "N" 1 0 0 0 0 0 0 "" "Tahoma" "Y" 4 1 -2 0 0.3 0)
              (Point
                (pt -0.472 -0.45)
                (pt -0.425 -0.5)
              )
            (Shape 3 "N" 0 -0.528 -0.463 -0.504 -0.488 0 0 "" "Tahoma" "Y" 4 1 -2 0 0.6 0)
            (Shape 0 "N" 0 0 0 0 0 0 0 "" "" "N" 0 0 0 0 0 0)
          )
          (Model3D
            (Model3DFile "CY8C5888LTI-LP097.stp")
            (pt 0 0 0 0 0 0 1 1 1 "N" "N" 0)
          )
        )
      )
    )
  )
()

