PCBNEW-LibModule-V1  2019-09-17 18:35:46
# encoding utf-8
Units mm
$INDEX
SOT95P275X110-6N
$EndINDEX
$MODULE SOT95P275X110-6N
Po 0 0 0 15 5d811972 00000000 ~~
Li SOT95P275X110-6N
Cd TSOP-6 CASE318G-02
Kw Integrated Circuit
Sc 0
At SMD
AR 
Op 0 0 0
T0 0 0 1.27 1.27 0 0.254 N V 21 N "IC**"
T1 0 0 1.27 1.27 0 0.254 N I 21 N "SOT95P275X110-6N"
DS -2.125 -1.8 2.125 -1.8 0.05 24
DS 2.125 -1.8 2.125 1.8 0.05 24
DS 2.125 1.8 -2.125 1.8 0.05 24
DS -2.125 1.8 -2.125 -1.8 0.05 24
DS -0.75 -1.5 0.75 -1.5 0.1 24
DS 0.75 -1.5 0.75 1.5 0.1 24
DS 0.75 1.5 -0.75 1.5 0.1 24
DS -0.75 1.5 -0.75 -1.5 0.1 24
DS -0.75 -0.55 0.2 -1.5 0.1 24
DS -0.275 -1.5 0.275 -1.5 0.2 21
DS 0.275 -1.5 0.275 1.5 0.2 21
DS 0.275 1.5 -0.275 1.5 0.2 21
DS -0.275 1.5 -0.275 -1.5 0.2 21
DS -1.875 -1.6 -0.625 -1.6 0.2 21
$PAD
Po -1.25 -0.95
Sh "1" R 0.6 1.25 0 0 900
At SMD N 00888000
Ne 0 ""
$EndPAD
$PAD
Po -1.25 0
Sh "2" R 0.6 1.25 0 0 900
At SMD N 00888000
Ne 0 ""
$EndPAD
$PAD
Po -1.25 0.95
Sh "3" R 0.6 1.25 0 0 900
At SMD N 00888000
Ne 0 ""
$EndPAD
$PAD
Po 1.25 0.95
Sh "4" R 0.6 1.25 0 0 900
At SMD N 00888000
Ne 0 ""
$EndPAD
$PAD
Po 1.25 0
Sh "5" R 0.6 1.25 0 0 900
At SMD N 00888000
Ne 0 ""
$EndPAD
$PAD
Po 1.25 -0.95
Sh "6" R 0.6 1.25 0 0 900
At SMD N 00888000
Ne 0 ""
$EndPAD
$EndMODULE SOT95P275X110-6N
$EndLIBRARY
