PCBNEW-LibModule-V1  2019-09-25 00:09:12
# encoding utf-8
Units mm
$INDEX
Molex_SATA_67800-5025_1x07_1.27mm_SMD_Vertical
$EndINDEX
$MODULE Molex_SATA_67800-5025_1x07_1.27mm_SMD_Vertical
Po 0 0 0 15 5d8aa218 00000000 ~~
Li Molex_SATA_67800-5025_1x07_1.27mm_SMD_Vertical
Cd Molex_SATA_67800-5025_1x07_1.27mm_SMD_Vertical
Kw Connector
Sc 0
At STD
AR 
Op 0 0 0
T0 8.288 -2.164 1.27 1.27 0 0.254 N V 21 N "J**"
T1 8.288 -2.164 1.27 1.27 0 0.254 N I 21 N "Molex_SATA_67800-5025_1x07_1.27mm_SMD_Vertical"
DS 0 -6.45 16.9 -6.45 0.254 24
DS 16.9 -6.45 16.9 0 0.254 24
DS 16.9 0 0 0 0.254 24
DS 0 0 0 -6.45 0.254 24
DS 0 -6.45 0 0 0.254 21
DS 0 0 16.9 0 0.254 21
DS 16.9 0 16.9 -6.45 0.254 21
DS 16.9 -6.45 0 -6.45 0.254 21
$PAD
Po 4.82 -3.99
Sh "1" R 0.95 2.35 0 0 0
At SMD N 00888000
Ne 0 ""
$EndPAD
$PAD
Po 6.09 -3.99
Sh "2" R 0.95 2.35 0 0 0
At SMD N 00888000
Ne 0 ""
$EndPAD
$PAD
Po 7.36 -3.99
Sh "3" R 0.95 2.35 0 0 0
At SMD N 00888000
Ne 0 ""
$EndPAD
$PAD
Po 8.63 -3.99
Sh "4" R 0.95 2.35 0 0 0
At SMD N 00888000
Ne 0 ""
$EndPAD
$PAD
Po 9.9 -3.99
Sh "5" R 0.95 2.35 0 0 0
At SMD N 00888000
Ne 0 ""
$EndPAD
$PAD
Po 11.17 -3.99
Sh "6" R 0.95 2.35 0 0 0
At SMD N 00888000
Ne 0 ""
$EndPAD
$PAD
Po 12.44 -3.99
Sh "7" R 0.95 2.35 0 0 0
At SMD N 00888000
Ne 0 ""
$EndPAD
$PAD
Po 14.9 -2.99
Sh "8" C 2.1 2.1 0 0 900
Dr 1.4 0 0
At STD N 00E0FFFF
Ne 0 ""
$EndPAD
$PAD
Po 2.07 -3.99
Sh "9" C 2.1 2.1 0 0 900
Dr 1.4 0 0
At STD N 00E0FFFF
Ne 0 ""
$EndPAD
$EndMODULE Molex_SATA_67800-5025_1x07_1.27mm_SMD_Vertical
$EndLIBRARY
