%TF.GenerationSoftware,KiCad,Pcbnew,5.1.4*%
%TF.CreationDate,2019-10-10T20:05:12+02:00*%
%TF.ProjectId,IHM-G_n_rique,49484d2d-47e9-46ee-9972-697175652e6b,1.0_-4.3*%
%TF.SameCoordinates,PX623a7c0PY365c040*%
%TF.FileFunction,Plated,1,4,PTH,Mixed*%
%TF.FilePolarity,Positive*%
%FSLAX46Y46*%
G04 Gerber Fmt 4.6, Leading zero omitted, Abs format (unit mm)*
G04 Created by KiCad (PCBNEW 5.1.4) date 2019-10-10 20:05:12*
%MOMM*%
%LPD*%
G04 APERTURE LIST*
%TA.AperFunction,ViaDrill*%
%ADD10C,0.250000*%
%TD*%
%TA.AperFunction,ViaDrill*%
%ADD11C,0.400000*%
%TD*%
%TA.AperFunction,ComponentDrill*%
%ADD12C,0.500000*%
%TD*%
%TA.AperFunction,ComponentDrill*%
%ADD13C,0.800000*%
%TD*%
%TA.AperFunction,ComponentDrill*%
%ADD14C,1.000000*%
%TD*%
%TA.AperFunction,ComponentDrill*%
%ADD15C,1.016000*%
%TD*%
%TA.AperFunction,ComponentDrill*%
%ADD16C,1.200000*%
%TD*%
G04 aperture for slot hole*
%TA.AperFunction,ComponentDrill*%
%ADD17C,2.000000*%
%TD*%
%TA.AperFunction,ComponentDrill*%
%ADD18C,3.200000*%
%TD*%
G04 APERTURE END LIST*
D10*
X11870000Y-49020000D03*
X15670000Y-40520000D03*
X16380000Y-45220000D03*
X16380000Y-49020000D03*
X20250000Y-49020000D03*
X24080000Y-49020000D03*
X24150000Y-45220000D03*
X27820000Y-49020000D03*
X29570000Y-35360000D03*
X31650000Y-49020000D03*
X34620000Y-52230000D03*
X34671000Y-14071000D03*
X35450000Y-49020000D03*
X39240000Y-49010000D03*
X41750000Y-14270000D03*
X44770000Y-11790000D03*
X46740000Y-40190000D03*
X47400000Y-6810000D03*
X47400000Y-9790000D03*
X47800000Y-14300000D03*
X50740000Y-52230000D03*
X51730000Y-43460000D03*
X51850000Y-49970000D03*
X62540000Y-13530000D03*
X66090000Y-41450000D03*
X67050000Y-17250000D03*
X67050000Y-18500000D03*
X67050000Y-19750000D03*
X67050000Y-21000000D03*
X67430000Y-50920000D03*
X67600000Y-17875000D03*
X67600000Y-19120000D03*
X67600000Y-20370000D03*
X67600000Y-21620000D03*
X68410000Y-53360000D03*
X73570000Y-50930000D03*
X74700000Y-49780000D03*
X79060000Y-52230000D03*
X79210000Y-57190000D03*
X79650000Y-13760000D03*
X80810004Y-40290000D03*
X82230000Y-53340000D03*
X82230000Y-54330002D03*
X82250000Y-52380000D03*
X82260000Y-13270000D03*
X82950000Y-17250000D03*
X84000000Y-17250000D03*
X84310000Y-39010000D03*
X85040000Y-32320000D03*
X85050000Y-17250000D03*
X85099998Y-59225000D03*
X85100000Y-55220000D03*
X85100000Y-56225000D03*
X85100000Y-57230000D03*
X85100000Y-60230000D03*
X87510000Y-19750000D03*
X87780000Y-14760000D03*
X87780000Y-53250000D03*
X87780002Y-52230000D03*
X88120000Y-20360000D03*
X88710000Y-20990000D03*
X89300000Y-21620000D03*
X92210002Y-36569998D03*
X92869998Y-35000000D03*
X96320000Y-32500000D03*
D11*
X17080000Y-22130000D03*
X21080000Y-25470000D03*
X29560000Y-58330000D03*
X46740000Y-53600000D03*
X61200000Y-53600000D03*
X61200000Y-57450000D03*
X62830000Y-55620000D03*
X64280000Y-57460000D03*
X64310000Y-53630000D03*
X68770000Y-29650000D03*
X93990000Y-45270000D03*
D12*
%TO.C,Y1*%
X43810000Y-14260000D03*
X45710000Y-14260000D03*
D13*
X43250000Y-22750000D03*
X46268800Y-22750000D03*
D14*
%TO.C,J5*%
X10570000Y-42220000D03*
X13110000Y-42220000D03*
X15650000Y-42220000D03*
X18190000Y-42220000D03*
X20730000Y-42220000D03*
X23270000Y-42220000D03*
X25810000Y-42220000D03*
X28350000Y-42220000D03*
X30890000Y-42220000D03*
X33430000Y-42220000D03*
X35970000Y-42220000D03*
X38510000Y-42220000D03*
%TO.C,J13*%
X50213900Y-42176000D03*
X51713900Y-40176000D03*
X53213900Y-42176000D03*
X54713900Y-40176000D03*
%TO.C,J4*%
X10560000Y-67650000D03*
X13100000Y-67650000D03*
X15640000Y-67650000D03*
X18180000Y-67650000D03*
X20720000Y-67650000D03*
X23260000Y-67650000D03*
X25800000Y-67650000D03*
X28340000Y-67650000D03*
X30880000Y-67650000D03*
X33420000Y-67650000D03*
X35960000Y-67650000D03*
X38500000Y-67650000D03*
%TO.C,J14*%
X92125000Y-12875000D03*
X92125000Y-15875000D03*
X94125000Y-14375000D03*
X94125000Y-17375000D03*
%TO.C,SW1*%
X81150000Y-28000000D03*
X81150000Y-42500000D03*
X83650000Y-42500000D03*
X86150000Y-28000000D03*
X86150000Y-42500000D03*
%TO.C,J10*%
X10528500Y-8625500D03*
X13068500Y-8625500D03*
X15608500Y-8625500D03*
X18148500Y-8625500D03*
X20688500Y-8625500D03*
X23228500Y-8625500D03*
X25768500Y-8625500D03*
X28308500Y-8625500D03*
X30848500Y-8625500D03*
X33388500Y-8625500D03*
X35928500Y-8625500D03*
X38468500Y-8625500D03*
X41008500Y-8625500D03*
X43548500Y-8625500D03*
X46088500Y-8625500D03*
X48628500Y-8625500D03*
X51168500Y-8625500D03*
X53708500Y-8625500D03*
X56248500Y-8625500D03*
X58788500Y-8625500D03*
X61328500Y-8625500D03*
X63868500Y-8625500D03*
X66408500Y-8625500D03*
X68948500Y-8625500D03*
X71488500Y-8625500D03*
X74028500Y-8625500D03*
%TO.C,J6*%
X10515800Y-36692500D03*
X13055800Y-36692500D03*
X15595800Y-36692500D03*
X18135800Y-36692500D03*
X20675800Y-36692500D03*
X23215800Y-36692500D03*
X25755800Y-36692500D03*
X28295800Y-36692500D03*
X30835800Y-36692500D03*
X33375800Y-36692500D03*
X35915800Y-36692500D03*
X38455800Y-36692500D03*
X40995800Y-36692500D03*
X43535800Y-36692500D03*
X46075800Y-36692500D03*
X48615800Y-36692500D03*
X51155800Y-36692500D03*
X53695800Y-36692500D03*
X56235800Y-36692500D03*
X58775800Y-36692500D03*
X61315800Y-36692500D03*
X63855800Y-36692500D03*
X66395800Y-36692500D03*
X68935800Y-36692500D03*
X71475800Y-36692500D03*
X74015800Y-36692500D03*
%TO.C,J15*%
X92125000Y-52481900D03*
X92125000Y-55481900D03*
X94125000Y-53981900D03*
X94125000Y-56981900D03*
D15*
%TO.C,IC2*%
X10520880Y-12535060D03*
X10520880Y-32834740D03*
X13055800Y-12535060D03*
X13055800Y-32837280D03*
X15593260Y-12535060D03*
X15593260Y-32837280D03*
X18130720Y-32837280D03*
X18133260Y-12537600D03*
X20670720Y-12535060D03*
X20670720Y-32839820D03*
X23210720Y-12537600D03*
X23210720Y-32842360D03*
X25748180Y-12540140D03*
X25748180Y-32839820D03*
X28280560Y-12535060D03*
X28283100Y-32839820D03*
X30818020Y-12535060D03*
X30818020Y-32837280D03*
X33355480Y-32837280D03*
X33358020Y-12535060D03*
X35895480Y-12537600D03*
X35898020Y-32837280D03*
X38435480Y-32837280D03*
X38438020Y-12537600D03*
X40972940Y-12537600D03*
X40972940Y-32837280D03*
X43502780Y-32837280D03*
X43505320Y-12535060D03*
X46042780Y-12537600D03*
X46042780Y-32837280D03*
X48580240Y-12537600D03*
X48582780Y-32837280D03*
X51120240Y-12537600D03*
X51120240Y-32837280D03*
X53657700Y-32837280D03*
X53667860Y-12537600D03*
X56197700Y-32837280D03*
X56200240Y-12537600D03*
X58735160Y-12537600D03*
X58735160Y-32837280D03*
X61265000Y-32837280D03*
X61267540Y-12537600D03*
X63802460Y-12535060D03*
X63805000Y-32837280D03*
X66345000Y-12537600D03*
X66345000Y-32839820D03*
X68882460Y-32837280D03*
X68885000Y-12535060D03*
X71419920Y-32837280D03*
X71422460Y-12537600D03*
X73959920Y-12540140D03*
X73959920Y-32837280D03*
D16*
%TO.C,J16*%
X61050000Y-66380000D03*
X64550000Y-66380000D03*
D17*
%TO.C,SW1*%
X78050000Y-34750000D02*
X78050000Y-35250000D01*
X89250000Y-34750000D02*
X89250000Y-35250000D01*
D18*
%TO.C,H1*%
X96000000Y-4000000D03*
%TO.C,H4*%
X4000000Y-4000000D03*
%TO.C,H3*%
X4000000Y-66000000D03*
%TO.C,H2*%
X96000000Y-66000000D03*
%TO.C,H6*%
X54000000Y-66000000D03*
M02*
