M48
; DRILL file {KiCad 5.1.4} date jeu. 10 oct. 2019 20:04:05 CEST
; FORMAT={-:-/ absolute / metric / decimal}
; #@! TF.CreationDate,2019-10-10T20:04:05+02:00
; #@! TF.GenerationSoftware,Kicad,Pcbnew,5.1.4
; #@! TF.FileFunction,NonPlated,1,4,NPTH
FMAT,2
METRIC
T1C1.000
%
G90
G05
T1
X92.625Y-58.482
X48.714Y-40.676
X92.625Y-18.875
T0
M30
