(module TPA6205A1_DGN_MSOP8 (layer F.Cu) (tedit 5BBC922F)
  (fp_text reference REF** (at 1.6 3.9) (layer F.SilkS)
    (effects (font (size 1 1) (thickness 0.15)))
  )
  (fp_text value 1 (at 1.5 -0.7) (layer F.Fab)
    (effects (font (size 1 1) (thickness 0.15)))
  )
  (fp_line (start 0.7 2.5) (end 0.7 0.5) (layer F.Fab) (width 0.1))
  (fp_line (start 2.3 2.5) (end 0.7 2.5) (layer F.Fab) (width 0.1))
  (fp_line (start 2.3 0.5) (end 2.3 2.5) (layer F.Fab) (width 0.1))
  (fp_line (start 0.7 0.5) (end 2.3 0.5) (layer F.Fab) (width 0.1))
  (fp_line (start 3 0) (end 0 0) (layer F.CrtYd) (width 0.15))
  (fp_line (start 3 3) (end 3 0) (layer F.CrtYd) (width 0.15))
  (fp_line (start 0 3) (end 3 3) (layer F.CrtYd) (width 0.15))
  (fp_line (start 0 0) (end 0 3) (layer F.CrtYd) (width 0.15))
  (pad 11 thru_hole circle (at 1.5 1.5) (size 0.4 0.4) (drill 0.2) (layers *.Cu *.Mask))
  (pad 12 thru_hole circle (at 1.1 2.1) (size 0.4 0.4) (drill 0.2) (layers *.Cu *.Mask))
  (pad 13 thru_hole circle (at 1.9 2.1) (size 0.4 0.4) (drill 0.2) (layers *.Cu *.Mask))
  (pad 10 thru_hole circle (at 1.9 0.9) (size 0.4 0.4) (drill 0.2) (layers *.Cu *.Mask))
  (pad 9 thru_hole circle (at 1.1 0.9) (size 0.4 0.4) (drill 0.2) (layers *.Cu *.Mask))
  (pad 4 smd roundrect (at -0.5 2.51 270) (size 0.35 1.55) (layers F.Cu F.Paste F.Mask) (roundrect_rratio 0.25))
  (pad 3 smd roundrect (at -0.5 1.85 270) (size 0.35 1.55) (layers F.Cu F.Paste F.Mask) (roundrect_rratio 0.25))
  (pad 2 smd roundrect (at -0.5 1.2 270) (size 0.35 1.55) (layers F.Cu F.Paste F.Mask) (roundrect_rratio 0.25))
  (pad 1 smd roundrect (at -0.5 0.55 -90) (size 0.35 1.55) (layers F.Cu F.Paste F.Mask) (roundrect_rratio 0.25))
  (pad 5 smd roundrect (at 3.5 2.5 270) (size 0.35 1.55) (layers F.Cu F.Paste F.Mask) (roundrect_rratio 0.25))
  (pad 6 smd roundrect (at 3.5 1.85 270) (size 0.35 1.55) (layers F.Cu F.Paste F.Mask) (roundrect_rratio 0.25))
  (pad 7 smd roundrect (at 3.5 1.2 270) (size 0.35 1.55) (layers F.Cu F.Paste F.Mask) (roundrect_rratio 0.25))
  (pad 8 smd roundrect (at 3.5 0.55 270) (size 0.35 1.55) (layers F.Cu F.Paste F.Mask) (roundrect_rratio 0.25))
)
