PCBNEW-LibModule-V1  2019-09-24 09:37:42
# encoding utf-8
Units mm
$INDEX
S3B-PH-SM4-TB
$EndINDEX
$MODULE S3B-PH-SM4-TB
Po 0 0 0 15 5d89d5d6 00000000 ~~
Li S3B-PH-SM4-TB
Cd S3B-PH-SM4-TB
Kw Connector
Sc 0
At SMD
AR 
Op 0 0 0
T0 -1.415 -5.499 1.27 1.27 0 0.254 N V 21 N "J**"
T1 -1.415 -5.499 1.27 1.27 0 0.254 N I 21 N "S3B-PH-SM4-TB"
DS -5 0.25 5 0.25 0.2 24
DS 5 0.25 5 -7.35 0.2 24
DS 5 -7.35 -5 -7.35 0.2 24
DS -5 -7.35 -5 0.25 0.2 24
DS -3.298 -7.35 3.262 -7.35 0.2 21
DS -5 0.25 -5 -3.55 0.2 21
DS 5 0.25 5 -3.55 0.2 21
DS 5 0.25 2.74 0.25 0.2 21
DS -5 0.25 -2.776 0.25 0.2 21
DC 3.274 1.771 3.03681 1.771 0.254 21
$PAD
Po 2 0
Sh "1" R 1 3.5 0 0 0
At SMD N 00888000
Ne 0 ""
$EndPAD
$PAD
Po 0 0
Sh "2" R 1 3.5 0 0 0
At SMD N 00888000
Ne 0 ""
$EndPAD
$PAD
Po -2 0
Sh "3" R 1 3.5 0 0 0
At SMD N 00888000
Ne 0 ""
$EndPAD
$PAD
Po -4.4 -5.7
Sh "4" R 1.6 3.5 0 0 0
At SMD N 00888000
Ne 0 ""
$EndPAD
$PAD
Po 4.4 -5.7
Sh "5" R 1.6 3.5 0 0 0
At SMD N 00888000
Ne 0 ""
$EndPAD
$EndMODULE S3B-PH-SM4-TB
$EndLIBRARY
