(module Logo_Reset_µCU_µLCD (layer F.Cu) (tedit 5D8FEF79)
  (fp_text reference G*** (at 0 -2.54 180) (layer F.SilkS) hide
    (effects (font (size 1.524 1.524) (thickness 0.3)))
  )
  (fp_text value LOGO (at 0 2.54 180) (layer F.SilkS) hide
    (effects (font (size 1.524 1.524) (thickness 0.3)))
  )
  (fp_poly (pts (xy -3.654016 0.393496) (xy -3.653118 0.393849) (xy -3.652117 0.401847) (xy -3.650992 0.423018)
    (xy -3.649797 0.455594) (xy -3.648584 0.497806) (xy -3.647405 0.547887) (xy -3.646314 0.60407)
    (xy -3.645647 0.644959) (xy -3.644443 0.718545) (xy -3.643081 0.778702) (xy -3.64128 0.82694)
    (xy -3.638763 0.864772) (xy -3.635248 0.893707) (xy -3.630458 0.915257) (xy -3.624113 0.930933)
    (xy -3.615933 0.942247) (xy -3.605639 0.95071) (xy -3.592952 0.957832) (xy -3.587299 0.96057)
    (xy -3.56836 0.967951) (xy -3.550437 0.969775) (xy -3.526683 0.966501) (xy -3.519751 0.965091)
    (xy -3.483604 0.953422) (xy -3.44624 0.93468) (xy -3.413164 0.912051) (xy -3.391505 0.890858)
    (xy -3.387358 0.884894) (xy -3.384066 0.877602) (xy -3.38153 0.867309) (xy -3.379654 0.852343)
    (xy -3.378337 0.831029) (xy -3.377483 0.801695) (xy -3.376992 0.762666) (xy -3.376766 0.712271)
    (xy -3.376707 0.648836) (xy -3.376706 0.639107) (xy -3.376706 0.40617) (xy -3.322545 0.398408)
    (xy -3.295417 0.395018) (xy -3.274249 0.393295) (xy -3.263203 0.393566) (xy -3.26278 0.393734)
    (xy -3.261489 0.401656) (xy -3.260303 0.422821) (xy -3.259258 0.455533) (xy -3.258387 0.498094)
    (xy -3.257727 0.548807) (xy -3.257312 0.605975) (xy -3.257177 0.664316) (xy -3.257149 0.734663)
    (xy -3.257009 0.791619) (xy -3.256673 0.836736) (xy -3.256059 0.871565) (xy -3.255082 0.897656)
    (xy -3.253658 0.916559) (xy -3.251704 0.929827) (xy -3.249137 0.939009) (xy -3.245873 0.945658)
    (xy -3.241827 0.951322) (xy -3.241694 0.951492) (xy -3.221426 0.967746) (xy -3.198116 0.969471)
    (xy -3.17597 0.959062) (xy -3.162554 0.951214) (xy -3.153532 0.952846) (xy -3.146714 0.958908)
    (xy -3.139746 0.967988) (xy -3.141532 0.976771) (xy -3.153009 0.990426) (xy -3.184002 1.014991)
    (xy -3.221267 1.031388) (xy -3.260656 1.038749) (xy -3.298017 1.036208) (xy -3.324115 1.026193)
    (xy -3.346514 1.006945) (xy -3.362817 0.981702) (xy -3.369234 0.956359) (xy -3.369236 0.955999)
    (xy -3.370241 0.947765) (xy -3.374883 0.947045) (xy -3.385604 0.954857) (xy -3.402111 0.969694)
    (xy -3.442289 1.001945) (xy -3.48204 1.022553) (xy -3.526504 1.033742) (xy -3.557526 1.036854)
    (xy -3.589136 1.038057) (xy -3.610878 1.036615) (xy -3.627698 1.031801) (xy -3.641997 1.024411)
    (xy -3.659412 1.014559) (xy -3.670646 1.008992) (xy -3.672222 1.008529) (xy -3.675471 1.015636)
    (xy -3.674307 1.036964) (xy -3.668726 1.07253) (xy -3.658728 1.122347) (xy -3.653118 1.147938)
    (xy -3.641771 1.201621) (xy -3.634692 1.243363) (xy -3.631787 1.275515) (xy -3.632961 1.300425)
    (xy -3.638118 1.320442) (xy -3.645566 1.335368) (xy -3.664526 1.354969) (xy -3.688019 1.361099)
    (xy -3.714143 1.353772) (xy -3.739337 1.334687) (xy -3.755817 1.314842) (xy -3.767443 1.294769)
    (xy -3.76959 1.288634) (xy -3.770677 1.273391) (xy -3.769837 1.246923) (xy -3.767279 1.212793)
    (xy -3.763213 1.174565) (xy -3.762623 1.169785) (xy -3.759441 1.142627) (xy -3.756975 1.116425)
    (xy -3.755205 1.089227) (xy -3.754106 1.059081) (xy -3.753657 1.024035) (xy -3.753837 0.982136)
    (xy -3.754621 0.931432) (xy -3.75599 0.869971) (xy -3.757919 0.795802) (xy -3.758229 0.784412)
    (xy -3.760108 0.718218) (xy -3.762033 0.654974) (xy -3.763934 0.596651) (xy -3.765742 0.545218)
    (xy -3.767388 0.502648) (xy -3.768801 0.470911) (xy -3.769912 0.451977) (xy -3.769988 0.451054)
    (xy -3.773878 0.405314) (xy -3.715366 0.397915) (xy -3.687436 0.394832) (xy -3.66571 0.393276)
    (xy -3.654016 0.393496)) (layer F.SilkS) (width 0.01))
  (fp_poly (pts (xy 1.022226 0.392527) (xy 1.024476 0.399454) (xy 1.026333 0.413302) (xy 1.027859 0.435337)
    (xy 1.029112 0.466825) (xy 1.030152 0.509033) (xy 1.031041 0.563226) (xy 1.031837 0.630672)
    (xy 1.032093 0.656346) (xy 1.032801 0.726936) (xy 1.033496 0.784139) (xy 1.034277 0.829509)
    (xy 1.035241 0.864601) (xy 1.036485 0.890969) (xy 1.038109 0.910166) (xy 1.040209 0.923747)
    (xy 1.042884 0.933266) (xy 1.046232 0.940276) (xy 1.05035 0.946333) (xy 1.050367 0.946356)
    (xy 1.071165 0.965177) (xy 1.094442 0.969288) (xy 1.11853 0.959559) (xy 1.132635 0.951385)
    (xy 1.140743 0.952081) (xy 1.147963 0.960387) (xy 1.153393 0.971478) (xy 1.14945 0.982222)
    (xy 1.141115 0.991984) (xy 1.109715 1.016384) (xy 1.071375 1.032279) (xy 1.03055 1.03875)
    (xy 0.991697 1.03488) (xy 0.970931 1.027079) (xy 0.950892 1.010962) (xy 0.934728 0.98808)
    (xy 0.926634 0.964712) (xy 0.926353 0.960342) (xy 0.924778 0.951222) (xy 0.91868 0.950603)
    (xy 0.905993 0.959259) (xy 0.888374 0.974588) (xy 0.847806 1.005718) (xy 0.806042 1.0252)
    (xy 0.757903 1.035178) (xy 0.738063 1.036854) (xy 0.706452 1.038057) (xy 0.684711 1.036615)
    (xy 0.66789 1.031801) (xy 0.653592 1.024411) (xy 0.635903 1.014533) (xy 0.624113 1.008975)
    (xy 0.622338 1.008529) (xy 0.620203 1.015389) (xy 0.621197 1.03435) (xy 0.624962 1.062986)
    (xy 0.631138 1.098871) (xy 0.639365 1.139578) (xy 0.64635 1.170481) (xy 0.654153 1.206275)
    (xy 0.660335 1.239899) (xy 0.664103 1.266732) (xy 0.664882 1.278504) (xy 0.65983 1.314395)
    (xy 0.646127 1.340739) (xy 0.625953 1.356432) (xy 0.601487 1.360367) (xy 0.574909 1.351438)
    (xy 0.554019 1.334734) (xy 0.540679 1.318875) (xy 0.531643 1.301743) (xy 0.526621 1.280763)
    (xy 0.525325 1.253358) (xy 0.527468 1.216952) (xy 0.532759 1.168968) (xy 0.53419 1.157605)
    (xy 0.538773 1.11895) (xy 0.54177 1.085087) (xy 0.543253 1.052199) (xy 0.543291 1.016471)
    (xy 0.541957 0.974089) (xy 0.539323 0.921237) (xy 0.538789 0.911619) (xy 0.536143 0.858424)
    (xy 0.533538 0.795244) (xy 0.531144 0.727034) (xy 0.529134 0.65875) (xy 0.527678 0.595348)
    (xy 0.527498 0.58536) (xy 0.524381 0.404985) (xy 0.581558 0.39775) (xy 0.609075 0.394662)
    (xy 0.630276 0.393022) (xy 0.641321 0.393108) (xy 0.64199 0.393371) (xy 0.642882 0.401248)
    (xy 0.64393 0.422317) (xy 0.645084 0.45483) (xy 0.646291 0.497039) (xy 0.647501 0.547196)
    (xy 0.648663 0.603553) (xy 0.64946 0.648216) (xy 0.650626 0.716269) (xy 0.65169 0.771037)
    (xy 0.652779 0.814174) (xy 0.654021 0.847333) (xy 0.655543 0.872168) (xy 0.657473 0.890333)
    (xy 0.659937 0.903482) (xy 0.663064 0.91327) (xy 0.66698 0.921349) (xy 0.671005 0.928077)
    (xy 0.69478 0.95367) (xy 0.725825 0.966948) (xy 0.762941 0.967907) (xy 0.80493 0.956541)
    (xy 0.850595 0.932846) (xy 0.856772 0.928839) (xy 0.87355 0.91782) (xy 0.887006 0.908263)
    (xy 0.897504 0.898458) (xy 0.905411 0.886691) (xy 0.911092 0.871253) (xy 0.914912 0.85043)
    (xy 0.917238 0.822512) (xy 0.918434 0.785788) (xy 0.918866 0.738544) (xy 0.918901 0.679072)
    (xy 0.918882 0.638038) (xy 0.918882 0.405342) (xy 0.96421 0.400213) (xy 0.990042 0.396868)
    (xy 1.010541 0.393453) (xy 1.019524 0.391253) (xy 1.022226 0.392527)) (layer F.SilkS) (width 0.01))
  (fp_poly (pts (xy -2.536724 0.081406) (xy -2.528795 0.082499) (xy -2.508349 0.08635) (xy -2.479507 0.092974)
    (xy -2.4454 0.101513) (xy -2.409157 0.111112) (xy -2.37391 0.120913) (xy -2.342789 0.130062)
    (xy -2.318924 0.137702) (xy -2.305446 0.142976) (xy -2.303833 0.144031) (xy -2.301833 0.151949)
    (xy -2.2983 0.171389) (xy -2.293742 0.199071) (xy -2.288667 0.231716) (xy -2.283581 0.266046)
    (xy -2.278994 0.298779) (xy -2.275413 0.326638) (xy -2.27495 0.330574) (xy -2.269984 0.373529)
    (xy -2.292933 0.373529) (xy -2.310576 0.370483) (xy -2.315883 0.363189) (xy -2.319071 0.352184)
    (xy -2.327588 0.331606) (xy -2.339865 0.305135) (xy -2.345742 0.293191) (xy -2.381977 0.234591)
    (xy -2.426041 0.188584) (xy -2.478704 0.154594) (xy -2.540736 0.132046) (xy -2.569472 0.125901)
    (xy -2.633543 0.121794) (xy -2.695069 0.132035) (xy -2.753057 0.156111) (xy -2.806515 0.19351)
    (xy -2.85445 0.24372) (xy -2.886092 0.289333) (xy -2.911278 0.33567) (xy -2.92907 0.380981)
    (xy -2.940651 0.429648) (xy -2.947204 0.486057) (xy -2.949128 0.522941) (xy -2.947362 0.612241)
    (xy -2.935117 0.691649) (xy -2.912019 0.762277) (xy -2.877699 0.825236) (xy -2.831784 0.881639)
    (xy -2.827786 0.885712) (xy -2.802088 0.909369) (xy -2.775118 0.930684) (xy -2.752039 0.945635)
    (xy -2.748689 0.947343) (xy -2.689333 0.967819) (xy -2.625333 0.975656) (xy -2.559087 0.971395)
    (xy -2.492992 0.955574) (xy -2.429446 0.928734) (xy -2.370849 0.891412) (xy -2.32744 0.852604)
    (xy -2.303703 0.831196) (xy -2.28512 0.822671) (xy -2.27017 0.826548) (xy -2.263985 0.832493)
    (xy -2.259284 0.842933) (xy -2.262359 0.85569) (xy -2.274371 0.872569) (xy -2.296486 0.895371)
    (xy -2.316573 0.913993) (xy -2.363081 0.950322) (xy -2.41704 0.983186) (xy -2.473078 1.009686)
    (xy -2.525823 1.026924) (xy -2.525911 1.026945) (xy -2.555633 1.031756) (xy -2.59511 1.035181)
    (xy -2.63921 1.037072) (xy -2.682797 1.037278) (xy -2.720737 1.035649) (xy -2.741706 1.033251)
    (xy -2.813818 1.013817) (xy -2.880947 0.981274) (xy -2.941085 0.937128) (xy -2.992224 0.882886)
    (xy -3.032357 0.820054) (xy -3.03621 0.812275) (xy -3.059052 0.757835) (xy -3.074304 0.703504)
    (xy -3.082906 0.644676) (xy -3.085798 0.576742) (xy -3.085809 0.569007) (xy -3.080278 0.481082)
    (xy -3.063675 0.402112) (xy -3.035472 0.330466) (xy -2.99514 0.264512) (xy -2.981329 0.246503)
    (xy -2.923796 0.185579) (xy -2.859705 0.138043) (xy -2.789005 0.103876) (xy -2.711643 0.083061)
    (xy -2.627567 0.075577) (xy -2.536724 0.081406)) (layer F.SilkS) (width 0.01))
  (fp_poly (pts (xy -1.411533 0.091141) (xy -1.359324 0.091246) (xy -1.320203 0.091534) (xy -1.292318 0.092199)
    (xy -1.273818 0.093433) (xy -1.26285 0.09543) (xy -1.25756 0.098382) (xy -1.256098 0.102481)
    (xy -1.256519 0.107277) (xy -1.262168 0.1188) (xy -1.277375 0.126963) (xy -1.292412 0.131163)
    (xy -1.32316 0.139394) (xy -1.342878 0.147637) (xy -1.355353 0.157856) (xy -1.361723 0.167099)
    (xy -1.364398 0.176907) (xy -1.36678 0.196973) (xy -1.368906 0.22809) (xy -1.370812 0.27105)
    (xy -1.372532 0.326646) (xy -1.374103 0.39567) (xy -1.375431 0.470647) (xy -1.376769 0.54972)
    (xy -1.378176 0.615547) (xy -1.37986 0.669823) (xy -1.382029 0.714242) (xy -1.384892 0.750501)
    (xy -1.388655 0.780294) (xy -1.393529 0.805314) (xy -1.399719 0.827259) (xy -1.407435 0.847821)
    (xy -1.416884 0.868696) (xy -1.426727 0.88853) (xy -1.45876 0.938882) (xy -1.498764 0.978385)
    (xy -1.547624 1.00748) (xy -1.606223 1.026606) (xy -1.675444 1.036205) (xy -1.725706 1.037551)
    (xy -1.760688 1.03653) (xy -1.793496 1.034349) (xy -1.818842 1.031405) (xy -1.825899 1.030057)
    (xy -1.86264 1.017762) (xy -1.903502 0.998383) (xy -1.942369 0.975209) (xy -1.973127 0.951529)
    (xy -1.974749 0.950004) (xy -1.995607 0.926302) (xy -2.015463 0.897785) (xy -2.022564 0.885265)
    (xy -2.032381 0.865614) (xy -2.040516 0.847377) (xy -2.047154 0.828914) (xy -2.052479 0.808589)
    (xy -2.056675 0.784763) (xy -2.059928 0.755801) (xy -2.062421 0.720063) (xy -2.064339 0.675913)
    (xy -2.065866 0.621714) (xy -2.067187 0.555827) (xy -2.068469 0.477773) (xy -2.069647 0.39849)
    (xy -2.070727 0.332805) (xy -2.072081 0.27938) (xy -2.074087 0.236879) (xy -2.077118 0.203966)
    (xy -2.08155 0.179302) (xy -2.087758 0.161553) (xy -2.096117 0.149381) (xy -2.107001 0.14145)
    (xy -2.120786 0.136423) (xy -2.137846 0.132964) (xy -2.158558 0.129735) (xy -2.166471 0.128457)
    (xy -2.188032 0.123435) (xy -2.198066 0.116483) (xy -2.200089 0.108117) (xy -2.199545 0.103627)
    (xy -2.19678 0.10014) (xy -2.190095 0.097517) (xy -2.17779 0.095617) (xy -2.158167 0.094299)
    (xy -2.129527 0.093422) (xy -2.09017 0.092847) (xy -2.038396 0.092432) (xy -2.00824 0.092246)
    (xy -1.946326 0.092051) (xy -1.898005 0.092324) (xy -1.86193 0.09312) (xy -1.836759 0.094495)
    (xy -1.821148 0.096505) (xy -1.813752 0.099207) (xy -1.812828 0.100394) (xy -1.812486 0.113506)
    (xy -1.824162 0.122626) (xy -1.849162 0.128681) (xy -1.853623 0.129313) (xy -1.88916 0.136071)
    (xy -1.91285 0.1463) (xy -1.92771 0.16194) (xy -1.936063 0.182379) (xy -1.938812 0.20041)
    (xy -1.941097 0.233098) (xy -1.942909 0.280165) (xy -1.944238 0.341334) (xy -1.945077 0.416328)
    (xy -1.945361 0.474382) (xy -1.945481 0.545788) (xy -1.945356 0.603991) (xy -1.944917 0.650728)
    (xy -1.944092 0.687737) (xy -1.942814 0.716755) (xy -1.94101 0.73952) (xy -1.938612 0.757768)
    (xy -1.935548 0.773236) (xy -1.932893 0.783626) (xy -1.912573 0.842287) (xy -1.886418 0.889081)
    (xy -1.852396 0.92659) (xy -1.808474 0.957395) (xy -1.787209 0.968649) (xy -1.761145 0.979755)
    (xy -1.736215 0.985549) (xy -1.705586 0.987389) (xy -1.693046 0.987359) (xy -1.629431 0.980709)
    (xy -1.57509 0.962349) (xy -1.53003 0.932284) (xy -1.494258 0.890519) (xy -1.479466 0.864455)
    (xy -1.468344 0.840605) (xy -1.459207 0.817489) (xy -1.451863 0.793353) (xy -1.446119 0.76644)
    (xy -1.441782 0.734998) (xy -1.438661 0.697271) (xy -1.436563 0.651505) (xy -1.435295 0.595945)
    (xy -1.434665 0.528836) (xy -1.434483 0.454325) (xy -1.434655 0.389786) (xy -1.435208 0.330669)
    (xy -1.4361 0.278668) (xy -1.437289 0.235474) (xy -1.43873 0.202779) (xy -1.440383 0.182274)
    (xy -1.441503 0.176403) (xy -1.457365 0.155491) (xy -1.486645 0.140051) (xy -1.528739 0.130397)
    (xy -1.530303 0.130185) (xy -1.553122 0.12633) (xy -1.564667 0.121237) (xy -1.56858 0.112811)
    (xy -1.568824 0.108006) (xy -1.568824 0.090938) (xy -1.411533 0.091141)) (layer F.SilkS) (width 0.01))
  (fp_poly (pts (xy -0.388211 0.09296) (xy -0.368801 0.096036) (xy -0.31761 0.111729) (xy -0.278419 0.135056)
    (xy -0.25115 0.164857) (xy -0.235723 0.199974) (xy -0.232056 0.239248) (xy -0.240072 0.28152)
    (xy -0.259689 0.325632) (xy -0.290828 0.370426) (xy -0.333409 0.414741) (xy -0.387352 0.45742)
    (xy -0.394017 0.461993) (xy -0.44065 0.493538) (xy -0.420795 0.525048) (xy -0.409149 0.542662)
    (xy -0.390948 0.5692) (xy -0.368424 0.601502) (xy -0.343808 0.636407) (xy -0.319334 0.670757)
    (xy -0.297233 0.70139) (xy -0.279737 0.725147) (xy -0.275379 0.730908) (xy -0.262021 0.748375)
    (xy -0.227278 0.694668) (xy -0.201167 0.652725) (xy -0.17732 0.611464) (xy -0.156923 0.57322)
    (xy -0.141162 0.540331) (xy -0.131219 0.515131) (xy -0.128281 0.499957) (xy -0.12833 0.499563)
    (xy -0.134019 0.484967) (xy -0.147847 0.475196) (xy -0.172812 0.468411) (xy -0.181626 0.466888)
    (xy -0.200264 0.462494) (xy -0.207603 0.455563) (xy -0.207773 0.44618) (xy -0.206453 0.440407)
    (xy -0.203021 0.436201) (xy -0.195393 0.433308) (xy -0.181487 0.431476) (xy -0.159219 0.430451)
    (xy -0.126505 0.429981) (xy -0.081263 0.429812) (xy -0.072839 0.429796) (xy -0.02545 0.429763)
    (xy 0.009045 0.430024) (xy 0.032692 0.430825) (xy 0.04754 0.432412) (xy 0.055636 0.435034)
    (xy 0.059025 0.438936) (xy 0.059757 0.444364) (xy 0.059764 0.445774) (xy 0.055377 0.458825)
    (xy 0.040001 0.465769) (xy 0.037353 0.466318) (xy 0.012598 0.471091) (xy -0.006533 0.47477)
    (xy -0.017258 0.477629) (xy -0.027388 0.482816) (xy -0.038061 0.491811) (xy -0.050419 0.506095)
    (xy -0.065601 0.527148) (xy -0.084746 0.556452) (xy -0.108997 0.595486) (xy -0.139491 0.645731)
    (xy -0.144282 0.653676) (xy -0.229837 0.795618) (xy -0.192601 0.849527) (xy -0.16013 0.892837)
    (xy -0.129228 0.92695) (xy -0.101273 0.950592) (xy -0.077639 0.96249) (xy -0.06927 0.963678)
    (xy -0.040861 0.9571) (xy -0.01205 0.939431) (xy 0.012567 0.913662) (xy 0.016574 0.907812)
    (xy 0.032989 0.888386) (xy 0.048307 0.883258) (xy 0.048482 0.88328) (xy 0.061245 0.888654)
    (xy 0.064216 0.900915) (xy 0.057212 0.921324) (xy 0.040049 0.951139) (xy 0.038193 0.954029)
    (xy 0.006994 0.99448) (xy -0.026121 1.02106) (xy -0.063001 1.034843) (xy -0.104913 1.036942)
    (xy -0.141393 1.030505) (xy -0.174277 1.015702) (xy -0.206188 0.990801) (xy -0.23975 0.954068)
    (xy -0.250158 0.940965) (xy -0.287618 0.892638) (xy -0.336177 0.941879) (xy -0.378728 0.980833)
    (xy -0.419344 1.007907) (xy -0.462066 1.024916) (xy -0.510936 1.033674) (xy -0.545353 1.035735)
    (xy -0.579202 1.035991) (xy -0.609799 1.035023) (xy -0.63239 1.03303) (xy -0.638736 1.031836)
    (xy -0.69414 1.011349) (xy -0.743138 0.981406) (xy -0.783027 0.944066) (xy -0.811102 0.901387)
    (xy -0.811659 0.900206) (xy -0.823338 0.863151) (xy -0.829072 0.81835) (xy -0.82898 0.810772)
    (xy -0.709706 0.810772) (xy -0.703385 0.863609) (xy -0.685607 0.909285) (xy -0.658152 0.94662)
    (xy -0.622798 0.974434) (xy -0.581325 0.991547) (xy -0.535513 0.99678) (xy -0.48714 0.988953)
    (xy -0.458 0.977676) (xy -0.438965 0.96535) (xy -0.414126 0.944894) (xy -0.387077 0.91979)
    (xy -0.361416 0.893519) (xy -0.340739 0.869565) (xy -0.329614 0.853342) (xy -0.328288 0.84522)
    (xy -0.332353 0.833109) (xy -0.342944 0.814967) (xy -0.361192 0.788754) (xy -0.378352 0.765545)
    (xy -0.405947 0.728123) (xy -0.435869 0.686573) (xy -0.46386 0.646848) (xy -0.479703 0.623794)
    (xy -0.498787 0.595765) (xy -0.515054 0.572193) (xy -0.52652 0.555929) (xy -0.530872 0.550134)
    (xy -0.539723 0.550526) (xy -0.556797 0.558988) (xy -0.579174 0.573637) (xy -0.603935 0.592587)
    (xy -0.62469 0.610683) (xy -0.660999 0.653948) (xy -0.688416 0.706179) (xy -0.705169 0.763205)
    (xy -0.709706 0.810772) (xy -0.82898 0.810772) (xy -0.828506 0.771911) (xy -0.821496 0.730697)
    (xy -0.80548 0.694898) (xy -0.777451 0.656038) (xy -0.739441 0.616143) (xy -0.693487 0.577238)
    (xy -0.641623 0.541348) (xy -0.616195 0.526327) (xy -0.592894 0.513002) (xy -0.575731 0.502624)
    (xy -0.567929 0.497156) (xy -0.567765 0.496869) (xy -0.570781 0.489554) (xy -0.578881 0.471871)
    (xy -0.590637 0.446901) (xy -0.598173 0.431123) (xy -0.62271 0.371474) (xy -0.636815 0.31718)
    (xy -0.640119 0.270529) (xy -0.525871 0.270529) (xy -0.519597 0.316984) (xy -0.509723 0.353903)
    (xy -0.498345 0.387562) (xy -0.486659 0.415139) (xy -0.475861 0.433813) (xy -0.46715 0.440764)
    (xy -0.467076 0.440765) (xy -0.457806 0.435658) (xy -0.441786 0.422172) (xy -0.422236 0.403054)
    (xy -0.419226 0.3999) (xy -0.390502 0.364723) (xy -0.365973 0.325589) (xy -0.347647 0.286452)
    (xy -0.337533 0.251263) (xy -0.336183 0.236453) (xy -0.342105 0.197291) (xy -0.358799 0.166101)
    (xy -0.384633 0.144706) (xy -0.417976 0.134933) (xy -0.427321 0.13452) (xy -0.461598 0.141249)
    (xy -0.489525 0.160058) (xy -0.510167 0.189103) (xy -0.522593 0.226541) (xy -0.525871 0.270529)
    (xy -0.640119 0.270529) (xy -0.640166 0.269867) (xy -0.635795 0.241241) (xy -0.615878 0.19581)
    (xy -0.584327 0.156984) (xy -0.543464 0.126023) (xy -0.49561 0.104191) (xy -0.443085 0.092749)
    (xy -0.388211 0.09296)) (layer F.SilkS) (width 0.01))
  (fp_poly (pts (xy 2.480825 0.081179) (xy 2.56931 0.097487) (xy 2.636619 0.115957) (xy 2.669968 0.126339)
    (xy 2.697666 0.135226) (xy 2.716832 0.141675) (xy 2.724585 0.144742) (xy 2.724587 0.144745)
    (xy 2.726569 0.152675) (xy 2.730063 0.172182) (xy 2.734589 0.200033) (xy 2.739669 0.232998)
    (xy 2.744822 0.267844) (xy 2.749568 0.301341) (xy 2.753429 0.330256) (xy 2.755923 0.351358)
    (xy 2.756612 0.360456) (xy 2.751111 0.370975) (xy 2.737736 0.373529) (xy 2.720714 0.368617)
    (xy 2.714294 0.360456) (xy 2.683647 0.290719) (xy 2.644203 0.232269) (xy 2.596523 0.185626)
    (xy 2.541162 0.151307) (xy 2.478681 0.129833) (xy 2.463075 0.126716) (xy 2.397198 0.122213)
    (xy 2.334931 0.131851) (xy 2.276978 0.155114) (xy 2.224046 0.191488) (xy 2.176839 0.240457)
    (xy 2.136062 0.301505) (xy 2.102423 0.374118) (xy 2.094552 0.395941) (xy 2.088734 0.416031)
    (xy 2.084752 0.438321) (xy 2.082324 0.466011) (xy 2.081165 0.502301) (xy 2.080987 0.549088)
    (xy 2.081407 0.594433) (xy 2.082564 0.628559) (xy 2.084897 0.655185) (xy 2.088849 0.678031)
    (xy 2.094861 0.700815) (xy 2.101451 0.721498) (xy 2.130974 0.791743) (xy 2.169024 0.851943)
    (xy 2.214518 0.901293) (xy 2.266377 0.938989) (xy 2.323517 0.964228) (xy 2.384857 0.976206)
    (xy 2.442571 0.975007) (xy 2.513328 0.962269) (xy 2.574392 0.941377) (xy 2.629555 0.910609)
    (xy 2.682608 0.868244) (xy 2.687305 0.863901) (xy 2.71154 0.842103) (xy 2.728493 0.829464)
    (xy 2.741093 0.824237) (xy 2.75227 0.824676) (xy 2.752872 0.824823) (xy 2.766703 0.831297)
    (xy 2.770127 0.842014) (xy 2.762672 0.858133) (xy 2.743867 0.880811) (xy 2.720595 0.904206)
    (xy 2.668728 0.947026) (xy 2.609645 0.984029) (xy 2.548258 1.012459) (xy 2.501795 1.026945)
    (xy 2.452327 1.034743) (xy 2.394809 1.037723) (xy 2.335306 1.035972) (xy 2.27988 1.02958)
    (xy 2.250154 1.023305) (xy 2.181929 0.999954) (xy 2.123749 0.967617) (xy 2.072559 0.924504)
    (xy 2.060808 0.912173) (xy 2.014391 0.852064) (xy 1.979809 0.785477) (xy 1.956655 0.711234)
    (xy 1.944522 0.628155) (xy 1.942353 0.569353) (xy 1.948579 0.478867) (xy 1.967401 0.39617)
    (xy 1.99903 0.320691) (xy 2.043679 0.251858) (xy 2.073004 0.217543) (xy 2.122819 0.170275)
    (xy 2.174346 0.134682) (xy 2.23215 0.107773) (xy 2.250375 0.101289) (xy 2.322847 0.083136)
    (xy 2.399167 0.076414) (xy 2.480825 0.081179)) (layer F.SilkS) (width 0.01))
  (fp_poly (pts (xy 1.561353 0.108157) (xy 1.559488 0.118254) (xy 1.551484 0.124233) (xy 1.53372 0.128072)
    (xy 1.522238 0.129551) (xy 1.482393 0.139228) (xy 1.45479 0.157402) (xy 1.439522 0.183535)
    (xy 1.437608 0.197271) (xy 1.435984 0.224043) (xy 1.434644 0.261981) (xy 1.433584 0.309218)
    (xy 1.432801 0.363882) (xy 1.43229 0.424106) (xy 1.432047 0.48802) (xy 1.432068 0.553754)
    (xy 1.432349 0.619439) (xy 1.432885 0.683205) (xy 1.433673 0.743184) (xy 1.434708 0.797507)
    (xy 1.435986 0.844303) (xy 1.437502 0.881703) (xy 1.439254 0.907839) (xy 1.441164 0.920633)
    (xy 1.450428 0.943188) (xy 1.462591 0.959131) (xy 1.480187 0.969553) (xy 1.505749 0.975544)
    (xy 1.541811 0.978195) (xy 1.575945 0.978647) (xy 1.631974 0.977334) (xy 1.67611 0.972835)
    (xy 1.711215 0.964308) (xy 1.740152 0.95091) (xy 1.765785 0.931799) (xy 1.779207 0.918862)
    (xy 1.814519 0.872122) (xy 1.83077 0.837045) (xy 1.840786 0.811823) (xy 1.848931 0.798182)
    (xy 1.857299 0.793298) (xy 1.86318 0.793379) (xy 1.872594 0.796712) (xy 1.877194 0.805821)
    (xy 1.878508 0.824657) (xy 1.878488 0.832971) (xy 1.877016 0.856385) (xy 1.873348 0.889349)
    (xy 1.868104 0.92674) (xy 1.864207 0.950632) (xy 1.850291 1.030941) (xy 1.515087 1.030941)
    (xy 1.434263 1.030884) (xy 1.367145 1.030688) (xy 1.3125 1.030312) (xy 1.269093 1.029718)
    (xy 1.23569 1.028866) (xy 1.211056 1.027716) (xy 1.193958 1.026229) (xy 1.183161 1.024365)
    (xy 1.177431 1.022086) (xy 1.175721 1.020093) (xy 1.175116 1.004524) (xy 1.187799 0.995723)
    (xy 1.20718 0.993588) (xy 1.239317 0.9892) (xy 1.268466 0.977554) (xy 1.289524 0.960926)
    (xy 1.293678 0.955) (xy 1.296032 0.948056) (xy 1.298006 0.93544) (xy 1.29963 0.916033)
    (xy 1.300931 0.888716) (xy 1.301939 0.852371) (xy 1.302683 0.80588) (xy 1.30319 0.748124)
    (xy 1.30349 0.677984) (xy 1.303611 0.594343) (xy 1.303617 0.567765) (xy 1.303504 0.494179)
    (xy 1.303179 0.424646) (xy 1.302665 0.360695) (xy 1.301984 0.303854) (xy 1.301158 0.255651)
    (xy 1.300211 0.217614) (xy 1.299164 0.191271) (xy 1.29804 0.178152) (xy 1.297896 0.177521)
    (xy 1.286161 0.156014) (xy 1.263825 0.140795) (xy 1.229219 0.130859) (xy 1.217398 0.128928)
    (xy 1.193405 0.124555) (xy 1.180984 0.119194) (xy 1.176779 0.111142) (xy 1.176617 0.108221)
    (xy 1.177138 0.103705) (xy 1.179832 0.1002) (xy 1.186396 0.097566) (xy 1.198529 0.095662)
    (xy 1.217927 0.09435) (xy 1.246287 0.093489) (xy 1.285308 0.09294) (xy 1.336686 0.092564)
    (xy 1.368985 0.092389) (xy 1.561353 0.091395) (xy 1.561353 0.108157)) (layer F.SilkS) (width 0.01))
  (fp_poly (pts (xy 3.270445 0.091221) (xy 3.308187 0.092097) (xy 3.338199 0.093536) (xy 3.362284 0.095596)
    (xy 3.382244 0.098335) (xy 3.397525 0.101287) (xy 3.472568 0.125102) (xy 3.543783 0.161971)
    (xy 3.609164 0.21012) (xy 3.666711 0.267775) (xy 3.71442 0.33316) (xy 3.750287 0.404501)
    (xy 3.755576 0.418522) (xy 3.769247 0.470245) (xy 3.777512 0.53079) (xy 3.780125 0.594958)
    (xy 3.776841 0.657549) (xy 3.769178 0.705851) (xy 3.745457 0.78132) (xy 3.710041 0.847556)
    (xy 3.663151 0.904341) (xy 3.605009 0.951459) (xy 3.535833 0.988691) (xy 3.455845 1.01582)
    (xy 3.454639 1.01613) (xy 3.438293 1.020029) (xy 3.421696 1.023183) (xy 3.403097 1.02567)
    (xy 3.380744 1.027567) (xy 3.352889 1.028953) (xy 3.31778 1.029904) (xy 3.273666 1.0305)
    (xy 3.218797 1.030817) (xy 3.151423 1.030933) (xy 3.121276 1.030941) (xy 3.048551 1.030869)
    (xy 2.989408 1.030616) (xy 2.942485 1.03013) (xy 2.906425 1.029359) (xy 2.879867 1.028249)
    (xy 2.861451 1.026748) (xy 2.849818 1.024803) (xy 2.843609 1.022362) (xy 2.841662 1.020093)
    (xy 2.840039 1.007356) (xy 2.848301 0.998916) (xy 2.868474 0.99337) (xy 2.883215 0.991297)
    (xy 2.918153 0.984871) (xy 2.941432 0.974396) (xy 2.956142 0.958219) (xy 2.960151 0.950178)
    (xy 2.962302 0.937793) (xy 2.964296 0.912321) (xy 2.966115 0.875613) (xy 2.96774 0.829522)
    (xy 2.969154 0.775902) (xy 2.970338 0.716605) (xy 2.971274 0.653483) (xy 2.971576 0.624041)
    (xy 3.095377 0.624041) (xy 3.095542 0.681693) (xy 3.096047 0.733525) (xy 3.096916 0.77746)
    (xy 3.098174 0.811424) (xy 3.098218 0.812265) (xy 3.101436 0.864662) (xy 3.105391 0.904231)
    (xy 3.110945 0.933087) (xy 3.118957 0.953342) (xy 3.130289 0.96711) (xy 3.145801 0.976504)
    (xy 3.166355 0.983638) (xy 3.168229 0.98417) (xy 3.199028 0.989327) (xy 3.239898 0.991295)
    (xy 3.286364 0.990301) (xy 3.33395 0.986573) (xy 3.378181 0.980337) (xy 3.414583 0.971821)
    (xy 3.415178 0.971635) (xy 3.47926 0.944374) (xy 3.534702 0.905975) (xy 3.580154 0.857758)
    (xy 3.614267 0.801041) (xy 3.628906 0.762913) (xy 3.635587 0.731001) (xy 3.640024 0.688364)
    (xy 3.642221 0.639051) (xy 3.642184 0.587108) (xy 3.639914 0.536584) (xy 3.635416 0.491524)
    (xy 3.628693 0.455978) (xy 3.628621 0.455706) (xy 3.600973 0.377545) (xy 3.562678 0.307987)
    (xy 3.514722 0.2481) (xy 3.45809 0.198951) (xy 3.393767 0.161609) (xy 3.338421 0.141231)
    (xy 3.316389 0.137095) (xy 3.284717 0.133766) (xy 3.248705 0.13173) (xy 3.231029 0.131353)
    (xy 3.195559 0.131441) (xy 3.171292 0.132809) (xy 3.154505 0.136067) (xy 3.141475 0.141821)
    (xy 3.133014 0.147362) (xy 3.11495 0.165626) (xy 3.105336 0.185834) (xy 3.103496 0.202441)
    (xy 3.101784 0.231913) (xy 3.100224 0.272174) (xy 3.098839 0.321148) (xy 3.097654 0.376758)
    (xy 3.096692 0.436928) (xy 3.095976 0.499583) (xy 3.09553 0.562646) (xy 3.095377 0.624041)
    (xy 2.971576 0.624041) (xy 2.971943 0.58839) (xy 2.972328 0.523177) (xy 2.972411 0.459699)
    (xy 2.972173 0.399806) (xy 2.971596 0.345352) (xy 2.970662 0.29819) (xy 2.969353 0.260173)
    (xy 2.96765 0.233152) (xy 2.967224 0.228898) (xy 2.961804 0.191379) (xy 2.955214 0.164632)
    (xy 2.948323 0.151122) (xy 2.935097 0.143728) (xy 2.91239 0.136183) (xy 2.889648 0.131021)
    (xy 2.86339 0.125487) (xy 2.848918 0.119878) (xy 2.843146 0.112681) (xy 2.842558 0.107944)
    (xy 2.843056 0.104) (xy 2.845541 0.100823) (xy 2.851502 0.098315) (xy 2.862426 0.096377)
    (xy 2.8798 0.094909) (xy 2.905114 0.093815) (xy 2.939855 0.092995) (xy 2.985511 0.092351)
    (xy 3.04357 0.091785) (xy 3.092823 0.091378) (xy 3.164565 0.09092) (xy 3.223172 0.090848)
    (xy 3.270445 0.091221)) (layer F.SilkS) (width 0.01))
  (fp_poly (pts (xy -1.172332 -1.348494) (xy -1.126477 -1.348062) (xy -1.087466 -1.347213) (xy -1.057479 -1.345923)
    (xy -1.038693 -1.344165) (xy -1.03662 -1.343787) (xy -0.974466 -1.324256) (xy -0.922229 -1.294139)
    (xy -0.880538 -1.253941) (xy -0.850023 -1.204167) (xy -0.843695 -1.188922) (xy -0.830664 -1.134124)
    (xy -0.83082 -1.077224) (xy -0.843178 -1.020842) (xy -0.866749 -0.967597) (xy -0.900547 -0.92011)
    (xy -0.943583 -0.881) (xy -0.964908 -0.867283) (xy -1.000434 -0.846993) (xy -0.906927 -0.6831)
    (xy -0.867758 -0.615876) (xy -0.833844 -0.561134) (xy -0.804207 -0.517775) (xy -0.777868 -0.484701)
    (xy -0.753849 -0.460815) (xy -0.731172 -0.445019) (xy -0.708858 -0.436215) (xy -0.685928 -0.433305)
    (xy -0.684298 -0.433294) (xy -0.669162 -0.428568) (xy -0.664336 -0.41788) (xy -0.670238 -0.406466)
    (xy -0.681692 -0.40065) (xy -0.703451 -0.39763) (xy -0.733368 -0.396776) (xy -0.76484 -0.397957)
    (xy -0.791262 -0.401039) (xy -0.79979 -0.403025) (xy -0.824164 -0.412031) (xy -0.846856 -0.42443)
    (xy -0.869113 -0.441627) (xy -0.89218 -0.465026) (xy -0.917305 -0.49603) (xy -0.945734 -0.536044)
    (xy -0.978713 -0.586471) (xy -1.016587 -0.647247) (xy -1.049432 -0.700235) (xy -1.075779 -0.741444)
    (xy -1.09649 -0.772095) (xy -1.112429 -0.793408) (xy -1.124461 -0.806606) (xy -1.133449 -0.81291)
    (xy -1.133854 -0.813074) (xy -1.150579 -0.81695) (xy -1.177351 -0.820374) (xy -1.209278 -0.822769)
    (xy -1.220268 -0.823241) (xy -1.28633 -0.825504) (xy -1.283649 -0.661149) (xy -1.282235 -0.59749)
    (xy -1.28028 -0.548103) (xy -1.277741 -0.512328) (xy -1.274573 -0.489504) (xy -1.271627 -0.480249)
    (xy -1.257889 -0.466733) (xy -1.232497 -0.455446) (xy -1.194115 -0.445872) (xy -1.172883 -0.442087)
    (xy -1.151337 -0.437166) (xy -1.141305 -0.430287) (xy -1.139265 -0.421882) (xy -1.139797 -0.417432)
    (xy -1.142513 -0.413972) (xy -1.149097 -0.411367) (xy -1.161231 -0.409485) (xy -1.180598 -0.408191)
    (xy -1.20888 -0.407352) (xy -1.247759 -0.406835) (xy -1.298919 -0.406506) (xy -1.334979 -0.406348)
    (xy -1.398524 -0.406278) (xy -1.448322 -0.406677) (xy -1.48556 -0.407595) (xy -1.511426 -0.409079)
    (xy -1.527108 -0.41118) (xy -1.533794 -0.413944) (xy -1.534126 -0.414496) (xy -1.534565 -0.427045)
    (xy -1.523658 -0.436063) (xy -1.499916 -0.442504) (xy -1.487309 -0.444463) (xy -1.456481 -0.450784)
    (xy -1.435185 -0.461605) (xy -1.421395 -0.479531) (xy -1.413086 -0.50717) (xy -1.408315 -0.546119)
    (xy -1.406841 -0.5727) (xy -1.405765 -0.610284) (xy -1.405062 -0.657034) (xy -1.40471 -0.711109)
    (xy -1.404685 -0.77067) (xy -1.404964 -0.833878) (xy -1.405522 -0.898893) (xy -1.406338 -0.963877)
    (xy -1.407386 -1.026989) (xy -1.408021 -1.056975) (xy -1.284942 -1.056975) (xy -1.284942 -0.867334)
    (xy -1.241986 -0.864313) (xy -1.176621 -0.863126) (xy -1.119044 -0.868986) (xy -1.071836 -0.881589)
    (xy -1.06321 -0.885187) (xy -1.023242 -0.911172) (xy -0.99233 -0.948258) (xy -0.971925 -0.994686)
    (xy -0.971386 -0.996576) (xy -0.965853 -1.028236) (xy -0.96374 -1.067813) (xy -0.964781 -1.110771)
    (xy -0.968708 -1.152573) (xy -0.975254 -1.188682) (xy -0.984154 -1.21456) (xy -0.984215 -1.214678)
    (xy -1.013547 -1.255429) (xy -1.052901 -1.286038) (xy -1.100642 -1.305705) (xy -1.155135 -1.313632)
    (xy -1.185415 -1.312865) (xy -1.227824 -1.305708) (xy -1.257553 -1.291813) (xy -1.275475 -1.27073)
    (xy -1.277804 -1.265388) (xy -1.279762 -1.252943) (xy -1.281514 -1.227814) (xy -1.282984 -1.192254)
    (xy -1.284095 -1.148521) (xy -1.284769 -1.098869) (xy -1.284942 -1.056975) (xy -1.408021 -1.056975)
    (xy -1.408644 -1.086391) (xy -1.410089 -1.140243) (xy -1.411696 -1.186707) (xy -1.413443 -1.223942)
    (xy -1.415305 -1.250109) (xy -1.41726 -1.26337) (xy -1.417471 -1.263943) (xy -1.429998 -1.282896)
    (xy -1.449971 -1.295404) (xy -1.480498 -1.303138) (xy -1.493913 -1.304986) (xy -1.519013 -1.31074)
    (xy -1.534357 -1.31996) (xy -1.537963 -1.331006) (xy -1.533584 -1.337909) (xy -1.524159 -1.340062)
    (xy -1.501973 -1.342031) (xy -1.469204 -1.343791) (xy -1.428029 -1.345314) (xy -1.380629 -1.346576)
    (xy -1.32918 -1.347551) (xy -1.275862 -1.348213) (xy -1.222853 -1.348536) (xy -1.172332 -1.348494)) (layer F.SilkS) (width 0.01))
  (fp_poly (pts (xy -0.272398 -1.010557) (xy -0.234442 -1.00475) (xy -0.203604 -0.993662) (xy -0.17612 -0.976131)
    (xy -0.160225 -0.962546) (xy -0.12559 -0.920806) (xy -0.103594 -0.871151) (xy -0.0943 -0.813737)
    (xy -0.093987 -0.803088) (xy -0.093383 -0.750794) (xy -0.145677 -0.746119) (xy -0.169735 -0.744607)
    (xy -0.205371 -0.7432) (xy -0.249222 -0.741989) (xy -0.297926 -0.741067) (xy -0.348119 -0.740526)
    (xy -0.349708 -0.740516) (xy -0.501445 -0.739588) (xy -0.49679 -0.704103) (xy -0.487773 -0.647312)
    (xy -0.476683 -0.602454) (xy -0.462371 -0.56655) (xy -0.443686 -0.53662) (xy -0.423121 -0.513265)
    (xy -0.380668 -0.480086) (xy -0.334593 -0.461058) (xy -0.28605 -0.456173) (xy -0.23619 -0.465427)
    (xy -0.186167 -0.488812) (xy -0.150186 -0.514822) (xy -0.128691 -0.531399) (xy -0.114227 -0.538464)
    (xy -0.103665 -0.537462) (xy -0.102476 -0.536848) (xy -0.091727 -0.52589) (xy -0.089647 -0.518826)
    (xy -0.095715 -0.504876) (xy -0.111959 -0.486279) (xy -0.135441 -0.465547) (xy -0.163223 -0.445189)
    (xy -0.192366 -0.427719) (xy -0.201706 -0.42305) (xy -0.253554 -0.405509) (xy -0.312353 -0.39709)
    (xy -0.373037 -0.398042) (xy -0.430537 -0.408611) (xy -0.439706 -0.411407) (xy -0.470484 -0.423525)
    (xy -0.496692 -0.439606) (xy -0.524277 -0.463452) (xy -0.530291 -0.469299) (xy -0.565191 -0.510361)
    (xy -0.589416 -0.555554) (xy -0.604349 -0.608136) (xy -0.610618 -0.658919) (xy -0.609447 -0.732655)
    (xy -0.598336 -0.787772) (xy -0.493508 -0.787772) (xy -0.364416 -0.790128) (xy -0.320847 -0.791107)
    (xy -0.281534 -0.792335) (xy -0.24932 -0.793696) (xy -0.227046 -0.795073) (xy -0.218515 -0.796061)
    (xy -0.208028 -0.800425) (xy -0.202893 -0.809734) (xy -0.202775 -0.82679) (xy -0.207337 -0.854394)
    (xy -0.209983 -0.867091) (xy -0.224394 -0.905594) (xy -0.248428 -0.938892) (xy -0.278935 -0.96329)
    (xy -0.299644 -0.972305) (xy -0.336214 -0.975916) (xy -0.372979 -0.966357) (xy -0.408044 -0.94525)
    (xy -0.439514 -0.914219) (xy -0.465492 -0.874887) (xy -0.484084 -0.828878) (xy -0.488736 -0.810371)
    (xy -0.493508 -0.787772) (xy -0.598336 -0.787772) (xy -0.595669 -0.800997) (xy -0.569964 -0.862649)
    (xy -0.533012 -0.916316) (xy -0.485491 -0.960699) (xy -0.43703 -0.990289) (xy -0.413724 -1.000921)
    (xy -0.39344 -1.007462) (xy -0.371099 -1.010877) (xy -0.341621 -1.012129) (xy -0.321236 -1.012245)
    (xy -0.272398 -1.010557)) (layer F.SilkS) (width 0.01))
  (fp_poly (pts (xy 0.255728 -1.014076) (xy 0.288689 -1.011834) (xy 0.323491 -1.007945) (xy 0.356984 -1.002903)
    (xy 0.386017 -0.997204) (xy 0.407438 -0.99134) (xy 0.418096 -0.985808) (xy 0.41872 -0.984209)
    (xy 0.418556 -0.974688) (xy 0.41843 -0.953964) (xy 0.41836 -0.925776) (xy 0.418353 -0.912211)
    (xy 0.417879 -0.879271) (xy 0.416132 -0.858392) (xy 0.412623 -0.846717) (xy 0.406864 -0.841385)
    (xy 0.4062 -0.841112) (xy 0.389822 -0.841411) (xy 0.377248 -0.855233) (xy 0.370553 -0.876193)
    (xy 0.356133 -0.915316) (xy 0.330664 -0.946453) (xy 0.296747 -0.967695) (xy 0.256982 -0.977134)
    (xy 0.233737 -0.976622) (xy 0.199358 -0.965867) (xy 0.170636 -0.943947) (xy 0.150541 -0.914131)
    (xy 0.142041 -0.879688) (xy 0.141941 -0.875535) (xy 0.144621 -0.853966) (xy 0.153733 -0.834508)
    (xy 0.170883 -0.815688) (xy 0.197677 -0.796034) (xy 0.235723 -0.774077) (xy 0.274124 -0.754462)
    (xy 0.328511 -0.726405) (xy 0.370277 -0.701515) (xy 0.400941 -0.678126) (xy 0.422021 -0.654576)
    (xy 0.435036 -0.629199) (xy 0.441504 -0.600332) (xy 0.442978 -0.569405) (xy 0.437727 -0.52377)
    (xy 0.421818 -0.4864) (xy 0.393907 -0.455259) (xy 0.352649 -0.428311) (xy 0.348314 -0.426062)
    (xy 0.32276 -0.413681) (xy 0.301655 -0.405879) (xy 0.279786 -0.401488) (xy 0.251937 -0.39934)
    (xy 0.225338 -0.398529) (xy 0.19125 -0.398442) (xy 0.160433 -0.399568) (xy 0.137576 -0.401687)
    (xy 0.130735 -0.40301) (xy 0.109052 -0.407003) (xy 0.081864 -0.409622) (xy 0.07298 -0.409999)
    (xy 0.056827 -0.410708) (xy 0.045431 -0.413405) (xy 0.037879 -0.420359) (xy 0.033255 -0.433836)
    (xy 0.030647 -0.456104) (xy 0.029141 -0.489431) (xy 0.028239 -0.520999) (xy 0.027723 -0.557835)
    (xy 0.028724 -0.582015) (xy 0.03146 -0.59577) (xy 0.036153 -0.60133) (xy 0.036159 -0.601332)
    (xy 0.046591 -0.603046) (xy 0.054785 -0.597194) (xy 0.062725 -0.581313) (xy 0.07061 -0.55854)
    (xy 0.092527 -0.507402) (xy 0.121117 -0.469622) (xy 0.156372 -0.445207) (xy 0.198282 -0.434164)
    (xy 0.21242 -0.433458) (xy 0.245601 -0.438476) (xy 0.279039 -0.452043) (xy 0.307253 -0.471404)
    (xy 0.321937 -0.488476) (xy 0.334679 -0.522703) (xy 0.334266 -0.558686) (xy 0.32138 -0.592539)
    (xy 0.299166 -0.618405) (xy 0.288367 -0.625283) (xy 0.26713 -0.637235) (xy 0.238385 -0.652662)
    (xy 0.205061 -0.669963) (xy 0.200222 -0.672432) (xy 0.164684 -0.691475) (xy 0.131755 -0.710846)
    (xy 0.10501 -0.728331) (xy 0.088024 -0.741716) (xy 0.087547 -0.742186) (xy 0.063124 -0.776687)
    (xy 0.048904 -0.819548) (xy 0.04597 -0.867291) (xy 0.046488 -0.873821) (xy 0.057601 -0.918096)
    (xy 0.081105 -0.954965) (xy 0.116002 -0.983657) (xy 0.161294 -1.003398) (xy 0.215984 -1.013417)
    (xy 0.22776 -1.014177) (xy 0.255728 -1.014076)) (layer F.SilkS) (width 0.01))
  (fp_poly (pts (xy 0.897752 -1.00986) (xy 0.939279 -0.999668) (xy 0.949677 -0.995557) (xy 0.991197 -0.969249)
    (xy 1.0247 -0.931885) (xy 1.048828 -0.885783) (xy 1.062224 -0.833263) (xy 1.064545 -0.799353)
    (xy 1.064558 -0.750794) (xy 1.012264 -0.746119) (xy 0.988091 -0.744597) (xy 0.952379 -0.743181)
    (xy 0.908529 -0.741966) (xy 0.859944 -0.741046) (xy 0.810205 -0.740516) (xy 0.660439 -0.739588)
    (xy 0.665828 -0.685426) (xy 0.677683 -0.618962) (xy 0.699014 -0.563781) (xy 0.730042 -0.519439)
    (xy 0.761481 -0.491832) (xy 0.80853 -0.466573) (xy 0.857022 -0.456079) (xy 0.906443 -0.4603)
    (xy 0.956279 -0.479189) (xy 1.006018 -0.512697) (xy 1.00896 -0.515148) (xy 1.030308 -0.531607)
    (xy 1.044712 -0.538405) (xy 1.055248 -0.536964) (xy 1.055651 -0.536744) (xy 1.066297 -0.525779)
    (xy 1.068294 -0.518835) (xy 1.062191 -0.504459) (xy 1.045835 -0.485567) (xy 1.022153 -0.464675)
    (xy 0.994074 -0.444302) (xy 0.964526 -0.426965) (xy 0.957365 -0.423453) (xy 0.90385 -0.405406)
    (xy 0.843676 -0.39695) (xy 0.781845 -0.398332) (xy 0.723359 -0.409801) (xy 0.71779 -0.411544)
    (xy 0.670347 -0.434228) (xy 0.627094 -0.468662) (xy 0.591305 -0.511682) (xy 0.567596 -0.556614)
    (xy 0.557391 -0.593948) (xy 0.551134 -0.640562) (xy 0.548905 -0.691431) (xy 0.550783 -0.741533)
    (xy 0.556849 -0.785845) (xy 0.557746 -0.789146) (xy 0.664882 -0.789146) (xy 0.664882 -0.789136)
    (xy 0.671881 -0.78862) (xy 0.691008 -0.788534) (xy 0.719459 -0.788813) (xy 0.754429 -0.789391)
    (xy 0.793114 -0.7902) (xy 0.832708 -0.791174) (xy 0.870407 -0.792248) (xy 0.903407 -0.793354)
    (xy 0.928903 -0.794426) (xy 0.94409 -0.795398) (xy 0.946897 -0.79581) (xy 0.954289 -0.805704)
    (xy 0.955533 -0.827063) (xy 0.950678 -0.857761) (xy 0.944986 -0.879343) (xy 0.928563 -0.914439)
    (xy 0.903292 -0.944726) (xy 0.872838 -0.966572) (xy 0.848035 -0.975382) (xy 0.811228 -0.975053)
    (xy 0.774657 -0.961626) (xy 0.740441 -0.936826) (xy 0.710702 -0.902376) (xy 0.687559 -0.860002)
    (xy 0.679785 -0.838559) (xy 0.672308 -0.814192) (xy 0.666959 -0.796456) (xy 0.664882 -0.789146)
    (xy 0.557746 -0.789146) (xy 0.563568 -0.810559) (xy 0.590372 -0.86642) (xy 0.62748 -0.916763)
    (xy 0.672345 -0.959065) (xy 0.722422 -0.990804) (xy 0.76065 -1.005809) (xy 0.802366 -1.01326)
    (xy 0.850091 -1.0145) (xy 0.897752 -1.00986)) (layer F.SilkS) (width 0.01))
  (fp_poly (pts (xy 1.357849 -1.233072) (xy 1.358799 -1.213598) (xy 1.358977 -1.184192) (xy 1.358354 -1.147351)
    (xy 1.357507 -1.120588) (xy 1.353061 -1.001059) (xy 1.532463 -1.001059) (xy 1.527735 -0.959971)
    (xy 1.440788 -0.957873) (xy 1.353842 -0.955776) (xy 1.348826 -0.774844) (xy 1.347209 -0.690012)
    (xy 1.347486 -0.619576) (xy 1.349684 -0.563108) (xy 1.35383 -0.520179) (xy 1.359953 -0.490361)
    (xy 1.368034 -0.473278) (xy 1.383355 -0.465682) (xy 1.407884 -0.465704) (xy 1.438304 -0.472815)
    (xy 1.471297 -0.486487) (xy 1.480048 -0.491141) (xy 1.501632 -0.50245) (xy 1.514223 -0.506427)
    (xy 1.521388 -0.503839) (xy 1.523894 -0.500575) (xy 1.523754 -0.487666) (xy 1.512167 -0.470328)
    (xy 1.491139 -0.450628) (xy 1.462678 -0.430636) (xy 1.447504 -0.421835) (xy 1.409534 -0.406245)
    (xy 1.368941 -0.397998) (xy 1.330125 -0.397415) (xy 1.297486 -0.404822) (xy 1.287201 -0.41006)
    (xy 1.274722 -0.419145) (xy 1.264634 -0.430083) (xy 1.256735 -0.444403) (xy 1.250823 -0.46363)
    (xy 1.246697 -0.489293) (xy 1.244154 -0.522919) (xy 1.242994 -0.566036) (xy 1.243014 -0.62017)
    (xy 1.244013 -0.686849) (xy 1.244923 -0.730158) (xy 1.249977 -0.956235) (xy 1.208135 -0.956235)
    (xy 1.179822 -0.957733) (xy 1.164226 -0.963088) (xy 1.159349 -0.97359) (xy 1.161697 -0.986185)
    (xy 1.166941 -0.995003) (xy 1.178069 -0.99951) (xy 1.199038 -1.001004) (xy 1.207003 -1.001059)
    (xy 1.247588 -1.001059) (xy 1.247588 -1.199977) (xy 1.298973 -1.220047) (xy 1.324687 -1.229804)
    (xy 1.344902 -1.236941) (xy 1.355675 -1.240076) (xy 1.356155 -1.240118) (xy 1.357849 -1.233072)) (layer F.SilkS) (width 0.01))
)
