<?xml version="1.0" encoding="UTF-8" standalone="no"?>
<!-- Created with Inkscape (http://www.inkscape.org/) -->

<svg
   xmlns:dc="http://purl.org/dc/elements/1.1/"
   xmlns:cc="http://creativecommons.org/ns#"
   xmlns:rdf="http://www.w3.org/1999/02/22-rdf-syntax-ns#"
   xmlns:svg="http://www.w3.org/2000/svg"
   xmlns="http://www.w3.org/2000/svg"
   xmlns:sodipodi="http://sodipodi.sourceforge.net/DTD/sodipodi-0.dtd"
   xmlns:inkscape="http://www.inkscape.org/namespaces/inkscape"
   width="297mm"
   height="210mm"
   viewBox="0 0 297 210"
   version="1.1"
   id="svg8"
   inkscape:version="0.92.4 5da689c313, 2019-01-14"
   sodipodi:docname="9—1—2—04: Exemple face avant.svg">
  <defs
     id="defs2" />
  <sodipodi:namedview
     id="base"
     pagecolor="#ffffff"
     bordercolor="#666666"
     borderopacity="1.0"
     inkscape:pageopacity="0.0"
     inkscape:pageshadow="2"
     inkscape:zoom="0.35"
     inkscape:cx="1457.4377"
     inkscape:cy="335.57975"
     inkscape:document-units="mm"
     inkscape:current-layer="layer1"
     showgrid="true"
     inkscape:snap-nodes="true"
     inkscape:window-width="1920"
     inkscape:window-height="975"
     inkscape:window-x="0"
     inkscape:window-y="32"
     inkscape:window-maximized="1">
    <inkscape:grid
       type="xygrid"
       id="grid815" />
  </sodipodi:namedview>
  <metadata
     id="metadata5">
    <rdf:RDF>
      <cc:Work
         rdf:about="">
        <dc:format>image/svg+xml</dc:format>
        <dc:type
           rdf:resource="http://purl.org/dc/dcmitype/StillImage" />
        <dc:title></dc:title>
      </cc:Work>
    </rdf:RDF>
  </metadata>
  <g
     inkscape:label="Calque 1"
     inkscape:groupmode="layer"
     id="layer1"
     transform="translate(0,-87)">
    <g
       id="g2071">
      <rect
         y="77.269775"
         x="0.3359859"
         height="71.172905"
         width="140.22917"
         id="rect1647"
         style="fill:#a0a9b1;fill-opacity:1;stroke:#000000;stroke-width:0.14277621;stroke-opacity:1" />
      <rect
         y="91.028099"
         x="32.808334"
         height="43.656258"
         width="59.53125"
         id="rect832"
         style="fill:#3d76a9;fill-opacity:1;stroke:#000000;stroke-width:6.5647707;stroke-linecap:square;stroke-linejoin:round;stroke-miterlimit:0;stroke-dasharray:none;stroke-opacity:1;paint-order:fill markers stroke" />
      <ellipse
         ry="14.31735"
         rx="13.750383"
         cy="112.85623"
         cx="118.04196"
         id="path841"
         style="fill:#000000;fill-opacity:1;stroke:#afd5fc;stroke-width:7.33500147;stroke-linecap:square;stroke-linejoin:round;stroke-miterlimit:0;stroke-dasharray:none;stroke-opacity:1;paint-order:fill markers stroke" />
      <circle
         r="1.3229166"
         cy="121.31667"
         cx="112.84479"
         id="path843"
         style="fill:#1d3042;fill-opacity:1;stroke:#323232;stroke-width:0.1;stroke-linecap:square;stroke-linejoin:round;stroke-miterlimit:0;stroke-dasharray:none;stroke-opacity:0.82101165;paint-order:fill markers stroke" />
      <path
         sodipodi:nodetypes="cssssssssssc"
         inkscape:connector-curvature="0"
         id="path845"
         d="m 114.05609,121.84584 c -0.0182,0.0843 -0.0622,0.14038 -0.10352,0.20561 -0.0713,0.11269 -0.18449,0.2145 -0.29738,0.30625 -0.18884,0.15346 -0.42382,0.27204 -0.69146,0.27792 -0.12223,0.002 -0.2738,0.002 -0.41159,-0.0271 -0.1786,-0.0386 -0.34409,-0.11894 -0.49641,-0.22497 -0.22155,-0.15423 -0.37024,-0.33932 -0.4529,-0.61607 -0.0315,-0.10558 -0.0551,-0.16735 -0.0744,-0.25736 -0.0122,-0.0568 -0.0156,-0.13359 -0.019,-0.19624 -0.004,-0.074 0.0121,-0.17844 0.0271,-0.26758 0.0225,-0.13394 0.0748,-0.24313 0.17233,-0.40124 0.0563,-0.0913 0.11895,-0.17745 0.20993,-0.25447"
         style="fill:none;stroke:#bcbcbc;stroke-width:0.0325;stroke-linecap:butt;stroke-linejoin:miter;stroke-miterlimit:4;stroke-dasharray:none;stroke-opacity:1" />
      <g
         transform="translate(0,-3.4793646)"
         id="g1655">
        <g
           id="g885"
           transform="matrix(0.5,0,0,0.5,-2.2489599,21.76459)">
          <rect
             y="151.4523"
             x="19.84375"
             height="30.427092"
             width="30.427082"
             id="rect865"
             style="fill:#afd5fc;fill-opacity:1;stroke:#afd5fc;stroke-width:6.53599977;stroke-linecap:round;stroke-linejoin:round;stroke-miterlimit:18.10000038;stroke-dasharray:none;stroke-opacity:1;paint-order:fill markers stroke" />
          <rect
             y="156.74397"
             x="25.135416"
             height="19.843744"
             width="19.84375"
             id="rect867"
             style="fill:#000000;fill-opacity:0.9922179;stroke:#000000;stroke-width:0;stroke-linecap:round;stroke-linejoin:miter;stroke-miterlimit:18.10000038;stroke-dasharray:none;stroke-opacity:0.98054474;paint-order:fill markers stroke" />
        </g>
        <g
           id="g889"
           transform="matrix(0.5,0,0,0.5,-2.2489599,21.76459)">
          <rect
             style="fill:#afd5fc;fill-opacity:1;stroke:#afd5fc;stroke-width:6.53599977;stroke-linecap:round;stroke-linejoin:round;stroke-miterlimit:18.10000038;stroke-dasharray:none;stroke-opacity:1;paint-order:fill markers stroke"
             id="rect873"
             width="30.427082"
             height="30.427092"
             x="19.84375"
             y="196.40462" />
          <rect
             style="fill:#000000;fill-opacity:0.9922179;stroke:#000000;stroke-width:0;stroke-linecap:round;stroke-linejoin:miter;stroke-miterlimit:18.10000038;stroke-dasharray:none;stroke-opacity:0.98054474;paint-order:fill markers stroke"
             id="rect875"
             width="19.84375"
             height="19.843744"
             x="25.135416"
             y="201.69629" />
        </g>
      </g>
    </g>
    <rect
       style="opacity:0.95999995;fill:#525252;fill-opacity:0.80933851;stroke:#b8b8b8;stroke-width:0;stroke-linecap:round;stroke-linejoin:miter;stroke-miterlimit:18.10000038;stroke-dasharray:none;stroke-opacity:1;paint-order:fill markers stroke"
       id="rect970"
       width="259.29166"
       height="195.79167"
       x="-296.33334"
       y="106.50001" />
    <g
       id="g2111">
      <rect
         style="fill:#a0a9b1;fill-opacity:1;stroke:#000000;stroke-width:0.14277621;stroke-opacity:1"
         id="rect1614"
         width="140.22917"
         height="71.172905"
         x="0.3359859"
         y="151.88226" />
      <g
         id="g1980">
        <rect
           y="165.64059"
           x="34.924999"
           height="43.656258"
           width="59.53125"
           id="rect920"
           style="fill:#3d76a9;fill-opacity:1;stroke:#000000;stroke-width:6.5647707;stroke-linecap:square;stroke-linejoin:round;stroke-miterlimit:0;stroke-dasharray:none;stroke-opacity:1;paint-order:fill markers stroke" />
        <g
           id="g1622"
           transform="translate(0,2.3414638)">
          <g
             transform="matrix(0.5,0,0,0.5,-0.132293,90.556257)"
             id="g932">
            <rect
               y="151.4523"
               x="19.84375"
               height="30.427092"
               width="30.427082"
               id="rect928"
               style="fill:#afd5fc;fill-opacity:1;stroke:#afd5fc;stroke-width:6.53599977;stroke-linecap:round;stroke-linejoin:round;stroke-miterlimit:18.10000038;stroke-dasharray:none;stroke-opacity:1;paint-order:fill markers stroke" />
            <rect
               y="156.74397"
               x="25.135416"
               height="19.843744"
               width="19.84375"
               id="rect930"
               style="fill:#000000;fill-opacity:0.9922179;stroke:#000000;stroke-width:0;stroke-linecap:round;stroke-linejoin:miter;stroke-miterlimit:18.10000038;stroke-dasharray:none;stroke-opacity:0.98054474;paint-order:fill markers stroke" />
          </g>
          <g
             transform="matrix(0.5,0,0,0.5,-0.132293,90.556257)"
             id="g938">
            <rect
               style="fill:#afd5fc;fill-opacity:1;stroke:#afd5fc;stroke-width:6.53599977;stroke-linecap:round;stroke-linejoin:round;stroke-miterlimit:18.10000038;stroke-dasharray:none;stroke-opacity:1;paint-order:fill markers stroke"
               id="rect934"
               width="30.427082"
               height="30.427092"
               x="19.84375"
               y="196.40462" />
            <rect
               style="fill:#000000;fill-opacity:0.9922179;stroke:#000000;stroke-width:0;stroke-linecap:round;stroke-linejoin:miter;stroke-miterlimit:18.10000038;stroke-dasharray:none;stroke-opacity:0.98054474;paint-order:fill markers stroke"
               id="rect936"
               width="19.84375"
               height="19.843744"
               x="25.135416"
               y="201.69629" />
          </g>
        </g>
      </g>
      <g
         transform="translate(0,1.801609)"
         id="g1160">
        <ellipse
           ry="14.31735"
           rx="13.750383"
           cy="185.66711"
           cx="120.15863"
           id="ellipse922"
           style="fill:#000000;fill-opacity:1;stroke:#afd5fc;stroke-width:7.33500147;stroke-linecap:square;stroke-linejoin:round;stroke-miterlimit:0;stroke-dasharray:none;stroke-opacity:1;paint-order:fill markers stroke" />
        <circle
           r="1.3229166"
           cy="190.10834"
           cx="114.96146"
           id="circle924"
           style="fill:#1d3042;fill-opacity:1;stroke:#323232;stroke-width:0.1;stroke-linecap:square;stroke-linejoin:round;stroke-miterlimit:0;stroke-dasharray:none;stroke-opacity:0.82101165;paint-order:fill markers stroke" />
        <path
           sodipodi:nodetypes="cssssssssssc"
           inkscape:connector-curvature="0"
           id="path926"
           d="m 116.17275,190.63751 c -0.0182,0.0843 -0.0622,0.14038 -0.10351,0.2056 -0.0713,0.1127 -0.18449,0.2145 -0.29739,0.30625 -0.18884,0.15347 -0.42382,0.27205 -0.69145,0.27792 -0.12223,0.002 -0.2738,0.002 -0.41159,-0.0271 -0.1786,-0.0385 -0.34409,-0.11893 -0.49641,-0.22497 -0.22156,-0.15422 -0.37024,-0.33931 -0.4529,-0.61606 -0.0315,-0.10558 -0.0551,-0.16735 -0.0744,-0.25736 -0.0122,-0.0568 -0.0156,-0.13359 -0.019,-0.19624 -0.004,-0.074 0.0121,-0.17844 0.0271,-0.26758 0.0225,-0.13394 0.0748,-0.24313 0.17233,-0.40124 0.0563,-0.0913 0.11894,-0.17745 0.20993,-0.25447"
           style="fill:none;stroke:#bcbcbc;stroke-width:0.0325;stroke-linecap:butt;stroke-linejoin:miter;stroke-miterlimit:4;stroke-dasharray:none;stroke-opacity:1" />
        <path
           style="fill:#78bcf9;fill-opacity:1;stroke:#e8e8e8;stroke-width:0.153;stroke-linecap:butt;stroke-linejoin:round;stroke-miterlimit:4;stroke-dasharray:none;stroke-opacity:0.92607003;paint-order:fill markers stroke"
           d="m 119.49718,168.67709 v 5.29166 h 1.32291 v -5.29166 z"
           id="path1023"
           inkscape:connector-curvature="0" />
        <path
           style="fill:#78bcf9;fill-opacity:1;stroke:#e8e8e8;stroke-width:0.153;stroke-linecap:butt;stroke-linejoin:round;stroke-miterlimit:4;stroke-dasharray:none;stroke-opacity:0.92607003;paint-order:fill markers stroke"
           d="m 103.68055,186.32857 h 5.29166 v -1.32291 h -5.29166 z"
           id="path1047"
           inkscape:connector-curvature="0" />
        <path
           inkscape:connector-curvature="0"
           id="path1025"
           d="m 131.4365,186.32857 h 5.29166 v -1.32291 h -5.29166 z"
           style="fill:#78bcf9;fill-opacity:1;stroke:#e8e8e8;stroke-width:0.153;stroke-linecap:butt;stroke-linejoin:round;stroke-miterlimit:4;stroke-dasharray:none;stroke-opacity:0.92607003;paint-order:fill markers stroke" />
        <path
           inkscape:connector-curvature="0"
           id="path1045"
           d="m 119.49718,197.5194 v 5.29166 h 1.32291 v -5.29166 z"
           style="fill:#78bcf9;fill-opacity:1;stroke:#e8e8e8;stroke-width:0.153;stroke-linecap:butt;stroke-linejoin:round;stroke-miterlimit:4;stroke-dasharray:none;stroke-opacity:0.92607003;paint-order:fill markers stroke" />
        <path
           style="opacity:1;fill:#78bcf9;fill-opacity:1;stroke:#e8e8e8;stroke-width:0.153;stroke-linecap:butt;stroke-linejoin:round;stroke-miterlimit:4;stroke-dasharray:none;stroke-opacity:0.92607003;paint-order:fill markers stroke"
           d="m 128.79208,178.02075 3.74177,-3.74177 -0.93544,-0.93544 -3.74177,3.74177 z"
           id="path1049"
           inkscape:connector-curvature="0" />
        <path
           inkscape:connector-curvature="0"
           id="path1051"
           d="m 123.71316,174.5428 1.40606,-5.10144 -1.27547,-0.35107 -1.40606,5.10145 z"
           style="opacity:1;fill:#78bcf9;fill-opacity:1;stroke:#e8e8e8;stroke-width:0.153;stroke-linecap:butt;stroke-linejoin:round;stroke-miterlimit:4;stroke-dasharray:none;stroke-opacity:0.92607003;paint-order:fill markers stroke" />
        <path
           style="opacity:1;fill:#78bcf9;fill-opacity:1;stroke:#e8e8e8;stroke-width:0.153;stroke-linecap:butt;stroke-linejoin:round;stroke-miterlimit:4;stroke-dasharray:none;stroke-opacity:0.92607003;paint-order:fill markers stroke"
           d="m 126.35182,175.9537 2.6785,-4.5637 -1.14115,-0.66923 -2.6785,4.56371 z"
           id="path1053"
           inkscape:connector-curvature="0" />
        <path
           inkscape:connector-curvature="0"
           id="path1055"
           d="m 130.41812,180.65266 4.58271,-2.64583 -0.66145,-1.14568 -4.58272,2.64583 z"
           style="opacity:1;fill:#78bcf9;fill-opacity:1;stroke:#e8e8e8;stroke-width:0.153;stroke-linecap:butt;stroke-linejoin:round;stroke-miterlimit:4;stroke-dasharray:none;stroke-opacity:0.92607003;paint-order:fill markers stroke" />
        <path
           style="opacity:1;fill:#78bcf9;fill-opacity:1;stroke:#e8e8e8;stroke-width:0.153;stroke-linecap:butt;stroke-linejoin:round;stroke-miterlimit:4;stroke-dasharray:none;stroke-opacity:0.92607003;paint-order:fill markers stroke"
           d="m 131.3533,183.48412 5.11135,-1.36959 -0.34239,-1.27783 -5.11136,1.36958 z"
           id="path1057"
           inkscape:connector-curvature="0" />
        <path
           style="fill:#78bcf9;fill-opacity:1;stroke:#e8e8e8;stroke-width:0.153;stroke-linecap:butt;stroke-linejoin:round;stroke-miterlimit:4;stroke-dasharray:none;stroke-opacity:0.92607003;paint-order:fill markers stroke"
           d="m 130.84013,189.28629 5.11135,1.36958 0.34239,-1.27783 -5.11135,-1.36958 z"
           id="path1059"
           inkscape:connector-curvature="0" />
        <path
           inkscape:connector-curvature="0"
           id="path1061"
           d="m 129.6193,192.0325 4.58271,2.64582 0.66145,-1.14567 -4.58271,-2.64582 z"
           style="fill:#78bcf9;fill-opacity:1;stroke:#e8e8e8;stroke-width:0.153;stroke-linecap:butt;stroke-linejoin:round;stroke-miterlimit:4;stroke-dasharray:none;stroke-opacity:0.92607003;paint-order:fill markers stroke" />
        <path
           style="fill:#78bcf9;fill-opacity:1;stroke:#e8e8e8;stroke-width:0.153;stroke-linecap:butt;stroke-linejoin:round;stroke-miterlimit:4;stroke-dasharray:none;stroke-opacity:0.92607003;paint-order:fill markers stroke"
           d="m 127.82524,194.30099 3.74177,3.74176 0.93543,-0.93543 -3.74177,-3.74176 z"
           id="path1063"
           inkscape:connector-curvature="0" />
        <path
           inkscape:connector-curvature="0"
           id="path1065"
           d="m 125.45281,196.14944 2.64584,4.5827 1.14566,-0.66145 -2.64583,-4.5827 z"
           style="fill:#78bcf9;fill-opacity:1;stroke:#e8e8e8;stroke-width:0.153;stroke-linecap:butt;stroke-linejoin:round;stroke-miterlimit:4;stroke-dasharray:none;stroke-opacity:0.92607003;paint-order:fill markers stroke" />
        <path
           style="fill:#78bcf9;fill-opacity:1;stroke:#e8e8e8;stroke-width:0.153;stroke-linecap:butt;stroke-linejoin:round;stroke-miterlimit:4;stroke-dasharray:none;stroke-opacity:0.92607003;paint-order:fill markers stroke"
           d="m 122.56536,197.24152 1.3696,5.11134 1.27782,-0.34239 -1.36959,-5.11134 z"
           id="path1067"
           inkscape:connector-curvature="0" />
        <path
           inkscape:connector-curvature="0"
           id="path1087"
           d="m 111.55863,193.09225 -3.74177,3.74177 0.93544,0.93544 3.74177,-3.74177 z"
           style="opacity:1;fill:#78bcf9;fill-opacity:1;stroke:#e8e8e8;stroke-width:0.153;stroke-linecap:butt;stroke-linejoin:round;stroke-miterlimit:4;stroke-dasharray:none;stroke-opacity:0.92607003;paint-order:fill markers stroke" />
        <path
           style="opacity:1;fill:#78bcf9;fill-opacity:1;stroke:#e8e8e8;stroke-width:0.153;stroke-linecap:butt;stroke-linejoin:round;stroke-miterlimit:4;stroke-dasharray:none;stroke-opacity:0.92607003;paint-order:fill markers stroke"
           d="m 116.57073,196.77066 -1.40606,5.10144 1.27547,0.35107 1.40606,-5.10145 z"
           id="path1089"
           inkscape:connector-curvature="0" />
        <path
           inkscape:connector-curvature="0"
           id="path1091"
           d="m 113.86525,195.39317 -2.6785,4.5637 1.14115,0.66923 2.6785,-4.56371 z"
           style="opacity:1;fill:#78bcf9;fill-opacity:1;stroke:#e8e8e8;stroke-width:0.153;stroke-linecap:butt;stroke-linejoin:round;stroke-miterlimit:4;stroke-dasharray:none;stroke-opacity:0.92607003;paint-order:fill markers stroke" />
        <path
           style="opacity:1;fill:#78bcf9;fill-opacity:1;stroke:#e8e8e8;stroke-width:0.153;stroke-linecap:butt;stroke-linejoin:round;stroke-miterlimit:4;stroke-dasharray:none;stroke-opacity:0.92607003;paint-order:fill markers stroke"
           d="m 110.06623,190.52716 -4.58271,2.64583 0.66145,1.14568 4.58272,-2.64583 z"
           id="path1093"
           inkscape:connector-curvature="0" />
        <path
           inkscape:connector-curvature="0"
           id="path1095"
           d="m 109.23128,187.62888 -5.11135,1.36959 0.34239,1.27783 5.11136,-1.36958 z"
           style="opacity:1;fill:#78bcf9;fill-opacity:1;stroke:#e8e8e8;stroke-width:0.153;stroke-linecap:butt;stroke-linejoin:round;stroke-miterlimit:4;stroke-dasharray:none;stroke-opacity:0.92607003;paint-order:fill markers stroke" />
        <path
           inkscape:connector-curvature="0"
           id="path1097"
           d="m 109.38267,181.92694 -5.11135,-1.36958 -0.34239,1.27783 5.11135,1.36958 z"
           style="fill:#78bcf9;fill-opacity:1;stroke:#e8e8e8;stroke-width:0.153;stroke-linecap:butt;stroke-linejoin:round;stroke-miterlimit:4;stroke-dasharray:none;stroke-opacity:0.92607003;paint-order:fill markers stroke" />
        <path
           style="fill:#78bcf9;fill-opacity:1;stroke:#e8e8e8;stroke-width:0.153;stroke-linecap:butt;stroke-linejoin:round;stroke-miterlimit:4;stroke-dasharray:none;stroke-opacity:0.92607003;paint-order:fill markers stroke"
           d="m 110.63929,179.24182 -4.58271,-2.64582 -0.66145,1.14567 4.58271,2.64582 z"
           id="path1099"
           inkscape:connector-curvature="0" />
        <path
           inkscape:connector-curvature="0"
           id="path1101"
           d="m 112.35269,176.92035 -3.74177,-3.74176 -0.93543,0.93543 3.74177,3.74176 z"
           style="fill:#78bcf9;fill-opacity:1;stroke:#e8e8e8;stroke-width:0.153;stroke-linecap:butt;stroke-linejoin:round;stroke-miterlimit:4;stroke-dasharray:none;stroke-opacity:0.92607003;paint-order:fill markers stroke" />
        <path
           style="fill:#78bcf9;fill-opacity:1;stroke:#e8e8e8;stroke-width:0.153;stroke-linecap:butt;stroke-linejoin:round;stroke-miterlimit:4;stroke-dasharray:none;stroke-opacity:0.92607003;paint-order:fill markers stroke"
           d="m 114.95899,175.1917 -2.64584,-4.5827 -1.14566,0.66145 2.64583,4.5827 z"
           id="path1103"
           inkscape:connector-curvature="0" />
        <path
           inkscape:connector-curvature="0"
           id="path1105"
           d="m 117.84644,174.09962 -1.3696,-5.11134 -1.27782,0.34239 1.36959,5.11134 z"
           style="fill:#78bcf9;fill-opacity:1;stroke:#e8e8e8;stroke-width:0.153;stroke-linecap:butt;stroke-linejoin:round;stroke-miterlimit:4;stroke-dasharray:none;stroke-opacity:0.92607003;paint-order:fill markers stroke" />
      </g>
    </g>
    <g
       id="g1216"
       transform="translate(-190.50006)">
      <ellipse
         ry="14.31735"
         rx="13.750383"
         cy="185.66711"
         cx="120.15863"
         id="ellipse1162"
         style="fill:#000000;fill-opacity:1;stroke:#afd5fc;stroke-width:7.33500147;stroke-linecap:square;stroke-linejoin:round;stroke-miterlimit:0;stroke-dasharray:none;stroke-opacity:1;paint-order:fill markers stroke" />
      <circle
         r="1.3229166"
         cy="190.10834"
         cx="114.96146"
         id="circle1164"
         style="fill:#1d3042;fill-opacity:1;stroke:#323232;stroke-width:0.1;stroke-linecap:square;stroke-linejoin:round;stroke-miterlimit:0;stroke-dasharray:none;stroke-opacity:0.82101165;paint-order:fill markers stroke" />
      <path
         sodipodi:nodetypes="cssssssssssc"
         inkscape:connector-curvature="0"
         id="path1166"
         d="m 116.17275,190.63751 c -0.0182,0.0843 -0.0622,0.14038 -0.10351,0.2056 -0.0713,0.1127 -0.18449,0.2145 -0.29739,0.30625 -0.18884,0.15347 -0.42382,0.27205 -0.69145,0.27792 -0.12223,0.002 -0.2738,0.002 -0.41159,-0.0271 -0.1786,-0.0385 -0.34409,-0.11893 -0.49641,-0.22497 -0.22156,-0.15422 -0.37024,-0.33931 -0.4529,-0.61606 -0.0315,-0.10558 -0.0551,-0.16735 -0.0744,-0.25736 -0.0122,-0.0568 -0.0156,-0.13359 -0.019,-0.19624 -0.004,-0.074 0.0121,-0.17844 0.0271,-0.26758 0.0225,-0.13394 0.0748,-0.24313 0.17233,-0.40124 0.0563,-0.0913 0.11894,-0.17745 0.20993,-0.25447"
         style="fill:none;stroke:#bcbcbc;stroke-width:0.0325;stroke-linecap:butt;stroke-linejoin:miter;stroke-miterlimit:4;stroke-dasharray:none;stroke-opacity:1" />
      <path
         style="fill:#78bcf9;fill-opacity:1;stroke:#e8e8e8;stroke-width:0.153;stroke-linecap:butt;stroke-linejoin:round;stroke-miterlimit:4;stroke-dasharray:none;stroke-opacity:0.92607003;paint-order:fill markers stroke"
         d="m 119.49718,168.67709 v 5.29166 h 1.32291 v -5.29166 z"
         id="path1168"
         inkscape:connector-curvature="0" />
      <path
         style="fill:#78bcf9;fill-opacity:1;stroke:#e8e8e8;stroke-width:0.153;stroke-linecap:butt;stroke-linejoin:round;stroke-miterlimit:4;stroke-dasharray:none;stroke-opacity:0.92607003;paint-order:fill markers stroke"
         d="m 103.68055,186.32857 h 5.29166 v -1.32291 h -5.29166 z"
         id="path1170"
         inkscape:connector-curvature="0" />
      <path
         inkscape:connector-curvature="0"
         id="path1172"
         d="m 131.4365,186.32857 h 5.29166 v -1.32291 h -5.29166 z"
         style="fill:#78bcf9;fill-opacity:1;stroke:#e8e8e8;stroke-width:0.153;stroke-linecap:butt;stroke-linejoin:round;stroke-miterlimit:4;stroke-dasharray:none;stroke-opacity:0.92607003;paint-order:fill markers stroke" />
      <path
         inkscape:connector-curvature="0"
         id="path1174"
         d="m 119.49718,197.5194 v 5.29166 h 1.32291 v -5.29166 z"
         style="fill:#78bcf9;fill-opacity:1;stroke:#e8e8e8;stroke-width:0.153;stroke-linecap:butt;stroke-linejoin:round;stroke-miterlimit:4;stroke-dasharray:none;stroke-opacity:0.92607003;paint-order:fill markers stroke" />
      <path
         style="opacity:1;fill:#78bcf9;fill-opacity:1;stroke:#e8e8e8;stroke-width:0.153;stroke-linecap:butt;stroke-linejoin:round;stroke-miterlimit:4;stroke-dasharray:none;stroke-opacity:0.92607003;paint-order:fill markers stroke"
         d="m 128.79208,178.02075 3.74177,-3.74177 -0.93544,-0.93544 -3.74177,3.74177 z"
         id="path1176"
         inkscape:connector-curvature="0" />
      <path
         inkscape:connector-curvature="0"
         id="path1178"
         d="m 123.71316,174.5428 1.40606,-5.10144 -1.27547,-0.35107 -1.40606,5.10145 z"
         style="opacity:1;fill:#78bcf9;fill-opacity:1;stroke:#e8e8e8;stroke-width:0.153;stroke-linecap:butt;stroke-linejoin:round;stroke-miterlimit:4;stroke-dasharray:none;stroke-opacity:0.92607003;paint-order:fill markers stroke" />
      <path
         style="opacity:1;fill:#78bcf9;fill-opacity:1;stroke:#e8e8e8;stroke-width:0.153;stroke-linecap:butt;stroke-linejoin:round;stroke-miterlimit:4;stroke-dasharray:none;stroke-opacity:0.92607003;paint-order:fill markers stroke"
         d="m 126.35182,175.9537 2.6785,-4.5637 -1.14115,-0.66923 -2.6785,4.56371 z"
         id="path1180"
         inkscape:connector-curvature="0" />
      <path
         inkscape:connector-curvature="0"
         id="path1182"
         d="m 130.41812,180.65266 4.58271,-2.64583 -0.66145,-1.14568 -4.58272,2.64583 z"
         style="opacity:1;fill:#78bcf9;fill-opacity:1;stroke:#e8e8e8;stroke-width:0.153;stroke-linecap:butt;stroke-linejoin:round;stroke-miterlimit:4;stroke-dasharray:none;stroke-opacity:0.92607003;paint-order:fill markers stroke" />
      <path
         style="opacity:1;fill:#78bcf9;fill-opacity:1;stroke:#e8e8e8;stroke-width:0.153;stroke-linecap:butt;stroke-linejoin:round;stroke-miterlimit:4;stroke-dasharray:none;stroke-opacity:0.92607003;paint-order:fill markers stroke"
         d="m 131.3533,183.48412 5.11135,-1.36959 -0.34239,-1.27783 -5.11136,1.36958 z"
         id="path1184"
         inkscape:connector-curvature="0" />
      <path
         style="fill:#78bcf9;fill-opacity:1;stroke:#e8e8e8;stroke-width:0.153;stroke-linecap:butt;stroke-linejoin:round;stroke-miterlimit:4;stroke-dasharray:none;stroke-opacity:0.92607003;paint-order:fill markers stroke"
         d="m 130.84013,189.28629 5.11135,1.36958 0.34239,-1.27783 -5.11135,-1.36958 z"
         id="path1186"
         inkscape:connector-curvature="0" />
      <path
         inkscape:connector-curvature="0"
         id="path1188"
         d="m 129.6193,192.0325 4.58271,2.64582 0.66145,-1.14567 -4.58271,-2.64582 z"
         style="fill:#78bcf9;fill-opacity:1;stroke:#e8e8e8;stroke-width:0.153;stroke-linecap:butt;stroke-linejoin:round;stroke-miterlimit:4;stroke-dasharray:none;stroke-opacity:0.92607003;paint-order:fill markers stroke" />
      <path
         style="fill:#78bcf9;fill-opacity:1;stroke:#e8e8e8;stroke-width:0.153;stroke-linecap:butt;stroke-linejoin:round;stroke-miterlimit:4;stroke-dasharray:none;stroke-opacity:0.92607003;paint-order:fill markers stroke"
         d="m 127.82524,194.30099 3.74177,3.74176 0.93543,-0.93543 -3.74177,-3.74176 z"
         id="path1190"
         inkscape:connector-curvature="0" />
      <path
         inkscape:connector-curvature="0"
         id="path1192"
         d="m 125.45281,196.14944 2.64584,4.5827 1.14566,-0.66145 -2.64583,-4.5827 z"
         style="fill:#78bcf9;fill-opacity:1;stroke:#e8e8e8;stroke-width:0.153;stroke-linecap:butt;stroke-linejoin:round;stroke-miterlimit:4;stroke-dasharray:none;stroke-opacity:0.92607003;paint-order:fill markers stroke" />
      <path
         style="fill:#78bcf9;fill-opacity:1;stroke:#e8e8e8;stroke-width:0.153;stroke-linecap:butt;stroke-linejoin:round;stroke-miterlimit:4;stroke-dasharray:none;stroke-opacity:0.92607003;paint-order:fill markers stroke"
         d="m 122.56536,197.24152 1.3696,5.11134 1.27782,-0.34239 -1.36959,-5.11134 z"
         id="path1194"
         inkscape:connector-curvature="0" />
      <path
         inkscape:connector-curvature="0"
         id="path1196"
         d="m 111.55863,193.09225 -3.74177,3.74177 0.93544,0.93544 3.74177,-3.74177 z"
         style="opacity:1;fill:#78bcf9;fill-opacity:1;stroke:#e8e8e8;stroke-width:0.153;stroke-linecap:butt;stroke-linejoin:round;stroke-miterlimit:4;stroke-dasharray:none;stroke-opacity:0.92607003;paint-order:fill markers stroke" />
      <path
         style="opacity:1;fill:#78bcf9;fill-opacity:1;stroke:#e8e8e8;stroke-width:0.153;stroke-linecap:butt;stroke-linejoin:round;stroke-miterlimit:4;stroke-dasharray:none;stroke-opacity:0.92607003;paint-order:fill markers stroke"
         d="m 116.57073,196.77066 -1.40606,5.10144 1.27547,0.35107 1.40606,-5.10145 z"
         id="path1198"
         inkscape:connector-curvature="0" />
      <path
         inkscape:connector-curvature="0"
         id="path1200"
         d="m 113.86525,195.39317 -2.6785,4.5637 1.14115,0.66923 2.6785,-4.56371 z"
         style="opacity:1;fill:#78bcf9;fill-opacity:1;stroke:#e8e8e8;stroke-width:0.153;stroke-linecap:butt;stroke-linejoin:round;stroke-miterlimit:4;stroke-dasharray:none;stroke-opacity:0.92607003;paint-order:fill markers stroke" />
      <path
         style="opacity:1;fill:#78bcf9;fill-opacity:1;stroke:#e8e8e8;stroke-width:0.153;stroke-linecap:butt;stroke-linejoin:round;stroke-miterlimit:4;stroke-dasharray:none;stroke-opacity:0.92607003;paint-order:fill markers stroke"
         d="m 110.06623,190.52716 -4.58271,2.64583 0.66145,1.14568 4.58272,-2.64583 z"
         id="path1202"
         inkscape:connector-curvature="0" />
      <path
         inkscape:connector-curvature="0"
         id="path1204"
         d="m 109.23128,187.62888 -5.11135,1.36959 0.34239,1.27783 5.11136,-1.36958 z"
         style="opacity:1;fill:#78bcf9;fill-opacity:1;stroke:#e8e8e8;stroke-width:0.153;stroke-linecap:butt;stroke-linejoin:round;stroke-miterlimit:4;stroke-dasharray:none;stroke-opacity:0.92607003;paint-order:fill markers stroke" />
      <path
         inkscape:connector-curvature="0"
         id="path1206"
         d="m 109.38267,181.92694 -5.11135,-1.36958 -0.34239,1.27783 5.11135,1.36958 z"
         style="fill:#78bcf9;fill-opacity:1;stroke:#e8e8e8;stroke-width:0.153;stroke-linecap:butt;stroke-linejoin:round;stroke-miterlimit:4;stroke-dasharray:none;stroke-opacity:0.92607003;paint-order:fill markers stroke" />
      <path
         style="fill:#78bcf9;fill-opacity:1;stroke:#e8e8e8;stroke-width:0.153;stroke-linecap:butt;stroke-linejoin:round;stroke-miterlimit:4;stroke-dasharray:none;stroke-opacity:0.92607003;paint-order:fill markers stroke"
         d="m 110.63929,179.24182 -4.58271,-2.64582 -0.66145,1.14567 4.58271,2.64582 z"
         id="path1208"
         inkscape:connector-curvature="0" />
      <path
         inkscape:connector-curvature="0"
         id="path1210"
         d="m 112.35269,176.92035 -3.74177,-3.74176 -0.93543,0.93543 3.74177,3.74176 z"
         style="fill:#78bcf9;fill-opacity:1;stroke:#e8e8e8;stroke-width:0.153;stroke-linecap:butt;stroke-linejoin:round;stroke-miterlimit:4;stroke-dasharray:none;stroke-opacity:0.92607003;paint-order:fill markers stroke" />
      <path
         style="fill:#78bcf9;fill-opacity:1;stroke:#e8e8e8;stroke-width:0.153;stroke-linecap:butt;stroke-linejoin:round;stroke-miterlimit:4;stroke-dasharray:none;stroke-opacity:0.92607003;paint-order:fill markers stroke"
         d="m 114.95899,175.1917 -2.64584,-4.5827 -1.14566,0.66145 2.64583,4.5827 z"
         id="path1212"
         inkscape:connector-curvature="0" />
      <path
         inkscape:connector-curvature="0"
         id="path1214"
         d="m 117.84644,174.09962 -1.3696,-5.11134 -1.27782,0.34239 1.36959,5.11134 z"
         style="fill:#78bcf9;fill-opacity:1;stroke:#e8e8e8;stroke-width:0.153;stroke-linecap:butt;stroke-linejoin:round;stroke-miterlimit:4;stroke-dasharray:none;stroke-opacity:0.92607003;paint-order:fill markers stroke" />
    </g>
    <g
       id="g2151">
      <path
         sodipodi:nodetypes="cssssssssssc"
         inkscape:connector-curvature="0"
         id="path952"
         d="m 116.17275,256.78333 c -0.0182,0.0843 -0.0622,0.14039 -0.10351,0.2056 -0.0713,0.1127 -0.18449,0.21451 -0.29739,0.30625 -0.18884,0.15347 -0.42382,0.27205 -0.69145,0.27792 -0.12223,0.002 -0.2738,0.002 -0.41159,-0.027 -0.1786,-0.0386 -0.34409,-0.11894 -0.49641,-0.22498 -0.22156,-0.15422 -0.37024,-0.33931 -0.4529,-0.61606 -0.0315,-0.10558 -0.0551,-0.16735 -0.0744,-0.25736 -0.0122,-0.0568 -0.0156,-0.13359 -0.019,-0.19624 -0.004,-0.074 0.0121,-0.17843 0.0271,-0.26758 0.0225,-0.13394 0.0748,-0.24313 0.17233,-0.40124 0.0563,-0.0913 0.11894,-0.17745 0.20993,-0.25447"
         style="fill:none;stroke:#bcbcbc;stroke-width:0.0325;stroke-linecap:butt;stroke-linejoin:miter;stroke-miterlimit:4;stroke-dasharray:none;stroke-opacity:1" />
      <rect
         y="225.43651"
         x="0.3359859"
         height="71.172905"
         width="140.22917"
         id="rect944"
         style="fill:#a0a9b1;fill-opacity:1;stroke:#000000;stroke-width:0.14277621;stroke-opacity:1" />
      <rect
         y="239.19482"
         x="9.2604132"
         height="43.656258"
         width="59.53125"
         id="rect946"
         style="fill:#3d76a9;fill-opacity:1;stroke:#000000;stroke-width:6.5647707;stroke-linecap:square;stroke-linejoin:round;stroke-miterlimit:0;stroke-dasharray:none;stroke-opacity:1;paint-order:fill markers stroke" />
      <g
         transform="translate(68.923957,9.7498706)"
         id="g1280">
        <g
           id="g958"
           transform="matrix(0.5,0,0,0.5,-0.132293,156.70208)">
          <rect
             y="151.4523"
             x="19.84375"
             height="30.427092"
             width="30.427082"
             id="rect954"
             style="fill:#afd5fc;fill-opacity:1;stroke:#afd5fc;stroke-width:6.53599977;stroke-linecap:round;stroke-linejoin:round;stroke-miterlimit:18.10000038;stroke-dasharray:none;stroke-opacity:1;paint-order:fill markers stroke" />
          <rect
             y="156.74397"
             x="25.135416"
             height="19.843744"
             width="19.84375"
             id="rect956"
             style="fill:#000000;fill-opacity:0.9922179;stroke:#000000;stroke-width:0;stroke-linecap:round;stroke-linejoin:miter;stroke-miterlimit:18.10000038;stroke-dasharray:none;stroke-opacity:0.98054474;paint-order:fill markers stroke" />
        </g>
        <g
           id="g964"
           transform="matrix(0.5,0,0,0.5,-0.132293,156.70208)">
          <rect
             style="fill:#afd5fc;fill-opacity:1;stroke:#afd5fc;stroke-width:6.53599977;stroke-linecap:round;stroke-linejoin:round;stroke-miterlimit:18.10000038;stroke-dasharray:none;stroke-opacity:1;paint-order:fill markers stroke"
             id="rect960"
             width="30.427082"
             height="30.427092"
             x="19.84375"
             y="196.40462" />
          <rect
             style="fill:#000000;fill-opacity:0.9922179;stroke:#000000;stroke-width:0;stroke-linecap:round;stroke-linejoin:miter;stroke-miterlimit:18.10000038;stroke-dasharray:none;stroke-opacity:0.98054474;paint-order:fill markers stroke"
             id="rect962"
             width="19.84375"
             height="19.843744"
             x="25.135416"
             y="201.69629" />
        </g>
      </g>
      <g
         transform="translate(-2.1775548,75.355839)"
         inkscape:transform-center-y="-17.309949"
         inkscape:transform-center-x="0.52123966"
         id="g1272">
        <ellipse
           style="fill:#000000;fill-opacity:1;stroke:#afd5fc;stroke-width:7.33500147;stroke-linecap:square;stroke-linejoin:round;stroke-miterlimit:0;stroke-dasharray:none;stroke-opacity:1;paint-order:fill markers stroke"
           id="ellipse1218"
           cx="120.15863"
           cy="185.66711"
           rx="13.750383"
           ry="14.31735" />
        <circle
           style="fill:#1d3042;fill-opacity:1;stroke:#323232;stroke-width:0.1;stroke-linecap:square;stroke-linejoin:round;stroke-miterlimit:0;stroke-dasharray:none;stroke-opacity:0.82101165;paint-order:fill markers stroke"
           id="circle1220"
           cx="114.96146"
           cy="190.10834"
           r="1.3229166" />
        <path
           style="fill:none;stroke:#bcbcbc;stroke-width:0.0325;stroke-linecap:butt;stroke-linejoin:miter;stroke-miterlimit:4;stroke-dasharray:none;stroke-opacity:1"
           d="m 116.17275,190.63751 c -0.0182,0.0843 -0.0622,0.14038 -0.10351,0.2056 -0.0713,0.1127 -0.18449,0.2145 -0.29739,0.30625 -0.18884,0.15347 -0.42382,0.27205 -0.69145,0.27792 -0.12223,0.002 -0.2738,0.002 -0.41159,-0.0271 -0.1786,-0.0385 -0.34409,-0.11893 -0.49641,-0.22497 -0.22156,-0.15422 -0.37024,-0.33931 -0.4529,-0.61606 -0.0315,-0.10558 -0.0551,-0.16735 -0.0744,-0.25736 -0.0122,-0.0568 -0.0156,-0.13359 -0.019,-0.19624 -0.004,-0.074 0.0121,-0.17844 0.0271,-0.26758 0.0225,-0.13394 0.0748,-0.24313 0.17233,-0.40124 0.0563,-0.0913 0.11894,-0.17745 0.20993,-0.25447"
           id="path1222"
           inkscape:connector-curvature="0"
           sodipodi:nodetypes="cssssssssssc" />
        <path
           inkscape:connector-curvature="0"
           id="path1224"
           d="m 119.49718,168.67709 v 5.29166 h 1.32291 v -5.29166 z"
           style="fill:#78bcf9;fill-opacity:1;stroke:#e8e8e8;stroke-width:0.153;stroke-linecap:butt;stroke-linejoin:round;stroke-miterlimit:4;stroke-dasharray:none;stroke-opacity:0.92607003;paint-order:fill markers stroke" />
        <path
           inkscape:connector-curvature="0"
           id="path1226"
           d="m 103.68055,186.32857 h 5.29166 v -1.32291 h -5.29166 z"
           style="fill:#78bcf9;fill-opacity:1;stroke:#e8e8e8;stroke-width:0.153;stroke-linecap:butt;stroke-linejoin:round;stroke-miterlimit:4;stroke-dasharray:none;stroke-opacity:0.92607003;paint-order:fill markers stroke" />
        <path
           style="fill:#78bcf9;fill-opacity:1;stroke:#e8e8e8;stroke-width:0.153;stroke-linecap:butt;stroke-linejoin:round;stroke-miterlimit:4;stroke-dasharray:none;stroke-opacity:0.92607003;paint-order:fill markers stroke"
           d="m 131.4365,186.32857 h 5.29166 v -1.32291 h -5.29166 z"
           id="path1228"
           inkscape:connector-curvature="0" />
        <path
           style="fill:#78bcf9;fill-opacity:1;stroke:#e8e8e8;stroke-width:0.153;stroke-linecap:butt;stroke-linejoin:round;stroke-miterlimit:4;stroke-dasharray:none;stroke-opacity:0.92607003;paint-order:fill markers stroke"
           d="m 119.49718,197.5194 v 5.29166 h 1.32291 v -5.29166 z"
           id="path1230"
           inkscape:connector-curvature="0" />
        <path
           inkscape:connector-curvature="0"
           id="path1232"
           d="m 128.79208,178.02075 3.74177,-3.74177 -0.93544,-0.93544 -3.74177,3.74177 z"
           style="opacity:1;fill:#78bcf9;fill-opacity:1;stroke:#e8e8e8;stroke-width:0.153;stroke-linecap:butt;stroke-linejoin:round;stroke-miterlimit:4;stroke-dasharray:none;stroke-opacity:0.92607003;paint-order:fill markers stroke" />
        <path
           style="opacity:1;fill:#78bcf9;fill-opacity:1;stroke:#e8e8e8;stroke-width:0.153;stroke-linecap:butt;stroke-linejoin:round;stroke-miterlimit:4;stroke-dasharray:none;stroke-opacity:0.92607003;paint-order:fill markers stroke"
           d="m 123.71316,174.5428 1.40606,-5.10144 -1.27547,-0.35107 -1.40606,5.10145 z"
           id="path1234"
           inkscape:connector-curvature="0" />
        <path
           inkscape:connector-curvature="0"
           id="path1236"
           d="m 126.35182,175.9537 2.6785,-4.5637 -1.14115,-0.66923 -2.6785,4.56371 z"
           style="opacity:1;fill:#78bcf9;fill-opacity:1;stroke:#e8e8e8;stroke-width:0.153;stroke-linecap:butt;stroke-linejoin:round;stroke-miterlimit:4;stroke-dasharray:none;stroke-opacity:0.92607003;paint-order:fill markers stroke" />
        <path
           style="opacity:1;fill:#78bcf9;fill-opacity:1;stroke:#e8e8e8;stroke-width:0.153;stroke-linecap:butt;stroke-linejoin:round;stroke-miterlimit:4;stroke-dasharray:none;stroke-opacity:0.92607003;paint-order:fill markers stroke"
           d="m 130.41812,180.65266 4.58271,-2.64583 -0.66145,-1.14568 -4.58272,2.64583 z"
           id="path1238"
           inkscape:connector-curvature="0" />
        <path
           inkscape:connector-curvature="0"
           id="path1240"
           d="m 131.3533,183.48412 5.11135,-1.36959 -0.34239,-1.27783 -5.11136,1.36958 z"
           style="opacity:1;fill:#78bcf9;fill-opacity:1;stroke:#e8e8e8;stroke-width:0.153;stroke-linecap:butt;stroke-linejoin:round;stroke-miterlimit:4;stroke-dasharray:none;stroke-opacity:0.92607003;paint-order:fill markers stroke" />
        <path
           inkscape:connector-curvature="0"
           id="path1242"
           d="m 130.84013,189.28629 5.11135,1.36958 0.34239,-1.27783 -5.11135,-1.36958 z"
           style="fill:#78bcf9;fill-opacity:1;stroke:#e8e8e8;stroke-width:0.153;stroke-linecap:butt;stroke-linejoin:round;stroke-miterlimit:4;stroke-dasharray:none;stroke-opacity:0.92607003;paint-order:fill markers stroke" />
        <path
           style="fill:#78bcf9;fill-opacity:1;stroke:#e8e8e8;stroke-width:0.153;stroke-linecap:butt;stroke-linejoin:round;stroke-miterlimit:4;stroke-dasharray:none;stroke-opacity:0.92607003;paint-order:fill markers stroke"
           d="m 129.6193,192.0325 4.58271,2.64582 0.66145,-1.14567 -4.58271,-2.64582 z"
           id="path1244"
           inkscape:connector-curvature="0" />
        <path
           inkscape:connector-curvature="0"
           id="path1246"
           d="m 127.82524,194.30099 3.74177,3.74176 0.93543,-0.93543 -3.74177,-3.74176 z"
           style="fill:#78bcf9;fill-opacity:1;stroke:#e8e8e8;stroke-width:0.153;stroke-linecap:butt;stroke-linejoin:round;stroke-miterlimit:4;stroke-dasharray:none;stroke-opacity:0.92607003;paint-order:fill markers stroke" />
        <path
           style="fill:#78bcf9;fill-opacity:1;stroke:#e8e8e8;stroke-width:0.153;stroke-linecap:butt;stroke-linejoin:round;stroke-miterlimit:4;stroke-dasharray:none;stroke-opacity:0.92607003;paint-order:fill markers stroke"
           d="m 125.45281,196.14944 2.64584,4.5827 1.14566,-0.66145 -2.64583,-4.5827 z"
           id="path1248"
           inkscape:connector-curvature="0" />
        <path
           inkscape:connector-curvature="0"
           id="path1250"
           d="m 122.56536,197.24152 1.3696,5.11134 1.27782,-0.34239 -1.36959,-5.11134 z"
           style="fill:#78bcf9;fill-opacity:1;stroke:#e8e8e8;stroke-width:0.153;stroke-linecap:butt;stroke-linejoin:round;stroke-miterlimit:4;stroke-dasharray:none;stroke-opacity:0.92607003;paint-order:fill markers stroke" />
        <path
           style="opacity:1;fill:#78bcf9;fill-opacity:1;stroke:#e8e8e8;stroke-width:0.153;stroke-linecap:butt;stroke-linejoin:round;stroke-miterlimit:4;stroke-dasharray:none;stroke-opacity:0.92607003;paint-order:fill markers stroke"
           d="m 111.55863,193.09225 -3.74177,3.74177 0.93544,0.93544 3.74177,-3.74177 z"
           id="path1252"
           inkscape:connector-curvature="0" />
        <path
           inkscape:connector-curvature="0"
           id="path1254"
           d="m 116.57073,196.77066 -1.40606,5.10144 1.27547,0.35107 1.40606,-5.10145 z"
           style="opacity:1;fill:#78bcf9;fill-opacity:1;stroke:#e8e8e8;stroke-width:0.153;stroke-linecap:butt;stroke-linejoin:round;stroke-miterlimit:4;stroke-dasharray:none;stroke-opacity:0.92607003;paint-order:fill markers stroke" />
        <path
           style="opacity:1;fill:#78bcf9;fill-opacity:1;stroke:#e8e8e8;stroke-width:0.153;stroke-linecap:butt;stroke-linejoin:round;stroke-miterlimit:4;stroke-dasharray:none;stroke-opacity:0.92607003;paint-order:fill markers stroke"
           d="m 113.86525,195.39317 -2.6785,4.5637 1.14115,0.66923 2.6785,-4.56371 z"
           id="path1256"
           inkscape:connector-curvature="0" />
        <path
           inkscape:connector-curvature="0"
           id="path1258"
           d="m 110.06623,190.52716 -4.58271,2.64583 0.66145,1.14568 4.58272,-2.64583 z"
           style="opacity:1;fill:#78bcf9;fill-opacity:1;stroke:#e8e8e8;stroke-width:0.153;stroke-linecap:butt;stroke-linejoin:round;stroke-miterlimit:4;stroke-dasharray:none;stroke-opacity:0.92607003;paint-order:fill markers stroke" />
        <path
           style="opacity:1;fill:#78bcf9;fill-opacity:1;stroke:#e8e8e8;stroke-width:0.153;stroke-linecap:butt;stroke-linejoin:round;stroke-miterlimit:4;stroke-dasharray:none;stroke-opacity:0.92607003;paint-order:fill markers stroke"
           d="m 109.23128,187.62888 -5.11135,1.36959 0.34239,1.27783 5.11136,-1.36958 z"
           id="path1260"
           inkscape:connector-curvature="0" />
        <path
           style="fill:#78bcf9;fill-opacity:1;stroke:#e8e8e8;stroke-width:0.153;stroke-linecap:butt;stroke-linejoin:round;stroke-miterlimit:4;stroke-dasharray:none;stroke-opacity:0.92607003;paint-order:fill markers stroke"
           d="m 109.38267,181.92694 -5.11135,-1.36958 -0.34239,1.27783 5.11135,1.36958 z"
           id="path1262"
           inkscape:connector-curvature="0" />
        <path
           inkscape:connector-curvature="0"
           id="path1264"
           d="m 110.63929,179.24182 -4.58271,-2.64582 -0.66145,1.14567 4.58271,2.64582 z"
           style="fill:#78bcf9;fill-opacity:1;stroke:#e8e8e8;stroke-width:0.153;stroke-linecap:butt;stroke-linejoin:round;stroke-miterlimit:4;stroke-dasharray:none;stroke-opacity:0.92607003;paint-order:fill markers stroke" />
        <path
           style="fill:#78bcf9;fill-opacity:1;stroke:#e8e8e8;stroke-width:0.153;stroke-linecap:butt;stroke-linejoin:round;stroke-miterlimit:4;stroke-dasharray:none;stroke-opacity:0.92607003;paint-order:fill markers stroke"
           d="m 112.35269,176.92035 -3.74177,-3.74176 -0.93543,0.93543 3.74177,3.74176 z"
           id="path1266"
           inkscape:connector-curvature="0" />
        <path
           inkscape:connector-curvature="0"
           id="path1268"
           d="m 114.95899,175.1917 -2.64584,-4.5827 -1.14566,0.66145 2.64583,4.5827 z"
           style="fill:#78bcf9;fill-opacity:1;stroke:#e8e8e8;stroke-width:0.153;stroke-linecap:butt;stroke-linejoin:round;stroke-miterlimit:4;stroke-dasharray:none;stroke-opacity:0.92607003;paint-order:fill markers stroke" />
        <path
           style="fill:#78bcf9;fill-opacity:1;stroke:#e8e8e8;stroke-width:0.153;stroke-linecap:butt;stroke-linejoin:round;stroke-miterlimit:4;stroke-dasharray:none;stroke-opacity:0.92607003;paint-order:fill markers stroke"
           d="m 117.84644,174.09962 -1.3696,-5.11134 -1.27782,0.34239 1.36959,5.11134 z"
           id="path1270"
           inkscape:connector-curvature="0" />
      </g>
    </g>
    <g
       id="g2183">
      <rect
         style="fill:#a0a9b1;fill-opacity:1;stroke:#000000;stroke-width:0.14277621;stroke-opacity:1"
         id="rect1687"
         width="140.22917"
         height="71.172905"
         x="156.11832"
         y="225.43651" />
      <rect
         style="fill:#3d76a9;fill-opacity:1;stroke:#000000;stroke-width:6.5647707;stroke-linecap:square;stroke-linejoin:round;stroke-miterlimit:0;stroke-dasharray:none;stroke-opacity:1;paint-order:fill markers stroke"
         id="rect1342"
         width="59.53125"
         height="43.656258"
         x="173.09894"
         y="239.19482" />
      <g
         id="g1412"
         inkscape:transform-center-x="0.52123966"
         inkscape:transform-center-y="-17.309949"
         transform="translate(146.03584,75.355846)">
        <ellipse
           ry="14.31735"
           rx="13.750383"
           cy="185.66711"
           cx="120.15863"
           id="ellipse1358"
           style="fill:#000000;fill-opacity:1;stroke:#afd5fc;stroke-width:7.33500147;stroke-linecap:square;stroke-linejoin:round;stroke-miterlimit:0;stroke-dasharray:none;stroke-opacity:1;paint-order:fill markers stroke" />
        <circle
           r="1.3229166"
           cy="190.10834"
           cx="114.96146"
           id="circle1360"
           style="fill:#1d3042;fill-opacity:1;stroke:#323232;stroke-width:0.1;stroke-linecap:square;stroke-linejoin:round;stroke-miterlimit:0;stroke-dasharray:none;stroke-opacity:0.82101165;paint-order:fill markers stroke" />
        <path
           sodipodi:nodetypes="cssssssssssc"
           inkscape:connector-curvature="0"
           id="path1362"
           d="m 116.17275,190.63751 c -0.0182,0.0843 -0.0622,0.14038 -0.10351,0.2056 -0.0713,0.1127 -0.18449,0.2145 -0.29739,0.30625 -0.18884,0.15347 -0.42382,0.27205 -0.69145,0.27792 -0.12223,0.002 -0.2738,0.002 -0.41159,-0.0271 -0.1786,-0.0385 -0.34409,-0.11893 -0.49641,-0.22497 -0.22156,-0.15422 -0.37024,-0.33931 -0.4529,-0.61606 -0.0315,-0.10558 -0.0551,-0.16735 -0.0744,-0.25736 -0.0122,-0.0568 -0.0156,-0.13359 -0.019,-0.19624 -0.004,-0.074 0.0121,-0.17844 0.0271,-0.26758 0.0225,-0.13394 0.0748,-0.24313 0.17233,-0.40124 0.0563,-0.0913 0.11894,-0.17745 0.20993,-0.25447"
           style="fill:none;stroke:#bcbcbc;stroke-width:0.0325;stroke-linecap:butt;stroke-linejoin:miter;stroke-miterlimit:4;stroke-dasharray:none;stroke-opacity:1" />
        <path
           style="fill:#78bcf9;fill-opacity:1;stroke:#e8e8e8;stroke-width:0.153;stroke-linecap:butt;stroke-linejoin:round;stroke-miterlimit:4;stroke-dasharray:none;stroke-opacity:0.92607003;paint-order:fill markers stroke"
           d="m 119.49718,168.67709 v 5.29166 h 1.32291 v -5.29166 z"
           id="path1364"
           inkscape:connector-curvature="0" />
        <path
           style="fill:#78bcf9;fill-opacity:1;stroke:#e8e8e8;stroke-width:0.153;stroke-linecap:butt;stroke-linejoin:round;stroke-miterlimit:4;stroke-dasharray:none;stroke-opacity:0.92607003;paint-order:fill markers stroke"
           d="m 103.68055,186.32857 h 5.29166 v -1.32291 h -5.29166 z"
           id="path1366"
           inkscape:connector-curvature="0" />
        <path
           inkscape:connector-curvature="0"
           id="path1368"
           d="m 131.4365,186.32857 h 5.29166 v -1.32291 h -5.29166 z"
           style="fill:#78bcf9;fill-opacity:1;stroke:#e8e8e8;stroke-width:0.153;stroke-linecap:butt;stroke-linejoin:round;stroke-miterlimit:4;stroke-dasharray:none;stroke-opacity:0.92607003;paint-order:fill markers stroke" />
        <path
           inkscape:connector-curvature="0"
           id="path1370"
           d="m 119.49718,197.5194 v 5.29166 h 1.32291 v -5.29166 z"
           style="fill:#78bcf9;fill-opacity:1;stroke:#e8e8e8;stroke-width:0.153;stroke-linecap:butt;stroke-linejoin:round;stroke-miterlimit:4;stroke-dasharray:none;stroke-opacity:0.92607003;paint-order:fill markers stroke" />
        <path
           style="opacity:1;fill:#78bcf9;fill-opacity:1;stroke:#e8e8e8;stroke-width:0.153;stroke-linecap:butt;stroke-linejoin:round;stroke-miterlimit:4;stroke-dasharray:none;stroke-opacity:0.92607003;paint-order:fill markers stroke"
           d="m 128.79208,178.02075 3.74177,-3.74177 -0.93544,-0.93544 -3.74177,3.74177 z"
           id="path1372"
           inkscape:connector-curvature="0" />
        <path
           inkscape:connector-curvature="0"
           id="path1374"
           d="m 123.71316,174.5428 1.40606,-5.10144 -1.27547,-0.35107 -1.40606,5.10145 z"
           style="opacity:1;fill:#78bcf9;fill-opacity:1;stroke:#e8e8e8;stroke-width:0.153;stroke-linecap:butt;stroke-linejoin:round;stroke-miterlimit:4;stroke-dasharray:none;stroke-opacity:0.92607003;paint-order:fill markers stroke" />
        <path
           style="opacity:1;fill:#78bcf9;fill-opacity:1;stroke:#e8e8e8;stroke-width:0.153;stroke-linecap:butt;stroke-linejoin:round;stroke-miterlimit:4;stroke-dasharray:none;stroke-opacity:0.92607003;paint-order:fill markers stroke"
           d="m 126.35182,175.9537 2.6785,-4.5637 -1.14115,-0.66923 -2.6785,4.56371 z"
           id="path1376"
           inkscape:connector-curvature="0" />
        <path
           inkscape:connector-curvature="0"
           id="path1378"
           d="m 130.41812,180.65266 4.58271,-2.64583 -0.66145,-1.14568 -4.58272,2.64583 z"
           style="opacity:1;fill:#78bcf9;fill-opacity:1;stroke:#e8e8e8;stroke-width:0.153;stroke-linecap:butt;stroke-linejoin:round;stroke-miterlimit:4;stroke-dasharray:none;stroke-opacity:0.92607003;paint-order:fill markers stroke" />
        <path
           style="opacity:1;fill:#78bcf9;fill-opacity:1;stroke:#e8e8e8;stroke-width:0.153;stroke-linecap:butt;stroke-linejoin:round;stroke-miterlimit:4;stroke-dasharray:none;stroke-opacity:0.92607003;paint-order:fill markers stroke"
           d="m 131.3533,183.48412 5.11135,-1.36959 -0.34239,-1.27783 -5.11136,1.36958 z"
           id="path1380"
           inkscape:connector-curvature="0" />
        <path
           style="fill:#78bcf9;fill-opacity:1;stroke:#e8e8e8;stroke-width:0.153;stroke-linecap:butt;stroke-linejoin:round;stroke-miterlimit:4;stroke-dasharray:none;stroke-opacity:0.92607003;paint-order:fill markers stroke"
           d="m 130.84013,189.28629 5.11135,1.36958 0.34239,-1.27783 -5.11135,-1.36958 z"
           id="path1382"
           inkscape:connector-curvature="0" />
        <path
           inkscape:connector-curvature="0"
           id="path1384"
           d="m 129.6193,192.0325 4.58271,2.64582 0.66145,-1.14567 -4.58271,-2.64582 z"
           style="fill:#78bcf9;fill-opacity:1;stroke:#e8e8e8;stroke-width:0.153;stroke-linecap:butt;stroke-linejoin:round;stroke-miterlimit:4;stroke-dasharray:none;stroke-opacity:0.92607003;paint-order:fill markers stroke" />
        <path
           style="fill:#78bcf9;fill-opacity:1;stroke:#e8e8e8;stroke-width:0.153;stroke-linecap:butt;stroke-linejoin:round;stroke-miterlimit:4;stroke-dasharray:none;stroke-opacity:0.92607003;paint-order:fill markers stroke"
           d="m 127.82524,194.30099 3.74177,3.74176 0.93543,-0.93543 -3.74177,-3.74176 z"
           id="path1386"
           inkscape:connector-curvature="0" />
        <path
           inkscape:connector-curvature="0"
           id="path1388"
           d="m 125.45281,196.14944 2.64584,4.5827 1.14566,-0.66145 -2.64583,-4.5827 z"
           style="fill:#78bcf9;fill-opacity:1;stroke:#e8e8e8;stroke-width:0.153;stroke-linecap:butt;stroke-linejoin:round;stroke-miterlimit:4;stroke-dasharray:none;stroke-opacity:0.92607003;paint-order:fill markers stroke" />
        <path
           style="fill:#78bcf9;fill-opacity:1;stroke:#e8e8e8;stroke-width:0.153;stroke-linecap:butt;stroke-linejoin:round;stroke-miterlimit:4;stroke-dasharray:none;stroke-opacity:0.92607003;paint-order:fill markers stroke"
           d="m 122.56536,197.24152 1.3696,5.11134 1.27782,-0.34239 -1.36959,-5.11134 z"
           id="path1390"
           inkscape:connector-curvature="0" />
        <path
           inkscape:connector-curvature="0"
           id="path1392"
           d="m 111.55863,193.09225 -3.74177,3.74177 0.93544,0.93544 3.74177,-3.74177 z"
           style="opacity:1;fill:#78bcf9;fill-opacity:1;stroke:#e8e8e8;stroke-width:0.153;stroke-linecap:butt;stroke-linejoin:round;stroke-miterlimit:4;stroke-dasharray:none;stroke-opacity:0.92607003;paint-order:fill markers stroke" />
        <path
           style="opacity:1;fill:#78bcf9;fill-opacity:1;stroke:#e8e8e8;stroke-width:0.153;stroke-linecap:butt;stroke-linejoin:round;stroke-miterlimit:4;stroke-dasharray:none;stroke-opacity:0.92607003;paint-order:fill markers stroke"
           d="m 116.57073,196.77066 -1.40606,5.10144 1.27547,0.35107 1.40606,-5.10145 z"
           id="path1394"
           inkscape:connector-curvature="0" />
        <path
           inkscape:connector-curvature="0"
           id="path1396"
           d="m 113.86525,195.39317 -2.6785,4.5637 1.14115,0.66923 2.6785,-4.56371 z"
           style="opacity:1;fill:#78bcf9;fill-opacity:1;stroke:#e8e8e8;stroke-width:0.153;stroke-linecap:butt;stroke-linejoin:round;stroke-miterlimit:4;stroke-dasharray:none;stroke-opacity:0.92607003;paint-order:fill markers stroke" />
        <path
           style="opacity:1;fill:#78bcf9;fill-opacity:1;stroke:#e8e8e8;stroke-width:0.153;stroke-linecap:butt;stroke-linejoin:round;stroke-miterlimit:4;stroke-dasharray:none;stroke-opacity:0.92607003;paint-order:fill markers stroke"
           d="m 110.06623,190.52716 -4.58271,2.64583 0.66145,1.14568 4.58272,-2.64583 z"
           id="path1398"
           inkscape:connector-curvature="0" />
        <path
           inkscape:connector-curvature="0"
           id="path1400"
           d="m 109.23128,187.62888 -5.11135,1.36959 0.34239,1.27783 5.11136,-1.36958 z"
           style="opacity:1;fill:#78bcf9;fill-opacity:1;stroke:#e8e8e8;stroke-width:0.153;stroke-linecap:butt;stroke-linejoin:round;stroke-miterlimit:4;stroke-dasharray:none;stroke-opacity:0.92607003;paint-order:fill markers stroke" />
        <path
           inkscape:connector-curvature="0"
           id="path1402"
           d="m 109.38267,181.92694 -5.11135,-1.36958 -0.34239,1.27783 5.11135,1.36958 z"
           style="fill:#78bcf9;fill-opacity:1;stroke:#e8e8e8;stroke-width:0.153;stroke-linecap:butt;stroke-linejoin:round;stroke-miterlimit:4;stroke-dasharray:none;stroke-opacity:0.92607003;paint-order:fill markers stroke" />
        <path
           style="fill:#78bcf9;fill-opacity:1;stroke:#e8e8e8;stroke-width:0.153;stroke-linecap:butt;stroke-linejoin:round;stroke-miterlimit:4;stroke-dasharray:none;stroke-opacity:0.92607003;paint-order:fill markers stroke"
           d="m 110.63929,179.24182 -4.58271,-2.64582 -0.66145,1.14567 4.58271,2.64582 z"
           id="path1404"
           inkscape:connector-curvature="0" />
        <path
           inkscape:connector-curvature="0"
           id="path1406"
           d="m 112.35269,176.92035 -3.74177,-3.74176 -0.93543,0.93543 3.74177,3.74176 z"
           style="fill:#78bcf9;fill-opacity:1;stroke:#e8e8e8;stroke-width:0.153;stroke-linecap:butt;stroke-linejoin:round;stroke-miterlimit:4;stroke-dasharray:none;stroke-opacity:0.92607003;paint-order:fill markers stroke" />
        <path
           style="fill:#78bcf9;fill-opacity:1;stroke:#e8e8e8;stroke-width:0.153;stroke-linecap:butt;stroke-linejoin:round;stroke-miterlimit:4;stroke-dasharray:none;stroke-opacity:0.92607003;paint-order:fill markers stroke"
           d="m 114.95899,175.1917 -2.64584,-4.5827 -1.14566,0.66145 2.64583,4.5827 z"
           id="path1408"
           inkscape:connector-curvature="0" />
        <path
           inkscape:connector-curvature="0"
           id="path1410"
           d="m 117.84644,174.09962 -1.3696,-5.11134 -1.27782,0.34239 1.36959,5.11134 z"
           style="fill:#78bcf9;fill-opacity:1;stroke:#e8e8e8;stroke-width:0.153;stroke-linecap:butt;stroke-linejoin:round;stroke-miterlimit:4;stroke-dasharray:none;stroke-opacity:0.92607003;paint-order:fill markers stroke" />
      </g>
    </g>
    <g
       id="g2502">
      <rect
         y="151.88226"
         x="156.11832"
         height="71.172905"
         width="140.22917"
         id="rect1689"
         style="fill:#a0a9b1;fill-opacity:1;stroke:#000000;stroke-width:0.14277621;stroke-opacity:1" />
      <g
         transform="translate(146.03584,0.869343)"
         inkscape:transform-center-y="-17.309949"
         inkscape:transform-center-x="0.52123966"
         id="g1543">
        <ellipse
           style="fill:#000000;fill-opacity:1;stroke:#afd5fc;stroke-width:7.33500147;stroke-linecap:square;stroke-linejoin:round;stroke-miterlimit:0;stroke-dasharray:none;stroke-opacity:1;paint-order:fill markers stroke"
           id="ellipse1489"
           cx="120.15863"
           cy="185.66711"
           rx="13.750383"
           ry="14.31735" />
        <circle
           style="fill:#1d3042;fill-opacity:1;stroke:#323232;stroke-width:0.1;stroke-linecap:square;stroke-linejoin:round;stroke-miterlimit:0;stroke-dasharray:none;stroke-opacity:0.82101165;paint-order:fill markers stroke"
           id="circle1491"
           cx="114.96146"
           cy="190.10834"
           r="1.3229166" />
        <path
           style="fill:none;stroke:#bcbcbc;stroke-width:0.0325;stroke-linecap:butt;stroke-linejoin:miter;stroke-miterlimit:4;stroke-dasharray:none;stroke-opacity:1"
           d="m 116.17275,190.63751 c -0.0182,0.0843 -0.0622,0.14038 -0.10351,0.2056 -0.0713,0.1127 -0.18449,0.2145 -0.29739,0.30625 -0.18884,0.15347 -0.42382,0.27205 -0.69145,0.27792 -0.12223,0.002 -0.2738,0.002 -0.41159,-0.0271 -0.1786,-0.0385 -0.34409,-0.11893 -0.49641,-0.22497 -0.22156,-0.15422 -0.37024,-0.33931 -0.4529,-0.61606 -0.0315,-0.10558 -0.0551,-0.16735 -0.0744,-0.25736 -0.0122,-0.0568 -0.0156,-0.13359 -0.019,-0.19624 -0.004,-0.074 0.0121,-0.17844 0.0271,-0.26758 0.0225,-0.13394 0.0748,-0.24313 0.17233,-0.40124 0.0563,-0.0913 0.11894,-0.17745 0.20993,-0.25447"
           id="path1493"
           inkscape:connector-curvature="0"
           sodipodi:nodetypes="cssssssssssc" />
        <path
           inkscape:connector-curvature="0"
           id="path1495"
           d="m 119.49718,168.67709 v 5.29166 h 1.32291 v -5.29166 z"
           style="fill:#78bcf9;fill-opacity:1;stroke:#e8e8e8;stroke-width:0.153;stroke-linecap:butt;stroke-linejoin:round;stroke-miterlimit:4;stroke-dasharray:none;stroke-opacity:0.92607003;paint-order:fill markers stroke" />
        <path
           inkscape:connector-curvature="0"
           id="path1497"
           d="m 103.68055,186.32857 h 5.29166 v -1.32291 h -5.29166 z"
           style="fill:#78bcf9;fill-opacity:1;stroke:#e8e8e8;stroke-width:0.153;stroke-linecap:butt;stroke-linejoin:round;stroke-miterlimit:4;stroke-dasharray:none;stroke-opacity:0.92607003;paint-order:fill markers stroke" />
        <path
           style="fill:#78bcf9;fill-opacity:1;stroke:#e8e8e8;stroke-width:0.153;stroke-linecap:butt;stroke-linejoin:round;stroke-miterlimit:4;stroke-dasharray:none;stroke-opacity:0.92607003;paint-order:fill markers stroke"
           d="m 131.4365,186.32857 h 5.29166 v -1.32291 h -5.29166 z"
           id="path1499"
           inkscape:connector-curvature="0" />
        <path
           style="fill:#78bcf9;fill-opacity:1;stroke:#e8e8e8;stroke-width:0.153;stroke-linecap:butt;stroke-linejoin:round;stroke-miterlimit:4;stroke-dasharray:none;stroke-opacity:0.92607003;paint-order:fill markers stroke"
           d="m 119.49718,197.5194 v 5.29166 h 1.32291 v -5.29166 z"
           id="path1501"
           inkscape:connector-curvature="0" />
        <path
           inkscape:connector-curvature="0"
           id="path1503"
           d="m 128.79208,178.02075 3.74177,-3.74177 -0.93544,-0.93544 -3.74177,3.74177 z"
           style="opacity:1;fill:#78bcf9;fill-opacity:1;stroke:#e8e8e8;stroke-width:0.153;stroke-linecap:butt;stroke-linejoin:round;stroke-miterlimit:4;stroke-dasharray:none;stroke-opacity:0.92607003;paint-order:fill markers stroke" />
        <path
           style="opacity:1;fill:#78bcf9;fill-opacity:1;stroke:#e8e8e8;stroke-width:0.153;stroke-linecap:butt;stroke-linejoin:round;stroke-miterlimit:4;stroke-dasharray:none;stroke-opacity:0.92607003;paint-order:fill markers stroke"
           d="m 123.71316,174.5428 1.40606,-5.10144 -1.27547,-0.35107 -1.40606,5.10145 z"
           id="path1505"
           inkscape:connector-curvature="0" />
        <path
           inkscape:connector-curvature="0"
           id="path1507"
           d="m 126.35182,175.9537 2.6785,-4.5637 -1.14115,-0.66923 -2.6785,4.56371 z"
           style="opacity:1;fill:#78bcf9;fill-opacity:1;stroke:#e8e8e8;stroke-width:0.153;stroke-linecap:butt;stroke-linejoin:round;stroke-miterlimit:4;stroke-dasharray:none;stroke-opacity:0.92607003;paint-order:fill markers stroke" />
        <path
           style="opacity:1;fill:#78bcf9;fill-opacity:1;stroke:#e8e8e8;stroke-width:0.153;stroke-linecap:butt;stroke-linejoin:round;stroke-miterlimit:4;stroke-dasharray:none;stroke-opacity:0.92607003;paint-order:fill markers stroke"
           d="m 130.41812,180.65266 4.58271,-2.64583 -0.66145,-1.14568 -4.58272,2.64583 z"
           id="path1509"
           inkscape:connector-curvature="0" />
        <path
           inkscape:connector-curvature="0"
           id="path1511"
           d="m 131.3533,183.48412 5.11135,-1.36959 -0.34239,-1.27783 -5.11136,1.36958 z"
           style="opacity:1;fill:#78bcf9;fill-opacity:1;stroke:#e8e8e8;stroke-width:0.153;stroke-linecap:butt;stroke-linejoin:round;stroke-miterlimit:4;stroke-dasharray:none;stroke-opacity:0.92607003;paint-order:fill markers stroke" />
        <path
           inkscape:connector-curvature="0"
           id="path1513"
           d="m 130.84013,189.28629 5.11135,1.36958 0.34239,-1.27783 -5.11135,-1.36958 z"
           style="fill:#78bcf9;fill-opacity:1;stroke:#e8e8e8;stroke-width:0.153;stroke-linecap:butt;stroke-linejoin:round;stroke-miterlimit:4;stroke-dasharray:none;stroke-opacity:0.92607003;paint-order:fill markers stroke" />
        <path
           style="fill:#78bcf9;fill-opacity:1;stroke:#e8e8e8;stroke-width:0.153;stroke-linecap:butt;stroke-linejoin:round;stroke-miterlimit:4;stroke-dasharray:none;stroke-opacity:0.92607003;paint-order:fill markers stroke"
           d="m 129.6193,192.0325 4.58271,2.64582 0.66145,-1.14567 -4.58271,-2.64582 z"
           id="path1515"
           inkscape:connector-curvature="0" />
        <path
           inkscape:connector-curvature="0"
           id="path1517"
           d="m 127.82524,194.30099 3.74177,3.74176 0.93543,-0.93543 -3.74177,-3.74176 z"
           style="fill:#78bcf9;fill-opacity:1;stroke:#e8e8e8;stroke-width:0.153;stroke-linecap:butt;stroke-linejoin:round;stroke-miterlimit:4;stroke-dasharray:none;stroke-opacity:0.92607003;paint-order:fill markers stroke" />
        <path
           style="fill:#78bcf9;fill-opacity:1;stroke:#e8e8e8;stroke-width:0.153;stroke-linecap:butt;stroke-linejoin:round;stroke-miterlimit:4;stroke-dasharray:none;stroke-opacity:0.92607003;paint-order:fill markers stroke"
           d="m 125.45281,196.14944 2.64584,4.5827 1.14566,-0.66145 -2.64583,-4.5827 z"
           id="path1519"
           inkscape:connector-curvature="0" />
        <path
           inkscape:connector-curvature="0"
           id="path1521"
           d="m 122.56536,197.24152 1.3696,5.11134 1.27782,-0.34239 -1.36959,-5.11134 z"
           style="fill:#78bcf9;fill-opacity:1;stroke:#e8e8e8;stroke-width:0.153;stroke-linecap:butt;stroke-linejoin:round;stroke-miterlimit:4;stroke-dasharray:none;stroke-opacity:0.92607003;paint-order:fill markers stroke" />
        <path
           style="opacity:1;fill:#78bcf9;fill-opacity:1;stroke:#e8e8e8;stroke-width:0.153;stroke-linecap:butt;stroke-linejoin:round;stroke-miterlimit:4;stroke-dasharray:none;stroke-opacity:0.92607003;paint-order:fill markers stroke"
           d="m 111.55863,193.09225 -3.74177,3.74177 0.93544,0.93544 3.74177,-3.74177 z"
           id="path1523"
           inkscape:connector-curvature="0" />
        <path
           inkscape:connector-curvature="0"
           id="path1525"
           d="m 116.57073,196.77066 -1.40606,5.10144 1.27547,0.35107 1.40606,-5.10145 z"
           style="opacity:1;fill:#78bcf9;fill-opacity:1;stroke:#e8e8e8;stroke-width:0.153;stroke-linecap:butt;stroke-linejoin:round;stroke-miterlimit:4;stroke-dasharray:none;stroke-opacity:0.92607003;paint-order:fill markers stroke" />
        <path
           style="opacity:1;fill:#78bcf9;fill-opacity:1;stroke:#e8e8e8;stroke-width:0.153;stroke-linecap:butt;stroke-linejoin:round;stroke-miterlimit:4;stroke-dasharray:none;stroke-opacity:0.92607003;paint-order:fill markers stroke"
           d="m 113.86525,195.39317 -2.6785,4.5637 1.14115,0.66923 2.6785,-4.56371 z"
           id="path1527"
           inkscape:connector-curvature="0" />
        <path
           inkscape:connector-curvature="0"
           id="path1529"
           d="m 110.06623,190.52716 -4.58271,2.64583 0.66145,1.14568 4.58272,-2.64583 z"
           style="opacity:1;fill:#78bcf9;fill-opacity:1;stroke:#e8e8e8;stroke-width:0.153;stroke-linecap:butt;stroke-linejoin:round;stroke-miterlimit:4;stroke-dasharray:none;stroke-opacity:0.92607003;paint-order:fill markers stroke" />
        <path
           style="opacity:1;fill:#78bcf9;fill-opacity:1;stroke:#e8e8e8;stroke-width:0.153;stroke-linecap:butt;stroke-linejoin:round;stroke-miterlimit:4;stroke-dasharray:none;stroke-opacity:0.92607003;paint-order:fill markers stroke"
           d="m 109.23128,187.62888 -5.11135,1.36959 0.34239,1.27783 5.11136,-1.36958 z"
           id="path1531"
           inkscape:connector-curvature="0" />
        <path
           style="fill:#78bcf9;fill-opacity:1;stroke:#e8e8e8;stroke-width:0.153;stroke-linecap:butt;stroke-linejoin:round;stroke-miterlimit:4;stroke-dasharray:none;stroke-opacity:0.92607003;paint-order:fill markers stroke"
           d="m 109.38267,181.92694 -5.11135,-1.36958 -0.34239,1.27783 5.11135,1.36958 z"
           id="path1533"
           inkscape:connector-curvature="0" />
        <path
           inkscape:connector-curvature="0"
           id="path1535"
           d="m 110.63929,179.24182 -4.58271,-2.64582 -0.66145,1.14567 4.58271,2.64582 z"
           style="fill:#78bcf9;fill-opacity:1;stroke:#e8e8e8;stroke-width:0.153;stroke-linecap:butt;stroke-linejoin:round;stroke-miterlimit:4;stroke-dasharray:none;stroke-opacity:0.92607003;paint-order:fill markers stroke" />
        <path
           style="fill:#78bcf9;fill-opacity:1;stroke:#e8e8e8;stroke-width:0.153;stroke-linecap:butt;stroke-linejoin:round;stroke-miterlimit:4;stroke-dasharray:none;stroke-opacity:0.92607003;paint-order:fill markers stroke"
           d="m 112.35269,176.92035 -3.74177,-3.74176 -0.93543,0.93543 3.74177,3.74176 z"
           id="path1537"
           inkscape:connector-curvature="0" />
        <path
           inkscape:connector-curvature="0"
           id="path1539"
           d="m 114.95899,175.1917 -2.64584,-4.5827 -1.14566,0.66145 2.64583,4.5827 z"
           style="fill:#78bcf9;fill-opacity:1;stroke:#e8e8e8;stroke-width:0.153;stroke-linecap:butt;stroke-linejoin:round;stroke-miterlimit:4;stroke-dasharray:none;stroke-opacity:0.92607003;paint-order:fill markers stroke" />
        <path
           style="fill:#78bcf9;fill-opacity:1;stroke:#e8e8e8;stroke-width:0.153;stroke-linecap:butt;stroke-linejoin:round;stroke-miterlimit:4;stroke-dasharray:none;stroke-opacity:0.92607003;paint-order:fill markers stroke"
           d="m 117.84644,174.09962 -1.3696,-5.11134 -1.27782,0.34239 1.36959,5.11134 z"
           id="path1541"
           inkscape:connector-curvature="0" />
      </g>
      <g
         transform="translate(0,-0.38793366)"
         id="g1835">
        <rect
           style="fill:#3d76a9;fill-opacity:1;stroke:#000000;stroke-width:6.5647707;stroke-linecap:square;stroke-linejoin:round;stroke-miterlimit:0;stroke-dasharray:none;stroke-opacity:1;paint-order:fill markers stroke"
           id="rect1691"
           width="59.53125"
           height="43.656258"
           x="173.09894"
           y="161.40732" />
        <g
           id="g1731"
           transform="translate(0,3.8586228)">
          <rect
             y="207.04166"
             x="168.80417"
             height="6.6145878"
             width="15.874994"
             id="rect1697"
             style="opacity:1;fill:#3f3f3f;fill-opacity:1;stroke:#e8e8e8;stroke-width:0.14699762;stroke-linecap:round;stroke-linejoin:round;stroke-miterlimit:4;stroke-dasharray:none;stroke-opacity:0.92607003;paint-order:fill markers stroke" />
          <rect
             style="opacity:1;fill:#3f3f3f;fill-opacity:1;stroke:#e8e8e8;stroke-width:0.14576761;stroke-linecap:round;stroke-linejoin:round;stroke-miterlimit:4;stroke-dasharray:none;stroke-opacity:0.92607003;paint-order:fill markers stroke"
             id="rect1705"
             width="15.610414"
             height="6.6145926"
             x="186.00209"
             y="207.04166" />
          <rect
             y="207.04166"
             x="203.2"
             height="6.6145926"
             width="15.610418"
             id="rect1707"
             style="opacity:1;fill:#3f3f3f;fill-opacity:1;stroke:#e8e8e8;stroke-width:0.14576755;stroke-linecap:round;stroke-linejoin:round;stroke-miterlimit:4;stroke-dasharray:none;stroke-opacity:0.92607003;paint-order:fill markers stroke" />
          <rect
             style="opacity:1;fill:#3f3f3f;fill-opacity:1;stroke:#e8e8e8;stroke-width:0.1457676;stroke-linecap:round;stroke-linejoin:round;stroke-miterlimit:4;stroke-dasharray:none;stroke-opacity:0.92607003;paint-order:fill markers stroke"
             id="rect1709"
             width="15.610422"
             height="6.6145878"
             x="220.39792"
             y="207.04166" />
        </g>
      </g>
    </g>
    <g
       transform="translate(-287.60208,9.2604215)"
       id="g1731-5">
      <rect
         y="207.04166"
         x="168.80417"
         height="6.6145878"
         width="15.874994"
         id="rect1697-6"
         style="opacity:1;fill:#3f3f3f;fill-opacity:1;stroke:#e8e8e8;stroke-width:0.14699762;stroke-linecap:round;stroke-linejoin:round;stroke-miterlimit:4;stroke-dasharray:none;stroke-opacity:0.92607003;paint-order:fill markers stroke" />
      <rect
         style="opacity:1;fill:#3f3f3f;fill-opacity:1;stroke:#e8e8e8;stroke-width:0.14576761;stroke-linecap:round;stroke-linejoin:round;stroke-miterlimit:4;stroke-dasharray:none;stroke-opacity:0.92607003;paint-order:fill markers stroke"
         id="rect1705-2"
         width="15.610414"
         height="6.6145926"
         x="186.00209"
         y="207.04166" />
      <rect
         y="207.04166"
         x="203.2"
         height="6.6145926"
         width="15.610418"
         id="rect1707-9"
         style="opacity:1;fill:#3f3f3f;fill-opacity:1;stroke:#e8e8e8;stroke-width:0.14576755;stroke-linecap:round;stroke-linejoin:round;stroke-miterlimit:4;stroke-dasharray:none;stroke-opacity:0.92607003;paint-order:fill markers stroke" />
      <rect
         style="opacity:1;fill:#3f3f3f;fill-opacity:1;stroke:#e8e8e8;stroke-width:0.1457676;stroke-linecap:round;stroke-linejoin:round;stroke-miterlimit:4;stroke-dasharray:none;stroke-opacity:0.92607003;paint-order:fill markers stroke"
         id="rect1709-1"
         width="15.610422"
         height="6.6145878"
         x="220.39792"
         y="207.04166" />
    </g>
    <g
       id="g1622-2"
       transform="translate(-128.19062,-5.5293967)">
      <g
         transform="matrix(0.5,0,0,0.5,-0.132293,90.556257)"
         id="g932-7">
        <rect
           y="151.4523"
           x="19.84375"
           height="30.427092"
           width="30.427082"
           id="rect928-0"
           style="fill:#afd5fc;fill-opacity:1;stroke:#afd5fc;stroke-width:6.53599977;stroke-linecap:round;stroke-linejoin:round;stroke-miterlimit:18.10000038;stroke-dasharray:none;stroke-opacity:1;paint-order:fill markers stroke" />
        <rect
           y="156.74397"
           x="25.135416"
           height="19.843744"
           width="19.84375"
           id="rect930-9"
           style="fill:#000000;fill-opacity:0.9922179;stroke:#000000;stroke-width:0;stroke-linecap:round;stroke-linejoin:miter;stroke-miterlimit:18.10000038;stroke-dasharray:none;stroke-opacity:0.98054474;paint-order:fill markers stroke" />
      </g>
      <g
         transform="matrix(0.5,0,0,0.5,-0.132293,90.556257)"
         id="g938-3">
        <rect
           style="fill:#afd5fc;fill-opacity:1;stroke:#afd5fc;stroke-width:6.53599977;stroke-linecap:round;stroke-linejoin:round;stroke-miterlimit:18.10000038;stroke-dasharray:none;stroke-opacity:1;paint-order:fill markers stroke"
           id="rect934-6"
           width="30.427082"
           height="30.427092"
           x="19.84375"
           y="196.40462" />
        <rect
           style="fill:#000000;fill-opacity:0.9922179;stroke:#000000;stroke-width:0;stroke-linecap:round;stroke-linejoin:miter;stroke-miterlimit:18.10000038;stroke-dasharray:none;stroke-opacity:0.98054474;paint-order:fill markers stroke"
           id="rect936-0"
           width="19.84375"
           height="19.843744"
           x="25.135416"
           y="201.69629" />
      </g>
    </g>
    <rect
       style="fill:#3d76a9;fill-opacity:1;stroke:#000000;stroke-width:6.5647707;stroke-linecap:square;stroke-linejoin:round;stroke-miterlimit:0;stroke-dasharray:none;stroke-opacity:1;paint-order:fill markers stroke"
       id="rect946-6"
       width="59.53125"
       height="43.656258"
       x="-116.41666"
       y="233.5" />
    <rect
       style="fill:#a0a9b1;fill-opacity:1;stroke:#000000;stroke-width:0.14277621;stroke-opacity:1"
       id="rect1689-2"
       width="140.22917"
       height="71.172905"
       x="-283.10416"
       y="215.24376" />
    <g
       transform="translate(-341.31246,19.843734)"
       id="g1898-1">
      <rect
         y="90.625008"
         x="251.35416"
         height="48.94791"
         width="37.041676"
         id="rect1837-8"
         style="opacity:1;fill:#043b65;fill-opacity:1;stroke:#e8e8e8;stroke-width:0.14585419;stroke-linecap:round;stroke-linejoin:round;stroke-miterlimit:4;stroke-dasharray:none;stroke-opacity:0.92607003;paint-order:fill markers stroke" />
      <rect
         y="91.947922"
         x="252.67708"
         height="10.58333"
         width="10.583344"
         id="rect1839-7"
         style="opacity:1;fill:#086cb7;fill-opacity:1;stroke:#7cb3f5;stroke-width:0.35299999;stroke-linecap:round;stroke-linejoin:round;stroke-miterlimit:4;stroke-dasharray:none;stroke-opacity:0.90661477;paint-order:fill markers stroke" />
      <rect
         style="opacity:1;fill:#086cb7;fill-opacity:1;stroke:#7cb3f5;stroke-width:0.35299999;stroke-linecap:round;stroke-linejoin:round;stroke-miterlimit:4;stroke-dasharray:none;stroke-opacity:0.90661477;paint-order:fill markers stroke"
         id="rect1863-9"
         width="10.583344"
         height="10.58333"
         x="264.58334"
         y="91.947922" />
      <rect
         y="91.947929"
         x="276.48956"
         height="10.58333"
         width="10.583344"
         id="rect1865-2"
         style="opacity:1;fill:#086cb7;fill-opacity:1;stroke:#7cb3f5;stroke-width:0.35299999;stroke-linecap:round;stroke-linejoin:round;stroke-miterlimit:4;stroke-dasharray:none;stroke-opacity:0.90661477;paint-order:fill markers stroke" />
      <rect
         style="opacity:1;fill:#086cb7;fill-opacity:1;stroke:#7cb3f5;stroke-width:0.35299999;stroke-linecap:round;stroke-linejoin:round;stroke-miterlimit:4;stroke-dasharray:none;stroke-opacity:0.90661477;paint-order:fill markers stroke"
         id="rect1867-0"
         width="10.583344"
         height="10.58333"
         x="252.67706"
         y="103.85418" />
      <rect
         y="103.85418"
         x="264.58331"
         height="10.58333"
         width="10.583344"
         id="rect1869-2"
         style="opacity:1;fill:#086cb7;fill-opacity:1;stroke:#7cb3f5;stroke-width:0.35299999;stroke-linecap:round;stroke-linejoin:round;stroke-miterlimit:4;stroke-dasharray:none;stroke-opacity:0.90661477;paint-order:fill markers stroke" />
      <rect
         style="opacity:1;fill:#086cb7;fill-opacity:1;stroke:#7cb3f5;stroke-width:0.35299999;stroke-linecap:round;stroke-linejoin:round;stroke-miterlimit:4;stroke-dasharray:none;stroke-opacity:0.90661477;paint-order:fill markers stroke"
         id="rect1871-3"
         width="10.583344"
         height="10.58333"
         x="276.48953"
         y="103.85419" />
      <rect
         y="115.76043"
         x="252.67708"
         height="10.58333"
         width="10.583344"
         id="rect1873-7"
         style="opacity:1;fill:#086cb7;fill-opacity:1;stroke:#7cb3f5;stroke-width:0.35299999;stroke-linecap:round;stroke-linejoin:round;stroke-miterlimit:4;stroke-dasharray:none;stroke-opacity:0.90661477;paint-order:fill markers stroke" />
      <rect
         style="opacity:1;fill:#086cb7;fill-opacity:1;stroke:#7cb3f5;stroke-width:0.35299999;stroke-linecap:round;stroke-linejoin:round;stroke-miterlimit:4;stroke-dasharray:none;stroke-opacity:0.90661477;paint-order:fill markers stroke"
         id="rect1875-5"
         width="10.583344"
         height="10.58333"
         x="264.58331"
         y="115.76043" />
      <rect
         y="115.76044"
         x="276.48953"
         height="10.58333"
         width="10.583344"
         id="rect1877-9"
         style="opacity:1;fill:#086cb7;fill-opacity:1;stroke:#7cb3f5;stroke-width:0.35299999;stroke-linecap:round;stroke-linejoin:round;stroke-miterlimit:4;stroke-dasharray:none;stroke-opacity:0.90661477;paint-order:fill markers stroke" />
      <rect
         style="opacity:1;fill:#086cb7;fill-opacity:1;stroke:#7cb3f5;stroke-width:0.35299999;stroke-linecap:round;stroke-linejoin:round;stroke-miterlimit:4;stroke-dasharray:none;stroke-opacity:0.90661477;paint-order:fill markers stroke"
         id="rect1879-2"
         width="10.583344"
         height="10.58333"
         x="252.67709"
         y="127.66668" />
      <rect
         y="127.66668"
         x="264.58331"
         height="10.58333"
         width="10.583344"
         id="rect1881-2"
         style="opacity:1;fill:#086cb7;fill-opacity:1;stroke:#7cb3f5;stroke-width:0.35299999;stroke-linecap:round;stroke-linejoin:round;stroke-miterlimit:4;stroke-dasharray:none;stroke-opacity:0.90661477;paint-order:fill markers stroke" />
      <rect
         style="opacity:1;fill:#086cb7;fill-opacity:1;stroke:#7cb3f5;stroke-width:0.35299999;stroke-linecap:round;stroke-linejoin:round;stroke-miterlimit:4;stroke-dasharray:none;stroke-opacity:0.90661477;paint-order:fill markers stroke"
         id="rect1883-8"
         width="10.583344"
         height="10.58333"
         x="276.48953"
         y="127.66669" />
    </g>
    <g
       id="g2246">
      <rect
         y="77.660431"
         x="156.10417"
         height="71.172905"
         width="140.22917"
         id="rect1689-6"
         style="fill:#a0a9b1;fill-opacity:1;stroke:#000000;stroke-width:0.14277621;stroke-opacity:1" />
      <g
         id="g1898">
        <rect
           style="opacity:1;fill:#043b65;fill-opacity:1;stroke:#e8e8e8;stroke-width:0.14585419;stroke-linecap:round;stroke-linejoin:round;stroke-miterlimit:4;stroke-dasharray:none;stroke-opacity:0.92607003;paint-order:fill markers stroke"
           id="rect1837"
           width="37.041676"
           height="48.94791"
           x="251.35416"
           y="90.625008" />
        <rect
           style="opacity:1;fill:#086cb7;fill-opacity:1;stroke:#7cb3f5;stroke-width:0.353;stroke-linecap:round;stroke-linejoin:round;stroke-miterlimit:4;stroke-dasharray:none;stroke-opacity:0.90661478;paint-order:fill markers stroke"
           id="rect1839"
           width="10.583344"
           height="10.58333"
           x="252.67708"
           y="91.947922" />
        <rect
           y="91.947922"
           x="264.58334"
           height="10.58333"
           width="10.583344"
           id="rect1863"
           style="opacity:1;fill:#086cb7;fill-opacity:1;stroke:#7cb3f5;stroke-width:0.35299999;stroke-linecap:round;stroke-linejoin:round;stroke-miterlimit:4;stroke-dasharray:none;stroke-opacity:0.90661477;paint-order:fill markers stroke" />
        <rect
           style="opacity:1;fill:#086cb7;fill-opacity:1;stroke:#7cb3f5;stroke-width:0.35299999;stroke-linecap:round;stroke-linejoin:round;stroke-miterlimit:4;stroke-dasharray:none;stroke-opacity:0.90661477;paint-order:fill markers stroke"
           id="rect1865"
           width="10.583344"
           height="10.58333"
           x="276.48956"
           y="91.947929" />
        <rect
           y="103.85418"
           x="252.67706"
           height="10.58333"
           width="10.583344"
           id="rect1867"
           style="opacity:1;fill:#086cb7;fill-opacity:1;stroke:#7cb3f5;stroke-width:0.35299999;stroke-linecap:round;stroke-linejoin:round;stroke-miterlimit:4;stroke-dasharray:none;stroke-opacity:0.90661477;paint-order:fill markers stroke" />
        <rect
           style="opacity:1;fill:#086cb7;fill-opacity:1;stroke:#7cb3f5;stroke-width:0.35299999;stroke-linecap:round;stroke-linejoin:round;stroke-miterlimit:4;stroke-dasharray:none;stroke-opacity:0.90661477;paint-order:fill markers stroke"
           id="rect1869"
           width="10.583344"
           height="10.58333"
           x="264.58331"
           y="103.85418" />
        <rect
           y="103.85419"
           x="276.48953"
           height="10.58333"
           width="10.583344"
           id="rect1871"
           style="opacity:1;fill:#086cb7;fill-opacity:1;stroke:#7cb3f5;stroke-width:0.35299999;stroke-linecap:round;stroke-linejoin:round;stroke-miterlimit:4;stroke-dasharray:none;stroke-opacity:0.90661477;paint-order:fill markers stroke" />
        <rect
           style="opacity:1;fill:#086cb7;fill-opacity:1;stroke:#7cb3f5;stroke-width:0.35299999;stroke-linecap:round;stroke-linejoin:round;stroke-miterlimit:4;stroke-dasharray:none;stroke-opacity:0.90661477;paint-order:fill markers stroke"
           id="rect1873"
           width="10.583344"
           height="10.58333"
           x="252.67708"
           y="115.76043" />
        <rect
           y="115.76043"
           x="264.58331"
           height="10.58333"
           width="10.583344"
           id="rect1875"
           style="opacity:1;fill:#086cb7;fill-opacity:1;stroke:#7cb3f5;stroke-width:0.35299999;stroke-linecap:round;stroke-linejoin:round;stroke-miterlimit:4;stroke-dasharray:none;stroke-opacity:0.90661477;paint-order:fill markers stroke" />
        <rect
           style="opacity:1;fill:#086cb7;fill-opacity:1;stroke:#7cb3f5;stroke-width:0.35299999;stroke-linecap:round;stroke-linejoin:round;stroke-miterlimit:4;stroke-dasharray:none;stroke-opacity:0.90661477;paint-order:fill markers stroke"
           id="rect1877"
           width="10.583344"
           height="10.58333"
           x="276.48953"
           y="115.76044" />
        <rect
           y="127.66668"
           x="252.67709"
           height="10.58333"
           width="10.583344"
           id="rect1879"
           style="opacity:1;fill:#086cb7;fill-opacity:1;stroke:#7cb3f5;stroke-width:0.35299999;stroke-linecap:round;stroke-linejoin:round;stroke-miterlimit:4;stroke-dasharray:none;stroke-opacity:0.90661477;paint-order:fill markers stroke" />
        <rect
           style="opacity:1;fill:#086cb7;fill-opacity:1;stroke:#7cb3f5;stroke-width:0.35299999;stroke-linecap:round;stroke-linejoin:round;stroke-miterlimit:4;stroke-dasharray:none;stroke-opacity:0.90661477;paint-order:fill markers stroke"
           id="rect1881"
           width="10.583344"
           height="10.58333"
           x="264.58331"
           y="127.66668" />
        <rect
           y="127.66669"
           x="276.48953"
           height="10.58333"
           width="10.583344"
           id="rect1883"
           style="opacity:1;fill:#086cb7;fill-opacity:1;stroke:#7cb3f5;stroke-width:0.35299999;stroke-linecap:round;stroke-linejoin:round;stroke-miterlimit:4;stroke-dasharray:none;stroke-opacity:0.90661477;paint-order:fill markers stroke" />
      </g>
      <rect
         y="91.418755"
         x="164.04167"
         height="43.656258"
         width="59.53125"
         id="rect1954"
         style="fill:#3d76a9;fill-opacity:1;stroke:#000000;stroke-width:6.5647707;stroke-linecap:square;stroke-linejoin:round;stroke-miterlimit:0;stroke-dasharray:none;stroke-opacity:1;paint-order:fill markers stroke" />
      <g
         id="g1968"
         transform="translate(221.05938,-72.350114)">
        <g
           transform="matrix(0.5,0,0,0.5,-0.132293,90.556257)"
           id="g1960">
          <rect
             y="151.4523"
             x="19.84375"
             height="30.427092"
             width="30.427082"
             id="rect1956"
             style="fill:#afd5fc;fill-opacity:1;stroke:#afd5fc;stroke-width:6.53599977;stroke-linecap:round;stroke-linejoin:round;stroke-miterlimit:18.10000038;stroke-dasharray:none;stroke-opacity:1;paint-order:fill markers stroke" />
          <rect
             y="156.74397"
             x="25.135416"
             height="19.843744"
             width="19.84375"
             id="rect1958"
             style="fill:#000000;fill-opacity:0.9922179;stroke:#000000;stroke-width:0;stroke-linecap:round;stroke-linejoin:miter;stroke-miterlimit:18.10000038;stroke-dasharray:none;stroke-opacity:0.98054474;paint-order:fill markers stroke" />
        </g>
        <g
           transform="matrix(0.5,0,0,0.5,-0.132293,90.556257)"
           id="g1966">
          <rect
             style="fill:#afd5fc;fill-opacity:1;stroke:#afd5fc;stroke-width:6.53599977;stroke-linecap:round;stroke-linejoin:round;stroke-miterlimit:18.10000038;stroke-dasharray:none;stroke-opacity:1;paint-order:fill markers stroke"
             id="rect1962"
             width="30.427082"
             height="30.427092"
             x="19.84375"
             y="196.40462" />
          <rect
             style="fill:#000000;fill-opacity:0.9922179;stroke:#000000;stroke-width:0;stroke-linecap:round;stroke-linejoin:miter;stroke-miterlimit:18.10000038;stroke-dasharray:none;stroke-opacity:0.98054474;paint-order:fill markers stroke"
             id="rect1964"
             width="19.84375"
             height="19.843744"
             x="25.135416"
             y="201.69629" />
        </g>
      </g>
    </g>
    <g
       id="g2264">
      <rect
         style="fill:#a0a9b1;fill-opacity:1;stroke:#000000;stroke-width:0.14277621;stroke-opacity:1"
         id="rect1970"
         width="140.22917"
         height="71.172905"
         x="301.625"
         y="151.74376" />
      <g
         transform="translate(305.32918,-0.13851166)"
         id="g1998">
        <rect
           style="fill:#3d76a9;fill-opacity:1;stroke:#000000;stroke-width:6.5647707;stroke-linecap:square;stroke-linejoin:round;stroke-miterlimit:0;stroke-dasharray:none;stroke-opacity:1;paint-order:fill markers stroke"
           id="rect1982"
           width="59.53125"
           height="43.656258"
           x="34.924999"
           y="165.64059" />
        <g
           transform="translate(0,2.3414638)"
           id="g1996">
          <g
             id="g1988"
             transform="matrix(0.5,0,0,0.5,-0.132293,90.556257)">
            <rect
               style="fill:#afd5fc;fill-opacity:1;stroke:#afd5fc;stroke-width:6.53599977;stroke-linecap:round;stroke-linejoin:round;stroke-miterlimit:18.10000038;stroke-dasharray:none;stroke-opacity:1;paint-order:fill markers stroke"
               id="rect1984"
               width="30.427082"
               height="30.427092"
               x="19.84375"
               y="151.4523" />
            <rect
               style="fill:#000000;fill-opacity:0.9922179;stroke:#000000;stroke-width:0;stroke-linecap:round;stroke-linejoin:miter;stroke-miterlimit:18.10000038;stroke-dasharray:none;stroke-opacity:0.98054474;paint-order:fill markers stroke"
               id="rect1986"
               width="19.84375"
               height="19.843744"
               x="25.135416"
               y="156.74397" />
          </g>
          <g
             id="g1994"
             transform="matrix(0.5,0,0,0.5,-0.132293,90.556257)">
            <rect
               y="196.40462"
               x="19.84375"
               height="30.427092"
               width="30.427082"
               id="rect1990"
               style="fill:#afd5fc;fill-opacity:1;stroke:#afd5fc;stroke-width:6.53599977;stroke-linecap:round;stroke-linejoin:round;stroke-miterlimit:18.10000038;stroke-dasharray:none;stroke-opacity:1;paint-order:fill markers stroke" />
            <rect
               y="201.69629"
               x="25.135416"
               height="19.843744"
               width="19.84375"
               id="rect1992"
               style="fill:#000000;fill-opacity:0.9922179;stroke:#000000;stroke-width:0;stroke-linecap:round;stroke-linejoin:miter;stroke-miterlimit:18.10000038;stroke-dasharray:none;stroke-opacity:0.98054474;paint-order:fill markers stroke" />
          </g>
        </g>
      </g>
      <g
         transform="translate(2.1166667)"
         id="g2027">
        <path
           style="fill:#afd5fc;fill-opacity:1;stroke:#000000;stroke-width:0.48306122px;stroke-linecap:butt;stroke-linejoin:miter;stroke-opacity:1"
           d="m 420.6875,176.61459 -2.64583,6.61458 h 5.29166 z"
           id="path2004"
           inkscape:connector-curvature="0" />
        <path
           inkscape:connector-curvature="0"
           id="path2012"
           d="m 432.59375,188.52084 -6.61458,-2.64583 v 5.29166 z"
           style="fill:#afd5fc;fill-opacity:1;stroke:#000000;stroke-width:0.48306122px;stroke-linecap:butt;stroke-linejoin:miter;stroke-opacity:1" />
        <path
           style="fill:#afd5fc;fill-opacity:1;stroke:#000000;stroke-width:0.48306122px;stroke-linecap:butt;stroke-linejoin:miter;stroke-opacity:1"
           d="m 420.6875,200.42708 2.64583,-6.61458 h -5.29166 z"
           id="path2014"
           inkscape:connector-curvature="0" />
        <path
           inkscape:connector-curvature="0"
           id="path2016"
           d="m 408.78125,188.52084 6.61458,2.64583 v -5.29166 z"
           style="fill:#afd5fc;fill-opacity:1;stroke:#000000;stroke-width:0.48306122px;stroke-linecap:butt;stroke-linejoin:miter;stroke-opacity:1" />
        <ellipse
           style="opacity:1;fill:#000000;fill-opacity:1;stroke:none;stroke-width:0.35299999;stroke-linecap:round;stroke-linejoin:round;stroke-miterlimit:4;stroke-dasharray:none;stroke-opacity:0.90661477;paint-order:fill markers stroke"
           id="path2020"
           cx="420.6875"
           cy="188.52084"
           rx="2.6458333"
           ry="2.6458387" />
      </g>
    </g>
    <g
       id="g2027-9"
       transform="translate(-537.63334,-52.916667)">
      <path
         inkscape:connector-curvature="0"
         id="path2004-7"
         d="m 420.6875,176.61459 -2.64583,6.61458 h 5.29166 z"
         style="fill:#afd5fc;fill-opacity:1;stroke:#000000;stroke-width:0.48306122px;stroke-linecap:butt;stroke-linejoin:miter;stroke-opacity:1" />
      <path
         style="fill:#afd5fc;fill-opacity:1;stroke:#000000;stroke-width:0.48306122px;stroke-linecap:butt;stroke-linejoin:miter;stroke-opacity:1"
         d="m 432.59375,188.52084 -6.61458,-2.64583 v 5.29166 z"
         id="path2012-3"
         inkscape:connector-curvature="0" />
      <path
         inkscape:connector-curvature="0"
         id="path2014-6"
         d="m 420.6875,200.42708 2.64583,-6.61458 h -5.29166 z"
         style="fill:#afd5fc;fill-opacity:1;stroke:#000000;stroke-width:0.48306122px;stroke-linecap:butt;stroke-linejoin:miter;stroke-opacity:1" />
      <path
         style="fill:#afd5fc;fill-opacity:1;stroke:#000000;stroke-width:0.48306122px;stroke-linecap:butt;stroke-linejoin:miter;stroke-opacity:1"
         d="m 408.78125,188.52084 6.61458,2.64583 v -5.29166 z"
         id="path2016-1"
         inkscape:connector-curvature="0" />
      <ellipse
         ry="2.6458387"
         rx="2.6458333"
         cy="188.52084"
         cx="420.6875"
         id="path2020-2"
         style="opacity:1;fill:#000000;fill-opacity:1;stroke:none;stroke-width:0.35299999;stroke-linecap:round;stroke-linejoin:round;stroke-miterlimit:4;stroke-dasharray:none;stroke-opacity:0.90661477;paint-order:fill markers stroke" />
    </g>
  </g>
</svg>
