EESchema Schematic File Version 4
LIBS:laplace_IHM-cache
EELAYER 26 0
EELAYER END
$Descr A4 11693 8268
encoding utf-8
Sheet 1 3
Title "Shémas électrique - Connectique"
Date "2018-10-01"
Rev "HW REV 1.0"
Comp "Laboratoire plasma et conversion d'énergie - CNRS - UPS"
Comment1 "Licence GPL3"
Comment2 "Auteurs : Romain-brice BAXIU / Arnauld BIGANZOLI"
Comment3 "IHM pour boitier générique de contrôle commande"
Comment4 ""
$EndDescr
Text Notes 4950 1450 0    197  Italic 39
LAPLACE_IHM
$Bitmap
Pos 10600 6900
Scale 1.000000
Data
89 50 4E 47 0D 0A 1A 0A 00 00 00 0D 49 48 44 52 00 00 01 66 00 00 00 91 08 02 00 00 00 7F A4 85 
54 00 00 00 03 73 42 49 54 08 08 08 DB E1 4F E0 00 00 20 00 49 44 41 54 78 9C EC BD 69 94 5D D5 
95 26 F8 ED 73 CE 1D DE 3C C6 1C 0A 4D A0 09 CD 20 31 88 19 9B C9 60 1B 3C 55 66 9B CC AC EC 1C 
AA 32 BB 57 D7 FF FE D1 AB FF 55 AD D5 DD 59 59 E5 B4 D3 59 C6 CE 4A A7 D3 36 B6 C1 0C 06 0C 98 
79 30 83 04 48 02 84 84 D0 10 92 62 8E 17 11 6F BE C3 D9 FD E3 DE FB E2 49 08 08 34 61 C1 FB 96 
86 D0 D3 BB F7 9E 7B EE 3D DF D9 67 EF 6F EF 43 CC 8C 0E 3A E8 A0 83 85 41 7C DA 0D E8 A0 83 0E 
CE 27 A8 4F BB 01 9F 7D 9C 60 C7 11 D1 A7 D5 92 0E 3A 38 7D 74 AC 8C B3 09 66 06 07 3F 80 35 5A 
3F 77 D0 C1 79 8B 0E 65 9C 35 04 6C C1 9A 19 8D 89 E1 91 A7 EE 6D CE 4C 30 83 11 F1 48 07 1D 9C 
87 E8 50 C6 59 45 60 51 B0 33 B2 BF B4 FD 09 5D 2F A3 C3 18 1D 9C E7 E8 50 C6 D9 02 13 00 10 40 
60 7F 76 D2 36 84 8A C5 A8 B3 2C E9 E0 3C 47 87 32 CE 22 38 F2 5E B8 73 25 C3 4E 48 3B 09 22 50 
87 34 3A 38 8F D1 A1 8C B3 0C 26 66 AD EB 55 91 48 93 61 31 00 74 22 26 1D 9C C7 E8 50 C6 D9 02 
01 04 02 01 EC 7B F5 8A B0 E3 20 42 F0 61 07 1D 9C B7 E8 50 C6 D9 87 E7 EA 7A 05 56 9C 3B BD DD 
C1 F9 0F 15 2E B7 41 C0 71 8E FC CE 54 78 FA 08 7C 19 EC 38 68 D6 8C 78 2A 10 71 31 20 C0 9D 0E 
EE E0 3C 85 02 18 4C 2D 81 51 8B 3F B8 A3 52 3C 3D 44 3D C9 AE DB F0 9D A6 99 C8 20 5C 99 74 FA 
B5 83 F3 18 0A 4C 0C 8E 28 83 42 77 3E 51 67 22 3C 7D 10 98 99 D9 71 7C DF 17 F1 54 E0 DF E8 F8 
32 3A 38 AF 21 02 89 22 83 C0 60 76 35 7B 3A 4C 8B D0 9F 76 DB CE 6F 10 03 20 10 C1 6D 00 80 65 
77 EC B6 0E 3E 03 50 81 E2 08 0C F6 E7 9A 53 2F 49 D3 56 E9 0D 90 59 80 A2 7C 2A 6A 39 3A A2 57 
BE F3 EA 2F 0C 0C 26 B0 DB 24 90 30 2C 74 72 D2 3A 38 FF A1 40 00 04 41 6B 38 5E ED BD E6 D1 DF 
9B 99 D5 66 F7 2D 22 B1 92 28 DE 5A A2 70 68 74 10 75 A2 84 0B 03 03 4C 20 40 7B AE 06 84 32 3E 
ED 16 75 D0 C1 19 80 A0 70 75 4D 42 66 E2 83 5F 8F 2D FA 06 D7 47 6A FB FE 6B 73 F8 6E 5D DF A3 
D1 D4 60 66 26 26 E2 C0 D8 E8 88 17 17 86 40 30 CE D0 BE AB 41 90 F2 D3 6E 50 07 1D 9C 01 B4 EA 
65 10 91 29 54 AF 55 FC 92 91 B9 D8 99 7C CA 99 78 DA 99 7D DD 2A 5C 63 14 AE 83 D5 07 98 08 38 
A3 23 2E 58 30 42 6B CC F3 00 40 74 4A 93 74 F0 59 40 F8 1E 47 6B 6C CD 90 30 06 CD BE 6F AA DC 
A5 CE E4 53 CD 89 27 9B D3 AF 58 5D D7 99 F9 6D 30 7A 40 82 5A 76 06 01 6D 52 8E CE 72 E5 04 50 
D8 39 04 B7 C9 04 C8 33 4C 19 A1 DB BA ED 82 1D 3F 49 07 E7 00 27 BC C7 82 42 DD 80 4D B1 0B 63 
83 8B CC FC A5 CD F1 C7 EA 23 F7 BB 53 BF B7 BA AF 93 B9 AD 24 0B 04 41 44 08 D7 29 3E 40 04 C1 
1D 25 C7 49 41 08 93 5A E9 8C 5B 67 AC C1 82 01 62 0E C5 1E 9D FE EF E0 AC A3 9D 32 DA 86 3C 33 
40 4C 96 88 AF B7 87 96 9B 85 B7 9C F1 C7 EB C3 3F 91 93 CF 9B 5D D7 CB EC C5 24 73 44 04 10 B1 
00 88 49 07 0E 91 4F E1 0E FE 90 41 00 23 48 2C 39 1B 7D 43 4C CC CC 44 D4 11 D1 74 70 AE 70 72 
6B 39 50 3A 07 EF B9 16 49 99 DA 1A 8F AF 74 CB BB 9C F1 C7 1B 07 7F 28 52 CF 59 3D D7 AB E4 7A 
96 59 40 52 18 19 E8 BC B3 E7 14 61 C6 9B 53 F5 DD A6 11 CF B2 94 9D 07 D0 C1 39 C0 87 2C B0 83 
AA 0E 2C 10 04 60 41 2C B2 2A 73 85 4C AD F2 E7 5E 77 C6 7F D7 D8 FF 7D 4A AD 32 7B AE 37 12 EB 
59 66 C2 E0 00 73 DB C4 1A 7C F4 F9 B6 97 CF EE 8E 0F CC D0 E5 77 B7 CF EC DB 39 70 F3 B7 55 32 
FB 39 EE E8 0E CE 1D 4E 4E 19 A1 BC 2B 7C 03 29 64 0E 10 A8 5B E6 BE A8 D2 9B BC D2 AB CD C9 A7 
AB FB BF 6F A6 56 99 DD D7 C9 E4 45 10 29 62 05 0A CC 65 44 E4 11 9C ED 73 FC 2A 73 D4 8D 67 81 
3D 08 EC 1C DC 23 27 0F CB 8E 89 D1 C1 B9 C2 87 B9 F1 E9 64 0E 78 02 81 99 48 75 19 C5 1B 55 66 
B3 3B FB 9A 33 F1 64 FD BD EF C8 F4 5A B3 EB 5A 91 5A 0B 91 96 2C 00 84 39 2A 14 18 1E 9F DB F7 
99 00 86 50 CC 0C ED 9F C1 F3 86 E6 8B EF B9 33 13 2A 5B 24 D3 3E 83 27 EF A0 83 8F C0 27 8B FC 
71 AB 36 1D 14 19 BD 66 F1 16 33 7B 89 3B F3 AA 33 FE 54 7D FF 77 54 EA 22 A3 FB 3A 91 5A CB 22 
0D 10 91 4F 10 F4 79 D5 71 CC 1B 15 CA 24 00 BE 77 86 CF CF AC EB 65 67 76 2A B1 6A 03 44 47 27 
D6 C1 39 C2 27 14 0B 84 4A 83 30 EB 84 59 B2 EA 36 0A B7 A8 CC C5 EE EC AB EE F8 33 B5 F7 BF 2B 
D3 AB CD C2 95 2A B5 81 65 26 70 66 B4 5B 1A 6D 92 8E CF 0B 48 19 82 01 7D 86 29 03 80 57 99 E1 
FA 9C DD 3D 08 88 CF 59 A7 76 F0 A9 E1 93 51 46 5B 82 5A A0 C3 20 82 60 62 32 07 CC 62 AF 91 BB 
D4 2B BD DA 98 78 B6 FA FE FF 30 52 CB CD E2 75 51 86 9B 68 0B 33 32 13 45 A1 C7 CF C5 5B 2E 94 
21 00 ED B9 00 00 7D BA 11 D7 36 97 88 5F 2E B1 D6 2A 5D 3C CD 16 76 D0 C1 C2 F1 09 AD 8C F9 81 
3E EF A0 88 78 84 A0 7A 55 E1 D6 64 66 AB 3B BB DD 99 7C BE 76 F0 6E 99 58 62 16 B7 19 E9 8B 49 
15 18 2A 38 98 22 DD E2 67 DB C7 D1 F2 FE 0A 65 82 59 BB 4E 14 B9 3E 53 60 6F 76 92 95 21 93 19 
74 84 19 1D 9C 2B 9C 19 15 33 87 79 9B 00 49 18 3D 46 F1 46 23 B7 C5 9F DD E5 4C 3E ED 1C FC B1 
1B 7B 52 75 5D 61 64 2E 21 A3 87 D9 A4 50 F7 F5 39 F1 71 30 0C 5B 13 73 B3 0E 20 62 92 53 1F E1 
6D 69 81 BA 39 35 66 C4 E2 2A 91 EE F0 45 07 E7 0C 67 28 F1 21 7C 8D 89 88 00 0D 48 2D 0B 32 77 
6D 2C B3 D1 AB EC 76 A6 9E 6D 1C F9 85 3B F6 B4 51 B8 CC C8 5E 06 7B 10 64 50 E4 F6 A7 F6 68 EC 
BC 58 F2 AC 80 E7 FF 9A 6F F1 59 BA 56 78 7E 80 4C 4B 08 C1 B5 4A 2B D0 71 5A D7 6C F9 84 D8 F7 
2B 25 95 CA 08 33 1E F4 F9 99 68 6F 07 1D 7C 0C CE 0C 65 1C 57 84 87 05 31 44 A0 09 15 05 23 73 
A5 91 DA E8 55 DF F5 26 9F 69 8C 3D D6 98 78 D6 CE 5D 2C F3 57 50 6C 89 20 8B 20 41 22 DA 21 A8 
E5 22 39 23 8D 3A 39 98 19 CC 1A 3E 34 0B 21 11 E4 CB 9C BD CB 11 A4 69 4B D3 76 2B 33 CC 0C D2 
C4 C4 A7 BA 24 E3 90 75 08 60 D2 BE 57 9D 93 89 34 09 C5 1D 2B A3 83 73 85 33 64 65 B4 3B 33 E9 
38 2F 05 43 6A 99 94 A9 4B 64 62 8D D1 38 E8 4C BD E8 4C BF 84 89 17 55 76 83 2A 5E 26 13 AB 84 
48 03 22 D0 80 E1 AC 5B D8 0C 68 30 97 F7 EF E4 72 29 BB FE 4A 28 EB AC 5E 0C 20 69 DA 64 27 9C 
EA 1C 31 87 75 8A 4E EB AC 14 D0 06 3B 8E 5F 2D 1B 5D FD 4C 1D B5 7E 07 E7 0E 67 B7 88 43 B4 6A 
27 40 B0 48 C8 C4 EA 58 FC 02 DD FD 05 B7 F4 A2 33 F5 92 FB DE 6B 2A B9 DC 28 5E AD 52 6B A1 F2 
80 11 E6 D3 9F B5 69 9F 18 60 D2 A4 9D A3 FB 2B 6F 3C 93 5A BA 46 E5 FA 82 C4 AE 33 7E 2D 0E 48 
94 19 86 21 E3 69 AE 57 C0 3E 91 0C D7 61 A7 B7 36 21 86 DB AC F9 8D 9A 9D CE B7 A7 B2 76 D0 C1 
D9 C6 59 AF FB 42 08 73 55 08 04 48 90 90 D6 32 D9 33 68 E6 AF 73 E6 DE 70 A7 9E AB 1D F8 A1 B4 
BB 8D C2 56 95 DD 2A AC 01 C0 0A B4 D5 44 F3 F5 46 CF 54 AA 0A 83 98 C0 4C C9 C1 65 73 2F 3E D8 
18 39 90 C8 F6 12 85 55 4E CF 38 71 30 33 31 40 52 C5 52 7E 79 12 EC 13 B5 C4 F4 A7 02 6A F3 C1 
F8 CD BA 76 1D 99 CA 83 88 02 5D 7A 87 35 3A 38 FB 38 BB 94 11 FA 38 88 C3 1D 7F A2 4F 41 A6 B0 
06 EC 62 9F 95 BF CC 2D EF F6 26 5F 6A 8E 3C DA 1C 7F D2 CC 6E 31 F2 5B 65 6C 19 44 22 FA 7E AB 
92 4F FB 90 38 D5 C1 41 20 26 01 61 F6 2E 31 D2 5D B5 03 6F 25 56 6D 01 14 9F 1D 3F 68 94 AA 23 
64 2A E3 8C EC F7 9B 75 21 63 A7 A9 C9 08 9C 46 9A 18 4E 0D D0 64 27 C3 25 61 27 CE DA C1 39 C1 
D9 AF 2E 47 27 EC DC D1 E6 E5 20 09 2A 1A 99 6D 32 B5 D1 A8 1F F2 4A BF 77 66 76 34 A7 5F 30 92 
17 18 F9 AD 32 BD 4E C8 2E 90 64 10 F1 09 43 FA 14 87 07 05 7A 10 82 8C A7 62 8B 2E AC 1F 7E C7 
AF CD 89 44 F6 6C A8 DA 29 34 6A 98 99 CC 5C 71 A6 5E F3 AA 73 66 3C 07 80 49 9C C6 E0 0E 42 4A 
DA 6F 34 18 10 56 BC 63 5D 74 70 2E F1 E9 17 A4 24 32 84 48 8B C4 3A 23 BE D2 EC BE D1 9D D9 E1 
95 5E 6A 1C F8 31 D9 45 23 B7 D5 C8 6D 12 D6 22 A6 18 00 B0 38 33 A6 00 33 93 8A 2F BF 68 76 F7 
F3 CD D1 43 F6 F2 EC D9 DB 8F 28 10 D7 CB 6C 97 D6 BE 5F 99 41 D7 10 40 A7 E7 7B E0 40 0A C7 CD 
3A 43 90 61 76 D6 24 1D 9C 4B 7C CA 94 71 DC AE 6C 64 92 B9 D8 EC 1A 34 0B 57 7B 95 3D DE F4 4B 
CE F8 63 CD 89 27 8C F4 6A 95 BB 5C 25 57 92 CA 32 1B E1 D7 DB 5D 1C 6D 05 48 3F F6 82 C1 12 89 
C0 F6 E0 32 99 CC D5 F6 EF 8A 2D 5B 07 12 67 C7 AC 0F 5B A6 52 79 49 E4 CF 4E 7D 60 85 75 1A 68 
36 40 82 0D 33 4C 17 EE F8 3F 3B 38 27 F8 14 29 63 DE 97 07 84 23 56 00 4C 04 55 34 B3 DB CC CC 
C5 7E E3 90 37 FD 9A 53 7A B5 59 FA BE 8A 0F 18 B9 CD 46 66 93 30 FB 41 76 9B 72 89 C3 05 07 31 
78 21 22 8B 60 E2 67 95 2A C6 87 56 56 F7 EF CE 6D 9B 15 C9 FC 19 9F A8 C3 0C 3E 68 B0 50 89 8C 
B4 93 8D C9 63 C9 50 29 7F 3A A7 65 22 30 83 DD BA 52 4A 2A 03 91 83 A3 63 6A 74 70 0E F0 E9 5A 
19 D4 FA DD D2 74 B4 7E 64 8A 8B D8 0A A3 6F B9 D1 75 83 57 DD E5 94 5E 6D 8E FE A6 39 F2 88 CA 
AC 35 72 17 AB E4 6A 21 8B 1C 86 55 E4 FC 41 1F 37 6E 02 4A 61 26 08 33 B9 62 C3 DC DB 2F 37 8E 
BD 97 B8 60 2B CE 92 9D 01 00 2C 63 71 33 5B 70 A6 C7 98 7D 12 F2 B4 C7 37 13 C8 6B 36 A4 94 52 
A9 88 31 3A CB 93 0E CE 05 3E 7D 5F C6 47 80 40 10 0A 66 AF 69 F4 98 99 2B BD C6 21 77 E6 65 AF 
B4 BD 3E BD 43 D8 BD 2A B7 D1 C8 6E 96 F6 10 28 C6 20 FA A4 3A 4E A2 D8 A2 55 46 26 5F 7B F7 F5 
D8 B2 CD 42 A8 33 3B E0 A8 65 68 10 20 4D 95 EF 6E 1E 79 8F 9D BA 88 19 A7 B3 88 68 55 11 D0 BE 
27 84 A4 F9 ED 51 3A 7C D1 C1 B9 C0 1F 30 65 30 18 91 96 9C 08 88 8B D8 2A 33 B6 CC EC BA 49 57 
F6 38 A5 ED CE E4 53 CE F8 93 2A B1 54 E5 36 AB D4 3A 98 DD 80 05 9E 4F B5 A0 56 BA 4A A0 47 9F 
4F BD 0D A5 0C 32 91 4F 5C B0 A1 F6 CE 8E 6C 79 52 E4 FA 5A D7 05 CE D0 00 0C D2 FC 99 99 A4 D5 
BB A4 F2 F6 6B DE EC 94 8C A5 4F D9 C8 88 92 70 38 62 0E 11 A6 F5 74 76 B0 EB E0 5C E1 0F 97 32 
A2 74 35 8A D4 0D 2C 20 00 9B 8D 7E 91 EB 55 D9 CB B9 79 C4 9B 7D DD 29 ED A8 1F FE B9 90 0F AA 
CC 3A 23 B7 51 26 2E 84 CC 13 4B 02 B1 88 52 B8 C2 42 3F D4 BE F0 01 98 05 A5 56 5C 5C DE FE 6C 
FD C0 5B 46 A6 27 54 9C CD 5F FD 8C DD 07 31 CC AE 01 AD B5 3B 3D 6A F6 2C 3D ED B3 B7 91 04 07 
A9 AD 1D E7 67 07 E7 08 7F B8 94 71 FC F0 6E 77 77 00 10 8C 18 59 17 98 DD 8B 8D C2 F5 7E 7D BF 
3B F3 86 3B B7 CB 29 BD 24 CD 1E 23 B3 56 66 D7 8B D8 52 C1 69 82 01 8A 72 F3 C3 34 52 D1 72 17 
02 64 F5 2D B1 FA 17 CF BD F5 72 7A CD E5 B0 92 D1 97 CF CC 08 6C B9 6A 18 30 73 DD 46 2C DE 1C 
39 10 5F 75 D9 69 6E 85 DD 4E 18 08 1C C6 0C EA F8 3F 3B 38 27 F8 03 A6 8C 0F 47 58 AC 9B 98 61 
40 14 64 32 2F 93 1B 2D 77 CA AF BE E3 CD 6C 77 A7 5F 70 C6 9F 12 89 7E 95 DE 64 64 36 0A BB 0F 
14 03 14 9F 28 EB 20 00 B0 12 C9 8B B6 4E 3E 71 4F 63 EC A0 39 74 91 08 0C 92 B3 A0 EC 92 89 AC 
59 EC 6B 8C 1C 24 DF 65 C3 3A 73 83 9B 4F 3B 08 D3 41 07 9F 00 E7 25 65 00 68 E5 9F E8 20 09 16 
26 8C 7E 95 ED 91 D9 4B 4D 67 4C CF BD ED CC EC 68 8C FD B6 39 F6 B0 8A 2F 57 99 75 32 BD 5A 58 
8B 80 18 B1 3C 5E C6 21 93 CB 37 96 5E 7C A4 BC FB A5 C2 E0 85 2C 4D C2 59 98 B1 09 24 95 D9 B7 
7C EE CD 67 BD CA B4 CA F5 9F 91 B3 32 33 33 2F BC A1 1F D8 C6 35 6C 5A 87 70 3A 58 38 CE 4F CA 
A0 C0 1C 17 0C 88 C8 5D 49 04 40 10 12 B0 96 CB AE C5 46 F1 6A AF 71 CC 2F EF F4 4A 6F 36 8F 3E 
88 63 0F C9 D4 62 95 D9 A8 92 6B 84 D5 C7 14 A3 A0 22 29 B1 CC 76 A5 D6 6C 29 EF 7E 29 B7 F5 8B 
AA 30 84 36 8F C6 19 04 13 C5 16 5D 50 7A F9 51 67 F2 88 CA F6 B5 37 FA 93 9E 29 A8 10 24 4D 4B 
6B 4F FB 9E 08 03 AC 1F 73 2A 0E D3 E4 98 09 D0 9A D9 05 29 22 01 12 38 51 8F DF 41 07 1F 8A F3 
92 32 5A 13 63 F4 07 CD FF 4F 08 83 39 23 ED B4 B0 97 1B F9 1B 75 F3 A8 57 DE E5 CF EE 74 8E DC 
E7 D0 FD 22 B1 54 A5 D7 CA D4 6A 69 F5 B1 48 80 44 62 CD 65 33 AF 3F 57 DE B3 23 BB AD 0F 90 67 
21 E5 84 00 61 76 F7 1B B1 78 E3 D0 BB B1 E5 17 13 9D 6A 11 2D 0A 62 49 2C CC 98 EB B9 DA 73 82 
8F 17 68 17 31 C0 0C B7 3C 59 7A F3 85 CC AA 8B ED AE 01 06 3E B7 1B 47 74 70 0A 38 2F 29 63 01 
60 84 75 89 15 AB 8C 90 19 33 BE 12 DD 37 73 FD B0 57 7E C7 9D DD DD 3C 7A BF 16 0F C8 F8 90 91 
D9 60 24 56 58 5D 85 C4 85 2B E7 76 3E 97 5A 7F A5 4A 17 4E A3 6E D6 C9 11 B8 5B 55 32 67 F6 0E 
D5 87 DF CB 79 0D 98 89 53 3E 5B 18 21 B1 E3 BE F6 D8 73 F8 78 D6 FC A8 36 00 9A 88 B4 76 47 F6 
CF BC F8 48 72 E8 42 C6 D0 59 AE 9D D8 C1 67 0D 9F 55 CA 40 C4 1A 81 8A 81 18 0A 94 11 F1 B5 46 
6C B5 EA FA A2 6E 1E F1 E7 DE F5 E6 76 37 47 1E 72 D8 17 B1 BE 78 AF DB D8 BB BD F6 FE 8B E9 0D 
37 82 AC 76 17 41 20 E2 88 FE 11 D5 1C 6C D3 A9 06 FF F1 31 CD 21 40 1A F6 92 8B A6 9E FD B5 3B 
35 62 F5 5D 80 53 AC B3 4E 61 64 D5 8A 09 06 1C 27 DA 45 7B 41 76 46 C0 0E CD 63 EF DB A6 61 65 
8B 88 98 B5 83 0E 16 88 CF 2A 65 04 9B 1F 30 04 13 8B 50 48 CE 04 0A 0A 70 E5 44 BC A0 E2 17 D9 
DD 37 FB CD A3 5E 65 8F 3F BB 9B ED F7 72 AB 6B 34 FD 03 E7 F0 61 CA AE 53 F1 E5 64 14 00 0B 10 
91 C3 24 50 51 51 B4 08 60 8A 02 37 0B 5E 13 50 7C 68 D5 24 B8 71 78 AF D5 BB 14 10 1C 0C D8 85 
FB 11 A2 7A C7 04 52 56 5C 30 FB CD 1A 31 08 7A 21 BE 0C 00 60 66 ED 37 C7 47 8C 42 9F 4A 64 99 
B8 13 9D ED E0 13 E1 B3 4A 19 2D 87 07 CD 9B DD 6D F6 37 01 80 62 91 14 F6 0A C3 BE D0 C8 DF A0 
DD 31 37 BF 7D F6 E9 EF B8 95 9F AA 45 2F 92 4A A9 F8 52 95 5A 2D 52 2B A4 D5 07 99 04 54 94 11 
06 90 0E CF C2 20 16 C0 82 06 1D 83 AC 62 AF DD 3D 50 DD BF 33 B5 F9 3A 28 93 58 9C 62 11 41 26 
61 C5 09 82 EB 15 A6 20 D5 66 61 E6 0A 31 3B 75 B7 34 11 5B 74 01 A4 A2 30 A5 AF C3 19 1D 2C 14 
9F 5D CA F8 38 70 A0 BF 08 8A E0 88 A4 B0 12 66 6F AF B6 DE 2F 0F EF E9 BB E4 EB 3E 4F 72 F9 ED 
E6 D1 7B 35 29 19 2B CA E4 0A 95 5C 29 E3 43 50 79 8D 18 B1 24 8A AC 8B 85 0E 38 22 02 CC 58 62 
F9 FA D9 97 1F 73 A7 C7 8C EE 81 C0 1A FA 04 6D 26 6E 15 63 17 76 42 18 A6 37 33 C9 D0 0C F1 B1 
0E CC 20 A9 16 0C BF 3C E5 55 4A 56 CF 20 48 52 10 6A E9 54 F4 EA 60 C1 F8 FC 52 46 A8 9A 8C 04 
DD 0C 62 2B 9E DD 72 D3 D1 7B F6 D6 86 39 B3 E5 5B E8 6B E8 E6 31 BF 7A C0 2B BF E3 95 B6 37 27 
9E 16 32 21 E3 03 22 79 81 4A AC 94 76 BF 50 59 90 CD 91 2A 1D 40 C0 23 D1 F9 01 00 C4 6D 85 D3 
99 21 E2 CB D7 4F BF F8 48 7D FF 2E A3 6B E0 14 BC AC 1C CA 53 D9 88 25 28 9E A8 97 26 D2 9A 59 
7E 7C 91 65 8E BC 20 5E B9 C4 BE 67 E4 7A 22 FB 46 74 18 A3 83 85 E3 F3 4B 19 AD FC 93 60 69 40 
F0 25 0B 7B 68 75 72 E5 C6 B9 57 7E 97 B8 60 B3 CC F7 CB 58 4E C5 D6 58 5D 37 B2 5B F2 6A 87 BC 
CA BB 7E 65 AF 37 FA B8 AB 1F 21 2B 2F E3 8B 54 72 85 48 2C 17 66 0F C9 24 60 71 68 76 50 B4 22 
E2 70 B7 23 0E 3D 1F 02 64 15 07 63 7D 4B 2B EF EE 48 6D BE 86 AC E4 27 DD B5 88 10 E5 DB 19 B6 
4A E5 FD EA 8C D0 9A E5 42 12 EA C3 C4 5A 7F AE 44 42 CA 64 36 6A 63 47 92 D1 C1 27 C0 E7 97 32 
A2 C1 17 15 D0 80 60 22 18 76 E6 92 2F 8C EE FB FF CA 3B 9F CD 5D 73 07 C8 06 49 22 05 C3 52 E9 
6E 99 DE C4 BA 01 67 DC AB 1F F0 2B 7B 75 ED 40 63 76 27 98 84 59 14 F1 45 32 79 81 88 2F 91 56 
37 C9 34 60 69 88 56 EE 07 48 8B 30 C8 42 30 ED E4 9A 4B 26 1F FF B9 33 76 D0 1E 5A F7 09 9B DC 
6A 2F 58 48 23 95 6D 8E BE CF BE 4B 86 B9 90 DB 0D 8A 11 35 4B 13 CA 8C A9 78 2A 3A E1 27 ED B8 
0E 3E D7 F8 1C 53 C6 71 88 54 0B 80 DD 7F 41 7A E3 B6 F2 6B 4F 25 56 6E 31 FA 2F 94 F3 EA 52 09 
16 24 0C D8 49 33 B6 0C F9 6B A0 6B BA 31 E2 D7 DE F7 AA FB 74 ED 90 37 B3 5D 83 94 59 10 F1 41 
91 58 26 E3 4B A4 D5 0D 95 65 D8 22 C8 E2 0F 17 42 22 B1 7C C3 EC 73 0F 55 F7 6C B7 16 AD 0A F6 
9A 3C 95 16 13 59 C5 DE EA DE ED 6E A5 64 5A C9 85 8D 7C 06 B3 5B 2E 89 78 4A D8 A7 2E 0C E9 E0 
F3 8C 0E 65 00 68 4B 0E 25 90 32 D2 97 7C A1 B2 E7 CD 99 97 1E 2E DE FE 57 30 63 4C 0C A2 68 E7 
C7 96 EB C2 60 91 15 B1 2C C5 56 A8 C2 0D AC 2B DC 1C D1 B5 C3 BA 7A C0 AB 0D 3B B3 6F 01 9E 50 
49 69 F7 C9 F8 12 99 58 2A AC 5E 61 16 88 92 80 52 99 62 6C C5 A6 D9 3D 3B D2 5B 6F 32 72 FD D1 
DE B4 51 53 E6 07 7F BB 06 A4 5D 3D 41 44 C4 20 A3 6B 50 7B 8E 3F 37 8E C2 E0 02 BD 11 CC 8C 66 
59 C6 13 2C CF 70 49 A1 0E 3E 27 E8 50 46 0B 61 D2 0A 48 1B B9 81 EC 65 37 4D 3C F1 AF 89 D5 5B 
92 AB 2F 8D CA F6 B4 27 80 45 91 0E 62 62 05 48 48 1B F1 2E C4 D7 A2 E8 41 D7 FC E6 B8 6E 0C 7B 
95 F7 FD FA 21 67 E2 39 8C 3E C6 D2 94 56 41 C4 16 C9 C4 62 61 0D 24 56 0E 4E EF 7A B4 BA F7 B5 
CC 96 9B B5 10 C4 52 80 99 C4 BC DC 23 DC FB 29 F0 84 04 8C C1 08 B3 41 82 86 90 CA 16 49 1A CE 
C4 68 6C A9 FF B1 8F 92 43 3B 47 7B CD BA B2 52 9D A4 92 0E 4E 0D 1D CA 08 41 2D BF 22 4B 2D 44 
62 ED B6 EA BB 3B A6 9F FB B5 3D B0 4C 66 7B 89 99 89 4F A8 15 18 8A 3D 8E 93 5B 4B 40 40 9A 32 
96 11 B1 65 22 7B 25 71 03 EE B4 6E 8E 7A B5 23 7E F5 B0 5F 3D E0 95 76 30 1C A1 55 7E D1 21 4C 
FE CC 9F F0 39 31 28 CC 3E 52 29 86 0D 92 00 31 04 05 9A 55 B0 6E 5D 20 D0 B1 B7 45 59 8C 54 DE 
CA 14 EA 23 87 32 BC 90 8D 9C 89 C0 CC 9E EF B8 32 69 75 62 24 1D 9C 1A 3A 94 71 22 82 C5 80 48 
A4 F2 57 DF 36 F2 F3 BF 9B 7D E5 F1 EC F5 DF 10 C2 5E F0 AC 1C 19 09 50 82 24 60 C2 CC 28 73 B1 
4C 6F 01 3C F6 CB EC 4C F8 CD 51 BF 3A 9C 34 BA 1B 7B 9E AC BE F9 1D D1 D5 2F A4 0D BB 28 AD 3E 
69 F7 0B 7B 11 AC A2 30 52 5A C4 C1 26 48 02 AC 21 28 E0 90 B6 F4 75 B2 92 46 F7 A0 3B 71 58 BB 
0D 61 A9 8F 66 01 0A A2 37 DA 87 E7 41 1A A0 4E 2A 5A 07 A7 82 0E 65 9C 14 24 00 6B 70 55 FA 92 
9B 4A AF 3C 6E 2F 5D 15 5F 7E 09 B1 58 98 2E 3C 30 57 A2 72 A3 A1 D8 2B C8 16 B5 48 9A B0 0B C2 
5E A9 D2 1E E7 6E 2A BD 4E 34 37 59 58 7F 07 FC 19 BF 79 44 57 DF 77 66 76 30 7B 02 96 30 32 64 
16 84 D5 2B E3 3D 64 75 93 51 10 46 16 22 06 32 08 32 0C BE 08 61 0D 5E 50 D9 BB D3 2D 8D 5B BD 
49 6E AB 85 D1 AA 08 DA 96 00 13 56 02 11 9A 21 40 61 D5 50 20 5A FE 1C 2F 8D ED A0 83 93 A3 43 
19 1F 40 28 A8 10 24 ED EC 96 1B EB 07 DE 99 7A FA 3E AB 6B 88 D2 5D 0B CB 58 6F 25 A1 CC FF DC 
4A 16 0D 13 E5 C0 80 41 76 57 72 C3 4D E3 0F FD 24 3D 9D 8F AD BA C9 20 2D 74 55 BB B3 DA 1D F7 
EB C7 FC FA 88 76 C6 BD F2 0E 67 BA 42 EC 83 0C 32 73 C2 C8 0B 33 AF EC 2E B2 7A 60 16 48 25 AD 
9E 14 EB 7A 7D 64 BF D9 B3 08 24 C0 61 11 90 96 E3 A5 CD 6B CA F3 89 26 A1 24 2C 5A CE CC 93 0D 
85 A9 34 1F 04 47 75 9B 23 D1 DA 27 EB D5 0E 3E 2B E8 50 C6 89 08 8C 04 02 B1 60 99 2A 14 AE BB 
E3 D8 2F FE FB DC EF 1F C9 DE F0 2D 21 E2 0B CD 15 0D 7E A4 E3 FF 1D 7C C8 08 6A 69 11 44 EC 82 
CD 56 DF 73 33 AF 3C 15 5F B2 96 62 69 48 5B CA A2 B0 97 C9 94 CB EC 11 3C 78 15 ED 96 B4 3B AB 
1B 63 7E 63 18 EE A4 5F DD E3 94 B6 43 FB 02 1A D2 64 6D A4 07 F6 EA A9 7F 73 46 A7 C9 CA 0B 23 
4B 2A 43 2A 49 32 06 B2 98 4C 40 84 49 79 00 A0 41 CC C4 A4 75 B4 59 54 5B AB B9 E5 62 45 A8 FD 
08 6D 26 46 E8 7F 25 20 68 79 87 2F 3E BF E8 50 C6 47 81 04 D9 4B D6 E4 2E BF 75 FA 85 07 CC C1 
65 C9 D5 DB 58 CE F7 D8 29 CF B4 A1 CB 94 21 ED 74 F6 92 6B C7 1F B8 BB F2 DE EB C9 75 57 45 A5 
6E 88 60 80 14 98 A0 52 D2 E8 13 60 A4 35 E0 01 3E 74 43 7B B3 EC 96 D8 2D 79 8D 09 BF 39 66 2F 
9E 6D 1E DE 51 4F 39 6C 19 04 5F B0 14 2A CE 2A 41 2A 2D 54 9A 8C 94 B4 B2 50 19 A1 D2 90 09 D2 
42 5B 75 E6 19 F0 1C D8 62 48 04 CB 9C A8 69 81 51 A4 5B EE E0 28 FE CB C4 61 F1 AF 68 5B CB 0E 
3E 9F E8 50 C6 87 22 48 18 61 69 A5 2F B9 A1 7E 64 FF E4 EF EE 31 BB 16 99 DD 4B 4F DB 26 67 50 
90 F7 AE 05 21 71 C1 26 7B F1 AA D2 EF 1F 8E 2F BD 88 92 5D D1 82 86 88 89 C3 D1 19 FC 2D 99 24 
83 49 C4 A5 59 80 C5 CC 5A 41 33 3B B5 E6 86 D9 17 BF D3 BB F1 EB F6 D2 0B 59 CF B2 53 D2 CD 69 
ED 94 D8 9B E3 E6 51 5D A9 3A DA 61 ED 09 68 26 96 4C 99 EC BB 64 64 2B EF 55 48 C6 48 DA 24 13 
42 C6 85 8A 43 C5 21 6C 92 16 09 0B 64 82 2C 08 45 24 29 D0 BF 02 44 8A 64 02 14 C3 67 A8 8A 57 
B8 DE 6A 39 7D A8 ED F3 48 82 73 A2 A1 F8 F9 46 87 32 3E 1A 24 48 50 3C 53 B8 FE CE D1 9F FF B7 
A9 DF DD D3 73 FB 5F 88 44 9E 5A 42 F3 53 39 25 82 BC 16 86 00 48 C4 32 F9 4B 6F 1A B9 E7 EF E7 
DE 7C 3E 7B F9 ED 2C 0D C1 08 A5 63 E1 B7 E7 AB 16 52 4B D3 45 44 90 0C 01 48 BB EF 22 95 1C AC 
1D 9E 4A AC B9 0D 52 31 02 71 3A 83 3C B0 CB 7E 9D FD 2A FB 55 ED 57 D8 2F 53 73 CE 39 FA 90 5B 
1E B1 29 A6 B5 C3 7E 89 75 C3 F7 5D ED FB 9A 3D 02 13 71 B8 37 4A 30 50 48 0A A1 08 0A 10 9E 48 
58 3D B7 DA 85 6D 44 C6 71 22 95 13 EE EE 3C 42 58 10 35 FC 99 09 6D 3E 20 0E 5C 3D 91 6B EA FC 
BA B1 B3 88 0E 65 7C 14 5A 3E 09 B3 67 59 F1 0B DF 1C B9 FF 6E E3 E5 47 F2 57 DF 21 8D D8 27 CA 
25 3B E1 AC F3 32 52 86 06 9B 4B D6 24 D7 5D 31 F7 F2 6F 13 17 AC 37 7A 96 07 82 2B 80 E8 E4 19 
ED F3 32 D1 60 C7 15 99 CC C6 96 5D 54 3D B0 2B 57 2D A9 54 37 41 80 02 FD 88 09 02 89 0C 0C 20 
70 71 B2 D6 EC B9 98 6A 94 76 17 16 FD AF 64 27 89 3D 62 57 6B 47 EB 26 C2 5F 8E 66 07 DA 85 76 
49 3B D0 2E B3 E3 FB 4D AD 7D C9 02 66 21 4A 88 6D E1 78 59 EA 79 36 B4 42 5F 6F E8 FF E5 36 95 
6D A8 EF 67 26 C2 A9 CF 0F 9F 41 74 28 E3 A3 C0 51 A1 4D 12 2A B1 6A 6B 61 EA E8 CC 73 BF B1 0B 
7D 89 F5 57 43 08 71 26 02 07 04 90 8A 67 2F BD A9 FE DE CE 99 17 7F 53 F8 D2 9F 09 33 45 0B 32 
85 39 28 9F A1 49 25 56 6C 9E 7B F3 99 DA C1 B7 53 6B 8B C7 AB BD 3E 70 35 41 56 BE BB B6 C7 F5 
6B 8E 61 27 82 31 4E 92 25 74 E4 F4 24 49 6D 57 00 33 60 80 11 7C 21 DC 38 EA 38 7F 6E 3B 6B 30 
9F 62 CD A0 4F 05 61 89 35 AD DD 6A C9 6F 54 5B CE 9B 70 91 62 C6 64 2A AB 20 CF A3 3B 3A 07 E8 
50 C6 47 22 AC 3A 2C 08 0C 69 A5 B7 DE EC 8E 8F 8C 3F FE B3 BE 74 DE 5E BA 01 24 99 5B CB 84 53 
03 31 41 B0 36 BB 06 33 57 DE 36 F5 F8 CF E2 2B D6 25 57 5F 0D 29 3F B6 FE 05 00 E2 B0 0A A0 DD 
BF DC EA 5A 5A D9 FD 4A 6A F5 16 A8 D8 C9 BF 1C 6A 45 84 CA F7 6B C7 F1 CB 33 66 7E 51 78 87 40 
4B 14 DF C6 06 14 AC 52 A2 7F 8A B0 E8 1F 00 68 C0 6F 27 8A E8 08 19 F5 C9 F9 12 56 21 06 EB E6 
DC D4 C3 3F 74 DE 78 1A 98 5F 6F 6A D2 D6 C6 EB BB BE FC 17 30 D3 0B 2F A3 F4 79 40 87 32 3E 0A 
AD 14 34 22 62 22 19 CB E6 AF FF 96 73 EF 77 C6 1E FD 97 FE 3B FF 93 EA 1D 24 C8 A8 A8 D5 29 BD 
52 81 84 42 10 D8 48 AD DD 56 DF F7 C6 D4 33 BF B1 7B 57 AA 42 5F 18 01 8D EA 8B 7E C8 2B 1B DA 
CC D2 4E A5 D7 5C 3A F9 EC AF 9A A3 87 EC C1 55 27 7D C5 19 0C 68 62 32 32 45 12 E4 4C 1D B5 97 
AC 25 04 81 90 70 33 E8 13 62 21 F3 7E 94 C0 E0 0A 22 27 9A 6B C3 7B CA DB 1F 17 4E 3D AA E7 45 
0C F2 49 C4 D6 6E 4B AF DE 0A 92 E7 D1 AC 4C 60 AF 32 ED ED 7E C1 7E E7 65 90 6E DD BD 4B 86 5A 
75 99 94 1F 5F 55 E0 F3 86 0E 65 7C 24 08 00 44 24 53 20 08 59 E8 ED BA F5 AE 91 5F FE E3 F8 A3 
3F EA F9 CA 5F AB 5C DF 69 CE 40 44 61 65 63 19 CF E4 AF B9 E3 D8 CF FE AE F4 C2 83 F9 9B BF 2D 
AC 24 82 AB 7E E8 D9 E7 E5 9B 10 32 B1 6A 63 E9 95 87 2B BB 5E B4 FB 2E 84 3A B9 9F 85 41 4C 2C 
33 05 99 C9 D7 8F BD 9F DE E4 B3 50 01 E9 88 96 D6 EC C3 10 A8 5A A1 19 7E 75 D7 8B 95 7B FE DE 
74 6B C4 14 38 72 19 68 9A 31 91 2A 60 F5 25 80 3C B5 D2 E9 E7 1E 04 68 C0 2B 4D EA D2 18 48 B7 
13 BF 56 A6 28 F4 42 98 88 74 B4 1D 04 F8 EC 44 CB CE 36 A2 E8 A7 B0 FA 57 F6 7C E9 4F DC 89 C3 
A5 C7 7F AA 2B 13 0C 7D 66 CE 4F C2 EC 5F 91 BD EA CB 33 BB 9E A9 BD FD 12 F9 2E 87 DE FC 8F 19 
79 41 F8 C6 C8 F6 A6 D6 5E 56 7D FB 35 67 EA 88 86 0E F6 5E 3C BE FD 61 98 47 D8 71 B3 67 91 3B 
32 AC 9D 6A 50 74 E7 E3 87 76 98 85 CF 60 82 F6 79 EA A8 E5 D4 2C ED 1B EC 9A DA 35 D9 31 B9 69 
C6 E3 76 6F 3F 48 10 05 C6 D1 79 32 CC 58 BB 13 C3 98 9B 42 CB A8 0C B6 AD 4C 66 AC DE A5 4C 82 
3E B0 25 E5 E7 1C 1D CA 58 28 5A F5 34 40 C2 5E B6 B1 EB A6 3F A9 BC B7 73 FA A9 5F 70 7D 16 AC 
99 99 F1 C1 71 BA 50 84 B5 04 85 CA AC BF 26 B5 62 EB E4 53 BF 6A 8E BE 17 3A 05 16 76 42 26 95 
5A BB CD 67 3D B7 F3 59 F2 BD A8 CD DC 72 46 70 28 13 27 22 11 1B 5A D1 98 9E 74 A7 46 8E 2F 55 
CA D1 B7 38 38 B0 ED C8 E0 C6 98 C1 5E 7D CE 1B 1F 16 F0 38 C8 EE 0D BF C8 94 2A AA 42 2F 91 68 
E5 D9 7F FA 98 17 C6 33 7F 48 3F 12 D8 1D 1F A6 5A 99 31 9F F4 C7 00 A7 8B B2 D8 4F E1 7C 70 92 
9B 09 BA 03 67 84 1B DB 4E 72 8A E7 3B 87 B4 D6 A1 8C 05 23 9A 8E 05 48 08 23 71 D1 E5 C5 2F 7C 
B3 FC C6 EF 27 9F 7B C0 6F 94 39 A4 8B D3 78 83 08 82 48 C4 92 F9 6B EF 20 C3 9A 7A FC 1E AF 3C 
C9 3A 60 A2 8F 63 23 02 08 66 61 51 66 DD 65 E5 37 5F 72 C7 87 83 03 71 FC 31 81 92 53 93 88 2D 
5A CE 82 6A 07 F7 81 35 87 1A 04 E6 D6 31 E0 90 04 59 EB 16 1B 06 FA 4F 22 7F 6E DA 1F 1F 96 CC 
14 E5 B2 68 82 26 21 BB 06 8C 4C 77 E4 00 59 90 E1 12 0D 66 FD 11 43 FA 93 82 5B 4F A2 F5 30 A2 
1E 3C F9 37 3D 47 4F 1D 13 EC 45 B1 92 70 49 65 14 07 8C 74 9E 42 5D FD 09 ED 6E 51 2A B7 70 7A 
A3 96 D1 7E AA F9 1B F8 98 73 72 C4 5C D1 9F 67 8A C3 3E 0A 1D CA 58 28 08 10 44 82 04 09 21 88 
48 5A C9 4D D7 E6 AF BF 63 EE 95 DF CD BC F0 20 37 CB 6D 39 5F A7 78 FE 60 72 56 C5 C1 E2 8D 7F 
54 1D 3D 58 7A EE 7E ED 56 16 F4 3A 06 8E 52 65 A6 37 5D 0F 21 E6 5E 7B 82 FD 26 A0 43 9D 77 74 
05 0A 15 62 A4 72 BD F1 BE A1 EA BE 1D EC D6 22 C6 80 0E 3D AE 3E 43 33 7B F0 4B EC 4E 33 7B 1A 
7E 58 BC 83 08 60 BF 34 8E D9 49 84 16 0B 00 16 CC 60 61 F4 0E A9 44 1A A1 8B 45 7C BC 27 A3 ED 
4D 3F 83 8C 71 FC 2F 1D F0 51 4B F6 FE 41 78 95 59 FF D8 B0 D4 CC AD 84 3B 86 06 A9 9E 21 99 48 
83 C4 09 0B B7 E8 61 E8 E0 E4 9A 42 25 D8 29 37 3F 08 5F EB 79 1B 2F F8 17 38 CA 66 FC F0 83 5A 
26 A1 0E 8F 3A 27 B6 46 87 32 4E 05 4C 0C 02 19 F1 F4 D6 9B BA AE F9 F2 CC EF 7F 5B 7A E1 41 6E 
56 58 CF CF 17 A7 72 DA 30 F6 22 62 CB 37 16 AF BE 7D 6E FB D3 95 D7 9F D2 7E 53 7F DC C9 08 20 
26 16 DA 28 0C 64 2F BE 7E 6E D7 8B 8D E1 B7 99 11 08 4C 4F F8 2E 01 50 F1 C4 CA CD 8D 91 FD 8D 
D1 43 D1 9B EA 83 9B EC 4F F9 F5 77 DD A9 27 1A C3 FF 54 D9 F7 9F CB 47 7F C1 DE 5C AB 08 18 40 
C4 BA 39 7A 88 CB A5 B6 36 33 40 BE 30 B9 D0 07 69 2C F4 4E C3 FE D1 D1 4C 1A 76 DB 02 0F FF 48 
10 83 34 A2 49 3A 30 1D 3E C4 B7 C2 CC DE DC 84 9E 1A A1 F9 55 18 01 F0 85 89 42 3F 49 A3 95 52 
13 1D 10 FE D6 2C 98 89 B8 ED BF 4F 34 E9 16 0E 06 34 58 47 AE 6E A1 83 EA 70 1F 65 2F B4 BA 2B 
34 2C 74 4B 8C F6 F1 A6 C9 E9 A2 13 31 39 25 84 F3 11 60 C4 52 97 DE AC 49 4C 3F 73 BF D6 7E 6E 
DB 57 64 2C 3D 2F 28 FC 44 7A 8D D0 D5 20 24 33 A4 91 D9 74 83 37 3D 3E F1 E4 BD 2A 95 8B AF BA 
2C 18 8D 7C 5C BE C3 07 DC 9B 60 08 99 DA 70 F5 DC 3B AF 4E 3D FF 60 7F F7 62 4A E4 41 AD F7 AF 
ED 04 24 12 CB D7 CF 3C FF 60 75 CF F3 56 5F D6 77 27 75 6D 58 57 F7 EB FA 61 BF 39 4D DA 93 66 
4E C4 87 8C D4 32 22 33 88 A2 12 48 83 A1 7D 6F F2 A8 68 D6 5A 57 25 B0 26 E8 78 D2 EC 59 FC 61 
AF 13 47 7E A0 F9 BE 03 C0 9A 7D 87 9B 35 ED B9 64 98 C2 4A 90 34 8E 1B B8 C7 7D 7B FE F8 48 34 
7F 32 0A 88 3C 98 C4 1A 7E D3 6F D4 B4 EF 2B 2B 46 66 9C 49 B6 3D B6 D6 D1 EC 4D 8C E8 B9 49 26 
2D B5 D0 42 13 0B 4D 9A E3 29 B3 77 31 91 88 58 80 22 53 25 74 60 90 EF E8 46 D5 F7 5C 61 58 C2 
8E 41 98 41 C9 22 66 FD A1 2D 9F 2F 7C 70 42 CB 99 59 93 E7 E8 66 DD F7 1D 1A AC F0 00 00 20 00 
49 44 41 54 5C 21 95 30 2D 18 16 48 A1 AD 01 F3 CE B4 F9 3F 35 D8 67 D7 F1 9B 75 F6 3D A1 2C 61 
59 A4 4C 90 E4 70 07 BF 88 09 CF A8 16 AD 43 19 A7 86 F0 BD 23 22 36 13 D9 AD 37 13 F4 C4 33 BF 
D2 AE 5B B8 FA 0E 91 C8 B6 CC F2 4F F4 B0 88 48 00 10 24 00 B6 D3 F9 AB BF E2 CE 4E 8E 3F F2 93 
DE 78 DA 1E BA 88 A5 0C 2F DA 36 A0 8E AF 8E 23 41 90 E9 7C 61 DB 6D 23 F7 FF 63 79 E7 73 E9 AD 
B7 20 50 16 84 13 AE 0F B8 F0 2B EC 4C 00 47 32 17 CE 61 E6 5F EB 7B 5E F5 7C 07 20 61 E5 95 3D 
68 14 AE 52 89 25 C2 1A 80 4C 13 8C 40 0B 1A 6E 0E C5 CC 4E 4D 4F 1E 11 F0 A3 EB 03 C1 B6 B7 E9 
BC D9 35 78 D2 9B E5 76 A7 62 F0 81 F6 FC 99 F1 EA BB 3B 9A EF BF C9 E3 47 FC 7A 59 C6 D3 B2 77 
69 6C FD B6 F8 B2 8D CD D2 58 75 EF 0E E1 35 E7 D7 79 04 36 CC E4 CA 4B AD F0 12 DC 18 1B 2E EF 
79 95 BC 46 AB E7 00 70 3C 9D 5A 73 B9 91 4C 7B 53 47 AB EF 6E 77 0E EC E6 F1 63 BE 5B 97 99 A2 
5C BA 2E B5 F1 2A B3 7B 11 C8 22 11 2A DE 09 1A AC 9D D1 C3 A8 CE 11 10 88 56 98 34 88 28 5D 30 
8A 83 61 E8 39 68 44 E0 EC D5 AE 37 33 5A DB F3 BA F3 FE 4E 7F F2 98 AE 55 45 3C A5 FA 97 C6 36 
6C 8B 2D 5B D7 9C 18 AD ED DB 4E BE 47 F3 4D 87 B6 62 89 D5 57 98 C5 5E 11 11 85 0E 9F 9B 26 D6 
7E 65 A6 31 BC A7 7E 60 B7 37 7E 98 67 C6 FD 46 5D 98 B6 4C E6 45 B1 D7 5A BA 36 B6 74 BD CC 74 
09 29 C3 4E 66 68 02 98 C9 6F BA D3 23 F5 03 6F 37 87 F7 F2 E4 51 7F 6E 42 BB 8E B4 13 94 29 C8 
9E 25 B1 15 1B 62 8B D6 08 2B CD 52 10 EB 50 C3 77 E6 48 A3 43 19 A7 82 48 D0 1D 49 BD 4C 3B B5 
F5 66 08 63 E2 C9 5F A2 51 CB DF F0 4D 91 2E 46 65 42 17 FC A8 DA B6 90 0D 86 89 48 76 17 6F BC 
6B EC D7 FF 38 FE E0 8F 7A BF F6 1F CD BE 0B A2 1C 0E 8E F6 58 0A F3 2D 83 94 75 0E FD 8E 2A B6 
72 53 E6 A2 4B A7 5F 78 D0 1A 5A 62 F5 2D 62 AF AA 9D 69 34 47 74 FD 88 D7 1C F5 9B 63 EC CC 11 
60 0D 98 B5 77 FC FA 11 2F B3 E5 2E 11 1F 80 D5 25 44 82 C8 8A F2 56 DB 0D 9A 70 06 77 CA 25 77 
74 D8 6C D9 4F 81 5D 4C A0 7C AF CA 16 40 74 72 D6 40 28 37 07 69 6E D6 2A BB 9E 2F 3F 79 8F F7 
F6 AB B2 3C 25 D8 93 AC 35 E0 2A A3 F6 D2 83 8D DB FF 5C 37 9A 73 F7 FC 37 E5 56 A3 5E 01 31 F9 
85 21 EB 6F FB AD AE 01 06 11 FB E5 DD CF 96 7E FC 9F 8D 66 F4 1D 06 00 7F 68 BD 99 4E D7 C6 8E 
D6 9F 7F D0 7B EF 35 51 9B 13 0C C0 05 8B 9A 95 69 BC 79 65 E1 CE FF 2D B6 7C 23 B1 0A 9C 32 0C 
86 F6 BC E9 63 C2 6F 04 8A 34 0E F7 B6 23 E4 7B 54 A6 75 3B 61 D4 95 9B 95 F2 CE 67 CA 4F DD E3 
BF BD 5D 54 27 09 3E 69 F6 21 7C 69 D6 7E FF 9B CC ED 7F 51 2F CF 54 7F F1 F7 86 D7 6C 57 B8 B8 
BD CB EC BF 59 4C F9 1E 16 14 B9 2C 04 B1 76 67 C7 CA 6F 3E DB DC FE A4 BF F7 4D 3D 73 4C B8 0D 
C9 AC C2 BB A1 A6 50 F5 4C 7E 76 CD 15 D9 AF FE 4D 7C D9 1A 41 2A A0 33 F2 FD E6 D8 81 CA F6 27 
EA 3B 9E D5 07 77 53 B9 A4 B4 4F AC 25 00 90 4F 68 9A 46 A3 6B 51 E5 B2 2F E5 6E F8 77 66 F7 32 
90 E0 85 EE D6 BB 50 74 28 E3 8C 40 48 23 91 D9 72 93 B0 AC C9 C7 7F EE 36 2A 5D 37 FE 2F 46 A1 
1F C1 F6 25 A7 62 18 06 FB 14 08 B3 30 D0 7D EB 9F 8C FE EA 1F C7 1F B8 BB E7 8E FF A0 BA 87 F8 
84 92 C5 E1 1C 1E 2C 86 5D E8 1A 7B 15 76 4B A9 B5 29 9E DC D7 7C FB BF 70 79 C8 77 A7 B5 57 07 
49 A5 E2 B0 F3 2A BD 46 C6 97 08 BB 57 C8 5C 75 F4 A1 EA BB 6F A6 2F 59 2E 62 8B 99 24 3E 84 E1 
02 EF 21 33 BC 99 71 9E 1E 43 2B 21 05 2C 00 CD 52 F5 2C 36 92 F9 93 DF 4A B8 EB 2D 98 C1 D5 99 
99 67 7F 55 7D E8 87 72 E4 3D 8B B5 60 CD C1 6A 0A 5A B9 9E 3E FC 56 ED DE EF 8A 5C 7F AC 3A A5 
B4 17 5C 58 0B 02 7C 8A DB 2A 53 00 09 90 66 CD 7A FC 50 62 6E 5C B2 1F B4 8D 89 04 93 5B 9F 28 
FF E6 07 DE DB AF 9A B3 53 36 33 87 AB 17 41 60 BB 31 ED 6E 7F A4 64 C5 D4 9F FE 9F 46 6E 90 A0 
83 4C 62 BF 51 D6 E3 87 94 F6 28 2A 37 44 4C 80 50 BD 4B 8D 74 0E 2D 9F 0B 43 57 A7 67 9E BA A7 
FA F0 8F E4 F8 41 5B FB C1 ED 13 93 26 86 57 57 07 77 D6 7E F5 0F 9C CB 5B F5 19 CB D7 4C 61 FF 
30 20 62 B6 4C 67 A2 AD F3 C0 60 F6 EA B5 7D AF CF 3E F6 13 EF F5 A7 CD F2 84 01 4D 1C C4 65 88 
C0 20 5F 30 0B ED 73 69 BC 31 3D 2C 95 14 C1 20 65 E8 46 B5 FA C6 33 73 8F FD 58 EF 79 59 35 6A 
26 34 82 72 49 04 C1 41 29 13 21 9D 26 0D EF 6B 4C DE 3D 55 AB 14 BF F9 9F 54 AA F7 8C 47 BB 3F 
45 CA 68 55 2A 88 82 05 27 F9 0A 4E 10 11 CE 7B FF 17 70 FE D6 17 4F D3 1F 74 B2 6B B5 37 24 DA 
0B D9 30 93 1B AE 13 B1 CC F8 C3 FF 32 F6 AB EF 76 DF 7A 97 D9 BF 92 A4 00 30 AF 86 3C EE 06 5A 
4E 86 56 D5 AC C0 66 8E 16 CD 44 60 69 F6 5E D8 FD E5 3F 1F BD EF 7B A3 0F DE DD F3 E5 BF 34 BA 
FB 08 0C 76 D8 6F 68 AF CA DE 1C BB 53 DA 99 F0 9B 13 DA 99 62 77 86 9D 0A 6B 07 E0 CC C6 A1 DA 
DE 3D B5 4A 25 79 C9 1D 94 5A 2A CD 22 99 45 92 49 22 8B 49 06 29 59 99 CD B7 54 DF 79 6B F6 95 
C7 F2 37 FD 89 50 31 41 C0 F1 94 D4 6A 2D 33 08 EC 8D 1F A1 B9 29 8E 12 DF 82 86 FA A4 8C AE 3E 
98 1F 92 DB D2 F2 A3 34 CB A5 A7 7F 51 BD F7 BB D6 F4 31 C9 3E 07 B1 06 16 44 D0 64 F8 44 92 B5 
31 7A 88 C6 8F 30 3B AD F5 BF 60 62 48 D1 B3 C8 48 17 82 51 A7 1B 55 6F E2 58 6B A7 5B 0A 9D D1 
2C 46 DF C7 D1 83 06 9A A0 68 C8 42 B7 B6 A8 36 3C B7 F1 C6 53 D5 8D D7 66 AE F9 3A 48 04 AD F7 
E6 A6 BC B1 61 13 81 9F D8 17 0C 5F C0 27 32 0B 03 ED B7 E3 37 E6 66 7E F7 B3 FA 7D DF B5 66 46 
02 6B 8E A0 83 E7 AE 49 68 98 04 0F A3 EF 8A 31 93 98 59 78 0C 19 B9 2D C8 EC 1E 32 52 5D 4C 10 
01 2F 34 1B E5 57 1F 2B FF FA 7B E2 E0 6E 8B 9B 14 6E CC 1D 86 6B 34 49 0D 53 90 16 EC 79 F1 5C 
F2 CA 2F C7 06 2F 0C 32 07 FD 5A 69 E6 E9 7B 6A 0F DD AD C6 0F 98 CC 41 4C C5 53 D2 2F 2C A2 DE 
E5 5E 7D 46 0C EF 31 1A 55 D2 C4 C4 76 BD DC 78 F1 D1 EA DA CB 33 97 DE 46 2C CF 2C 6B 7C 2A 94 
11 F8 7B 09 41 8E 77 60 86 53 6B CB 8E F6 75 17 45 2E F9 36 D7 D6 BC 57 27 FC C2 C9 1C 4E 27 FC 
8B 3E E0 73 9A FF AF 0F F9 A8 BD F6 EE 09 9F 71 34 0E 5A 7F 71 F0 76 0A 65 26 57 6F 91 B1 C4 D8 
C3 FF 7C EC 97 DF EB B9 E5 DB F6 85 9B 48 1A A1 9E 83 DB 56 15 6D BB 3F 33 18 BA 55 20 8F 83 E8 
1D B1 2F E0 82 1B BE DF 34 BB AD EE 1B 2E 99 7C E2 47 E5 97 27 12 EB 36 6A 2E B3 5B D6 DE 1C BC 
8A 66 17 2C 84 30 85 11 27 23 2D E2 4B 65 AE 57 D8 5D 64 16 20 D2 BA F2 F8 F4 0B 4F 1A 17 2C 8E 
0F 6C 13 90 41 42 4C CB 37 C1 80 D1 35 94 D9 FA 85 A9 67 EF 8F 5F B0 39 B6 E2 62 C6 C9 D3 43 28 
78 62 5A BB 63 47 D0 28 CF 57 4E 26 30 13 5B 96 EC 1A 60 21 3E E4 CD 24 00 EC 3B E5 37 9E AE 3C 
74 B7 3D 7D 04 A4 7D 12 C1 A0 D2 C4 6E 3A 6F AC BB CE 1E 58 D2 D8 BF 8B 77 BD 68 3A 35 8A 9C 08 
01 A7 6A 90 D1 BD 48 C6 52 4C 20 4D EE DC 94 37 7A D0 84 DF FA 0E 31 33 09 E1 B2 67 9B 58 BE D9 
CA F4 D4 0F EC 92 E3 07 94 16 6D EF 06 C9 F2 6C F3 9D 97 71 D9 2D 88 A5 83 53 7B D3 E3 3C 3B 11 
3D C7 20 ED 4E F8 76 C2 E8 1E 00 64 F8 B4 7D A7 BC FD 89 B9 47 7E 18 9B 1D 0D 57 2F A1 20 85 9A 
99 1E 73 FD 95 46 EF E2 E6 BE 37 F8 AD 17 0D B7 A6 41 C4 02 44 80 66 90 4F 52 F6 0C 08 3B 16 EA 
3B DC 66 F9 E5 47 CB 3F FF 7F C5 D8 BE 28 7B 2F D8 67 42 7A 76 4A 2C 5D AB 96 5D 24 AD 84 37 3B 
DD 38 F8 26 75 5F 98 BE F8 66 48 93 C1 BA 51 9D 7E E6 E7 B5 FB BE 6F 4D 0F 33 31 43 10 B4 6B 5A 
D8 7C 4B FE E6 7F 67 0E AE F4 2B D3 33 F7 7D DF 7B FE 5E E5 87 25 1A E5 DC A8 7B E0 2D 6C BD 19 
0B 2A 58 FB 09 F0 A9 51 06 E0 01 0E B1 01 02 43 06 EE 5D 84 65 4E C2 69 77 7E D3 74 06 A2 1D 3D 
A2 C3 B9 E5 3D 6E 8D E0 E3 AE D1 9A 85 28 2A 96 12 71 4F DB 9B 7D 92 03 71 02 D9 44 57 3F EE 7F 
8E 3B 28 6C 72 50 58 01 20 6B C9 45 FD 5F FB DB F1 C7 7E 72 EC BE 7F 28 5C F7 CD F4 86 6B 10 8B 
CB 30 D8 1E 44 00 7D C0 27 F6 58 BB DA 77 D9 6F 40 57 D9 AF B1 AE C0 AB 68 67 96 DD 0A BB 15 ED 
57 E1 55 E0 57 7C DD 94 BE 2E 6E E9 F2 66 DE 9E 7B E6 79 7B F9 66 A3 EF 22 11 5B 2C ED A2 30 B3 
64 64 A1 B2 42 65 48 D8 80 00 64 B8 78 D1 94 BB E4 AB CD D1 E9 E9 DF DE 63 A6 0B 62 68 AD 80 10 
C1 5E 04 C1 72 86 00 32 93 1B AE AE ED DD 39 FD F4 BD 7D 3D 83 22 DB 07 F0 87 95 02 61 BF A9 A7 
46 84 F6 DA 76 8A 27 02 28 95 B7 7A 86 5A F3 F9 F1 4F 21 B8 12 3B E3 EF CF 3D F6 6F C6 D8 FB 02 
3A 08 ED 33 C0 C4 7E AA 2B 76 DB 5F 66 6E F8 63 99 CA 36 8F ED 99 FE C1 FF AD DF 7A AE E5 D3 09 
9C AE 9E 69 9B 85 3E 96 2A E0 3A 7F 66 92 4B 53 C1 92 8F 82 A7 4B 4C CC 5E 3C A1 AE FB A3 CC CD 
77 19 E9 9C 7C F9 D1 F2 4F FF 8B 9A 99 08 56 1A 01 F5 28 F6 9D 23 EF B9 73 53 96 9D 06 08 EC 37 
C7 86 51 99 89 58 92 38 D8 98 37 99 37 7B 06 A3 E7 CC CD 63 FB E6 7E FB 6F F6 F8 B0 00 6B 0A 23 
44 44 E4 66 FA E2 B7 FF 55 FA FA AF 8B 64 CE 39 B8 7B EA 07 FF 97 7E F7 E5 90 7A C2 77 8C B5 69 
AB C2 00 91 60 02 F9 BA B6 E7 95 99 FB BF 67 8E BE A7 98 01 5F 53 60 DD 08 AF 7B B1 79 E3 B7 53 
97 DD 6A 15 07 48 48 ED 3A 8D B1 43 80 32 8A FD 00 41 BB 73 6F 3E 5D 7D E8 9F 63 53 C7 82 2C 42 
40 7B A4 F4 EA CB 8A DF FC 3F 8C 25 6B 04 49 95 EF B7 D7 5E 5E 7D E5 11 34 CA C1 4B 2B D8 D3 CD 
6A 34 D9 7D F0 C9 9C 3A 3E 05 CA 60 06 A0 9B A5 D7 DC E9 E7 24 91 16 26 44 4C AA A0 84 9C 09 69 
93 B0 49 98 44 26 93 41 C2 64 32 09 8A 84 80 90 44 92 49 84 5B 2B 83 82 94 31 66 00 12 90 11 1F 
B4 4A DB 12 21 5A 27 86 1E A9 60 3D D9 DE 7D 27 ED CA F9 B4 91 C0 25 16 9A 42 81 9B 1D 7E 24 B6 
09 CA 49 F8 0C 9F D8 87 D6 CC 3E 6B 9F B5 2F 33 7E F7 17 AF 2A 3D 7B 64 F6 99 FF 47 F0 3B F1 0B 
56 43 37 7D BF E9 7B 55 F8 55 F2 9B 5A 37 D9 6F B0 AE C3 AF 6B DD E4 B0 32 05 81 A4 92 16 49 0B 
32 41 32 49 56 8F 34 B3 A6 95 21 23 03 99 A1 A9 89 D2 83 3F 69 EE 8A 77 2D BD C9 EA 5F 0D 18 24 
44 E4 FE 9B 7F 31 5A E9 AF 22 59 E8 FA C2 37 C6 7E F5 DD 89 DF FC B8 E7 6B 7F 6B 76 2F 61 D1 FA 
6E C0 A7 2C 93 85 FC F5 77 8C FD FC BF CF 3E F7 60 EE C6 3F 26 2B 25 4E EE 7F 21 BF 3A E3 8C 1F 
52 AC 5B 15 83 29 A0 C0 4C B7 CC 76 B7 E6 EA 0F 3C 6E 66 BF 51 79 E5 77 78 E7 65 D9 52 4A 30 03 
70 54 CC DA F6 95 DC 8D 77 89 74 01 2C EC FE 55 E6 D2 35 EE DB 2F 4A 8E FA 3F 98 CF E3 19 A3 67 
09 20 03 63 C7 1D 3F 4C E5 E9 E3 6D 40 F8 A4 68 D3 B5 B9 AF FC 85 D1 B5 98 81 F8 86 2B EB CF FE 
82 67 26 DA 5B 23 A0 69 6E DA AF CC A1 9B 99 88 D9 F3 27 86 45 B3 DE EA BC F0 D9 67 7B 64 AE 3B 
0C AB 78 F5 F2 2B 8F F2 BE 57 04 7B E1 BE DC 10 82 B5 63 C4 CD AB BE 9A FD E2 1F 53 B2 00 B0 B5 
68 A5 B9 74 A5 BF F7 35 82 DB 56 D1 8C 91 CC 1A 7D 4B 40 12 0C 77 66 64 EE B1 7F 35 0E ED 56 EC 
02 C2 27 12 2C 00 38 C5 C1 C4 D7 FE 36 73 E5 D7 C8 4E 10 A0 21 48 5A F1 A1 B5 81 14 5F 83 FD F1 
A3 95 C7 FF CD 1C DB 0F D2 3A AC EE 48 7E 22 97 BA FA 6B F6 D0 6A 1D 38 38 3D CF 9B 99 60 CF 09 
EF 85 C0 24 85 95 3E 1B B5 81 3E 1D 5F 46 A4 8A 6D 68 BF 06 AF 49 DA F5 59 6B ED 79 EC 05 EB D2 
A0 EC 66 28 67 26 41 20 21 14 48 81 24 48 41 28 08 03 50 24 54 A8 C9 24 49 42 05 13 2C 84 E0 40 
D5 2D 4C 82 11 4C A7 24 94 24 13 0B CC 53 67 D6 DA D5 DA 0F 97 AC DA D5 DC 04 40 EC 43 7B 41 3C 
9C D8 67 ED 02 BE 66 8F B5 07 ED 12 3C 66 97 B5 07 76 C1 CC AC E3 CB 1A 89 82 F4 4B F7 57 9F FE 
99 CA 77 51 D7 10 64 9C A4 82 B0 85 88 6B A3 9B 54 42 AA 84 54 29 A8 14 44 92 A4 05 69 0B 95 80 
8C 83 14 58 82 24 82 85 31 01 20 69 FB 3D B7 F7 4C 3E F0 CF E3 BF FC 61 D7 6D 7F 66 2F DD 10 50 
A1 08 28 8C A2 25 13 51 E0 99 13 80 99 1F EA BA E5 DF 1F BD F7 1F C6 1F FE 97 9E AF FE A5 91 EB 
6F 45 72 04 93 86 26 42 6C 70 4D EE EA 3B 26 7F F7 33 D9 D3 9F DE 7C 13 2B 93 C2 C5 5F 9B 8C 0B 
EC CE 4E EA C9 A3 38 DE 9A 60 B0 D1 B3 48 65 8A 27 79 C6 D1 97 DC C9 23 8D ED 4F A8 66 19 20 1D 
09 45 40 24 FA 2F 4C 5E 7B A7 48 16 09 A4 09 82 C0 24 88 05 B1 17 CA 1C 80 20 E4 A9 0A FD 51 2B 
B4 3B 3E 2C 1A 73 4C E1 DE 4D 01 6D 39 85 BE CC D5 DF 30 8A 8B 08 20 08 33 59 30 0A 03 7E D4 00 
8A 56 C1 DA AD 69 A7 1E 7A 46 9D A6 9E 3C 1A F8 50 A3 7B 01 13 CC 9E 45 46 BA 18 B8 6D 9D B1 83 
CD ED 4F 18 4E 4D 13 11 6B E2 C0 71 2A B1 78 4D F2 DA AF 89 44 0E E1 DC 24 40 32 B0 33 C3 5D EE 
08 9A 08 99 6E 95 EF 05 08 EC 55 76 3E EF ED 7C CE D4 6E 38 83 B1 60 90 67 C6 CC 6B EE C8 6C FB 
8A B0 53 41 1B 04 82 E5 8A 66 10 B1 20 ED 94 5F 7F 4A BF F3 B2 62 D6 44 C4 24 98 35 91 58 BC 22 
BE E6 52 12 4A 42 FB 4E A3 FA F6 4B 8D 57 1E 57 BE 1B F5 3D B9 F9 81 E4 F2 F5 1C F0 EC F9 EF CB 
20 22 65 E5 B6 5A B9 8D 00 00 17 EC B0 F6 58 BB AC 5D 70 F8 8B B5 CB DA 61 76 48 37 59 3B F0 1D 
F6 5D AD 9B DA 77 C1 C1 B0 F4 00 8F B4 0B ED 82 9A DA F7 99 7D 40 43 7B 60 1F F0 75 30 59 05 6B 
66 F6 5D 6E CD C2 1F D3 BE C0 E2 0D 56 D4 E1 5C 4C 00 04 0B 03 A4 00 29 48 B1 10 90 0A 30 05 99 
10 06 93 22 61 0A 69 49 61 C1 30 40 71 08 9B 84 C9 42 BA 53 93 53 4F DC EB 1E 1C 2B 5E 7B 65 72 
ED B5 30 B3 44 8A 48 30 28 E0 BB C8 50 0F A6 26 6A 6B 44 E4 45 68 15 AC 11 CA 5E B4 A6 E7 6B FF 
71 E2 E1 1F 8C DC FB BD EE 9B EE 8A AF B9 94 94 CD A1 ED 0B 11 1A C6 91 01 06 82 10 D6 C0 8A BE 
2F FD E9 F8 BD 77 4F 3E F2 93 EE 2F DD 25 33 DD 1C D6 08 A4 70 CF 34 25 52 9B AF 76 A6 0F 4F FF 
EE 3E 33 55 88 AD D8 CA 52 8A F0 D6 E7 3B CB 9F 1C E1 B9 29 1C 1F B4 D3 24 55 D7 A0 B4 93 27 F4 
60 68 4B 30 81 75 7D EF 1B FE 81 B7 14 7B 82 95 A6 D0 6E 77 84 54 EB AF B6 17 5F 04 21 29 F0 F4 
78 1E AA 95 28 12 39 DF 0D AA D8 67 64 F2 C1 70 D4 41 4A 88 F6 DB 57 A6 9A 84 5A B5 39 B9 72 23 
48 05 01 1A 52 12 A6 0D 0E C7 38 02 02 08 F7 83 D0 00 11 B3 37 37 E3 8E 1D 31 E7 55 A7 04 90 86 
30 BB 07 85 9D 04 34 33 6A 7B 77 F0 E1 BD 92 05 02 49 04 81 C0 8E B2 CD 0D 57 C6 06 57 B6 0A B4 
B2 D3 E0 CA 6C F0 9D D0 DB 06 00 64 76 0F A8 74 01 80 5F 2D D5 5F 7F 5A 56 A6 03 5B 32 78 B0 9A 
98 07 57 A4 B6 DD 26 62 B9 E3 A7 31 22 96 41 01 25 7F 76 BC F9 C6 53 A2 39 27 02 8F 4D F4 F6 AA 
4C C1 2B 8D B9 A5 49 6F EA A8 B3 7F 77 F3 8D 27 D5 F0 1E C9 DA 07 24 C3 89 A5 ED AB BE 9C 58 73 
09 48 9C 71 43 E3 53 A0 8C 30 6B 93 04 30 AF 2F 3E A9 8F 26 4A AF 88 E4 F4 40 E8 3A 0D 67 40 6E 
73 31 F0 7C E4 8F 3D 70 50 33 CA 07 FC E0 8B CC 2E C3 A7 68 79 D2 0A D6 7C 68 23 21 28 0C 3A 12 
10 CC F6 82 45 30 8E 82 41 1E 44 34 82 7B 09 93 2D 82 AF 87 CE 4E 88 40 FF 2F E2 DC 75 FB CA A9 
67 EE 1B FB ED 63 CD D1 7A F6 8A DB 55 AE 8B 21 11 1A BA A1 80 EB C4 D6 D0 FC 5F 34 FF 19 6B B0 
EA 59 DC F3 95 BF 1D 7F F2 A7 A3 0F FD A0 30 33 99 D9 FA 45 C4 52 E1 E4 16 4C A8 6D 5B A1 69 30 
4B 19 5B B6 A9 FB F6 BB 46 1F F8 D1 D8 23 FF D2 7D F3 9F A9 6C 17 07 A4 18 9D 97 AC 54 FE AA AF 
37 67 66 47 7E F3 CF FD A6 65 2F 5B CF A4 DA 4A 94 82 59 37 C7 86 A9 32 D7 56 C7 18 0C B8 86 6D 
16 FB 58 C8 13 F7 92 0B C3 9C 04 CF 69 1C D8 2D AA 73 AD 45 7E 28 A3 48 64 53 2B 36 0A 23 16 B5 
00 5E BD E6 95 26 24 73 7B 1E 83 86 30 7A 87 CC 64 3A 70 19 79 95 19 67 F4 B0 D9 36 78 40 F0 0C 
3B B6 EA 62 99 2E 44 AC CB CC 1A 51 28 14 A1 FD C5 04 26 52 24 82 5D 6F D9 9B 19 D3 D3 63 A1 0B 
3E 5A B5 7A A6 19 2B F4 87 F1 66 B7 EE 1C DC 25 EB 65 40 87 5D C1 0C B0 4E E5 EC 15 9B C9 B0 A2 
C8 0B B9 F5 AA 5B 9A 54 A4 A3 7D 5F 04 41 07 EC 23 E3 29 86 6E 1E 3B E0 EE DF 6D B3 1F 7A 7F 08 
0C 76 C9 30 57 6D B1 FB 2F A4 0F EA 59 42 07 0C 37 0E BF E7 1F 78 DB D2 1A 2D B3 8A 41 20 6F D7 
0B A5 03 6F F9 DA E7 7A 59 55 2B 4A BB 04 4F 83 7D B2 DC 6C B7 79 ED 9D F9 5B FE 54 26 F2 61 2D 
82 33 8A 3F 70 5D 46 C0 05 22 9A 7D 4F 58 C0 7E B0 33 38 74 57 CC 8F C1 68 2E 62 16 F3 6F D9 C7 
6E C5 D1 12 55 B6 DC 04 6D F5 BE DB 2E 3F 9F 9A 1E BE 94 88 6A 83 73 F8 6C 99 88 84 59 5C D6 73 
DB 5F 56 06 9E 2A 3D FB 60 F5 C8 81 AE EB EE B4 97 AF 65 65 8B 60 A7 D5 4F D2 1D 41 54 52 E5 07 
7A 6F FD F7 D3 CF 3F 30 F9 EC FD CE F4 48 FE 9A AF 52 B6 97 85 12 4C 2D 47 46 AB BF 08 C4 D2 88 
AD DC D2 F5 25 6F FC E1 1F 4F 3C F4 3F 8A B7 FE 99 CA F7 81 44 14 A5 61 80 44 AA D8 7D E3 B7 C7 
1E F8 FE C8 43 3F E8 FB F2 5F DB 8B D7 B0 30 45 2B 86 A5 5D 3D 7D 44 7A 6E DB E9 01 40 C4 B3 56 
CF 12 A6 E3 57 2B 34 DF 57 5E A5 E4 0D BF 6B B0 17 EC 6B 1F CA D7 09 C8 F5 99 83 CB 10 54 1A 25 
06 E0 56 A6 F4 F4 98 84 E6 B6 F5 90 27 0D 55 18 64 69 06 41 1E 6F 76 5C 4F 8D 32 E6 CB E1 30 C0 
D9 2E 73 C9 06 86 19 A4 FE 68 C0 6F 36 FC EA 5C 7B A0 2C 30 32 60 25 85 15 0F 3E 71 C7 87 69 6E 
AA FD 35 20 30 12 59 B3 67 71 60 03 7A 73 53 DE E1 BD 8A BD F6 47 CE 00 15 7A 8D FE E5 C1 94 10 
48 2B 75 79 9A 67 27 05 73 E8 8C 00 00 78 CA 34 0B FD 44 4A 33 37 87 DF 93 53 23 AD B7 25 E8 03 
DF B0 C5 C0 0A 18 F1 0F 79 DA 04 F8 CD E1 BD 34 33 16 04 68 DA EA 20 68 51 99 12 E5 29 23 52 73 
30 B1 07 CB 4F 17 8C 95 9B 93 57 DE 9E DC 74 83 4C 16 5A 6F D6 99 25 8D 3F 68 CA 38 4E 7F 78 7C 
64 83 43 CE 6F D9 86 ED 47 CD AF BF E7 27 EB E3 06 E6 C7 F6 61 AB D2 74 44 19 F3 6F 4D FB 53 6F 
B3 D0 E7 13 4A DA B7 3A 25 1D D4 8F 20 90 9D 4E 6D BD C5 EC 5B 32 F5 D4 AF 8E FD F2 3B D9 2D D7 
67 B6 DE 28 B3 3D C4 8A E7 4F 16 F0 22 1F 7F EA E3 6F 3C 70 80 11 89 78 A1 70 ED B7 CC 42 DF E4 
93 F7 38 E3 23 5D 37 7E CB 1A 5A A5 A5 15 A5 94 44 3D 84 80 B6 98 A5 91 5C BD 8D 94 35 FE D0 DD 
63 F7 FD 63 F7 97 FE D4 EC 59 02 A1 5A 1E 63 4D 24 8B FD 3D B7 FD E5 E8 6F FE 69 F4 BE EF F5 DE 
F6 E7 F6 F2 4D 2C 43 BF 86 5F AF 79 E3 87 05 7B 1C 46 68 23 69 46 26 2F 0B 03 14 F9 50 DA 1F 50 
F0 B7 57 99 D6 D3 23 81 A5 87 70 BE 66 10 54 AE 57 A6 8B F3 5D CD F0 C7 8E 60 76 8C 49 8B 40 4A 
10 74 84 9D 30 7A 02 99 19 0B C0 9D 1C A1 D9 49 26 26 16 F3 EE DE AE 41 B3 6B 20 2A 93 CC 00 BB 
D5 19 77 7A CC 64 DD 52 A9 12 91 26 A2 5C 51 A5 32 60 86 F6 DD F1 61 AA CF 71 68 2A 84 DA 7B 4A 
17 64 A1 1F 04 C1 EC 95 4B 5C 0A 42 B0 F3 B5 94 99 C8 2C F4 18 A9 42 68 67 31 00 ED 8E 1D C6 CC 
64 F4 6C 74 70 9B 22 9E 36 7B 97 30 09 C1 DA 9F 1E 81 5B 9D BF 16 C0 20 C3 B2 EC 7C D7 09 F6 C5 
3C 23 13 E0 7B 7A 7A 84 7C 47 1F C7 17 00 E0 43 B9 42 42 4A B2 63 9C CE 8A C2 22 B5 F8 A2 C4 CA 
8B 13 2B 37 AB 5C 2F 09 89 D3 D8 36 E3 A3 F1 07 4D 19 ED C3 9E E6 D7 AE AD 0A B7 E1 87 6D C3 F6 
38 36 38 EE F3 F9 1F 69 01 94 D1 6E CE 50 9B A9 F2 C1 23 E9 43 CE 49 AD E6 B4 74 4F 5A 99 F6 92 
0D 7D 5F 1F 98 D9 FE F8 CC EF 7F 5B 3B F0 76 E1 9A 3B E3 CB D7 B3 8A 51 54 9A 06 40 14 68 3E A9 
66 34 58 C3 70 B8 2C B2 E3 A9 4D D7 1B F9 EE C9 DF FE FC E8 3D FF D0 75 ED 57 93 1B AE D2 56 22 
32 C8 42 57 1A 8B 40 8E 21 59 89 C4 8A 4B 7A EF 34 C6 1F FC D1 B1 5F 7E B7 E7 D6 BB EC 25 6B 21 
0C 82 00 B1 00 B1 10 A2 7B B0 F7 B6 BF 98 78 F8 47 A3 F7 7F BF 78 E3 B7 13 6B AE 20 C3 22 C0 9B 
9B D2 63 C7 14 74 94 E1 12 06 A2 54 57 9F CA E6 10 59 E4 DC 1E BD 61 30 D8 AF D7 B8 5E C3 FC C3 
0B 6F C0 4C E7 94 1D 0F BC 92 C4 60 ED 36 0F BD 8B 72 89 58 04 4B D2 80 19 29 5D B4 BA 17 51 90 
DC C9 DC 1C 3B 2C AA 73 14 A4 5D 31 05 F2 07 D5 B3 C8 4C E5 C2 6A E8 60 82 F6 26 8E 72 69 AC 6D 
41 07 68 78 52 1A 83 4B 8C 54 0E 00 FB 91 4F A4 CD 3C 62 22 A3 AB 5F 65 F2 41 60 4D D7 CA 5C AF 
60 FE F1 07 27 27 95 CE 2B CB 26 62 06 69 66 E1 B9 CD E1 7D 54 9B 6D CD 2B 1C D0 74 BA 60 16 FB 
41 04 ED EB 7A 55 B4 65 AC 05 A7 12 A0 30 E6 FD 81 77 2F 7C 13 3C 07 E5 29 01 41 6D 55 3B 18 E4 
C5 B3 F2 AA DB 8D 9E A5 C2 4E 5B 99 A2 2C F6 19 D9 1E 95 CD 41 D9 2D D7 D8 71 13 E6 19 B5 33 CE 
0B CA 08 7E A4 13 7F 3A D9 F0 FD D8 B3 2C F8 BA 27 B3 4A 4E 7E A2 0F BF 2C B5 B9 22 28 48 A5 64 
4A 15 B3 57 DD 19 5B BC 66 E6 D9 5F 8F FC EA BB 99 75 97 67 2E BD D9 E8 1A 62 21 23 47 84 66 9C 
5C 16 75 7C 6E 4B 50 32 D4 B4 96 6C EC F9 56 B1 F4 EC FD 13 BF FD B7 E6 91 BD 99 AB EE 30 8A 83 
82 04 28 AC 28 15 2C 67 C3 F7 5E 18 B1 A5 9B 7A BF 6E 8F 3F FA E3 A3 F7 7E A7 E7 86 3F 4A 5E 74 
25 0C 1B 14 3A 59 89 A4 59 1C 2A 7E E5 AF 4B 4F FC 6C EC C1 1F E6 66 C6 B3 5B 6F 96 76 DA 9B 1E 
D1 33 93 D1 65 11 0C 1E 4D A4 7A 96 A8 44 96 20 42 81 1A B7 DA 16 FE A4 7D 8F 7D 3F 6A 39 83 39 
DC C0 D1 B0 48 18 1C F2 0C FB 73 53 CE BE 1D C2 0F 12 34 74 C4 FE 44 B9 6E 95 29 84 1B D9 FB 8E 
9E 3A 2A B4 0B 08 C0 0F D6 9F 3E 49 95 ED 22 CB 6E C5 95 D8 F7 9A FB 77 CA 99 89 F6 C1 CE 44 5E 
2C 11 5F BA 1E 46 9C 40 6E 75 CE 1D 1B 56 AC DB 87 97 26 61 F6 0C A9 78 3A 34 A4 9C 06 7C F7 C4 
B2 68 4C 6C C6 A1 0C 30 40 9A 98 DC B9 71 6F DF 76 D3 6F 46 7C 48 61 0C B9 D8 A7 32 85 A0 0F E0 
39 A2 ED 34 41 0F 3A 4E B3 31 3B 1E D3 9A 05 44 28 BA E5 28 83 8F 00 B0 E7 72 B3 4E D0 68 C9 59 
01 00 7E 3C 91 DE F6 E5 C4 9A AB 82 2C 18 26 11 10 34 45 8B 61 00 F8 90 57 E8 F4 F1 07 4E 19 9F 
41 10 91 94 66 7C C9 3A BB 7B A8 FC C6 B3 D3 2F 3F 52 D9 FF 66 FE B2 5B 13 EB B6 C9 78 46 0B 75 
32 C1 F6 C9 CE 13 96 4A 60 01 32 73 8B BA 6F F9 33 7B 70 E9 CC D3 F7 D7 8E 1C 2C 5C FF D5 C4 8A 
2D 30 6D 22 9C F0 EA 10 88 85 B2 06 2F EA BF E3 7F 9F 78 EA 57 E3 BF F9 67 67 E2 48 F6 B2 5B 29 
55 0C 86 9C 26 0D 22 95 ED CD 7F E9 4F 8C 6C F7 CC 33 8F 78 63 C3 B9 6B EF 70 47 0E 70 A5 D4 6E 
3D 01 EC 0B 53 15 FA 48 1A 04 FA 60 0D 54 1D 0E FA 13 AB B2 04 2E 50 ED D6 D9 77 10 66 9B EB DA 
DE 1D FE DE 1D 66 E0 20 64 62 C1 3A D0 A7 F6 2E 52 E9 5C 40 3F 5E 6D CE 1F 1B 8E 54 99 0C D2 4C 
E4 09 65 C4 52 81 C9 CF 00 33 BB 53 C7 DC DD 2F 49 CF 3D A1 C3 C4 E0 CA D8 8A 8B 03 D7 A6 3F 33 
E1 4F 1E 53 E4 B7 AF 6B 3D 69 9A F9 01 48 15 6E 81 24 15 0B 15 34 66 BE F7 00 6E D6 D9 F5 10 24 
D3 B3 5F DB B3 DD 7F EF 4D 19 45 84 11 58 76 44 AA 77 89 4A E6 82 5C 41 32 2D 4F 90 D0 C7 B7 C7 
AD BB 47 F6 69 B7 2E CC 04 22 9E E1 90 2F 21 88 49 08 36 62 00 33 8E 9B 97 A8 5E F3 A6 C6 98 98 
48 30 44 94 94 C8 EC BB 7E A3 41 76 4C 06 AE 9F 33 EC C4 08 D1 A1 8C 73 8A 50 EF 40 C4 44 22 99 
CB 5C FE 25 6B F9 45 B3 2F 3D 3A F1 E4 2F 66 DF 7E 25 7F D9 2D B1 0B 36 B0 95 68 71 06 9F 70 78 
DB CF 61 B8 88 88 25 13 40 56 2A BD E9 66 AB 77 F9 F4 D3 F7 8E FE FA 9F 92 EB DF CA 5F 76 AB D1 
35 10 ED E4 18 1D 2C 82 40 0E A9 FC 60 F7 AD 77 CD 75 F5 4C BD F0 70 7D E4 FD C2 75 DF B0 06 57 
06 3B 27 32 6A EC 94 94 99 CD 5E FD 35 B3 6B 60 EA 89 7B EA 3F FB AF 56 6D 56 36 2B D1 7C 1C BC 
DC 2C AC 98 95 CA 72 75 36 54 24 84 12 58 00 60 D6 30 6C 32 62 CA 4A 08 2B D6 96 FD CE 1A 92 A0 
9D 89 23 EE EC 94 19 CF 31 D8 9B 1E AE 3C 77 9F 9A 19 A7 30 B0 11 4E 97 8E 34 54 71 80 02 07 21 
93 3B 37 AD C7 8F A8 50 06 DC B2 B6 88 A4 02 5A 01 9A 46 F9 B5 C7 DD 7D 3B AC A0 91 D1 AA D1 B1 
92 B1 2D 37 5B BD 8B 99 40 CC DE D4 88 08 6B 8B 85 4D 07 83 62 49 A3 77 71 2B FB 53 C4 E2 64 C6 
5A B9 85 E1 0D 90 F6 C6 8E 78 73 93 2A 96 24 86 3B 79 A8 F6 DC 7D 72 76 02 11 5F 04 96 86 26 65 
14 FA 61 58 04 30 29 91 2E 78 52 9A DA 45 8B 7E C0 86 76 DD 37 5F 68 6C 7E 39 B1 F6 6A 88 70 4B 
3B 5D 9F F3 1C C7 48 E5 48 2A 36 6D E4 7A BC B0 72 D1 FC BB 20 6A E5 EA 6B 8F C7 56 6E 31 7B 16 
53 50 E1 DD 6B 3A 93 C3 B5 9D 2F 56 0E BD 9B FF C2 37 92 4B 36 B6 D9 B7 67 18 1D CA 38 E7 08 56 
BC 61 1D 51 69 F7 2E 33 6E FB F3 E4 EA 2D 33 2F 3E 72 EC FE 1F 24 57 AC CB 6D FD 82 DD BF 82 A4 
15 6C 2F C2 6D C7 45 61 1B 6A 9D 47 B4 4A 90 13 43 29 6B 70 55 EF 9D 7F 53 7E E3 B9 A9 17 1F 68 
1C 78 2B B7 ED F6 D4 9A 4B 29 96 A6 70 97 B3 79 61 28 88 65 3C 9F DB 76 A7 D5 B3 64 E2 89 7B 46 
7F FA DF 73 57 DF 96 DA 70 A5 B0 A5 37 F5 78 73 FC 75 6B E8 5B 22 B9 36 B9 E1 6A B3 AB 77 FA 77 
BF 74 77 3E 6B CD AB 9E C2 F7 51 7A 8D C6 33 BF 68 BC F1 4C E4 CF 6F 0D 63 F6 48 D9 97 DF 9A DF 
7A B3 48 E5 90 EB A2 43 EF 46 F9 9D 2C A0 C1 D0 47 DE AB BC F6 44 E6 EA B4 DF A8 4C 3F F6 2F FE 
1B 4F 29 ED B5 47 5E 08 20 33 A6 8A 83 10 E1 B6 4C DE D4 28 66 26 40 1A 10 11 3F 69 43 BB EE 9E 
1D CD CD EF 9A 03 17 42 7B E5 5D 2F 55 9E B8 C7 AC 4E 07 D7 D2 10 82 D9 27 29 56 5F 9A BA EC 66 
32 E2 04 80 D9 19 3B 4C 95 19 E2 30 3F 2D EC 95 54 DE EC 1E 88 54 64 A4 D2 79 99 29 E8 91 F7 DA 
DB A4 C1 FE E1 3D 95 1D 4F A4 AF BC 4D 57 CA 53 8F FE 4F 6F D7 73 E6 7C 4D AD A8 E9 B1 84 D1 BD 
08 24 02 97 87 35 B8 B2 96 2E F2 D4 11 E2 30 8B 4E 68 62 D2 E2 C8 DE D2 2F FE BE 39 3E 6C 0F 5E 
C8 BE EF 8C 1C 6E EC DF E9 C5 93 FD 5F FE 6B CA 76 83 4C 73 D1 8A 66 22 8D EA 74 68 52 06 FA 53 
F6 DC 1D BF 9B F2 B4 BD FE 0A 95 29 7A 8D 8A 3F F2 BE FB EE 0E FF C0 3B 70 9C 5A 36 1B 1F 5C 29 
8C 78 18 66 39 D3 E8 50 C6 B9 07 B5 C4 1B 4C 12 AC A5 B2 62 2B B7 98 8B 96 D7 DE 79 A5 F4 F2 13 
C7 7E F2 77 A9 75 97 66 2E BE D6 EC 59 06 61 44 82 55 06 44 BB 8A 8A E6 9D 25 AD D3 82 C1 1C CF 
A5 2F BD D5 5A B2 6A E6 F9 07 26 1E F9 D7 CA 9E 57 72 57 7C 35 36 B4 92 94 01 C8 40 86 1C 64 43 
41 10 2B 33 BE E2 E2 FE 42 7F E9 C5 87 26 9E FC 69 6D 78 7B 76 5D D2 AF 6E 57 DD 57 C8 58 17 01 
10 52 0D AC CA 5D FF B5 D2 EE E7 68 FA 28 4E 70 CA 3A 0D 7E EB A5 56 02 0F DA E6 35 D7 4A 9A 6B 
2F 67 22 95 CE 9A 43 17 39 3B 5F 92 F0 A5 16 9A 20 C0 0C 92 95 E9 DA 03 DF F3 DE 79 D9 AF 55 FD 
7D 3B 54 63 16 51 F5 CD 68 F8 69 4A 64 AC DE 21 A2 60 9D EE 3B E3 87 B8 5A 8A A2 D9 C1 DA 5D 10 
3C FD FA 93 93 F5 39 6B D5 56 F6 1A 8D 1D CF C9 23 BB 88 39 48 DF 00 11 B4 76 07 56 E4 6E FE 53 
B3 77 59 48 BC DA F5 A6 8E 09 DF 9D 4F 0F 02 18 10 F9 3E 95 E9 22 88 40 0A A4 32 DD 72 C9 1A FF 
DD 57 95 6E 39 70 A0 18 62 6E B4 7A DF F7 DC 5D 2F F8 D5 59 FF BD D7 AD 6A B9 C5 E6 61 EB 19 48 
E5 CD EE C1 D0 5B 0D 11 5B B2 6A F6 82 CD 5E 69 54 69 4D 20 0D 5F 13 81 A0 FC 26 BD FD 6A F9 E0 
3B D5 64 16 BE E6 EA B4 74 AA BA B0 A8 B6 6E 5B 72 D3 B5 4C 14 5B B9 A1 BE 78 BD FF CE D3 B2 AD 
E2 18 18 66 7D 8E 5F 7E A8 F6 FA E3 30 63 EC 79 B2 D9 10 EC 49 30 88 9C ED CF 34 2E BD 35 36 B4 
86 4E 7D DB E0 8F 42 87 32 3E 75 10 91 10 20 4A 14 D3 17 DF 9C B8 60 D3 DC CE 67 66 77 3C 5F 7D 
67 47 72 DD 65 99 4D 57 AB E2 10 4B 53 10 85 12 89 8F 2B 98 42 44 90 CA EA BF B0 FB 2B 7F 95 DC 
FB DA D4 0B 0F 8F FE EC EF 32 1B 2E 4B 6F F9 A2 2A 2C 62 69 88 A0 B4 02 45 5C 24 0C A3 38 58 B8 
E5 2E 6B 28 D9 D8 F9 0F CD 37 A7 FC C4 65 D6 D2 EB 48 14 82 25 88 80 E0 5A C3 AF 55 D5 07 A6 2C 
22 10 B7 E7 E3 CC 5B CF 32 9E 8A F5 0C 11 04 0C DB 5A 73 45 F3 F9 87 CC D2 91 28 1B 9D 88 61 40 
F3 D4 88 5F 7A 90 41 92 4C 5F 59 C2 75 5A CC 43 00 43 70 AE 47 E6 7A C3 95 90 EF E9 89 A3 C2 6D 
04 F7 2F 98 7C 62 10 4B 40 3A 75 BD EB 79 E7 AD E7 89 C9 62 CD F0 05 0B 1D F2 98 6E F4 5D 98 BA 
F3 3F C4 37 5E 05 52 4C 0C 26 BF 3E E7 8D 1F 16 AC 5B 29 D1 82 D9 15 42 F6 0D A9 54 BE A5 12 23 
2B 69 AD BD BC FC D2 43 6A 76 BC ED A6 25 93 56 93 07 F5 C4 30 08 82 4C AD 4C F8 4D D9 EE B0 21 
E2 5C AF CC 14 11 2E 7C 48 66 7B 92 DB BE 5C DE F7 A6 2C 1D 22 86 60 41 CC 1A D0 82 25 3B 76 6D 
9A 6A 53 C1 FE DC E1 2F 00 00 1F 6B 49 44 41 54 3E 52 60 E8 D2 D1 C6 DB 2F A6 2E BA 82 4C DB 2C 
2E B6 AF BA AD FA FF B7 F7 A5 B1 76 5D D7 79 6B ED BD CF 74 E7 E1 CD EF F1 71 7A 8F A4 28 91 94 
4D 99 52 6C 4B 8E 3C A4 96 ED DA 48 DC A0 40 12 07 6D 5A 04 6D 53 34 4D 11 A0 0D 1A A0 46 81 FE 
29 8A 16 70 0D FF 30 0A A4 E8 8F B6 31 12 23 49 DD B8 96 ED C8 83 6C 0D 36 65 51 A2 38 88 E3 23 
F9 E6 77 E7 E1 0C 7B 58 FD 71 CE B9 F7 3D 89 F2 18 91 8F D4 FD 00 81 22 DF 7D E7 EE 7B EE D9 6B 
AF F5 AD 6F AD 75 E3 AC D5 DE 8A D3 44 69 59 21 02 80 1D F9 10 F5 0D 02 33 08 C8 34 72 99 2D 60 
75 CA 18 96 04 5C 6F C3 88 5C FE D9 CF 7E F6 6F F7 8A 23 FC F4 48 48 01 4C 3B 6E 20 A2 9B 73 F7 
1C C9 2F 1E 07 C4 CE D9 EF 75 5F FE 8E EE 34 ED 6C 96 67 B2 C4 2C 00 D8 26 EC 1C 66 DD D2 AB 01 
E2 40 7C 8A 20 6C 7B 7C 3E B7 F8 30 B3 ED F6 2B CF 35 5F FD 9E 89 7A A2 50 16 5E 06 13 C1 6A 4A 
D6 81 A2 E0 8A F6 BF EE 56 1C E3 BE BF F6 72 2B B8 70 01 39 B7 4B 15 66 3B 08 D8 7B FD C5 E0 FB 
7F 29 42 3F F6 27 D2 13 77 90 05 49 DE 1D E2 B2 08 40 40 A6 A7 16 72 4F 7E 9A 17 26 00 D1 2A 96 
83 66 5D 2E 5D 60 26 4A 7B 1D 24 F2 0C 02 66 CA 33 E2 D1 8F A0 E3 D2 D6 6A E2 47 C5 04 29 12 7B 
E0 54 E1 7D 9F 64 8E 4B 88 E4 B7 BB DF F9 0B 58 3A 9B 52 AD 48 0C 00 99 99 D8 2B DD 2C F3 3B 8C 
0C 4F E4 22 C9 DE 8A 84 AB 17 4E 16 7F ED 9F E7 1F FB 18 5A 19 86 00 C8 80 20 AC DD EA 7F F3 4B 
BC BE 1C BF 4F 2C A7 88 98 23 4E 7D 24 F7 D0 E3 89 C2 0D 90 10 AC 42 B9 5F 5B D3 37 2F 72 AD D3 
D4 49 D2 DB 42 33 2E 2B 33 F6 A3 1F 36 96 C5 6A CB 29 D3 0B 00 60 08 D9 43 EF CD BF F7 13 68 B9 
F1 AD 41 40 AB 3A A5 89 82 1B 57 78 D8 1F 7C 48 48 FC 3D 4C 5C 1D E0 8A 5B BA 38 0E FB 8F 79 47 
4E 32 CB 06 26 EC B1 E9 D0 EF 47 B7 2E 32 15 A6 FD E2 63 E7 C5 C4 82 56 00 50 4C C8 E2 14 3F F6 
BE FC 47 FF 61 F1 A9 CF 38 53 FB 91 A5 AA E2 9F CF 64 A4 C7 D3 76 1A 27 FE 20 23 2F E3 6E 23 39 
5C 52 AF 13 11 98 CD C6 F6 56 3F 34 5B 38 FE 78 FB D5 67 3A 67 9E EF BC FA 5C F6 81 77 E5 4F 3C 
EE 4C 2F A0 70 B7 C9 8B 93 D3 86 D2 8C 24 6C 63 3A 18 80 61 82 97 26 CB 8F 7F 3A 7B E4 91 C6 E9 
A7 1B 2F 3E DD 7D E5 85 D2 23 4F E4 1E FA 25 2B 3F 09 8C 11 00 98 9E 6E FF 20 B8 F1 25 E0 C2 5E 
FC 67 9E 7B CC 99 BF D6 7A EE AB EB 5F FB 5F 9D 57 9E 2B 9F FA 60 E6 C0 89 A8 D5 30 76 4E 96 9C 
F8 DC 8E DF C2 00 03 2D 79 AF CD 8C 24 C7 36 6E 4E A3 48 EB 27 80 CD 1F E6 C5 0A 21 30 60 56 AE 
5A FE D8 6F D5 C3 4E F8 C2 D3 DC AF 31 02 02 AE 84 83 95 09 71 F8 91 DC A3 4F B9 F3 07 36 FE EC 
0B B8 7A D3 90 89 FD 0B 00 D2 0C 9C F9 C3 CC CB C6 34 A6 6C 37 E4 C6 4D 2B 55 E2 20 12 37 28 99 
CD 1F 7B CA DD 7F B4 F7 CC 97 F5 D5 33 BC DF 15 A4 09 20 B4 3D 18 DF EB 9D 78 22 FF C4 A7 BC 03 
0F 03 77 63 E7 06 01 00 8C EA B6 14 08 2C 4D 19 8C C5 1C CC 90 51 6E 31 3F B5 90 DA 0B 40 04 06 
C8 8A 13 D5 8F FF 4E 2D EA 07 A7 9F B1 FB 4D 00 D0 8C 1B 61 43 79 4A 1C 39 55 7E F4 A3 F6 EC DC 
FA 9F 7E 1E 4A CB 12 81 A5 72 C3 88 F1 CC DC 22 DA 19 48 64 FC 0C 10 59 AE 52 78 EA B7 59 BE DC 
FB F6 9F 9B A5 0B 3C EC 70 D2 8C C8 00 53 C8 8D 65 41 B1 8A D3 07 EC 85 87 0B 87 1F 71 17 1F 16 
6E 3E 36 EB A2 38 55 FD E4 EF B6 0A F9 DE B3 5F E1 2B 57 B9 8E 80 00 C9 28 64 DA CA 60 A1 CC 26 
67 AD 85 87 B3 0F 3C 9A 5D 38 61 95 A6 21 1E 9A 39 24 C1 7E 66 D0 A0 73 44 DC 8E 22 2D CF 81 24 
A9 FB 76 F7 30 1F E1 67 47 32 59 84 80 8C 94 B5 95 EE D9 E7 DA AF 7C 4F FB 1D 6F FF B1 E2 F1 F7 
BB FB 8E 70 2F 17 13 13 08 69 F5 E4 ED CE 93 B8 24 02 00 14 10 28 5F AE 5C 6F BD F4 75 FF B5 D3 
98 AF 14 DE F5 78 EE C1 47 45 DE 8E 6A DF 08 57 BE C2 F2 0B EE 9E BF CF DD C3 00 9C 00 20 EC F8 
57 5E 6E BE F8 4C B0 7C C5 9D DB EB 4D EF B7 72 45 EE 65 0C 32 20 86 49 75 0C E9 A0 E7 5F 3E 13 
9D F9 9E E9 D4 D9 81 87 32 0F 3C E2 4C CE 83 ED 01 02 2B 4F 58 7B 8E 70 74 30 3E 19 49 CB FA 4A 
F7 D5 EF AA 9B 97 40 4A B2 5D 5E 1E F7 F6 3E E0 CC 1F 65 B9 2A 45 7D 7F E9 1C FA ED A1 C8 97 90 
10 C5 F4 3E 67 72 3F 63 48 04 FD 0B CF D7 3E F7 07 CE DA 25 4C 3B AB 10 40 E4 16 B2 FF F8 DF 97 
9E F8 7B 72 63 B9 77 F9 25 B5 7C 05 FD 2E 70 0B 2A D3 DE C2 09 6F 7E 91 67 0A 84 16 20 B2 B4 B7 
06 19 23 DB B5 F0 C6 79 54 3E 10 22 1A 02 8E 64 8C E5 B9 F3 0F 58 A5 B1 78 63 40 52 52 47 60 A4 
AC 2D F7 5E 79 4E AE BC 6E 54 C4 2C 8F 57 26 ED 7D 0F BA 7B 0E 89 6C 49 47 A1 BF 74 8E F5 9B 84 
3B 06 1B 88 E9 05 77 62 2F 02 03 C4 B4 07 18 91 31 5A 06 E1 DA B5 FE C5 1F 98 E5 AB D8 6E 82 96 
E8 66 28 57 61 D5 09 67 6E C1 99 3C 20 CA 55 10 0E A0 C0 64 83 62 32 83 2A E8 F9 4B E7 FD 4B A7 
4D 7D 9D C9 88 18 92 97 67 A5 29 6F 7A 9F 35 35 6F 95 27 C0 72 92 92 EE 5F 30 12 89 9F BB 6D A9 
F4 F8 8C 20 30 0C 18 32 36 32 19 BB 11 94 F4 C0 37 90 3C B9 5A 35 D7 7B 17 5E 6C BF F2 BC DC 5A 
75 A7 E6 F3 C7 DF 9F 59 3C 2E 0A E3 C4 92 86 9D 88 0C DF 24 25 DC 76 1D 84 78 07 68 3F BC 75 B9 
F5 D2 33 BD 4B A7 45 59 54 4E 64 C9 5C 17 D3 1F 72 66 7F 1D AC 29 96 D6 D4 22 00 18 63 C2 76 FF 
D2 AB CD 97 BE 11 AC 5C 73 27 E6 F3 27 DE 9F 59 7C 97 C8 97 90 71 00 1E EF 5C 8A FC 70 E5 72 E7 
EC F3 DD 4B 67 54 D4 CF 4C EF CB 1D 3E E9 ED 7F C8 2A 4F 02 77 E3 B7 65 30 10 77 6B 30 B1 87 8F 
84 3C 4E 67 02 A4 A1 44 EA 6A A5 27 9B 89 A3 93 B8 AF 4D E3 BB 7F DE FE E2 BF 75 7B B5 D4 64 20 
82 09 C7 F7 96 7E FF 73 D9 A3 EF 43 02 00 83 64 92 BC 2A F2 44 E0 94 D0 C4 08 71 15 60 DA F2 87 
20 25 95 D1 24 BC 32 A4 A7 E8 30 EB 1A DB 5C 22 00 24 1D 77 1E 46 60 84 48 C8 D2 AA 48 16 5F 87 
B6 65 8B 00 06 62 58 40 64 49 65 58 7A 0A 00 12 92 26 A3 41 46 60 0C 08 0B B8 00 C6 09 F8 A0 E3 
C0 80 D8 1E 1C EA 49 CF 62 30 60 0C 40 52 11 49 C8 13 36 3D 91 71 E1 B6 B8 F5 E7 7B F0 92 CC F4 
A0 22 94 B4 D4 ED 5A B4 71 23 E8 B4 8B 47 DE 6D 15 26 46 26 63 57 22 39 45 53 0D 4F FC E0 92 31 
FD 86 7F ED 6C E7 95 EF FB 37 5E C7 6C 2E 77 E8 64 F6 C8 23 F6 CC 01 6E 7B 2C 4D A3 C6 6E 47 4A 
37 40 2A EC C6 84 6A 27 30 60 50 B6 83 2B 5F ED 9F FB 3C 67 BD DE 4A C9 9E FB 58 EE D8 87 ED D9 
43 CC C9 C0 F6 67 8E 08 8C 31 7E C7 BF FE 5A EB CC B3 BD A5 F3 56 AE 98 3F FA 68 FE 81 77 5B 13 
7B 41 78 38 D0 3E 18 A9 9A 6B BD AB AF 76 CF BF 14 AD 5C 07 CE BC B9 05 6F E1 41 6F FE B0 A8 CC 
70 CB 45 60 71 35 28 8B 1B 14 80 18 8A EF B7 27 8D E3 07 3F D9 D2 83 50 02 C9 44 9B 5F FE AF D1 
FF FE 4F B6 89 92 85 01 1A 40 B9 70 72 FC 5F 7E DE 9D 59 20 4C 37 70 62 F0 92 3D 8C DB D3 CA A9 
45 32 49 BA 92 D2 C1 F5 90 66 7F 77 D8 8B 6D DF 45 FC 8A 61 91 7C 7A 73 21 1D 7C 1F 17 31 B0 F4 
E5 49 BC 13 9B 0E 4C 46 9C 0C 7F 04 09 13 94 BE 59 62 61 90 12 76 3B A5 98 06 9E 23 11 81 89 0D 
2D C1 20 55 96 EC DD 64 09 3B 78 AE C1 02 B7 2D 78 FB BF 0E AE 0A E9 15 06 02 39 22 92 61 D8 DE 
52 5B 37 C3 9B 57 82 95 EB E1 D6 B2 89 7C 3E B5 30 F5 F1 CF B8 E3 7B 47 26 63 97 62 E0 E4 0E 5A 
84 51 CA 96 82 F4 C3 95 2B 9D D7 5E 68 5F 7E D9 F4 BA DE CC FE DC D1 C7 B2 07 8E 89 D2 18 70 0B 
80 A5 AA 8F F8 51 49 1E 35 48 27 68 10 35 55 FD BB D1 AD BF 04 27 CF 8B 1F E9 BF 5E EB BC 7A 5A 
75 9B 99 D9 83 F9 07 1F CD 1C 3C C1 0B 55 62 3C 49 6D A4 5B 06 23 3F 58 BE D8 39 FB 7C F7 D2 2B 
46 85 DE DE 23 F9 23 A7 32 FB 1E E0 F9 6A 4A C5 70 00 C2 C8 8F 36 6F F5 AF 9C E9 5D 3E 1B 6C DE 
E2 C8 AC 89 19 6F FE B0 37 7F C8 9A 98 E3 D9 A2 0E AE 84 AD 73 EE C4 93 28 C6 D2 0A E5 44 54 09 
00 10 EB 9E 63 29 55 C2 AF 12 11 50 D4 DB FC 93 7F 67 9E FE 1F 3C B9 1B 64 00 34 32 7C EC 53 13 
FF E4 3F 8A 5C 25 49 43 27 B2 8E ED 8F F4 F0 5E A4 5B 3D 71 31 08 88 20 99 6A 12 BF 72 90 FB 86 
ED 3B 6B 47 DB D8 A1 FD 49 3B B3 0D ED DD B6 6A 6B DA F1 EA 81 AE 63 5B 0E F9 B6 DF 79 F2 F1 71 
70 23 DE B4 E8 1D EB 18 C4 0E 98 8A DF 06 C1 69 6A 9F 06 9F 62 68 F7 60 58 AE 92 58 09 42 D0 26 
EC CB 56 4D 6E DE 0C 6E 5D 0D D7 96 C2 DA AA 91 21 F7 F2 CE C4 AC 3B 73 C0 DB B3 68 8D CF F2 5C 
05 99 18 99 8C 7B 0A 89 8B 0A 86 08 4C A8 DA 5B FD 2B 67 BB E7 5E F4 57 AE 72 C7 C9 EC 7F 20 B7 
78 D2 9D 3F C2 73 25 62 0C 20 1D FF 87 06 E2 04 03 69 23 97 A3 B5 BF 8A 36 BF 2F 2A EF 76 67 7E 
95 EC BD 40 C6 B4 EB FD 2B 67 BA 67 9F F7 97 AF 88 6C 21 7B E8 5D D9 C3 27 DD E9 7D E0 66 11 05 
20 A4 FD B2 0D 19 A9 B6 56 BB AF 9F E9 5E 38 1D 6D 2C 89 5C 21 B3 FF C1 CC E2 71 7B EE A0 C8 56 
10 39 02 33 40 44 06 42 5F D6 57 82 1B 17 FD 6B 17 82 F5 25 19 74 2D 2F E7 4C CC DA E5 3A E6 5E 
CF 2C FE BE 53 3E C5 AC 4C D2 A3 0B 4D 92 E7 01 24 32 E9 F1 3A 20 79 4D 54 5B DE F8 FC 1F 88 57 
9E 49 43 2F 22 02 C9 84 FD C9 7F 3A FE 9B 7F 14 53 C2 77 FA BB F8 29 40 69 6C 03 69 67 94 9F 90 
21 FF 5B 7C E7 D4 25 22 1A EA CD 87 E6 8C 08 B5 54 FD 96 6C 6C 84 6B 4B FE EA 75 B5 7E 4B B6 36 
C9 48 2B 57 B6 C7 E7 DC D9 FD D6 CC 41 BB 3A 6D E5 F2 86 D9 88 02 93 1C DB 88 FE BC A7 90 86 01 
00 64 4C 9C 98 20 02 D9 0B D6 97 7A AF 9F E9 5F FA 91 AC AF B1 62 25 77 E0 C1 CC C1 13 CE CC 02 
CF E4 11 19 01 07 04 A2 40 F7 CE 46 B7 FE 94 FA 1B D6 EC 27 EC B1 0F 03 2F 26 15 A2 00 40 64 64 
2F 5C B9 D6 3B FF C3 EE E5 1F A9 5E CB 19 9F CF 2E 3E 9C 3D 78 CC 1A 9F 43 DB 8D BB 8A 0F 5F 1C 
76 C3 D5 2B FD 8B 3F EA 5F 3D 2B 9B 75 3B 5F 76 F6 2E 66 0F 1E 73 66 0E F2 42 15 98 88 35 53 08 
00 46 AA 4E 33 DC 58 0A 6E 5E 0C 57 AE 9B CE C5 DC D4 6B 41 7B 8F A2 13 76 75 CE 99 9C B1 C6 67 
45 7E DC CA 15 D0 F1 4C 62 A1 86 27 7E EC 3E F8 57 5E DE F8 DC BF 70 6F 9D 1B 98 0C 20 F0 AD 6C 
E6 B7 FF 78 EC E3 FF 28 7E A0 EF EC 57 F1 53 81 06 11 56 DA 3D 36 29 42 79 BB 57 9B D2 26 04 40 
A0 29 56 09 1B 65 C2 BE 6C 6E C9 DA 4A B0 7A 2D DA BC 19 D5 D6 55 BF CB 39 B7 4A 53 D6 F8 8C 37 
77 C0 9A 9C B7 2B E3 DC 2B 00 B3 D2 C0 8A E2 4E 9A 03 A3 37 32 19 F7 12 92 53 22 A1 A6 52 96 03 
00 C9 90 51 A6 DF 09 56 AF F6 5F 7F 29 B8 76 3E EC 36 AD 42 D5 DB 7B 38 7B F0 21 67 66 3F F7 78 
54 FF 56 B4 FA 7F B9 3D E6 EC F9 75 9E 7D 18 98 05 C8 80 18 24 19 0D 4C 5A 1F 1B 65 DA 8D FE D2 
F9 DE C5 97 82 1B 97 8C 96 EE E4 7C 66 E1 A1 CC FE A3 D6 D8 1C DA D9 F8 F8 27 00 20 83 C6 E8 7E 
33 58 B9 EC 5F 39 EB 5F BF 10 35 6B CC F5 DC C9 79 6F DF 11 67 6E D1 AE 4E F3 4C 01 50 24 E1 BA 
31 60 22 D5 5B 0E AF FF 97 68 79 35 F4 4F C9 7A 53 B6 EA A4 14 0A 2E 72 45 AB 30 C6 0B 55 BB 3A 
6D 95 C7 78 AE C0 32 79 CB CB 33 DB 25 E4 9D 1F 7E AD F9 85 7F 6D B7 D7 87 23 0F C9 44 A5 E9 C2 
EF FD E7 E2 C9 5F D9 11 5E A4 AC E6 E0 A6 E1 CE FB B7 83 A8 78 63 90 30 74 E4 77 C8 6C E9 2D FE 
07 D2 D8 09 86 91 E4 1B BE 31 22 83 5A EA 7E 37 EA 36 79 AE 6C 17 2A F0 D3 33 94 DB D6 39 08 DB 
B6 37 87 DE 16 51 41 12 C2 0D 7E 93 08 8C D6 61 2F 6A D7 54 7D 3D 5A 5F 0A 37 6E 44 5B EB B2 DB 
06 D2 56 B6 60 55 A7 DD 89 59 77 66 9F 55 9D 15 C5 2A 58 2E 32 01 94 96 23 ED 70 87 12 A6 25 11 
0F 8D 4C C6 BD 86 41 17 C2 E1 01 06 30 A4 3A 80 B4 EA B6 82 95 4B FD 4B 67 FA D7 CF CB CE 46 66 
D2 2E 1E 75 54 F7 02 AF 3C 92 39 FC 3B 98 59 04 E0 90 F6 53 04 48 33 EF C3 28 18 01 0C EA 48 36 
D6 FB D7 CE F5 2F BD 1C AC 5C 35 5A D9 63 33 99 7D 47 32 FB 8E DA 13 7B 78 B6 08 28 4C AA E5 06 
30 E4 B7 C3 F5 1B BD A5 F3 C1 D2 45 B9 B1 A2 75 64 E5 4B F6 E4 3E 67 76 C1 9D 9A B7 2A 13 3C 57 
40 66 21 28 FF D6 9F A8 F6 B9 CC A1 7F 83 A6 20 BB 0D DD DA 94 5B AB C1 C6 8A 6A D5 74 BB 2E 7B 
6D D2 0A 01 D0 B2 84 9B 63 D9 82 F0 32 FA FA 59 FA E1 D3 96 0A D2 EC 00 10 80 9C 39 58 FC DD FF 
90 D9 77 02 85 85 9C 23 E3 49 35 4A B2 E5 D3 22 7D 4A C9 50 63 C0 68 32 86 B4 36 5A 19 2D 8D 94 
A8 22 13 85 3A F2 29 EC EB 5E DB EF 76 DC 83 C7 8B FB 1F 64 71 39 3F BE D1 E2 EC F8 DB B6 77 80 
94 A3 46 A3 48 FA AA D7 56 ED 9A AC AD 86 EB B7 A2 C6 BA AA 6F 86 91 AC 3E F9 E9 B1 93 4F 02 F2 
94 FF B8 8D E1 18 5C 6A 67 EB A8 94 A7 8C 29 18 4C AD 54 D2 54 28 A1 54 41 2B 1D F6 54 AB 26 1B 
6B C1 C6 AD 70 73 59 D5 56 55 A7 41 8A 2C 27 6B 55 27 F8 F8 94 3B BD D7 19 9F B7 CA 93 DC CB C5 
0A 0E 48 33 CA C9 B5 D2 1B 18 93 C8 94 D2 B7 E9 02 60 64 32 EE 37 24 9A 0E 43 44 4A 77 6F F4 2F 
FC 99 BC F5 25 A7 30 DE B9 0C 41 A7 6C 4F 1C F1 F6 2C BA 7B 0F DB E3 7B 44 B6 14 17 49 0E 79 BF 
24 81 40 09 AD 00 86 C8 80 8A 54 7D DD BF F9 7A EF CA 2B C1 CA 55 E3 77 AD 6C C9 99 DD EF CE 1F 
76 66 0E D8 95 09 E6 E6 00 AD 98 A9 25 22 92 91 6A 6E 84 EB 4B FE CD CB 72 75 29 6C AC 69 A5 2C 
37 EB 54 A6 AC 89 59 77 6A 8E 89 8B A6 F7 5D EF E8 1F B2 DC 09 40 81 88 04 86 8C 41 A3 21 F2 55 
AF A5 FA 5D DD 6B 99 D6 56 D0 AC 9B 6E 13 BA 75 7D E6 DB 62 E9 DC CE 4E 33 4C 95 C6 D5 E1 53 90 
C9 03 B7 19 B3 48 70 12 02 90 21 30 2E 78 2C AA 24 00 32 64 B4 26 30 60 34 4A 85 4A 83 91 C6 48 
23 15 69 8D 64 08 C1 00 12 22 E3 36 BA 99 D2 7B 3F 56 39 F1 38 21 8F B5 D6 E9 B4 BB 94 C3 1C 2A 
47 08 C8 80 0A B5 DF 55 FD B6 EE 34 64 63 33 A8 AD E8 F6 96 6A D6 4C B7 4D 52 11 B7 AD 7C 89 95 
AB 4E 75 D2 99 DA EF EE 39 64 97 C6 93 3E B7 F8 63 4D 46 22 C3 1F F2 A9 C9 B6 06 16 77 3D 40 20 
20 4D CA 57 DD B6 6C 37 54 7D 35 5C BF 29 6B AB B2 B9 A9 7B 1D 4D 84 5E C6 29 57 ED F2 8C 3B 75 
C0 1A 9F B6 4A 63 3C 5B 02 6E 0D 92 F1 3F 77 70 34 32 19 F7 1B 88 08 C8 18 52 14 5E 0F D6 BF 22 
6B 3F B0 4A 47 AD B1 8F EA 8E 1D DC B8 E6 2F 9D 0F D7 96 B4 EF F3 6C C1 9E 9C F7 F6 2C B8 33 07 
EC EA 34 CF 16 62 41 7A AC 3F 65 03 8E 9F 08 C1 18 00 00 44 AD 74 A7 1E AC 5D EB 2F 9D 0B 6F 5D 
51 9B 6B 06 C0 2A 8F 3B 93 F3 EE 9E 83 F6 E4 BC 55 1A E7 5E 2E 96 18 C4 47 25 CA 48 B6 37 A3 AD 
95 60 E5 6A B4 BE A4 EA 9B 51 B7 C3 F9 46 F9 C0 F5 48 9C 32 FA B8 5D 99 B2 AA D3 A2 50 E5 D9 A2 
C8 64 99 E5 12 13 71 97 D0 58 52 6D 0C E8 F6 E6 F2 17 FF 98 7E F8 FF 86 BD 3F 88 0C 32 FB D4 07 
F2 EF FD 94 94 46 C9 50 47 21 6A 05 B1 AC DB 18 4A 5A 90 C7 0B 67 C8 38 20 03 E4 C4 39 70 2E 6C 
57 D8 AE 70 5C E6 B8 E0 78 CC 72 99 ED A0 ED A2 9D E1 AE 8B 76 16 B8 0D C9 29 6F 20 96 42 48 A9 
C2 BE 0E 3A AA DF D5 DD 96 6E D5 64 73 CB 74 9B B2 DB D2 DD 0E 45 BE 31 84 82 8B 5C 41 14 C6 44 
B1 E2 8E 4F 59 95 69 5E 18 13 F9 22 3A 59 64 3C D6 80 A6 69 F0 D8 37 7B 73 4B AE 24 F1 99 24 63 
92 9C 08 25 B1 A7 0E B5 DF D6 9D A6 6A 6E 05 9B 2B B2 B6 AA 1A 5B AA 55 53 32 04 C6 ED 4C 5E 94 
C7 EC EA 94 33 BD D7 AA 4C 59 85 31 96 29 22 B7 06 DA FC D8 9B 48 7B 1D 8D 4C C6 3B 15 83 23 2F 
39 7B 62 F7 58 77 A2 D6 0B D1 CA 97 8D 0A DC 99 A7 AC CA 93 C0 2A 49 24 63 22 DD 69 86 EB 37 82 
A5 8B FE CA B5 A8 B6 AC 65 28 B2 05 77 7C D6 99 3E E8 CE 1C B0 AA 53 56 AE 04 B6 97 04 2E 84 71 
46 73 A0 04 40 42 24 6D A4 2F 1B 6B D1 EA 55 FF E6 95 70 6D 49 35 B7 8C 01 9E 2D D8 63 D3 F6 C4 
9C 33 BD C7 AA 4C 59 F9 0A 77 B3 C4 44 92 02 34 D2 04 7D D9 AC A9 CE 0D A8 FF F7 68 79 D5 6F 3F 
1C 76 7C 1D 06 08 C4 85 CD BD 1C E6 0A 22 5B E0 B9 A2 53 28 B3 7C 89 7B 05 E6 64 B4 56 CD 73 2F 
B2 EE 26 DA 36 C4 7B 0F 18 21 F3 16 4E 14 16 4F 22 47 20 36 F0 D5 81 E8 36 A1 C4 B0 46 36 31 84 
C9 90 81 98 15 52 CA C8 48 CB C8 44 21 C8 50 47 BE 09 BA D0 6B 47 DD 96 EA B6 C9 EF A9 A0 AB FD 
AE F1 7B 14 F9 04 A0 81 71 C7 B1 B2 39 9E 2D B1 4C D1 2E 8D D9 95 09 5E A8 88 6C 51 E4 8A 64 65 
12 03 01 80 18 B7 A1 67 A9 EF 86 A9 68 ED C7 6C BA D8 4D 54 24 03 D5 EF AA 4E 43 37 37 A3 FA 7A 
54 5F D7 AD 2D D5 AA AB A0 67 10 2C 3B 63 17 2A AC 3C E6 8C CF DA E3 73 A2 34 66 E5 2A CC F1 80 
0B 40 9E E6 AD B7 B7 63 1B 08 55 7E 51 F2 75 64 32 EE 65 D0 80 08 A5 64 3B 43 44 C1 F5 70 FD AB 
B2 F6 A2 9D 3F 62 CD FE 2A CF 2E 22 B8 34 10 2D C4 BD B2 08 01 34 A9 48 35 B7 C2 8D 1B FD 5B 97 
A2 B5 EB 51 6D 4D 07 11 B3 3D A7 3C 66 4F CE 3A 53 FB AC F1 19 BB 38 CE 33 05 12 B1 03 C2 00 D8 
F6 4A 4A 00 02 D2 10 F9 B2 B9 11 6E DE 0C 96 AF C8 8D D5 A8 B6 2E 83 1E E3 5C 64 72 BC 3C 66 97 
26 9D B1 19 AB 32 C1 72 65 91 2D 30 D7 03 86 E1 CA FF 94 CD D3 D9 83 7F 68 64 5E 77 5B BA D3 D0 
CD CD A0 B1 A6 BA 2D D3 6B 53 AF 19 05 81 56 86 03 20 18 E2 4C 58 0E 5A 0E B8 1E B7 1D 2E 6C 14 
36 09 41 C2 E6 96 CB 2D 8B 09 97 09 41 88 8C 73 26 92 3A 17 00 20 63 B4 0C 81 08 C9 68 19 6A 2D 
75 24 8D 52 5C 29 D0 D2 A8 48 CB 48 AB 90 C2 00 64 64 64 48 2A 42 43 06 D1 00 32 C6 2C DB 65 AE 
C7 3C 8F B9 39 CC 14 9C 42 D5 2A 55 59 36 CF BC 9C F0 0A 3C 93 47 61 C7 75 AA 94 C8 34 70 D8 8F 
27 A5 05 00 92 9D 9B 72 50 A9 48 22 DE C2 71 74 A3 A5 0E BA BA D7 D2 DD 96 6A 6E 85 F5 35 D9 DC 
94 AD 06 75 9A 3A 0A 34 82 E5 38 A2 50 B6 8A 63 76 65 D2 1E 9F E3 A5 71 2B 5F 15 D9 02 09 6B D0 
09 65 A0 DB D8 A6 13 79 83 34 63 B0 9C 91 C9 78 C7 82 88 92 41 2D 08 A0 C9 B4 64 FD F9 60 ED FF 
90 09 9C E9 A7 EC F2 87 90 57 90 FD B8 C6 80 71 FD 02 91 06 1D E9 4E 5D D6 D6 83 D5 6B C1 FA 92 
DA 5A 0B DB 75 34 46 B8 9E 28 4F F2 CA A4 3B 3E 6B 8F 4F 8B 42 55 E4 AB E8 B8 88 3C EE FD 99 6E 
82 D8 62 69 54 4A F9 ED A8 B1 A5 EA AB FE FA 92 6A 6C 98 E6 56 D4 EB 90 D2 0C 39 7A 0E CF 15 AC 
5C 81 39 4B 76 FE 1C 9F FA 0C 77 4E 70 C7 03 27 CB 2D 8B 73 01 9C 23 A2 31 46 05 21 85 3D 13 F6 
4D D0 07 BF 27 7B ED A8 D7 86 C0 27 19 19 15 90 0C 8C 0C 41 2B D0 1A 8C 31 4A 1B 43 80 64 0C 29 
AD 07 DB 04 19 0A CE 13 9E 9F 31 64 08 8C 21 E7 68 39 4C D8 28 2C 14 36 59 36 59 8E E5 E5 1C 2F 
CF B3 59 70 3D 66 7B 60 BB E0 78 C2 C9 70 DB 01 11 8F E9 63 E9 E6 DC AE F8 C2 ED B6 81 86 A4 6B 
FC DF 20 B3 42 09 3D 61 34 C8 48 F9 1D D5 6B 9B 5E 5B B5 EB 61 6D CD 74 6A B2 D3 D0 9D 8E 0E 7C 
03 9A 73 CB CA 64 31 5F 66 85 8A 57 99 B4 AB 13 AC 50 15 B9 32 CF E6 89 5B C8 38 4B FB 80 DC AD 
BC F2 C8 64 DC BB 20 4A 07 55 02 05 C6 BF 1E AE FF 85 6C 9C B1 8B 27 AC E9 4F 09 6F 01 D0 A6 A4 
1C EB B6 CF D6 36 91 C7 8E 67 C0 00 19 0A 7B B2 B9 25 1B 1B E1 DA 8D 68 E3 A6 6C 6C 46 9D 16 A8 
88 73 CE 0B 45 51 1C 13 A5 71 67 6C 86 97 27 78 AE 28 32 79 E1 E5 80 DB 80 31 69 9A 28 BF 18 11 
92 A6 30 88 7A 4D DD 69 E8 E6 56 50 5B 93 AD BA E9 D7 41 AE 15 AA 2F 75 37 AD 5E FD 10 10 71 26 
98 ED A0 70 81 33 9C 59 9C F8 E0 AF 39 F9 CA E0 B4 4E B6 65 92 17 48 C8 3F 32 1A 8C 26 AD C8 68 
A3 35 90 01 32 C6 18 13 B3 18 F1 EF 32 C6 38 47 64 84 C8 90 23 E3 71 62 85 38 4B 67 B8 B0 78 FE 
F6 30 A1 3A 6C 44 98 44 33 B1 BE 84 06 D6 22 F6 EC 52 71 5B BA B6 34 D9 4A 06 C8 90 D6 46 06 C6 
EF 1A BF A7 FB 6D D5 69 44 8D 2D D3 6E A8 7E 4B 75 DB BA DF 25 19 18 24 64 96 ED 15 44 BE C8 B2 
05 AB 34 66 8F 4D F3 E2 98 C8 95 44 36 CF 6C 8F 98 48 66 D9 61 DC 7A 99 52 1E 64 B0 D2 91 C9 18 
E1 C7 61 C0 5A 6C 8F 83 89 40 9B 68 43 D6 BE 15 6E 7C 13 99 EB 4C FF 0A 2F BF 1F 59 09 71 10 41 
BC 95 97 61 D2 18 17 4D 4C 55 26 4F 43 EC 38 C4 15 2E B1 14 48 81 0C 65 A7 A1 DA 75 55 5F 0D 36 
96 75 73 43 B5 EB B2 D7 35 5A 02 63 DC CE 88 42 D9 CA 97 44 B6 6C 55 27 78 A1 CC 33 05 96 C9 09 
37 CF 1D 0F B9 20 64 F1 78 0F 34 80 A0 C1 68 90 ED 60 E9 0B BA 7D 8B 55 FF 81 89 04 F6 7B 3A E8 
06 41 57 05 3D 2C 4C 8E 9D 7C D2 CA 94 B6 7D 70 1A 44 E3 49 C9 D6 36 77 3B 2D AF 80 38 F2 1A 34 
C8 89 7F 17 87 2E C0 F6 1F C4 AD 67 68 E0 0C C4 2F 4D 63 AD C4 73 48 C7 C0 E0 B6 B9 7C B1 ED 32 
A4 25 C9 50 87 81 09 FB E4 F7 B4 DF 35 BD 56 D4 AE EB 4E D3 F8 DD C8 EF 41 BF AB FD 9E 89 87 A4 
32 C1 5D CF CA E6 59 B6 C0 72 25 B7 3C 61 95 C6 58 AE C8 BC BC 95 2D A0 93 81 64 38 F9 CE A2 B2 
ED 1F 31 99 18 98 8C 4B 1C E4 40 EF 0A 46 26 63 F7 63 60 24 4C BC 9F 93 5E DE 44 60 7A AA F3 72 
B8 FA 15 E9 2F 3B 63 A7 9C 89 8F 71 67 2F 80 B5 63 77 BC 65 EC 9A 66 2B B7 F5 51 79 E3 4F 13 9A 
64 A8 DE 41 00 00 0D 64 28 F4 55 A7 A1 3A 0D D5 AE 05 B5 35 D5 DA A2 6E 4B 75 1A 51 D0 27 A5 11 
08 39 E3 76 86 65 8A 56 26 CF BC 2C CB E6 ED 7C 91 65 0B 2C 93 65 76 1E 5C 5B B7 9F 36 CD 67 B3 
87 FE 15 66 1E 40 44 62 98 4C 27 89 8F FA C1 18 E7 74 19 3B 3E 43 5A 79 06 83 5E 35 DB 12 A0 98 
D6 E2 40 A2 3F 8D 3D 83 C1 F8 81 37 24 30 29 C9 AD C4 2D CD 8D 36 4A 1A A9 74 14 92 8A 20 F2 4D 
D4 A7 C0 37 41 57 76 5B AA D7 81 A0 AF A3 BE 0A 7A C6 EF 53 E0 1B 29 09 C1 00 21 63 B6 ED 08 AF 
00 99 3C 7A 79 2B 57 70 8A 55 5E AC F2 6C 9E B9 39 E1 E5 98 9B 03 1E 27 6E D8 F0 CD 21 4D DE A6 
0A 8F 38 A3 31 D0 DE 24 7F 6C FB 7E D2 7F 1C 99 8C 11 DE 12 04 64 D2 DA 6A 8A 5B E5 12 48 1D 5C 
8A 36 BE 16 D5 4E 8B CC 9C 33 F5 09 51 38 8E 2C 17 D7 A4 03 C0 4E C2 EB ED 59 56 EC A2 53 BC D9 
0C 18 4D 61 A0 FC 8E E9 77 4C BF AD DB CD A0 B9 A5 7B 0D 0A BA D0 EB 1A DF 0F A3 BE D2 92 01 70 
32 9A 31 6E 37 2A 73 97 23 3C 1E F4 16 B8 70 98 E5 A1 65 93 B0 85 E3 59 8E CB 1D 17 2C 87 6C 07 
B8 60 5C 00 E3 4C D8 71 A4 11 4F D7 46 00 62 CC 08 01 C8 31 19 BA 0A 64 0C 6A 35 08 2D 48 CB D8 
10 68 AD 41 1B A3 25 68 09 2A 24 19 51 14 EA 28 D0 61 A0 A3 28 FE 47 23 43 25 25 85 11 44 3E A8 
48 C9 C0 90 49 08 09 42 14 42 58 B6 70 1C 74 32 E8 66 C1 CD 30 2F E7 E6 4B 22 57 44 2F 87 6E 96 
B9 59 E1 66 98 E3 81 B0 10 19 A6 D5 FD BF 78 86 62 B7 61 64 32 76 3D E2 72 01 34 89 7E 07 24 C8 
CD A8 FE AD 70 FD 19 04 B0 A7 3E 64 57 9E 40 31 0E 60 A5 75 43 6F E6 C8 DF BE A5 A5 C1 4B 7A 30 
A6 7A D2 34 5E 20 83 44 60 A4 89 02 15 F4 4D E4 53 18 EA A0 43 41 DB 04 35 16 FE 55 54 6B 47 EA 
09 A3 C1 C8 10 64 48 61 88 52 1A 63 A4 56 64 74 AA 5E 82 34 92 A7 61 0A 00 D3 01 9B C3 14 45 B2 
26 4C 4A D2 D3 62 50 00 00 D0 10 C7 5F B1 7C 94 09 21 04 17 8C 71 B0 2C B0 6C B4 5C 26 1C B0 2C 
B2 6C 66 7B 76 26 67 79 39 74 B3 E8 BA CC 71 99 E5 A0 ED 31 C7 E3 B6 1B AB A1 E2 44 26 0D 98 DF 
01 29 3A 28 47 DF 16 3D DD 67 26 63 D4 C8 6F 97 82 12 C9 70 FC 08 12 81 01 02 D0 4D D5 7A 29 58 
7F 9A 82 15 AB FA 98 3D F1 61 74 F6 03 38 00 03 06 FD 0E 1F 00 88 69 AF 08 4C BA 3D 00 40 DC 56 
07 00 90 80 13 22 32 C1 2C D7 CE 96 81 80 30 99 A8 88 14 85 AB CA 14 9E 29 1D FA 14 3A FB 93 BC 
A3 8E 48 49 A3 95 51 8A 74 04 5A 82 D6 A0 35 19 6D 8C 42 63 8C D6 26 96 89 20 A2 52 28 65 1A 59 
10 00 00 E3 24 6C 60 2C F1 DB 99 40 C6 01 E3 3C 03 03 C6 91 09 E2 02 38 E7 C2 E2 DC 46 6E A1 10 
C0 13 9D 15 40 12 88 C5 7A B6 C4 FB 4F 9D 96 B8 35 55 B2 FE 84 55 D9 16 5C A4 F7 23 FE 23 B5 18 
74 67 6C F7 9D C4 C8 64 EC 36 0C 12 19 83 FA 65 22 20 30 A1 E9 BF 16 6C 7C 4D 36 CF 5B B9 FD F6 
C1 DF 13 F9 E3 C8 B2 49 2C 1F 3F CE C3 A7 F3 0E 3E A6 83 8A D3 1D 87 7A FA C3 61 94 34 CC 3C C4 
AD F2 0D DA A2 F8 50 B4 FE 0D E9 5F 13 99 05 4E 82 18 20 B8 8C E2 61 F0 DB 54 6A E9 C5 76 9A C3 
37 8E 01 D8 B9 9C 9D 2F BD CD AA 6F 6B 5B 77 92 40 6F BE 0E 02 BE 71 FA 1C 10 B0 6D EF BA 7D 21 
08 F7 A3 0B 3F 32 19 BB 0A DB 9F B0 84 E6 44 F2 C9 BF 1A 6E 3E 13 35 5E 64 CE 78 66 FE 37 AC D2 
7B 80 57 10 39 8B CF C6 3B 45 5E BC 19 B8 73 8B FD 24 8B 35 7C 75 3C 00 88 BB F3 DC 9D D1 CD 57 
ED CA E3 C0 F2 3C 3D E7 77 5E E4 36 D7 7F D3 DF 7E 82 EB 7F BB 9F FE AC B7 EB 2D AD C9 5B AF EA 
6E 92 94 6F 1F 46 26 63 D7 21 75 31 0C 33 DA 44 B7 C2 DA DF C8 AD 67 0D 63 EE D4 47 ED EA 93 68 
4D 00 88 38 17 70 4F 7B BD 88 48 BC C0 4B 47 A3 8D EF 98 70 9D 79 39 A2 FB 8D 29 BC 2F 31 32 19 
77 19 3B A4 01 43 4D 40 48 72 2D AC 7F 3F DC F8 16 E9 C8 19 7B D4 1E FB 20 B3 F7 21 17 71 7B CB 
54 98 7C AF 1A 8D D4 34 58 A2 78 2C 5C FF BA EE BE C6 DD BD 80 D6 30 B9 78 4F 7E AC 77 04 46 26 
E3 6E 21 E1 2C D2 AC 3C A5 52 02 49 6A 5D D6 9F 8B 36 9F D5 B2 66 97 DF ED 8C 7F 84 67 0E 02 7A 
83 8A 05 18 D6 38 DD D3 20 00 E0 EE BC C8 CC C9 D6 8F EC EA 2F 13 14 08 21 99 A1 3C B2 19 BB 15 
23 93 71 57 30 14 6B A7 14 19 11 29 A3 36 75 E3 87 72 EB 9B 3A A8 DB C5 63 DE FC 6F F0 EC 51 60 
59 40 B6 33 53 77 DF 6C 27 44 56 10 C5 77 05 AB 7F AD 82 25 E1 1D 03 88 1B 53 DC A6 2A 7C 84 5D 
82 91 C9 B8 9B 20 22 40 03 A4 48 6D 46 CD 1F 44 9B DF 26 7F C3 2E 1E 73 F6 FC 26 CB 1E 61 2C 0B 
34 C8 F0 DF 37 66 62 80 38 04 13 BC 78 1C D7 BE AA 5B A7 85 77 04 C1 BA 1F 3F E9 7D 85 91 C9 B8 
43 D8 36 64 60 00 03 10 51 B4 11 35 5E 88 B6 BE A3 A3 86 95 3F EC CC 7E 9A E5 8E 33 96 4B E5 40 
F7 6D 64 9F 32 31 C4 9D 39 5E 7C 40 36 CE 38 E3 7F 07 F8 D4 88 03 DD E5 18 99 8C 3B 81 84 A8 A0 
01 BB 67 00 42 13 AD C8 FA 0B B2 F6 7D 1D 35 EC E2 83 DE 9E DF 12 B9 23 C8 72 04 F1 00 34 4A 69 
8B FB 7A 03 21 10 78 56 F9 3D BD C6 7F 93 9D F3 A2 38 C1 80 DD AF 56 F2 FE C0 C8 64 DC 29 10 11 
48 02 8E 14 9A E0 86 AC 3F AB EA 3F 30 2A 14 E5 07 BD F9 CF B0 EC 11 64 B9 78 A0 E6 4E 3D C2 7D 
BC 73 E2 7A 2E 00 40 9E 3D CA DD 09 D9 78 51 14 4F 11 7A 38 7A 2C 77 31 46 DF CD 9D 00 26 E3 55 
99 F1 AF 46 5B 7F AD 9A 3F 02 42 BB F2 6E 51 FD 00 F7 0E 12 3A 80 2C 2D 71 E6 77 7B B1 77 18 88 
40 20 CA 76 E5 3D E1 EA 57 4D 70 9D 79 47 EF 63 33 79 1F 60 64 32 EE 14 10 08 4C D4 79 5D 76 AE 
BA 63 1F E0 E5 C7 98 BB 17 D1 41 1C CC 34 A3 7B 3E 6D FA B3 20 95 5A C7 1F 9E 5B C5 F7 44 6B 7F 
A3 1A 2F 38 DE 21 02 FE 0E BA 11 F7 1A 46 95 AC 77 04 E9 04 76 A3 DA 00 21 13 65 20 6B 47 33 A8 
54 CE F5 8E D2 23 C4 85 B0 69 5B 3C DF BF F1 45 D5 7E 2D 73 E8 8F D0 DE 17 F7 CC 8A 9B E7 BC A3 
EE C9 EE C7 28 01 7E 47 10 B7 5B 42 CE AD 32 B7 A6 10 1D 64 8C E1 00 C9 B4 CE 77 DA DE 40 44 86 
2C 9D C1 E4 58 63 BF 44 AA 27 9B A7 01 64 3A B0 64 47 0F B2 11 76 03 46 26 63 84 5D 00 04 02 C6 
BC 23 BC 70 54 6D 3D 0B 6A 23 E9 94 35 6C AF 37 C2 6E C1 C8 64 8C B0 0B 90 34 D9 CC D9 63 8F EB 
60 53 B5 4E 03 C5 8E 06 8E DC 8C DD 86 91 C9 18 E1 EE 03 53 1D 0A CF 3D C8 F3 8B E1 E6 77 48 D5 
06 55 37 23 EC 2A 8C 4C C6 08 BB 00 08 49 95 1D 2B D9 E3 BF AC FB AB B2 F5 12 82 BC DB CB 1A E1 
36 18 99 8C 11 76 03 D2 EA 7F 44 51 38 6E E5 17 D5 C6 37 8D DE 1C B6 FA 1C 61 D7 60 64 32 46 D8 
25 48 8A 4B 90 E7 ED 89 0F 4B 7F 53 D6 CF 24 E3 20 47 D8 4D 18 49 B9 46 D8 15 88 27 11 C5 F9 11 
2B 7F C2 9E FD BB 28 0A A3 74 C9 2E C4 48 CA 35 C2 EE 42 3A 26 36 44 60 80 16 E2 8F 9B 29 3B C2 
9D C7 C8 CB 18 61 97 21 51 C1 3A 08 F4 C6 A6 E2 23 EC 02 8C 4C C6 08 BB 0B A9 6E 9E 92 2E A7 23 
0F 63 97 61 44 7F 8E B0 FB 80 90 0C 2E C5 37 4D 2F 19 E1 6E E3 FF 03 B2 2B D1 A6 7E DA AC A9 00 
00 00 00 49 45 4E 44 AE 42 60 82 
EndData
$EndBitmap
$Comp
L Connector_Generic:Conn_01x04 J?
U 1 1 5BAA5650
P 10100 2600
AR Path="/5B952850/5BAA5650" Ref="J?"  Part="1" 
AR Path="/5BAA5650" Ref="J1"  Part="1" 
F 0 "J1" H 10050 2850 50  0000 L CNN
F 1 "Conn_01x04_Grove" V 10250 2200 50  0000 L CNN
F 2 "Connector:NS-Tech_Grove_1x04_P2mm_Vertical" H 10100 2600 50  0001 C CNN
F 3 "~" H 10100 2600 50  0001 C CNN
	1    10100 2600
	1    0    0    -1  
$EndComp
$Comp
L power:GND #PWR?
U 1 1 5BAA5658
P 9750 3000
AR Path="/5B952850/5BAA5658" Ref="#PWR?"  Part="1" 
AR Path="/5BAA5658" Ref="#PWR02"  Part="1" 
F 0 "#PWR02" H 9750 2750 50  0001 C CNN
F 1 "GND" H 9755 2827 50  0000 C CNN
F 2 "" H 9750 3000 50  0001 C CNN
F 3 "" H 9750 3000 50  0001 C CNN
	1    9750 3000
	1    0    0    -1  
$EndComp
$Comp
L Device:CP_Small C?
U 1 1 5BAA565E
P 9250 2750
AR Path="/5B952850/5BAA565E" Ref="C?"  Part="1" 
AR Path="/5BAA565E" Ref="C2"  Part="1" 
F 0 "C2" H 9150 2850 50  0000 L CNN
F 1 "10µ" H 9100 2650 50  0000 L CNN
F 2 "Capacitor_SMD:C_0603_1608Metric_Pad1.05x0.95mm_HandSolder" H 9250 2750 50  0001 C CNN
F 3 "~" H 9250 2750 50  0001 C CNN
	1    9250 2750
	1    0    0    -1  
$EndComp
$Comp
L power:+5V #PWR?
U 1 1 5BAA5665
P 9750 2500
AR Path="/5B952850/5BAA5665" Ref="#PWR?"  Part="1" 
AR Path="/5BAA5665" Ref="#PWR01"  Part="1" 
F 0 "#PWR01" H 9750 2350 50  0001 C CNN
F 1 "+5V" H 9765 2673 50  0000 C CNN
F 2 "" H 9750 2500 50  0001 C CNN
F 3 "" H 9750 2500 50  0001 C CNN
	1    9750 2500
	1    0    0    -1  
$EndComp
NoConn ~ 9900 2600
NoConn ~ 9900 2500
$Comp
L Device:C_Small C?
U 1 1 5BAA567C
P 8950 2750
AR Path="/5B952850/5BAA567C" Ref="C?"  Part="1" 
AR Path="/5BAA567C" Ref="C1"  Part="1" 
F 0 "C1" H 8850 2850 50  0000 L CNN
F 1 "100n" H 8750 2650 50  0000 L CNN
F 2 "Capacitor_SMD:C_0603_1608Metric_Pad1.05x0.95mm_HandSolder" H 8950 2750 50  0001 C CNN
F 3 "~" H 8950 2750 50  0001 C CNN
	1    8950 2750
	1    0    0    -1  
$EndComp
Wire Wire Line
	9750 2700 9750 2550
Wire Wire Line
	9750 2800 9750 2950
Wire Wire Line
	8950 2550 8950 2650
Wire Wire Line
	8950 2850 8950 2950
Wire Wire Line
	9250 2850 9250 2950
Connection ~ 9250 2950
Wire Wire Line
	9250 2950 8950 2950
Wire Wire Line
	9250 2650 9250 2550
Connection ~ 9250 2550
Wire Wire Line
	9250 2550 8950 2550
$Comp
L power:PWR_FLAG #FLG02
U 1 1 5BAA5F8D
P 9500 2950
F 0 "#FLG02" H 9500 3025 50  0001 C CNN
F 1 "PWR_FLAG" H 9500 3100 31  0000 C CNN
F 2 "" H 9500 2950 50  0001 C CNN
F 3 "~" H 9500 2950 50  0001 C CNN
	1    9500 2950
	-1   0    0    1   
$EndComp
Connection ~ 9750 2550
Wire Wire Line
	9750 3000 9750 2950
Connection ~ 9750 2950
Wire Notes Line width 16
	10350 3350 10350 2200
Text Notes 10350 3500 2    71   Italic 14
Supply 5V 3A 15W
$Sheet
S 4500 2950 2950 2350
U 5B952850
F0 "IHM_CTRL" 79
F1 "IHM_CTRL.sch" 79
F2 "SW1" I L 4500 3800 50 
F3 "SW2" I L 4500 4000 50 
F4 "+3,3V" O L 4500 3500 50 
F5 "+5V" O L 4500 3300 50 
F6 "NEOPIXEL_SW" O L 4500 4200 50 
$EndSheet
Wire Wire Line
	3750 3800 4500 3800
Wire Wire Line
	4500 4000 3750 4000
Wire Wire Line
	3750 3500 4500 3500
Wire Wire Line
	3750 3300 4500 3300
Text Notes 10350 2200 2    71   Italic 14
PCB Edge Connector
Wire Wire Line
	3750 4200 4500 4200
$Sheet
S 2800 2950 950  2350
U 5B952825
F0 "IHM_SWITCH" 79
F1 "IHM_SWITCH.sch" 79
F2 "+5V" I R 3750 3300 50 
F3 "SW1" O R 3750 3800 50 
F4 "SW2" O R 3750 4000 50 
F5 "NEOPIXEL_SW" I R 3750 4200 50 
F6 "+3,3V" I R 3750 3500 50 
$EndSheet
Wire Wire Line
	9750 2500 9750 2550
Wire Wire Line
	9500 2950 9750 2950
$Comp
L power:PWR_FLAG #FLG01
U 1 1 5BB52D5C
P 9500 2550
F 0 "#FLG01" H 9500 2625 50  0001 C CNN
F 1 "PWR_FLAG" H 9500 2700 31  0000 C CNN
F 2 "" H 9500 2550 50  0001 C CNN
F 3 "~" H 9500 2550 50  0001 C CNN
	1    9500 2550
	1    0    0    -1  
$EndComp
Connection ~ 9500 2950
Wire Wire Line
	9750 2700 9900 2700
Wire Wire Line
	9750 2800 9900 2800
Connection ~ 9500 2550
Wire Wire Line
	9500 2550 9750 2550
Wire Notes Line width 16
	8700 3350 8700 2200
Wire Notes Line width 16
	8700 3350 10350 3350
Wire Notes Line width 16
	8700 2200 10350 2200
Wire Wire Line
	9250 2550 9500 2550
Wire Wire Line
	9250 2950 9500 2950
$EndSCHEMATC
