M48
; DRILL file {KiCad 5.1.4} date mar. 01 oct. 2019 17:34:49 CEST
; FORMAT={-:-/ absolute / metric / decimal}
; #@! TF.CreationDate,2019-10-01T17:34:49+02:00
; #@! TF.GenerationSoftware,Kicad,Pcbnew,5.1.4
; #@! TF.FileFunction,Plated,1,4,PTH
FMAT,2
METRIC
T1C0.250
T2C0.400
T3C1.000
T4C1.016
T5C1.400
T6C2.000
T7C3.200
%
G90
G05
T1
X30.4Y-56.09
X34.671Y-14.071
X50.05Y-50.9
X52.28Y-49.14
X65.475Y-39.0
X67.05Y-17.25
X67.05Y-18.5
X67.05Y-19.75
X67.05Y-21.0
X67.6Y-17.875
X67.6Y-19.12
X67.6Y-20.37
X67.6Y-21.62
X67.725Y-48.4
X69.825Y-48.4
X74.025Y-48.375
X74.025Y-50.225
X79.06Y-52.23
X79.21Y-57.19
X79.65Y-13.76
X82.18Y-52.0
X82.18Y-53.39
X82.23Y-54.33
X82.26Y-13.27
X82.95Y-17.25
X84.0Y-17.25
X85.04Y-32.32
X85.05Y-17.25
X85.08Y-60.31
X85.14Y-59.26
X85.21Y-55.22
X85.21Y-56.19
X85.3Y-57.3
X86.92Y-19.75
X87.527Y-20.38
X87.78Y-14.76
X87.78Y-53.25
X87.78Y-52.23
X88.13Y-21.0
X88.71Y-21.62
X93.48Y-33.74
X93.48Y-35.0
X93.493Y-32.513
T2
X16.067Y-25.983
X27.222Y-26.403
X31.496Y-61.976
X68.77Y-29.65
X73.775Y-52.275
T3
X10.56Y-67.65
X13.1Y-67.65
X15.64Y-67.65
X18.18Y-67.65
X20.72Y-67.65
X23.26Y-67.65
X25.8Y-67.65
X28.34Y-67.65
X30.88Y-67.65
X33.42Y-67.65
X35.96Y-67.65
X38.5Y-67.65
X10.57Y-42.22
X13.11Y-42.22
X15.65Y-42.22
X18.19Y-42.22
X20.73Y-42.22
X23.27Y-42.22
X25.81Y-42.22
X28.35Y-42.22
X30.89Y-42.22
X33.43Y-42.22
X35.97Y-42.22
X38.51Y-42.22
X50.214Y-42.176
X51.714Y-40.176
X53.214Y-42.176
X54.714Y-40.176
X10.528Y-8.625
X13.069Y-8.625
X15.608Y-8.625
X18.148Y-8.625
X20.688Y-8.625
X23.229Y-8.625
X25.768Y-8.625
X28.308Y-8.625
X30.848Y-8.625
X33.389Y-8.625
X35.928Y-8.625
X38.468Y-8.625
X41.008Y-8.625
X43.548Y-8.625
X46.088Y-8.625
X48.628Y-8.625
X51.168Y-8.625
X53.709Y-8.625
X56.248Y-8.625
X58.788Y-8.625
X61.328Y-8.625
X63.868Y-8.625
X66.409Y-8.625
X68.948Y-8.625
X71.489Y-8.625
X74.028Y-8.625
X81.15Y-28.0
X81.15Y-42.5
X83.65Y-42.5
X86.15Y-28.0
X86.15Y-42.5
X92.125Y-52.482
X92.125Y-55.482
X94.125Y-53.982
X94.125Y-56.982
X92.125Y-12.875
X92.125Y-15.875
X94.125Y-14.375
X94.125Y-17.375
X10.516Y-36.692
X13.056Y-36.692
X15.596Y-36.692
X18.136Y-36.692
X20.676Y-36.692
X23.216Y-36.692
X25.756Y-36.692
X28.296Y-36.692
X30.836Y-36.692
X33.376Y-36.692
X35.916Y-36.692
X38.456Y-36.692
X40.996Y-36.692
X43.536Y-36.692
X46.076Y-36.692
X48.616Y-36.692
X51.156Y-36.692
X53.696Y-36.692
X56.236Y-36.692
X58.776Y-36.692
X61.316Y-36.692
X63.856Y-36.692
X66.396Y-36.692
X68.936Y-36.692
X71.476Y-36.692
X74.016Y-36.692
T4
X10.521Y-12.535
X10.521Y-32.835
X13.056Y-12.535
X13.056Y-32.837
X15.593Y-12.535
X15.593Y-32.837
X18.131Y-32.837
X18.133Y-12.538
X20.671Y-12.535
X20.671Y-32.84
X23.211Y-12.538
X23.211Y-32.842
X25.748Y-12.54
X25.748Y-32.84
X28.281Y-12.535
X28.283Y-32.84
X30.818Y-12.535
X30.818Y-32.837
X33.355Y-32.837
X33.358Y-12.535
X35.895Y-12.538
X35.898Y-32.837
X38.435Y-32.837
X38.438Y-12.538
X40.973Y-12.538
X40.973Y-32.837
X43.503Y-32.837
X43.505Y-12.535
X46.043Y-12.538
X46.043Y-32.837
X48.58Y-12.538
X48.583Y-32.837
X51.12Y-12.538
X51.12Y-32.837
X53.658Y-32.837
X53.668Y-12.538
X56.198Y-32.837
X56.2Y-12.538
X58.735Y-12.538
X58.735Y-32.837
X61.265Y-32.837
X61.268Y-12.538
X63.802Y-12.535
X63.805Y-32.837
X66.345Y-12.538
X66.345Y-32.84
X68.882Y-32.837
X68.885Y-12.535
X71.42Y-32.837
X71.422Y-12.538
X73.96Y-12.54
X73.96Y-32.837
T5
X62.484Y-59.436
X70.104Y-59.436
T7
X4.0Y-4.0
X96.0Y-66.0
X4.0Y-66.0
X54.0Y-66.0
X96.0Y-4.0
T6
G00X78.05Y-35.25
M15
G01X78.05Y-34.75
M16
G05
G00X89.25Y-35.25
M15
G01X89.25Y-34.75
M16
G05
T0
M30
