(module SW_PUSH-12mm_DTS24NV (layer F.Cu) (tedit 5BB4CF31)
  (descr "SW PUSH 12mm http://katalog.we-online.de/em/datasheet/430476085716.pdf")
  (tags "tact sw push 12mm")
  (fp_text reference REF** (at 6.35 -4.66) (layer F.SilkS)
    (effects (font (size 1 1) (thickness 0.15)))
  )
  (fp_text value SW_PUSH-12mm_DTS24NV (at 6.35 9.93) (layer F.Fab)
    (effects (font (size 1 1) (thickness 0.15)))
  )
  (fp_circle (center 6.35 2.54) (end 10.92905 2.54) (layer F.SilkS) (width 0.12))
  (fp_line (start 0.25 -3.5) (end 0.25 8.5) (layer F.Fab) (width 0.1))
  (fp_line (start 0.25 8.5) (end 12.25 8.5) (layer F.Fab) (width 0.1))
  (fp_line (start 12.25 8.5) (end 12.25 -3.5) (layer F.Fab) (width 0.1))
  (fp_line (start 12.25 -3.5) (end 0.25 -3.5) (layer F.Fab) (width 0.1))
  (fp_line (start 0.1 -1.53) (end 0.1 -3.65) (layer F.SilkS) (width 0.12))
  (fp_line (start 0.1 -3.65) (end 12.4 -3.65) (layer F.SilkS) (width 0.12))
  (fp_line (start 12.4 -3.65) (end 12.4 -1.53) (layer F.SilkS) (width 0.12))
  (fp_line (start 12.4 1.53) (end 12.4 3.47) (layer F.SilkS) (width 0.12))
  (fp_line (start 12.4 6.53) (end 12.4 8.65) (layer F.SilkS) (width 0.12))
  (fp_line (start 12.4 8.65) (end 0.1 8.65) (layer F.SilkS) (width 0.12))
  (fp_line (start 0.1 8.65) (end 0.1 6.53) (layer F.SilkS) (width 0.12))
  (fp_line (start 0.1 3.47) (end 0.1 1.53) (layer F.SilkS) (width 0.12))
  (fp_line (start -1.75 -3.75) (end -1.75 8.75) (layer F.CrtYd) (width 0.05))
  (fp_line (start -1.75 8.75) (end 14.25 8.75) (layer F.CrtYd) (width 0.05))
  (fp_line (start 14.25 8.75) (end 14.25 -3.75) (layer F.CrtYd) (width 0.05))
  (fp_line (start 14.25 -3.75) (end -1.75 -3.75) (layer F.CrtYd) (width 0.05))
  (fp_text user %R (at 6.35 2.54) (layer F.Fab)
    (effects (font (size 1 1) (thickness 0.15)))
  )
  (pad 2 thru_hole oval (at 12.5 0) (size 3 2.5) (drill 1.2) (layers *.Cu *.Mask))
  (pad 4 thru_hole oval (at 12.5 5) (size 3 2.5) (drill 1.2) (layers *.Cu *.Mask))
  (pad 1 thru_hole oval (at 0 0) (size 3 2.5) (drill 1.2) (layers *.Cu *.Mask))
  (pad 3 thru_hole oval (at 0 5) (size 3 2.5) (drill 1.2) (layers *.Cu *.Mask))
  (model ${KISYS3DMOD}/Button_Switch_THT.3dshapes/SW_PUSH-12mm_Wuerth-430476085716.wrl
    (at (xyz 0 0 0))
    (scale (xyz 1 1 1))
    (rotate (xyz 0 0 0))
  )
)
