(module "Molex_SATA_47080-4001_1x07_1.27mm_SMD_Horizontal" (layer F.Cu)
  (descr "Molex_SATA_47080-4001_1x07_1.27mm_SMD_Horizontal")
  (tags "Connector")
  (fp_text reference J** (at -0.498 -8.151) (layer F.SilkS)
    (effects (font (size 1.27 1.27) (thickness 0.254)))
  )
  (fp_text user %R (at -0.498 -8.151) (layer F.Fab)
    (effects (font (size 1.27 1.27) (thickness 0.254)))
  )
  (fp_text value "Molex_SATA_47080-4001_1x07_1.27mm_SMD_Horizontal" (at -0.498 -8.151) (layer F.SilkS) hide
    (effects (font (size 1.27 1.27) (thickness 0.254)))
  )
  (fp_line (start -8.77 -11.56) (end 8.77 -11.56) (layer F.Fab) (width 0.2))
  (fp_line (start 8.77 -11.56) (end 8.77 0) (layer F.Fab) (width 0.2))
  (fp_line (start 8.77 0) (end -8.77 0) (layer F.Fab) (width 0.2))
  (fp_line (start -8.77 0) (end -8.77 -11.56) (layer F.Fab) (width 0.2))
  (fp_line (start -8.77 -11.56) (end -8.77 0) (layer F.SilkS) (width 0.2))
  (fp_line (start -8.77 0) (end 8.77 0) (layer F.SilkS) (width 0.2))
  (fp_line (start 8.77 0) (end 8.77 -11.56) (layer F.SilkS) (width 0.2))
  (fp_line (start 8.77 -11.56) (end 4.593 -11.56) (layer F.SilkS) (width 0.2))
  (fp_line (start -8.77 -11.56) (end -4.611 -11.56) (layer F.SilkS) (width 0.2))
  (fp_circle (center 4.571 -12.353) (end 4.571 -12.264) (layer F.SilkS) (width 0.2))
  (pad 1 smd rect (at 3.81 -10.76 0) (size 0.9 2) (layers F.Cu F.Paste F.Mask))
  (pad 2 smd rect (at 2.54 -10.76 0) (size 0.9 2) (layers F.Cu F.Paste F.Mask))
  (pad 3 smd rect (at 1.27 -10.76 0) (size 0.9 2) (layers F.Cu F.Paste F.Mask))
  (pad 4 smd rect (at 0 -10.76 0) (size 0.9 2) (layers F.Cu F.Paste F.Mask))
  (pad 5 smd rect (at -1.27 -10.76 0) (size 0.9 2) (layers F.Cu F.Paste F.Mask))
  (pad 6 smd rect (at -2.54 -10.76 0) (size 0.9 2) (layers F.Cu F.Paste F.Mask))
  (pad 7 smd rect (at -3.81 -10.76 0) (size 0.9 2) (layers F.Cu F.Paste F.Mask))
  (pad 8 thru_hole circle (at -6.37 -8.4) (size 2.35 2.35) (drill 1.55) (layers *.Cu *.Mask))
  (pad 9 thru_hole circle (at 6.37 -8.4) (size 2.35 2.35) (drill 1.55) (layers *.Cu *.Mask))
  (model Molex_SATA_47080-4001_1x07_1.27mm_SMD_Horizontal.stp
    (at (xyz 0 0 0))
    (scale (xyz 1 1 1))
    (rotate (xyz 0 0 0))
  )
)
