%FSLAX45Y45*%
G04 Gerber Fmt 4.5, Leading zero omitted, Abs format (unit mm)*
G04 Created by KiCad (PCBNEW 5.1.4) date 2019-09-30 15:52:37*
%MOMM*%
%LPD*%
G04 APERTURE LIST*
%ADD10C,0.100000*%
%ADD11C,0.200000*%
%ADD12C,0.300000*%
G04 APERTURE END LIST*
D10*
X10000000Y-7000000D02*
X0Y-7000000D01*
X10000000Y0D02*
X10000000Y-7000000D01*
X0Y0D02*
X10000000Y0D01*
X0Y-7000000D02*
X0Y0D01*
D11*
X9212500Y-5798190D02*
X9312500Y-5898190D01*
X9312500Y-5798190D02*
X9212500Y-5898190D01*
X9212500Y-1837500D02*
X9312500Y-1937500D01*
X9312500Y-1837500D02*
X9212500Y-1937500D01*
X4821390Y-4017600D02*
X4921390Y-4117600D01*
X4921390Y-4017600D02*
X4821390Y-4117600D01*
D12*
X281428Y-7470714D02*
X281428Y-7170714D01*
X352857Y-7170714D01*
X395714Y-7185000D01*
X424286Y-7213571D01*
X438571Y-7242143D01*
X452857Y-7299286D01*
X452857Y-7342143D01*
X438571Y-7399286D01*
X424286Y-7427857D01*
X395714Y-7456429D01*
X352857Y-7470714D01*
X281428Y-7470714D01*
X581428Y-7470714D02*
X581428Y-7270714D01*
X581428Y-7327857D02*
X595714Y-7299286D01*
X610000Y-7285000D01*
X638571Y-7270714D01*
X667143Y-7270714D01*
X767143Y-7470714D02*
X767143Y-7270714D01*
X767143Y-7170714D02*
X752857Y-7185000D01*
X767143Y-7199286D01*
X781428Y-7185000D01*
X767143Y-7170714D01*
X767143Y-7199286D01*
X952857Y-7470714D02*
X924286Y-7456429D01*
X910000Y-7427857D01*
X910000Y-7170714D01*
X1110000Y-7470714D02*
X1081428Y-7456429D01*
X1067143Y-7427857D01*
X1067143Y-7170714D01*
X1452857Y-7470714D02*
X1452857Y-7170714D01*
X1552857Y-7385000D01*
X1652857Y-7170714D01*
X1652857Y-7470714D01*
X1924286Y-7470714D02*
X1924286Y-7313571D01*
X1910000Y-7285000D01*
X1881428Y-7270714D01*
X1824286Y-7270714D01*
X1795714Y-7285000D01*
X1924286Y-7456429D02*
X1895714Y-7470714D01*
X1824286Y-7470714D01*
X1795714Y-7456429D01*
X1781428Y-7427857D01*
X1781428Y-7399286D01*
X1795714Y-7370714D01*
X1824286Y-7356429D01*
X1895714Y-7356429D01*
X1924286Y-7342143D01*
X2067143Y-7270714D02*
X2067143Y-7570714D01*
X2067143Y-7285000D02*
X2095714Y-7270714D01*
X2152857Y-7270714D01*
X2181428Y-7285000D01*
X2195714Y-7299286D01*
X2210000Y-7327857D01*
X2210000Y-7413571D01*
X2195714Y-7442143D01*
X2181428Y-7456429D01*
X2152857Y-7470714D01*
X2095714Y-7470714D01*
X2067143Y-7456429D01*
X2338571Y-7442143D02*
X2352857Y-7456429D01*
X2338571Y-7470714D01*
X2324286Y-7456429D01*
X2338571Y-7442143D01*
X2338571Y-7470714D01*
X2338571Y-7285000D02*
X2352857Y-7299286D01*
X2338571Y-7313571D01*
X2324286Y-7299286D01*
X2338571Y-7285000D01*
X2338571Y-7313571D01*
X-105000Y-7915000D02*
X-5000Y-8015000D01*
X-5000Y-7915000D02*
X-105000Y-8015000D01*
X438571Y-8100714D02*
X267143Y-8100714D01*
X352857Y-8100714D02*
X352857Y-7800714D01*
X324286Y-7843571D01*
X295714Y-7872143D01*
X267143Y-7886429D01*
X567143Y-8072143D02*
X581428Y-8086429D01*
X567143Y-8100714D01*
X552857Y-8086429D01*
X567143Y-8072143D01*
X567143Y-8100714D01*
X767143Y-7800714D02*
X795714Y-7800714D01*
X824286Y-7815000D01*
X838571Y-7829286D01*
X852857Y-7857857D01*
X867143Y-7915000D01*
X867143Y-7986429D01*
X852857Y-8043571D01*
X838571Y-8072143D01*
X824286Y-8086429D01*
X795714Y-8100714D01*
X767143Y-8100714D01*
X738571Y-8086429D01*
X724286Y-8072143D01*
X710000Y-8043571D01*
X695714Y-7986429D01*
X695714Y-7915000D01*
X710000Y-7857857D01*
X724286Y-7829286D01*
X738571Y-7815000D01*
X767143Y-7800714D01*
X1052857Y-7800714D02*
X1081428Y-7800714D01*
X1110000Y-7815000D01*
X1124286Y-7829286D01*
X1138571Y-7857857D01*
X1152857Y-7915000D01*
X1152857Y-7986429D01*
X1138571Y-8043571D01*
X1124286Y-8072143D01*
X1110000Y-8086429D01*
X1081428Y-8100714D01*
X1052857Y-8100714D01*
X1024286Y-8086429D01*
X1010000Y-8072143D01*
X995714Y-8043571D01*
X981428Y-7986429D01*
X981428Y-7915000D01*
X995714Y-7857857D01*
X1010000Y-7829286D01*
X1024286Y-7815000D01*
X1052857Y-7800714D01*
X1281428Y-8100714D02*
X1281428Y-7900714D01*
X1281428Y-7929286D02*
X1295714Y-7915000D01*
X1324286Y-7900714D01*
X1367143Y-7900714D01*
X1395714Y-7915000D01*
X1410000Y-7943571D01*
X1410000Y-8100714D01*
X1410000Y-7943571D02*
X1424286Y-7915000D01*
X1452857Y-7900714D01*
X1495714Y-7900714D01*
X1524286Y-7915000D01*
X1538571Y-7943571D01*
X1538571Y-8100714D01*
X1681428Y-8100714D02*
X1681428Y-7900714D01*
X1681428Y-7929286D02*
X1695714Y-7915000D01*
X1724286Y-7900714D01*
X1767143Y-7900714D01*
X1795714Y-7915000D01*
X1810000Y-7943571D01*
X1810000Y-8100714D01*
X1810000Y-7943571D02*
X1824286Y-7915000D01*
X1852857Y-7900714D01*
X1895714Y-7900714D01*
X1924286Y-7915000D01*
X1938571Y-7943571D01*
X1938571Y-8100714D01*
X2524286Y-7786429D02*
X2267143Y-8172143D01*
X2910000Y-7800714D02*
X2938571Y-7800714D01*
X2967143Y-7815000D01*
X2981428Y-7829286D01*
X2995714Y-7857857D01*
X3010000Y-7915000D01*
X3010000Y-7986429D01*
X2995714Y-8043571D01*
X2981428Y-8072143D01*
X2967143Y-8086429D01*
X2938571Y-8100714D01*
X2910000Y-8100714D01*
X2881428Y-8086429D01*
X2867143Y-8072143D01*
X2852857Y-8043571D01*
X2838571Y-7986429D01*
X2838571Y-7915000D01*
X2852857Y-7857857D01*
X2867143Y-7829286D01*
X2881428Y-7815000D01*
X2910000Y-7800714D01*
X3138571Y-8072143D02*
X3152857Y-8086429D01*
X3138571Y-8100714D01*
X3124286Y-8086429D01*
X3138571Y-8072143D01*
X3138571Y-8100714D01*
X3338571Y-7800714D02*
X3367143Y-7800714D01*
X3395714Y-7815000D01*
X3410000Y-7829286D01*
X3424286Y-7857857D01*
X3438571Y-7915000D01*
X3438571Y-7986429D01*
X3424286Y-8043571D01*
X3410000Y-8072143D01*
X3395714Y-8086429D01*
X3367143Y-8100714D01*
X3338571Y-8100714D01*
X3310000Y-8086429D01*
X3295714Y-8072143D01*
X3281428Y-8043571D01*
X3267143Y-7986429D01*
X3267143Y-7915000D01*
X3281428Y-7857857D01*
X3295714Y-7829286D01*
X3310000Y-7815000D01*
X3338571Y-7800714D01*
X3538571Y-7800714D02*
X3724286Y-7800714D01*
X3624286Y-7915000D01*
X3667143Y-7915000D01*
X3695714Y-7929286D01*
X3710000Y-7943571D01*
X3724286Y-7972143D01*
X3724286Y-8043571D01*
X3710000Y-8072143D01*
X3695714Y-8086429D01*
X3667143Y-8100714D01*
X3581428Y-8100714D01*
X3552857Y-8086429D01*
X3538571Y-8072143D01*
X3867143Y-8100714D02*
X3924286Y-8100714D01*
X3952857Y-8086429D01*
X3967143Y-8072143D01*
X3995714Y-8029286D01*
X4010000Y-7972143D01*
X4010000Y-7857857D01*
X3995714Y-7829286D01*
X3981428Y-7815000D01*
X3952857Y-7800714D01*
X3895714Y-7800714D01*
X3867143Y-7815000D01*
X3852857Y-7829286D01*
X3838571Y-7857857D01*
X3838571Y-7929286D01*
X3852857Y-7957857D01*
X3867143Y-7972143D01*
X3895714Y-7986429D01*
X3952857Y-7986429D01*
X3981428Y-7972143D01*
X3995714Y-7957857D01*
X4010000Y-7929286D01*
X4124286Y-7800714D02*
X4124286Y-7857857D01*
X4238571Y-7800714D02*
X4238571Y-7857857D01*
X4681428Y-8215000D02*
X4667143Y-8200714D01*
X4638571Y-8157857D01*
X4624286Y-8129286D01*
X4610000Y-8086429D01*
X4595714Y-8015000D01*
X4595714Y-7957857D01*
X4610000Y-7886429D01*
X4624286Y-7843571D01*
X4638571Y-7815000D01*
X4667143Y-7772143D01*
X4681428Y-7757857D01*
X4767143Y-7800714D02*
X4952857Y-7800714D01*
X4852857Y-7915000D01*
X4895714Y-7915000D01*
X4924286Y-7929286D01*
X4938571Y-7943571D01*
X4952857Y-7972143D01*
X4952857Y-8043571D01*
X4938571Y-8072143D01*
X4924286Y-8086429D01*
X4895714Y-8100714D01*
X4810000Y-8100714D01*
X4781428Y-8086429D01*
X4767143Y-8072143D01*
X5310000Y-8100714D02*
X5310000Y-7800714D01*
X5438571Y-8100714D02*
X5438571Y-7943571D01*
X5424286Y-7915000D01*
X5395714Y-7900714D01*
X5352857Y-7900714D01*
X5324286Y-7915000D01*
X5310000Y-7929286D01*
X5624286Y-8100714D02*
X5595714Y-8086429D01*
X5581428Y-8072143D01*
X5567143Y-8043571D01*
X5567143Y-7957857D01*
X5581428Y-7929286D01*
X5595714Y-7915000D01*
X5624286Y-7900714D01*
X5667143Y-7900714D01*
X5695714Y-7915000D01*
X5710000Y-7929286D01*
X5724286Y-7957857D01*
X5724286Y-8043571D01*
X5710000Y-8072143D01*
X5695714Y-8086429D01*
X5667143Y-8100714D01*
X5624286Y-8100714D01*
X5895714Y-8100714D02*
X5867143Y-8086429D01*
X5852857Y-8057857D01*
X5852857Y-7800714D01*
X6124286Y-8086429D02*
X6095714Y-8100714D01*
X6038571Y-8100714D01*
X6010000Y-8086429D01*
X5995714Y-8057857D01*
X5995714Y-7943571D01*
X6010000Y-7915000D01*
X6038571Y-7900714D01*
X6095714Y-7900714D01*
X6124286Y-7915000D01*
X6138571Y-7943571D01*
X6138571Y-7972143D01*
X5995714Y-8000714D01*
X6252857Y-8086429D02*
X6281428Y-8100714D01*
X6338571Y-8100714D01*
X6367143Y-8086429D01*
X6381428Y-8057857D01*
X6381428Y-8043571D01*
X6367143Y-8015000D01*
X6338571Y-8000714D01*
X6295714Y-8000714D01*
X6267143Y-7986429D01*
X6252857Y-7957857D01*
X6252857Y-7943571D01*
X6267143Y-7915000D01*
X6295714Y-7900714D01*
X6338571Y-7900714D01*
X6367143Y-7915000D01*
X6481428Y-8215000D02*
X6495714Y-8200714D01*
X6524286Y-8157857D01*
X6538571Y-8129286D01*
X6552857Y-8086429D01*
X6567143Y-8015000D01*
X6567143Y-7957857D01*
X6552857Y-7886429D01*
X6538571Y-7843571D01*
X6524286Y-7815000D01*
X6495714Y-7772143D01*
X6481428Y-7757857D01*
X7024286Y-8215000D02*
X7010000Y-8200714D01*
X6981428Y-8157857D01*
X6967143Y-8129286D01*
X6952857Y-8086429D01*
X6938571Y-8015000D01*
X6938571Y-7957857D01*
X6952857Y-7886429D01*
X6967143Y-7843571D01*
X6981428Y-7815000D01*
X7010000Y-7772143D01*
X7024286Y-7757857D01*
X7138571Y-7900714D02*
X7138571Y-8100714D01*
X7138571Y-7929286D02*
X7152857Y-7915000D01*
X7181428Y-7900714D01*
X7224286Y-7900714D01*
X7252857Y-7915000D01*
X7267143Y-7943571D01*
X7267143Y-8100714D01*
X7452857Y-8100714D02*
X7424286Y-8086429D01*
X7410000Y-8072143D01*
X7395714Y-8043571D01*
X7395714Y-7957857D01*
X7410000Y-7929286D01*
X7424286Y-7915000D01*
X7452857Y-7900714D01*
X7495714Y-7900714D01*
X7524286Y-7915000D01*
X7538571Y-7929286D01*
X7552857Y-7957857D01*
X7552857Y-8043571D01*
X7538571Y-8072143D01*
X7524286Y-8086429D01*
X7495714Y-8100714D01*
X7452857Y-8100714D01*
X7638571Y-7900714D02*
X7752857Y-7900714D01*
X7681428Y-7800714D02*
X7681428Y-8057857D01*
X7695714Y-8086429D01*
X7724286Y-8100714D01*
X7752857Y-8100714D01*
X8081428Y-7900714D02*
X8081428Y-8200714D01*
X8081428Y-7915000D02*
X8110000Y-7900714D01*
X8167143Y-7900714D01*
X8195714Y-7915000D01*
X8210000Y-7929286D01*
X8224286Y-7957857D01*
X8224286Y-8043571D01*
X8210000Y-8072143D01*
X8195714Y-8086429D01*
X8167143Y-8100714D01*
X8110000Y-8100714D01*
X8081428Y-8086429D01*
X8395714Y-8100714D02*
X8367143Y-8086429D01*
X8352857Y-8057857D01*
X8352857Y-7800714D01*
X8638571Y-8100714D02*
X8638571Y-7943571D01*
X8624286Y-7915000D01*
X8595714Y-7900714D01*
X8538571Y-7900714D01*
X8510000Y-7915000D01*
X8638571Y-8086429D02*
X8610000Y-8100714D01*
X8538571Y-8100714D01*
X8510000Y-8086429D01*
X8495714Y-8057857D01*
X8495714Y-8029286D01*
X8510000Y-8000714D01*
X8538571Y-7986429D01*
X8610000Y-7986429D01*
X8638571Y-7972143D01*
X8738571Y-7900714D02*
X8852857Y-7900714D01*
X8781428Y-7800714D02*
X8781428Y-8057857D01*
X8795714Y-8086429D01*
X8824286Y-8100714D01*
X8852857Y-8100714D01*
X9067143Y-8086429D02*
X9038571Y-8100714D01*
X8981428Y-8100714D01*
X8952857Y-8086429D01*
X8938571Y-8057857D01*
X8938571Y-7943571D01*
X8952857Y-7915000D01*
X8981428Y-7900714D01*
X9038571Y-7900714D01*
X9067143Y-7915000D01*
X9081428Y-7943571D01*
X9081428Y-7972143D01*
X8938571Y-8000714D01*
X9338571Y-8100714D02*
X9338571Y-7800714D01*
X9338571Y-8086429D02*
X9310000Y-8100714D01*
X9252857Y-8100714D01*
X9224286Y-8086429D01*
X9210000Y-8072143D01*
X9195714Y-8043571D01*
X9195714Y-7957857D01*
X9210000Y-7929286D01*
X9224286Y-7915000D01*
X9252857Y-7900714D01*
X9310000Y-7900714D01*
X9338571Y-7915000D01*
X9452857Y-8215000D02*
X9467143Y-8200714D01*
X9495714Y-8157857D01*
X9510000Y-8129286D01*
X9524286Y-8086429D01*
X9538571Y-8015000D01*
X9538571Y-7957857D01*
X9524286Y-7886429D01*
X9510000Y-7843571D01*
X9495714Y-7815000D01*
X9467143Y-7772143D01*
X9452857Y-7757857D01*
M02*
