M48
; DRILL file {KiCad 5.1.4} date lun. 30 sept. 2019 15:52:27 CEST
; FORMAT={-:-/ absolute / metric / decimal}
; #@! TF.CreationDate,2019-09-30T15:52:27+02:00
; #@! TF.GenerationSoftware,Kicad,Pcbnew,5.1.4
; #@! TF.FileFunction,NonPlated,1,4,NPTH
FMAT,2
METRIC
T1C1.000
%
G90
G05
T1
X92.625Y-58.482
X92.625Y-18.875
X48.714Y-40.676
T0
M30
