<?xml version="1.0" standalone="no"?>
 <!DOCTYPE svg PUBLIC "-//W3C//DTD SVG 1.1//EN" 
 "http://www.w3.org/Graphics/SVG/1.1/DTD/svg11.dtd"> 
<svg xmlns="http://www.w3.org/2000/svg" version="1.1" 
    width="29.7002cm" height="21.0007cm" viewBox="0 0 116930 82680 ">
<title>SVG Picture created as IHM-Générique-Eco2_User.svg date 2019/09/29 17:52:41 </title>
  <desc>Picture generated by PCBNEW </desc>
<g style="fill:#000000; fill-opacity:1;stroke:#000000; stroke-opacity:1;
stroke-linecap:round; stroke-linejoin:round; "
 transform="translate(0 0) scale(1 1)">
</g>
<g style="fill:#000000; fill-opacity:0.0; 
stroke:#000000; stroke-width:-0.000393701; stroke-opacity:1; 
stroke-linecap:round; stroke-linejoin:round;">
</g>
<g style="fill:#000000; fill-opacity:0.0; 
stroke:#000000; stroke-width:39.3701; stroke-opacity:1; 
stroke-linecap:round; stroke-linejoin:round;">
</g>
<g style="fill:#000000; fill-opacity:0.0; 
stroke:#000000; stroke-width:59.0551; stroke-opacity:1; 
stroke-linecap:round; stroke-linejoin:round;">
<rect x="69685.9" y="65357.2" width="42519.7" height="12598.4" rx="0" />
</g>
<g style="fill:#000000; fill-opacity:0.0; 
stroke:#000000; stroke-width:39.3701; stroke-opacity:1; 
stroke-linecap:round; stroke-linejoin:round;">
</g>
<g style="fill:#000000; fill-opacity:0.0; 
stroke:#000000; stroke-width:59.0551; stroke-opacity:1; 
stroke-linecap:round; stroke-linejoin:round;">
<rect x="3937.01" y="3937.01" width="109056" height="74806" rx="0" />
</g>
<g style="fill:#000000; fill-opacity:0.0; 
stroke:#000000; stroke-width:39.3701; stroke-opacity:1; 
stroke-linecap:round; stroke-linejoin:round;">
</g>
<g style="fill:#000000; fill-opacity:0.0; 
stroke:#000000; stroke-width:59.0551; stroke-opacity:1; 
stroke-linecap:round; stroke-linejoin:round;">
<rect x="4724.41" y="4724.41" width="107481" height="73231.2" rx="0" />
</g>
<g style="fill:#000000; fill-opacity:0.0; 
stroke:#000000; stroke-width:39.3701; stroke-opacity:1; 
stroke-linecap:round; stroke-linejoin:round;">
</g>
<g style="fill:#000000; fill-opacity:0.0; 
stroke:#000000; stroke-width:59.0551; stroke-opacity:1; 
stroke-linecap:round; stroke-linejoin:round;">
<path d="M23622 4724
L23622 3937
" />
</g>
<g style="fill:#000000; fill-opacity:0.0; 
stroke:#000000; stroke-width:39.3701; stroke-opacity:1; 
stroke-linecap:round; stroke-linejoin:round;">
</g>
<g style="fill:#000000; fill-opacity:0.0; 
stroke:#000000; stroke-width:59.0551; stroke-opacity:1; 
stroke-linecap:round; stroke-linejoin:round;">
<path d="M43307 4724
L43307 3937
" />
</g>
<g style="fill:#000000; fill-opacity:0.0; 
stroke:#000000; stroke-width:39.3701; stroke-opacity:1; 
stroke-linecap:round; stroke-linejoin:round;">
</g>
<g style="fill:#000000; fill-opacity:0.0; 
stroke:#000000; stroke-width:59.0551; stroke-opacity:1; 
stroke-linecap:round; stroke-linejoin:round;">
<path d="M62992 4724
L62992 3937
" />
</g>
<g style="fill:#000000; fill-opacity:0.0; 
stroke:#000000; stroke-width:39.3701; stroke-opacity:1; 
stroke-linecap:round; stroke-linejoin:round;">
</g>
<g style="fill:#000000; fill-opacity:0.0; 
stroke:#000000; stroke-width:59.0551; stroke-opacity:1; 
stroke-linecap:round; stroke-linejoin:round;">
<path d="M82677 4724
L82677 3937
" />
</g>
<g style="fill:#000000; fill-opacity:0.0; 
stroke:#000000; stroke-width:39.3701; stroke-opacity:1; 
stroke-linecap:round; stroke-linejoin:round;">
</g>
<g style="fill:#000000; fill-opacity:0.0; 
stroke:#000000; stroke-width:59.0551; stroke-opacity:1; 
stroke-linecap:round; stroke-linejoin:round;">
<path d="M102362 4724
L102362 3937
" />
</g>
<g style="fill:#000000; fill-opacity:0.0; 
stroke:#000000; stroke-width:39.3701; stroke-opacity:1; 
stroke-linecap:round; stroke-linejoin:round;">
</g>
<g style="fill:#000000; fill-opacity:0.0; 
stroke:#000000; stroke-width:59.0551; stroke-opacity:1; 
stroke-linecap:round; stroke-linejoin:round;">
<path d="M14199 4562
L13906 4562
" />
<path d="M14052 4562
L14052 4050
L14004 4123
L13955 4172
L13906 4196
" />
</g>
<g style="fill:#000000; fill-opacity:0.0; 
stroke:#000000; stroke-width:39.3701; stroke-opacity:1; 
stroke-linecap:round; stroke-linejoin:round;">
</g>
<g style="fill:#000000; fill-opacity:0.0; 
stroke:#000000; stroke-width:59.0551; stroke-opacity:1; 
stroke-linecap:round; stroke-linejoin:round;">
<path d="M33591 4099
L33615 4074
L33664 4050
L33786 4050
L33835 4074
L33859 4099
L33884 4147
L33884 4196
L33859 4269
L33567 4562
L33884 4562
" />
</g>
<g style="fill:#000000; fill-opacity:0.0; 
stroke:#000000; stroke-width:39.3701; stroke-opacity:1; 
stroke-linecap:round; stroke-linejoin:round;">
</g>
<g style="fill:#000000; fill-opacity:0.0; 
stroke:#000000; stroke-width:59.0551; stroke-opacity:1; 
stroke-linecap:round; stroke-linejoin:round;">
<path d="M53252 4050
L53569 4050
L53398 4245
L53471 4245
L53520 4269
L53544 4294
L53569 4342
L53569 4464
L53544 4513
L53520 4537
L53471 4562
L53325 4562
L53276 4537
L53252 4513
" />
</g>
<g style="fill:#000000; fill-opacity:0.0; 
stroke:#000000; stroke-width:39.3701; stroke-opacity:1; 
stroke-linecap:round; stroke-linejoin:round;">
</g>
<g style="fill:#000000; fill-opacity:0.0; 
stroke:#000000; stroke-width:59.0551; stroke-opacity:1; 
stroke-linecap:round; stroke-linejoin:round;">
<path d="M73205 4221
L73205 4562
" />
<path d="M73083 4026
L72961 4391
L73278 4391
" />
</g>
<g style="fill:#000000; fill-opacity:0.0; 
stroke:#000000; stroke-width:39.3701; stroke-opacity:1; 
stroke-linecap:round; stroke-linejoin:round;">
</g>
<g style="fill:#000000; fill-opacity:0.0; 
stroke:#000000; stroke-width:59.0551; stroke-opacity:1; 
stroke-linecap:round; stroke-linejoin:round;">
<path d="M92914 4050
L92671 4050
L92646 4294
L92671 4269
L92719 4245
L92841 4245
L92890 4269
L92914 4294
L92939 4342
L92939 4464
L92914 4513
L92890 4537
L92841 4562
L92719 4562
L92671 4537
L92646 4513
" />
</g>
<g style="fill:#000000; fill-opacity:0.0; 
stroke:#000000; stroke-width:39.3701; stroke-opacity:1; 
stroke-linecap:round; stroke-linejoin:round;">
</g>
<g style="fill:#000000; fill-opacity:0.0; 
stroke:#000000; stroke-width:59.0551; stroke-opacity:1; 
stroke-linecap:round; stroke-linejoin:round;">
<path d="M112575 4050
L112477 4050
L112429 4074
L112404 4099
L112356 4172
L112331 4269
L112331 4464
L112356 4513
L112380 4537
L112429 4562
L112526 4562
L112575 4537
L112599 4513
L112624 4464
L112624 4342
L112599 4294
L112575 4269
L112526 4245
L112429 4245
L112380 4269
L112356 4294
L112331 4342
" />
</g>
<g style="fill:#000000; fill-opacity:0.0; 
stroke:#000000; stroke-width:39.3701; stroke-opacity:1; 
stroke-linecap:round; stroke-linejoin:round;">
</g>
<g style="fill:#000000; fill-opacity:0.0; 
stroke:#000000; stroke-width:59.0551; stroke-opacity:1; 
stroke-linecap:round; stroke-linejoin:round;">
<path d="M23622 77955
L23622 78742
" />
</g>
<g style="fill:#000000; fill-opacity:0.0; 
stroke:#000000; stroke-width:39.3701; stroke-opacity:1; 
stroke-linecap:round; stroke-linejoin:round;">
</g>
<g style="fill:#000000; fill-opacity:0.0; 
stroke:#000000; stroke-width:59.0551; stroke-opacity:1; 
stroke-linecap:round; stroke-linejoin:round;">
<path d="M43307 77955
L43307 78742
" />
</g>
<g style="fill:#000000; fill-opacity:0.0; 
stroke:#000000; stroke-width:39.3701; stroke-opacity:1; 
stroke-linecap:round; stroke-linejoin:round;">
</g>
<g style="fill:#000000; fill-opacity:0.0; 
stroke:#000000; stroke-width:59.0551; stroke-opacity:1; 
stroke-linecap:round; stroke-linejoin:round;">
<path d="M62992 77955
L62992 78742
" />
</g>
<g style="fill:#000000; fill-opacity:0.0; 
stroke:#000000; stroke-width:39.3701; stroke-opacity:1; 
stroke-linecap:round; stroke-linejoin:round;">
</g>
<g style="fill:#000000; fill-opacity:0.0; 
stroke:#000000; stroke-width:59.0551; stroke-opacity:1; 
stroke-linecap:round; stroke-linejoin:round;">
<path d="M82677 77955
L82677 78742
" />
</g>
<g style="fill:#000000; fill-opacity:0.0; 
stroke:#000000; stroke-width:39.3701; stroke-opacity:1; 
stroke-linecap:round; stroke-linejoin:round;">
</g>
<g style="fill:#000000; fill-opacity:0.0; 
stroke:#000000; stroke-width:59.0551; stroke-opacity:1; 
stroke-linecap:round; stroke-linejoin:round;">
<path d="M102362 77955
L102362 78742
" />
</g>
<g style="fill:#000000; fill-opacity:0.0; 
stroke:#000000; stroke-width:39.3701; stroke-opacity:1; 
stroke-linecap:round; stroke-linejoin:round;">
</g>
<g style="fill:#000000; fill-opacity:0.0; 
stroke:#000000; stroke-width:59.0551; stroke-opacity:1; 
stroke-linecap:round; stroke-linejoin:round;">
<path d="M14199 78580
L13906 78580
" />
<path d="M14052 78580
L14052 78069
L14004 78142
L13955 78190
L13906 78215
" />
</g>
<g style="fill:#000000; fill-opacity:0.0; 
stroke:#000000; stroke-width:39.3701; stroke-opacity:1; 
stroke-linecap:round; stroke-linejoin:round;">
</g>
<g style="fill:#000000; fill-opacity:0.0; 
stroke:#000000; stroke-width:59.0551; stroke-opacity:1; 
stroke-linecap:round; stroke-linejoin:round;">
<path d="M33591 78117
L33615 78093
L33664 78069
L33786 78069
L33835 78093
L33859 78117
L33884 78166
L33884 78215
L33859 78288
L33567 78580
L33884 78580
" />
</g>
<g style="fill:#000000; fill-opacity:0.0; 
stroke:#000000; stroke-width:39.3701; stroke-opacity:1; 
stroke-linecap:round; stroke-linejoin:round;">
</g>
<g style="fill:#000000; fill-opacity:0.0; 
stroke:#000000; stroke-width:59.0551; stroke-opacity:1; 
stroke-linecap:round; stroke-linejoin:round;">
<path d="M53252 78069
L53569 78069
L53398 78263
L53471 78263
L53520 78288
L53544 78312
L53569 78361
L53569 78483
L53544 78532
L53520 78556
L53471 78580
L53325 78580
L53276 78556
L53252 78532
" />
</g>
<g style="fill:#000000; fill-opacity:0.0; 
stroke:#000000; stroke-width:39.3701; stroke-opacity:1; 
stroke-linecap:round; stroke-linejoin:round;">
</g>
<g style="fill:#000000; fill-opacity:0.0; 
stroke:#000000; stroke-width:59.0551; stroke-opacity:1; 
stroke-linecap:round; stroke-linejoin:round;">
<path d="M73205 78239
L73205 78580
" />
<path d="M73083 78044
L72961 78410
L73278 78410
" />
</g>
<g style="fill:#000000; fill-opacity:0.0; 
stroke:#000000; stroke-width:39.3701; stroke-opacity:1; 
stroke-linecap:round; stroke-linejoin:round;">
</g>
<g style="fill:#000000; fill-opacity:0.0; 
stroke:#000000; stroke-width:59.0551; stroke-opacity:1; 
stroke-linecap:round; stroke-linejoin:round;">
<path d="M92914 78069
L92671 78069
L92646 78312
L92671 78288
L92719 78263
L92841 78263
L92890 78288
L92914 78312
L92939 78361
L92939 78483
L92914 78532
L92890 78556
L92841 78580
L92719 78580
L92671 78556
L92646 78532
" />
</g>
<g style="fill:#000000; fill-opacity:0.0; 
stroke:#000000; stroke-width:39.3701; stroke-opacity:1; 
stroke-linecap:round; stroke-linejoin:round;">
</g>
<g style="fill:#000000; fill-opacity:0.0; 
stroke:#000000; stroke-width:59.0551; stroke-opacity:1; 
stroke-linecap:round; stroke-linejoin:round;">
<path d="M112575 78069
L112477 78069
L112429 78093
L112404 78117
L112356 78190
L112331 78288
L112331 78483
L112356 78532
L112380 78556
L112429 78580
L112526 78580
L112575 78556
L112599 78532
L112624 78483
L112624 78361
L112599 78312
L112575 78288
L112526 78263
L112429 78263
L112380 78288
L112356 78312
L112331 78361
" />
</g>
<g style="fill:#000000; fill-opacity:0.0; 
stroke:#000000; stroke-width:39.3701; stroke-opacity:1; 
stroke-linecap:round; stroke-linejoin:round;">
</g>
<g style="fill:#000000; fill-opacity:0.0; 
stroke:#000000; stroke-width:59.0551; stroke-opacity:1; 
stroke-linecap:round; stroke-linejoin:round;">
<path d="M3937 23622
L4724 23622
" />
</g>
<g style="fill:#000000; fill-opacity:0.0; 
stroke:#000000; stroke-width:39.3701; stroke-opacity:1; 
stroke-linecap:round; stroke-linejoin:round;">
</g>
<g style="fill:#000000; fill-opacity:0.0; 
stroke:#000000; stroke-width:59.0551; stroke-opacity:1; 
stroke-linecap:round; stroke-linejoin:round;">
<path d="M3937 43307
L4724 43307
" />
</g>
<g style="fill:#000000; fill-opacity:0.0; 
stroke:#000000; stroke-width:39.3701; stroke-opacity:1; 
stroke-linecap:round; stroke-linejoin:round;">
</g>
<g style="fill:#000000; fill-opacity:0.0; 
stroke:#000000; stroke-width:59.0551; stroke-opacity:1; 
stroke-linecap:round; stroke-linejoin:round;">
<path d="M3937 62992
L4724 62992
" />
</g>
<g style="fill:#000000; fill-opacity:0.0; 
stroke:#000000; stroke-width:39.3701; stroke-opacity:1; 
stroke-linecap:round; stroke-linejoin:round;">
</g>
<g style="fill:#000000; fill-opacity:0.0; 
stroke:#000000; stroke-width:59.0551; stroke-opacity:1; 
stroke-linecap:round; stroke-linejoin:round;">
<path d="M4208 13864
L4452 13864
" />
<path d="M4160 14011
L4330 13499
L4501 14011
" />
</g>
<g style="fill:#000000; fill-opacity:0.0; 
stroke:#000000; stroke-width:39.3701; stroke-opacity:1; 
stroke-linecap:round; stroke-linejoin:round;">
</g>
<g style="fill:#000000; fill-opacity:0.0; 
stroke:#000000; stroke-width:59.0551; stroke-opacity:1; 
stroke-linecap:round; stroke-linejoin:round;">
<path d="M4367 33428
L4440 33452
L4464 33476
L4489 33525
L4489 33598
L4464 33647
L4440 33671
L4391 33696
L4196 33696
L4196 33184
L4367 33184
L4416 33208
L4440 33233
L4464 33281
L4464 33330
L4440 33379
L4416 33403
L4367 33428
L4196 33428
" />
</g>
<g style="fill:#000000; fill-opacity:0.0; 
stroke:#000000; stroke-width:39.3701; stroke-opacity:1; 
stroke-linecap:round; stroke-linejoin:round;">
</g>
<g style="fill:#000000; fill-opacity:0.0; 
stroke:#000000; stroke-width:59.0551; stroke-opacity:1; 
stroke-linecap:round; stroke-linejoin:round;">
<path d="M4489 53332
L4464 53356
L4391 53381
L4342 53381
L4269 53356
L4221 53308
L4196 53259
L4172 53161
L4172 53088
L4196 52991
L4221 52942
L4269 52893
L4342 52869
L4391 52869
L4464 52893
L4489 52918
" />
</g>
<g style="fill:#000000; fill-opacity:0.0; 
stroke:#000000; stroke-width:39.3701; stroke-opacity:1; 
stroke-linecap:round; stroke-linejoin:round;">
</g>
<g style="fill:#000000; fill-opacity:0.0; 
stroke:#000000; stroke-width:59.0551; stroke-opacity:1; 
stroke-linecap:round; stroke-linejoin:round;">
<path d="M4196 73066
L4196 72554
L4318 72554
L4391 72578
L4440 72627
L4464 72676
L4489 72773
L4489 72846
L4464 72944
L4440 72993
L4391 73041
L4318 73066
L4196 73066
" />
</g>
<g style="fill:#000000; fill-opacity:0.0; 
stroke:#000000; stroke-width:39.3701; stroke-opacity:1; 
stroke-linecap:round; stroke-linejoin:round;">
</g>
<g style="fill:#000000; fill-opacity:0.0; 
stroke:#000000; stroke-width:59.0551; stroke-opacity:1; 
stroke-linecap:round; stroke-linejoin:round;">
<path d="M112992 23622
L112205 23622
" />
</g>
<g style="fill:#000000; fill-opacity:0.0; 
stroke:#000000; stroke-width:39.3701; stroke-opacity:1; 
stroke-linecap:round; stroke-linejoin:round;">
</g>
<g style="fill:#000000; fill-opacity:0.0; 
stroke:#000000; stroke-width:59.0551; stroke-opacity:1; 
stroke-linecap:round; stroke-linejoin:round;">
<path d="M112992 43307
L112205 43307
" />
</g>
<g style="fill:#000000; fill-opacity:0.0; 
stroke:#000000; stroke-width:39.3701; stroke-opacity:1; 
stroke-linecap:round; stroke-linejoin:round;">
</g>
<g style="fill:#000000; fill-opacity:0.0; 
stroke:#000000; stroke-width:59.0551; stroke-opacity:1; 
stroke-linecap:round; stroke-linejoin:round;">
<path d="M112992 62992
L112205 62992
" />
</g>
<g style="fill:#000000; fill-opacity:0.0; 
stroke:#000000; stroke-width:39.3701; stroke-opacity:1; 
stroke-linecap:round; stroke-linejoin:round;">
</g>
<g style="fill:#000000; fill-opacity:0.0; 
stroke:#000000; stroke-width:59.0551; stroke-opacity:1; 
stroke-linecap:round; stroke-linejoin:round;">
<path d="M112477 13864
L112721 13864
" />
<path d="M112428 14011
L112599 13499
L112769 14011
" />
</g>
<g style="fill:#000000; fill-opacity:0.0; 
stroke:#000000; stroke-width:39.3701; stroke-opacity:1; 
stroke-linecap:round; stroke-linejoin:round;">
</g>
<g style="fill:#000000; fill-opacity:0.0; 
stroke:#000000; stroke-width:59.0551; stroke-opacity:1; 
stroke-linecap:round; stroke-linejoin:round;">
<path d="M112635 33428
L112708 33452
L112733 33476
L112757 33525
L112757 33598
L112733 33647
L112708 33671
L112660 33696
L112465 33696
L112465 33184
L112635 33184
L112684 33208
L112708 33233
L112733 33281
L112733 33330
L112708 33379
L112684 33403
L112635 33428
L112465 33428
" />
</g>
<g style="fill:#000000; fill-opacity:0.0; 
stroke:#000000; stroke-width:39.3701; stroke-opacity:1; 
stroke-linecap:round; stroke-linejoin:round;">
</g>
<g style="fill:#000000; fill-opacity:0.0; 
stroke:#000000; stroke-width:59.0551; stroke-opacity:1; 
stroke-linecap:round; stroke-linejoin:round;">
<path d="M112757 53332
L112733 53356
L112660 53381
L112611 53381
L112538 53356
L112489 53308
L112465 53259
L112440 53161
L112440 53088
L112465 52991
L112489 52942
L112538 52893
L112611 52869
L112660 52869
L112733 52893
L112757 52918
" />
</g>
<g style="fill:#000000; fill-opacity:0.0; 
stroke:#000000; stroke-width:39.3701; stroke-opacity:1; 
stroke-linecap:round; stroke-linejoin:round;">
</g>
<g style="fill:#000000; fill-opacity:0.0; 
stroke:#000000; stroke-width:59.0551; stroke-opacity:1; 
stroke-linecap:round; stroke-linejoin:round;">
<path d="M112465 73066
L112465 72554
L112587 72554
L112660 72578
L112708 72627
L112733 72676
L112757 72773
L112757 72846
L112733 72944
L112708 72993
L112660 73041
L112587 73066
L112465 73066
" />
</g>
<g style="fill:#000000; fill-opacity:0.0; 
stroke:#000000; stroke-width:39.3701; stroke-opacity:1; 
stroke-linecap:round; stroke-linejoin:round;">
</g>
<g style="fill:#000000; fill-opacity:0.0; 
stroke:#000000; stroke-width:59.0551; stroke-opacity:1; 
stroke-linecap:round; stroke-linejoin:round;">
<path d="M78911 76293
L78911 75703
L79051 75703
L79136 75731
L79192 75787
L79220 75843
L79248 75956
L79248 76040
L79220 76153
L79192 76209
L79136 76265
L79051 76293
L78911 76293
" />
<path d="M79754 76293
L79754 75984
L79726 75928
L79670 75899
L79557 75899
L79501 75928
" />
<path d="M79754 76265
L79698 76293
L79557 76293
L79501 76265
L79473 76209
L79473 76153
L79501 76096
L79557 76068
L79698 76068
L79754 76040
" />
<path d="M79951 75899
L80176 75899
" />
<path d="M80036 75703
L80036 76209
L80064 76265
L80120 76293
L80176 76293
" />
<path d="M80598 76265
L80542 76293
L80429 76293
L80373 76265
L80345 76209
L80345 75984
L80373 75928
L80429 75899
L80542 75899
L80598 75928
L80626 75984
L80626 76040
L80345 76096
" />
<path d="M80879 76237
L80907 76265
L80879 76293
L80851 76265
L80879 76237
L80879 76293
" />
<path d="M80879 75928
L80907 75956
L80879 75984
L80851 75956
L80879 75928
L80879 75984
" />
<path d="M81582 75759
L81610 75731
L81667 75703
L81807 75703
L81863 75731
L81892 75759
L81920 75815
L81920 75871
L81892 75956
L81554 76293
L81920 76293
" />
<path d="M82285 75703
L82341 75703
L82398 75731
L82426 75759
L82454 75815
L82482 75928
L82482 76068
L82454 76181
L82426 76237
L82398 76265
L82341 76293
L82285 76293
L82229 76265
L82201 76237
L82173 76181
L82145 76068
L82145 75928
L82173 75815
L82201 75759
L82229 75731
L82285 75703
" />
<path d="M83045 76293
L82707 76293
" />
<path d="M82876 76293
L82876 75703
L82820 75787
L82763 75843
L82707 75871
" />
<path d="M83326 76293
L83438 76293
L83494 76265
L83523 76237
L83579 76153
L83607 76040
L83607 75815
L83579 75759
L83551 75731
L83494 75703
L83382 75703
L83326 75731
L83298 75759
L83269 75815
L83269 75956
L83298 76012
L83326 76040
L83382 76068
L83494 76068
L83551 76040
L83579 76012
L83607 75956
" />
<path d="M83860 76068
L84310 76068
" />
<path d="M84704 75703
L84760 75703
L84816 75731
L84844 75759
L84872 75815
L84901 75928
L84901 76068
L84872 76181
L84844 76237
L84816 76265
L84760 76293
L84704 76293
L84647 76265
L84619 76237
L84591 76181
L84563 76068
L84563 75928
L84591 75815
L84619 75759
L84647 75731
L84704 75703
" />
<path d="M85182 76293
L85294 76293
L85350 76265
L85379 76237
L85435 76153
L85463 76040
L85463 75815
L85435 75759
L85407 75731
L85350 75703
L85238 75703
L85182 75731
L85154 75759
L85126 75815
L85126 75956
L85154 76012
L85182 76040
L85238 76068
L85350 76068
L85407 76040
L85435 76012
L85463 75956
" />
<path d="M85716 76068
L86166 76068
" />
<path d="M86419 75759
L86447 75731
L86503 75703
L86644 75703
L86700 75731
L86728 75759
L86757 75815
L86757 75871
L86728 75956
L86391 76293
L86757 76293
" />
<path d="M87094 75956
L87038 75928
L87010 75899
L86982 75843
L86982 75815
L87010 75759
L87038 75731
L87094 75703
L87206 75703
L87263 75731
L87291 75759
L87319 75815
L87319 75843
L87291 75899
L87263 75928
L87206 75956
L87094 75956
L87038 75984
L87010 76012
L86982 76068
L86982 76181
L87010 76237
L87038 76265
L87094 76293
L87206 76293
L87263 76265
L87291 76237
L87319 76181
L87319 76068
L87291 76012
L87263 75984
L87206 75956
" />
</g>
<g style="fill:#000000; fill-opacity:0.0; 
stroke:#000000; stroke-width:39.3701; stroke-opacity:1; 
stroke-linecap:round; stroke-linejoin:round;">
</g>
<g style="fill:#000000; fill-opacity:0.0; 
stroke:#000000; stroke-width:59.0551; stroke-opacity:1; 
stroke-linecap:round; stroke-linejoin:round;">
<path d="M69685 76577
L112205 76577
" />
</g>
<g style="fill:#000000; fill-opacity:0.0; 
stroke:#000000; stroke-width:39.3701; stroke-opacity:1; 
stroke-linecap:round; stroke-linejoin:round;">
</g>
<g style="fill:#000000; fill-opacity:0.0; 
stroke:#000000; stroke-width:59.0551; stroke-opacity:1; 
stroke-linecap:round; stroke-linejoin:round;">
<path d="M70249 77395
L70249 76805
" />
<path d="M70587 77395
L70334 77058
" />
<path d="M70587 76805
L70249 77142
" />
<path d="M70840 77395
L70840 77002
" />
<path d="M70840 76805
L70812 76833
L70840 76861
L70868 76833
L70840 76805
L70840 76861
" />
<path d="M71458 77339
L71430 77367
L71346 77395
L71290 77395
L71205 77367
L71149 77311
L71121 77255
L71093 77142
L71093 77058
L71121 76946
L71149 76889
L71205 76833
L71290 76805
L71346 76805
L71430 76833
L71458 76861
" />
<path d="M71965 77395
L71965 77086
L71937 77030
L71880 77002
L71768 77002
L71712 77030
" />
<path d="M71965 77367
L71908 77395
L71768 77395
L71712 77367
L71683 77311
L71683 77255
L71712 77199
L71768 77171
L71908 77171
L71965 77142
" />
<path d="M72499 77395
L72499 76805
" />
<path d="M72499 77367
L72443 77395
L72330 77395
L72274 77367
L72246 77339
L72218 77283
L72218 77114
L72246 77058
L72274 77030
L72330 77002
L72443 77002
L72499 77030
" />
<path d="M73230 77086
L73427 77086
" />
<path d="M73511 77395
L73230 77395
L73230 76805
L73511 76805
" />
<path d="M73764 77339
L73793 77367
L73764 77395
L73736 77367
L73764 77339
L73764 77395
" />
<path d="M74046 77395
L74046 76805
L74186 76805
L74271 76833
L74327 76889
L74355 76946
L74383 77058
L74383 77142
L74355 77255
L74327 77311
L74271 77367
L74186 77395
L74046 77395
" />
<path d="M74636 77339
L74664 77367
L74636 77395
L74608 77367
L74636 77339
L74636 77395
" />
<path d="M74889 77227
L75171 77227
" />
<path d="M74833 77395
L75030 76805
L75227 77395
" />
<path d="M75424 77339
L75452 77367
L75424 77395
L75395 77367
L75424 77339
L75424 77395
" />
<path d="M76605 77395
L76605 76805
" />
<path d="M76661 77171
L76830 77395
" />
<path d="M76830 77002
L76605 77227
" />
<path d="M77083 77395
L77083 77002
" />
<path d="M77083 76805
L77055 76833
L77083 76861
L77111 76833
L77083 76805
L77083 76861
" />
<path d="M77617 77367
L77561 77395
L77448 77395
L77392 77367
L77364 77339
L77336 77283
L77336 77114
L77364 77058
L77392 77030
L77448 77002
L77561 77002
L77617 77030
" />
<path d="M78123 77395
L78123 77086
L78095 77030
L78039 77002
L77926 77002
L77870 77030
" />
<path d="M78123 77367
L78067 77395
L77926 77395
L77870 77367
L77842 77311
L77842 77255
L77870 77199
L77926 77171
L78067 77171
L78123 77142
" />
<path d="M78658 77395
L78658 76805
" />
<path d="M78658 77367
L78601 77395
L78489 77395
L78433 77367
L78404 77339
L78376 77283
L78376 77114
L78404 77058
L78433 77030
L78489 77002
L78601 77002
L78658 77030
" />
<path d="M79670 76805
L79389 76805
L79361 77086
L79389 77058
L79445 77030
L79586 77030
L79642 77058
L79670 77086
L79698 77142
L79698 77283
L79670 77339
L79642 77367
L79586 77395
L79445 77395
L79389 77367
L79361 77339
" />
<path d="M79951 77339
L79979 77367
L79951 77395
L79923 77367
L79951 77339
L79951 77395
" />
<path d="M80542 77395
L80204 77395
" />
<path d="M80373 77395
L80373 76805
L80317 76889
L80260 76946
L80204 76974
" />
<path d="M80795 77339
L80823 77367
L80795 77395
L80767 77367
L80795 77339
L80795 77395
" />
<path d="M81329 77002
L81329 77395
" />
<path d="M81188 76777
L81048 77199
L81413 77199
" />
</g>
<g style="fill:#000000; fill-opacity:0.0; 
stroke:#000000; stroke-width:39.3701; stroke-opacity:1; 
stroke-linecap:round; stroke-linejoin:round;">
</g>
<g style="fill:#000000; fill-opacity:0.0; 
stroke:#000000; stroke-width:59.0551; stroke-opacity:1; 
stroke-linecap:round; stroke-linejoin:round;">
<path d="M69685 75396
L112205 75396
" />
</g>
<g style="fill:#000000; fill-opacity:0.0; 
stroke:#000000; stroke-width:39.3701; stroke-opacity:1; 
stroke-linecap:round; stroke-linejoin:round;">
</g>
<g style="fill:#000000; fill-opacity:0.0; 
stroke:#000000; stroke-width:118.11; stroke-opacity:1; 
stroke-linecap:round; stroke-linejoin:round;">
<path d="M104099 76293
L103902 76012
" />
<path d="M103761 76293
L103761 75703
L103986 75703
L104042 75731
L104070 75759
L104099 75815
L104099 75899
L104070 75956
L104042 75984
L103986 76012
L103761 76012
" />
<path d="M104577 76265
L104520 76293
L104408 76293
L104352 76265
L104323 76209
L104323 75984
L104352 75928
L104408 75899
L104520 75899
L104577 75928
L104605 75984
L104605 76040
L104323 76096
" />
<path d="M104802 75899
L104942 76293
L105083 75899
" />
<path d="M105308 76237
L105336 76265
L105308 76293
L105280 76265
L105308 76237
L105308 76293
" />
<path d="M105308 75928
L105336 75956
L105308 75984
L105280 75956
L105308 75928
L105308 75984
" />
<path d="M106151 75703
L106208 75703
L106264 75731
L106292 75759
L106320 75815
L106348 75928
L106348 76068
L106320 76181
L106292 76237
L106264 76265
L106208 76293
L106151 76293
L106095 76265
L106067 76237
L106039 76181
L106011 76068
L106011 75928
L106039 75815
L106067 75759
L106095 75731
L106151 75703
" />
<path d="M106545 75703
L106911 75703
L106714 75928
L106798 75928
L106854 75956
L106883 75984
L106911 76040
L106911 76181
L106883 76237
L106854 76265
L106798 76293
L106629 76293
L106573 76265
L106545 76237
" />
<path d="M107164 76068
L107614 76068
" />
<path d="M108007 75703
L108064 75703
L108120 75731
L108148 75759
L108176 75815
L108204 75928
L108204 76068
L108176 76181
L108148 76237
L108120 76265
L108064 76293
L108007 76293
L107951 76265
L107923 76237
L107895 76181
L107867 76068
L107867 75928
L107895 75815
L107923 75759
L107951 75731
L108007 75703
" />
<path d="M108767 76293
L108429 76293
" />
<path d="M108598 76293
L108598 75703
L108542 75787
L108485 75843
L108429 75871
" />
<path d="M109020 76293
L109020 75899
" />
<path d="M109020 76012
L109048 75956
L109076 75928
L109132 75899
L109188 75899
" />
<path d="M109638 76265
L109582 76293
L109470 76293
L109413 76265
L109385 76237
L109357 76181
L109357 76012
L109385 75956
L109413 75928
L109470 75899
L109582 75899
L109638 75928
" />
<path d="M109863 75759
L109892 75731
L109948 75703
L110088 75703
L110145 75731
L110173 75759
L110201 75815
L110201 75871
L110173 75956
L109835 76293
L110201 76293
" />
</g>
<g style="fill:#000000; fill-opacity:0.0; 
stroke:#000000; stroke-width:39.3701; stroke-opacity:1; 
stroke-linecap:round; stroke-linejoin:round;">
</g>
<g style="fill:#000000; fill-opacity:0.0; 
stroke:#000000; stroke-width:59.0551; stroke-opacity:1; 
stroke-linecap:round; stroke-linejoin:round;">
<path d="M70221 76265
L70305 76293
L70446 76293
L70502 76265
L70530 76237
L70559 76181
L70559 76124
L70530 76068
L70502 76040
L70446 76012
L70334 75984
L70277 75956
L70249 75928
L70221 75871
L70221 75815
L70249 75759
L70277 75731
L70334 75703
L70474 75703
L70559 75731
" />
<path d="M70812 76293
L70812 75899
" />
<path d="M70812 75703
L70784 75731
L70812 75759
L70840 75731
L70812 75703
L70812 75759
" />
<path d="M71037 75899
L71346 75899
L71037 76293
L71346 76293
" />
<path d="M71796 76265
L71740 76293
L71627 76293
L71571 76265
L71543 76209
L71543 75984
L71571 75928
L71627 75899
L71740 75899
L71796 75928
L71824 75984
L71824 76040
L71543 76096
" />
<path d="M72077 76237
L72105 76265
L72077 76293
L72049 76265
L72077 76237
L72077 76293
" />
<path d="M72077 75928
L72105 75956
L72077 75984
L72049 75956
L72077 75928
L72077 75984
" />
<path d="M72780 76124
L73061 76124
" />
<path d="M72724 76293
L72921 75703
L73118 76293
" />
<path d="M73568 75899
L73568 76293
" />
<path d="M73427 75674
L73286 76096
L73652 76096
" />
</g>
<g style="fill:#000000; fill-opacity:0.0; 
stroke:#000000; stroke-width:39.3701; stroke-opacity:1; 
stroke-linecap:round; stroke-linejoin:round;">
</g>
<g style="fill:#000000; fill-opacity:0.0; 
stroke:#000000; stroke-width:59.0551; stroke-opacity:1; 
stroke-linecap:round; stroke-linejoin:round;">
<path d="M103714 77395
L103714 76805
" />
<path d="M104248 77395
L104248 76805
" />
<path d="M104248 77367
L104192 77395
L104079 77395
L104023 77367
L103995 77339
L103967 77283
L103967 77114
L103995 77058
L104023 77030
L104079 77002
L104192 77002
L104248 77030
" />
<path d="M104529 77339
L104557 77367
L104529 77395
L104501 77367
L104529 77339
L104529 77395
" />
<path d="M104529 77030
L104557 77058
L104529 77086
L104501 77058
L104529 77030
L104529 77086
" />
<path d="M105570 77395
L105232 77395
" />
<path d="M105401 77395
L105401 76805
L105345 76889
L105289 76946
L105232 76974
" />
<path d="M106245 76777
L105739 77536
" />
<path d="M106751 77395
L106413 77395
" />
<path d="M106582 77395
L106582 76805
L106526 76889
L106470 76946
L106413 76974
" />
</g>
<g style="fill:#000000; fill-opacity:0.0; 
stroke:#000000; stroke-width:39.3701; stroke-opacity:1; 
stroke-linecap:round; stroke-linejoin:round;">
</g>
<g style="fill:#000000; fill-opacity:0.0; 
stroke:#000000; stroke-width:59.0551; stroke-opacity:1; 
stroke-linecap:round; stroke-linejoin:round;">
<path d="M69685 73821
L112205 73821
" />
</g>
<g style="fill:#000000; fill-opacity:0.0; 
stroke:#000000; stroke-width:39.3701; stroke-opacity:1; 
stroke-linecap:round; stroke-linejoin:round;">
</g>
<g style="fill:#000000; fill-opacity:0.0; 
stroke:#000000; stroke-width:157.48; stroke-opacity:1; 
stroke-linecap:round; stroke-linejoin:round;">
<path d="M70360 74099
L70810 74099
" />
<path d="M70486 74886
L70585 74099
" />
<path d="M70974 74886
L71039 74361
" />
<path d="M71072 74099
L71030 74136
L71063 74174
L71105 74136
L71072 74099
L71063 74174
" />
<path d="M71302 74361
L71602 74361
" />
<path d="M71447 74099
L71363 74774
L71391 74849
L71461 74886
L71536 74886
" />
<path d="M71911 74886
L71841 74849
L71813 74774
L71897 74099
" />
<path d="M72516 74849
L72436 74886
L72286 74886
L72216 74849
L72187 74774
L72225 74474
L72272 74399
L72352 74361
L72501 74361
L72572 74399
L72600 74474
L72591 74549
L72206 74624
" />
<path d="M72895 74811
L72928 74849
L72886 74886
L72853 74849
L72895 74811
L72886 74886
" />
<path d="M72947 74399
L72980 74436
L72937 74474
L72905 74436
L72947 74399
L72937 74474
" />
<path d="M73828 74849
L73936 74886
L74123 74886
L74203 74849
L74245 74811
L74292 74736
L74301 74661
L74273 74586
L74240 74549
L74170 74511
L74025 74474
L73954 74436
L73922 74399
L73894 74324
L73903 74249
L73950 74174
L73992 74136
L74072 74099
L74259 74099
L74367 74136
" />
<path d="M74953 74849
L74873 74886
L74723 74886
L74653 74849
L74620 74811
L74592 74736
L74620 74511
L74667 74436
L74709 74399
L74789 74361
L74939 74361
L75009 74399
" />
<path d="M75286 74886
L75384 74099
" />
<path d="M75623 74886
L75675 74474
L75646 74399
L75576 74361
L75464 74361
L75384 74399
L75342 74436
" />
<path d="M76303 74849
L76223 74886
L76073 74886
L76003 74849
L75974 74774
L76012 74474
L76059 74399
L76139 74361
L76289 74361
L76359 74399
L76387 74474
L76378 74549
L75993 74624
" />
<path d="M76326 74061
L76199 74174
" />
<path d="M76673 74886
L76738 74361
" />
<path d="M76729 74436
L76771 74399
L76851 74361
L76963 74361
L77034 74399
L77062 74474
L77010 74886
" />
<path d="M77062 74474
L77109 74399
L77188 74361
L77301 74361
L77371 74399
L77399 74474
L77348 74886
" />
<path d="M78060 74886
L78112 74474
L78084 74399
L78013 74361
L77863 74361
L77784 74399
" />
<path d="M78065 74849
L77985 74886
L77798 74886
L77727 74849
L77699 74774
L77709 74699
L77756 74624
L77835 74586
L78023 74586
L78102 74549
" />
<path d="M79035 74886
L79133 74099
L79433 74099
L79504 74136
L79537 74174
L79565 74249
L79551 74361
L79504 74436
L79462 74474
L79382 74511
L79082 74511
" />
<path d="M80282 74811
L80240 74849
L80122 74886
L80047 74886
L79940 74849
L79874 74774
L79846 74699
L79827 74549
L79841 74436
L79897 74286
L79944 74211
L80029 74136
L80146 74099
L80221 74099
L80329 74136
L80361 74174
" />
<path d="M80924 74474
L81032 74511
L81064 74549
L81093 74624
L81079 74736
L81032 74811
L80989 74849
L80910 74886
L80610 74886
L80708 74099
L80971 74099
L81041 74136
L81074 74174
L81102 74249
L81093 74324
L81046 74399
L81004 74436
L80924 74474
L80661 74474
" />
<path d="M81955 74624
L82630 74624
" />
<path d="M83497 74886
L83595 74099
" />
<path d="M83872 74886
L83970 74099
" />
<path d="M83924 74474
L84373 74474
" />
<path d="M84322 74886
L84420 74099
" />
<path d="M84697 74886
L84795 74099
L84987 74661
L85320 74099
L85222 74886
" />
<path d="M85634 74586
L86234 74586
" />
<path d="M87078 74136
L87007 74099
L86895 74099
L86778 74136
L86693 74211
L86647 74286
L86590 74436
L86576 74549
L86595 74699
L86623 74774
L86689 74849
L86797 74886
L86872 74886
L86989 74849
L87031 74811
L87064 74549
L86914 74549
" />
<path d="M87664 74849
L87584 74886
L87434 74886
L87364 74849
L87336 74774
L87373 74474
L87420 74399
L87500 74361
L87650 74361
L87720 74399
L87748 74474
L87739 74549
L87354 74624
" />
<path d="M87687 74061
L87561 74174
" />
<path d="M88100 74361
L88034 74886
" />
<path d="M88090 74436
L88132 74399
L88212 74361
L88325 74361
L88395 74399
L88423 74474
L88371 74886
" />
<path d="M89051 74849
L88971 74886
L88821 74886
L88751 74849
L88723 74774
L88760 74474
L88807 74399
L88887 74361
L89037 74361
L89107 74399
L89135 74474
L89126 74549
L88742 74624
" />
<path d="M89074 74061
L88948 74174
" />
<path d="M89421 74886
L89487 74361
" />
<path d="M89468 74511
L89515 74436
L89557 74399
L89637 74361
L89712 74361
" />
<path d="M89909 74886
L89974 74361
" />
<path d="M90007 74099
L89965 74136
L89998 74174
L90040 74136
L90007 74099
L89998 74174
" />
<path d="M90687 74361
L90588 75149
" />
<path d="M90626 74849
L90546 74886
L90396 74886
L90326 74849
L90293 74811
L90265 74736
L90293 74511
L90340 74436
L90382 74399
L90462 74361
L90612 74361
L90682 74399
" />
<path d="M91399 74361
L91334 74886
" />
<path d="M91062 74361
L91010 74774
L91038 74849
L91109 74886
L91221 74886
L91301 74849
L91343 74811
" />
<path d="M92013 74849
L91933 74886
L91783 74886
L91713 74849
L91685 74774
L91723 74474
L91769 74399
L91849 74361
L91999 74361
L92069 74399
L92097 74474
L92088 74549
L91704 74624
" />
</g>
<g style="fill:#000000; fill-opacity:0.0; 
stroke:#000000; stroke-width:39.3701; stroke-opacity:1; 
stroke-linecap:round; stroke-linejoin:round;">
</g>
<g style="fill:#000000; fill-opacity:0.0; 
stroke:#000000; stroke-width:59.0551; stroke-opacity:1; 
stroke-linecap:round; stroke-linejoin:round;">
<path d="M70446 73070
L70249 73070
" />
<path d="M70249 73380
L70249 72789
L70530 72789
" />
<path d="M70755 73380
L70755 72986
" />
<path d="M70755 72789
L70727 72817
L70755 72845
L70784 72817
L70755 72789
L70755 72845
" />
<path d="M71121 73380
L71065 73352
L71037 73295
L71037 72789
" />
<path d="M71571 73352
L71515 73380
L71402 73380
L71346 73352
L71318 73295
L71318 73070
L71346 73014
L71402 72986
L71515 72986
L71571 73014
L71599 73070
L71599 73127
L71318 73183
" />
<path d="M71852 73323
L71880 73352
L71852 73380
L71824 73352
L71852 73323
L71852 73380
" />
<path d="M71852 73014
L71880 73042
L71852 73070
L71824 73042
L71852 73014
L71852 73070
" />
<path d="M72583 73380
L72583 72789
" />
<path d="M72865 73380
L72865 72789
" />
<path d="M72865 73070
L73202 73070
" />
<path d="M73202 73380
L73202 72789
" />
<path d="M73483 73380
L73483 72789
L73680 73211
L73877 72789
L73877 73380
" />
<path d="M74158 73155
L74608 73155
" />
<path d="M75199 72817
L75142 72789
L75058 72789
L74974 72817
L74917 72874
L74889 72930
L74861 73042
L74861 73127
L74889 73239
L74917 73295
L74974 73352
L75058 73380
L75114 73380
L75199 73352
L75227 73323
L75227 73127
L75114 73127
" />
<path d="M75705 73352
L75649 73380
L75536 73380
L75480 73352
L75452 73295
L75452 73070
L75480 73014
L75536 72986
L75649 72986
L75705 73014
L75733 73070
L75733 73127
L75452 73183
" />
<path d="M75649 72761
L75564 72845
" />
<path d="M75986 72986
L75986 73380
" />
<path d="M75986 73042
L76014 73014
L76070 72986
L76155 72986
L76211 73014
L76239 73070
L76239 73380
" />
<path d="M76745 73352
L76689 73380
L76577 73380
L76520 73352
L76492 73295
L76492 73070
L76520 73014
L76577 72986
L76689 72986
L76745 73014
L76773 73070
L76773 73127
L76492 73183
" />
<path d="M76689 72761
L76605 72845
" />
<path d="M77027 73380
L77027 72986
" />
<path d="M77027 73099
L77055 73042
L77083 73014
L77139 72986
L77195 72986
" />
<path d="M77392 73380
L77392 72986
" />
<path d="M77392 72789
L77364 72817
L77392 72845
L77420 72817
L77392 72789
L77392 72845
" />
<path d="M77926 72986
L77926 73577
" />
<path d="M77926 73352
L77870 73380
L77758 73380
L77701 73352
L77673 73323
L77645 73267
L77645 73099
L77673 73042
L77701 73014
L77758 72986
L77870 72986
L77926 73014
" />
<path d="M78461 72986
L78461 73380
" />
<path d="M78208 72986
L78208 73295
L78236 73352
L78292 73380
L78376 73380
L78433 73352
L78461 73323
" />
<path d="M78967 73352
L78911 73380
L78798 73380
L78742 73352
L78714 73295
L78714 73070
L78742 73014
L78798 72986
L78911 72986
L78967 73014
L78995 73070
L78995 73127
L78714 73183
" />
<path d="M79248 73323
L79276 73352
L79248 73380
L79220 73352
L79248 73323
L79248 73380
" />
<path d="M79529 73380
L79529 72789
" />
<path d="M79586 73155
L79754 73380
" />
<path d="M79754 72986
L79529 73211
" />
<path d="M80007 73380
L80007 72986
" />
<path d="M80007 72789
L79979 72817
L80007 72845
L80036 72817
L80007 72789
L80007 72845
" />
<path d="M80542 73352
L80485 73380
L80373 73380
L80317 73352
L80289 73323
L80260 73267
L80260 73099
L80289 73042
L80317 73014
L80373 72986
L80485 72986
L80542 73014
" />
<path d="M81048 73380
L81048 73070
L81020 73014
L80964 72986
L80851 72986
L80795 73014
" />
<path d="M81048 73352
L80992 73380
L80851 73380
L80795 73352
L80767 73295
L80767 73239
L80795 73183
L80851 73155
L80992 73155
L81048 73127
" />
<path d="M81582 73380
L81582 72789
" />
<path d="M81582 73352
L81526 73380
L81413 73380
L81357 73352
L81329 73323
L81301 73267
L81301 73099
L81329 73042
L81357 73014
L81413 72986
L81526 72986
L81582 73014
" />
<path d="M81723 73436
L82173 73436
" />
<path d="M82313 72986
L82313 73577
" />
<path d="M82313 73014
L82370 72986
L82482 72986
L82538 73014
L82566 73042
L82595 73099
L82595 73267
L82566 73323
L82538 73352
L82482 73380
L82370 73380
L82313 73352
" />
<path d="M83101 73352
L83045 73380
L82932 73380
L82876 73352
L82848 73323
L82820 73267
L82820 73099
L82848 73042
L82876 73014
L82932 72986
L83045 72986
L83101 73014
" />
<path d="M83354 73380
L83354 72789
" />
<path d="M83354 73014
L83410 72986
L83523 72986
L83579 73014
L83607 73042
L83635 73099
L83635 73267
L83607 73323
L83579 73352
L83523 73380
L83410 73380
L83354 73352
" />
</g>
<g style="fill:#000000; fill-opacity:0.0; 
stroke:#000000; stroke-width:39.3701; stroke-opacity:1; 
stroke-linecap:round; stroke-linejoin:round;">
</g>
<g style="fill:#000000; fill-opacity:0.0; 
stroke:#000000; stroke-width:59.0551; stroke-opacity:1; 
stroke-linecap:round; stroke-linejoin:round;">
<path d="M69685 71459
L112205 71459
" />
</g>
<g style="fill:#000000; fill-opacity:0.0; 
stroke:#000000; stroke-width:39.3701; stroke-opacity:1; 
stroke-linecap:round; stroke-linejoin:round;">
</g>
<g style="fill:#000000; fill-opacity:0.0; 
stroke:#000000; stroke-width:59.0551; stroke-opacity:1; 
stroke-linecap:round; stroke-linejoin:round;">
<path d="M70221 72289
L70305 72317
L70446 72317
L70502 72289
L70530 72260
L70559 72204
L70559 72148
L70530 72092
L70502 72064
L70446 72036
L70334 72007
L70277 71979
L70249 71951
L70221 71895
L70221 71839
L70249 71782
L70277 71754
L70334 71726
L70474 71726
L70559 71754
" />
<path d="M70812 72317
L70812 71726
" />
<path d="M71065 72317
L71065 72007
L71037 71951
L70980 71923
L70896 71923
L70840 71951
L70812 71979
" />
<path d="M71571 72289
L71515 72317
L71402 72317
L71346 72289
L71318 72232
L71318 72007
L71346 71951
L71402 71923
L71515 71923
L71571 71951
L71599 72007
L71599 72064
L71318 72120
" />
<path d="M72077 72289
L72021 72317
L71908 72317
L71852 72289
L71824 72232
L71824 72007
L71852 71951
L71908 71923
L72021 71923
L72077 71951
L72105 72007
L72105 72064
L71824 72120
" />
<path d="M72274 71923
L72499 71923
" />
<path d="M72358 71726
L72358 72232
L72386 72289
L72443 72317
L72499 72317
" />
<path d="M72696 72260
L72724 72289
L72696 72317
L72668 72289
L72696 72260
L72696 72317
" />
<path d="M72696 71951
L72724 71979
L72696 72007
L72668 71979
L72696 71951
L72696 72007
" />
</g>
<g style="fill:#000000; fill-opacity:0.0; 
stroke:#000000; stroke-width:39.3701; stroke-opacity:1; 
stroke-linecap:round; stroke-linejoin:round;">
</g>
<g style="fill:#000000; fill-opacity:0.0; 
stroke:#000000; stroke-width:118.11; stroke-opacity:1; 
stroke-linecap:round; stroke-linejoin:round;">
<path d="M70578 71136
L70296 71136
L70296 70545
" />
<path d="M71028 71136
L71028 70826
L71000 70770
L70943 70742
L70831 70742
L70775 70770
" />
<path d="M71028 71108
L70971 71136
L70831 71136
L70775 71108
L70746 71051
L70746 70995
L70775 70939
L70831 70911
L70971 70911
L71028 70883
" />
<path d="M71309 71136
L71309 70545
" />
<path d="M71309 70770
L71365 70742
L71478 70742
L71534 70770
L71562 70798
L71590 70854
L71590 71023
L71562 71079
L71534 71108
L71478 71136
L71365 71136
L71309 71108
" />
<path d="M71928 71136
L71871 71108
L71843 71079
L71815 71023
L71815 70854
L71843 70798
L71871 70770
L71928 70742
L72012 70742
L72068 70770
L72096 70798
L72124 70854
L72124 71023
L72096 71079
L72068 71108
L72012 71136
L71928 71136
" />
<path d="M72377 71136
L72377 70742
" />
<path d="M72377 70854
L72406 70798
L72434 70770
L72490 70742
L72546 70742
" />
<path d="M72996 71136
L72996 70826
L72968 70770
L72912 70742
L72799 70742
L72743 70770
" />
<path d="M72996 71108
L72940 71136
L72799 71136
L72743 71108
L72715 71051
L72715 70995
L72743 70939
L72799 70911
L72940 70911
L72996 70883
" />
<path d="M73193 70742
L73418 70742
" />
<path d="M73277 70545
L73277 71051
L73305 71108
L73362 71136
L73418 71136
" />
<path d="M73699 71136
L73643 71108
L73615 71079
L73587 71023
L73587 70854
L73615 70798
L73643 70770
L73699 70742
L73784 70742
L73840 70770
L73868 70798
L73896 70854
L73896 71023
L73868 71079
L73840 71108
L73784 71136
L73699 71136
" />
<path d="M74149 71136
L74149 70742
" />
<path d="M74149 70545
L74121 70573
L74149 70601
L74177 70573
L74149 70545
L74149 70601
" />
<path d="M74430 71136
L74430 70742
" />
<path d="M74430 70854
L74458 70798
L74487 70770
L74543 70742
L74599 70742
" />
<path d="M75021 71108
L74965 71136
L74852 71136
L74796 71108
L74768 71051
L74768 70826
L74796 70770
L74852 70742
L74965 70742
L75021 70770
L75049 70826
L75049 70883
L74768 70939
" />
<path d="M75752 71136
L75752 70545
L75977 70545
L76033 70573
L76061 70601
L76090 70658
L76090 70742
L76061 70798
L76033 70826
L75977 70854
L75752 70854
" />
<path d="M76427 71136
L76371 71108
L76343 71051
L76343 70545
" />
<path d="M76905 71136
L76905 70826
L76877 70770
L76821 70742
L76708 70742
L76652 70770
" />
<path d="M76905 71108
L76849 71136
L76708 71136
L76652 71108
L76624 71051
L76624 70995
L76652 70939
L76708 70911
L76849 70911
L76905 70883
" />
<path d="M77158 71108
L77214 71136
L77327 71136
L77383 71108
L77411 71051
L77411 71023
L77383 70967
L77327 70939
L77242 70939
L77186 70911
L77158 70854
L77158 70826
L77186 70770
L77242 70742
L77327 70742
L77383 70770
" />
<path d="M77664 71136
L77664 70742
" />
<path d="M77664 70798
L77692 70770
L77749 70742
L77833 70742
L77889 70770
L77917 70826
L77917 71136
" />
<path d="M77917 70826
L77946 70770
L78002 70742
L78086 70742
L78142 70770
L78171 70826
L78171 71136
" />
<path d="M78705 71136
L78705 70826
L78677 70770
L78620 70742
L78508 70742
L78452 70770
" />
<path d="M78705 71108
L78649 71136
L78508 71136
L78452 71108
L78424 71051
L78424 70995
L78452 70939
L78508 70911
L78649 70911
L78705 70883
" />
<path d="M79661 71108
L79605 71136
L79492 71136
L79436 71108
L79408 71051
L79408 70826
L79436 70770
L79492 70742
L79605 70742
L79661 70770
L79689 70826
L79689 70883
L79408 70939
" />
<path d="M79858 70742
L80083 70742
" />
<path d="M79942 70545
L79942 71051
L79970 71108
L80027 71136
L80083 71136
" />
<path d="M81067 71079
L81039 71108
L80955 71136
L80898 71136
L80814 71108
L80758 71051
L80730 70995
L80701 70883
L80701 70798
L80730 70686
L80758 70629
L80814 70573
L80898 70545
L80955 70545
L81039 70573
L81067 70601
" />
<path d="M81404 71136
L81348 71108
L81320 71079
L81292 71023
L81292 70854
L81320 70798
L81348 70770
L81404 70742
L81489 70742
L81545 70770
L81573 70798
L81601 70854
L81601 71023
L81573 71079
L81545 71108
L81489 71136
L81404 71136
" />
<path d="M81854 70742
L81854 71136
" />
<path d="M81854 70798
L81883 70770
L81939 70742
L82023 70742
L82079 70770
L82108 70826
L82108 71136
" />
<path d="M82332 70742
L82473 71136
L82614 70742
" />
<path d="M83064 71108
L83007 71136
L82895 71136
L82839 71108
L82811 71051
L82811 70826
L82839 70770
L82895 70742
L83007 70742
L83064 70770
L83092 70826
L83092 70883
L82811 70939
" />
<path d="M83345 71136
L83345 70742
" />
<path d="M83345 70854
L83373 70798
L83401 70770
L83457 70742
L83514 70742
" />
<path d="M83682 71108
L83739 71136
L83851 71136
L83907 71108
L83935 71051
L83935 71023
L83907 70967
L83851 70939
L83767 70939
L83710 70911
L83682 70854
L83682 70826
L83710 70770
L83767 70742
L83851 70742
L83907 70770
" />
<path d="M84188 71136
L84188 70742
" />
<path d="M84188 70545
L84160 70573
L84188 70601
L84217 70573
L84188 70545
L84188 70601
" />
<path d="M84554 71136
L84498 71108
L84470 71079
L84442 71023
L84442 70854
L84470 70798
L84498 70770
L84554 70742
L84638 70742
L84695 70770
L84723 70798
L84751 70854
L84751 71023
L84723 71079
L84695 71108
L84638 71136
L84554 71136
" />
<path d="M85004 70742
L85004 71136
" />
<path d="M85004 70798
L85032 70770
L85088 70742
L85173 70742
L85229 70770
L85257 70826
L85257 71136
" />
<path d="M86241 71136
L86241 70545
" />
<path d="M86241 71108
L86185 71136
L86073 71136
L86016 71108
L85988 71079
L85960 71023
L85960 70854
L85988 70798
L86016 70770
L86073 70742
L86185 70742
L86241 70770
" />
<path d="M86551 70545
L86494 70658
" />
<path d="M86804 70826
L87001 70826
" />
<path d="M87085 71136
L86804 71136
L86804 70545
L87085 70545
" />
<path d="M87001 70320
L86916 70404
" />
<path d="M87338 70742
L87338 71136
" />
<path d="M87338 70798
L87366 70770
L87422 70742
L87507 70742
L87563 70770
L87591 70826
L87591 71136
" />
<path d="M88097 71108
L88041 71136
L87929 71136
L87872 71108
L87844 71051
L87844 70826
L87872 70770
L87929 70742
L88041 70742
L88097 70770
L88126 70826
L88126 70883
L87844 70939
" />
<path d="M88379 71136
L88379 70742
" />
<path d="M88379 70854
L88407 70798
L88435 70770
L88491 70742
L88547 70742
" />
<path d="M88997 70742
L88997 71220
L88969 71276
L88941 71304
L88885 71332
L88800 71332
L88744 71304
" />
<path d="M88997 71108
L88941 71136
L88829 71136
L88772 71108
L88744 71079
L88716 71023
L88716 70854
L88744 70798
L88772 70770
L88829 70742
L88941 70742
L88997 70770
" />
<path d="M89278 71136
L89278 70742
" />
<path d="M89278 70545
L89250 70573
L89278 70601
L89307 70573
L89278 70545
L89278 70601
" />
<path d="M89785 71108
L89728 71136
L89616 71136
L89560 71108
L89532 71051
L89532 70826
L89560 70770
L89616 70742
L89728 70742
L89785 70770
L89813 70826
L89813 70883
L89532 70939
" />
<path d="M90656 70939
L90431 70939
" />
<path d="M91641 71079
L91613 71108
L91528 71136
L91472 71136
L91388 71108
L91331 71051
L91303 70995
L91275 70883
L91275 70798
L91303 70686
L91331 70629
L91388 70573
L91472 70545
L91528 70545
L91613 70573
L91641 70601
" />
<path d="M91894 71136
L91894 70545
L92231 71136
L92231 70545
" />
<path d="M92850 71136
L92653 70854
" />
<path d="M92512 71136
L92512 70545
L92737 70545
L92794 70573
L92822 70601
L92850 70658
L92850 70742
L92822 70798
L92794 70826
L92737 70854
L92512 70854
" />
<path d="M93075 71108
L93159 71136
L93300 71136
L93356 71108
L93384 71079
L93412 71023
L93412 70967
L93384 70911
L93356 70883
L93300 70854
L93187 70826
L93131 70798
L93103 70770
L93075 70714
L93075 70658
L93103 70601
L93131 70573
L93187 70545
L93328 70545
L93412 70573
" />
<path d="M94256 70939
L94031 70939
" />
<path d="M94903 70545
L94903 71023
L94931 71079
L94959 71108
L95015 71136
L95128 71136
L95184 71108
L95212 71079
L95240 71023
L95240 70545
" />
<path d="M95521 71136
L95521 70545
L95746 70545
L95803 70573
L95831 70601
L95859 70658
L95859 70742
L95831 70798
L95803 70826
L95746 70854
L95521 70854
" />
<path d="M96084 71108
L96168 71136
L96309 71136
L96365 71108
L96393 71079
L96421 71023
L96421 70967
L96393 70911
L96365 70883
L96309 70854
L96196 70826
L96140 70798
L96112 70770
L96084 70714
L96084 70658
L96112 70601
L96140 70573
L96196 70545
L96337 70545
L96421 70573
" />
<path d="M97265 70939
L97040 70939
" />
<path d="M97884 70967
L98165 70967
" />
<path d="M97827 71136
L98024 70545
L98221 71136
" />
<path d="M98615 70826
L98418 70826
" />
<path d="M98418 71136
L98418 70545
L98699 70545
" />
<path d="M98924 71136
L98924 70545
L99149 70545
L99205 70573
L99233 70601
L99262 70658
L99262 70742
L99233 70798
L99205 70826
L99149 70854
L98924 70854
" />
<path d="M99487 70967
L99768 70967
" />
<path d="M99430 71136
L99627 70545
L99824 71136
" />
</g>
<g style="fill:#000000; fill-opacity:0.0; 
stroke:#000000; stroke-width:39.3701; stroke-opacity:1; 
stroke-linecap:round; stroke-linejoin:round;">
</g>
<g style="fill:#000000; fill-opacity:0.0; 
stroke:#000000; stroke-width:59.0551; stroke-opacity:1; 
stroke-linecap:round; stroke-linejoin:round;">
<path d="M70530 69955
L70249 69955
L70249 69364
" />
<path d="M70727 69955
L70727 69561
" />
<path d="M70727 69364
L70699 69392
L70727 69420
L70755 69392
L70727 69364
L70727 69420
" />
<path d="M71262 69926
L71205 69955
L71093 69955
L71037 69926
L71009 69898
L70980 69842
L70980 69673
L71009 69617
L71037 69589
L71093 69561
L71205 69561
L71262 69589
" />
<path d="M71740 69926
L71683 69955
L71571 69955
L71515 69926
L71487 69870
L71487 69645
L71515 69589
L71571 69561
L71683 69561
L71740 69589
L71768 69645
L71768 69701
L71487 69758
" />
<path d="M72021 69561
L72021 69955
" />
<path d="M72021 69617
L72049 69589
L72105 69561
L72190 69561
L72246 69589
L72274 69645
L72274 69955
" />
<path d="M72808 69926
L72752 69955
L72640 69955
L72583 69926
L72555 69898
L72527 69842
L72527 69673
L72555 69617
L72583 69589
L72640 69561
L72752 69561
L72808 69589
" />
<path d="M73286 69926
L73230 69955
L73118 69955
L73061 69926
L73033 69870
L73033 69645
L73061 69589
L73118 69561
L73230 69561
L73286 69589
L73314 69645
L73314 69701
L73033 69758
" />
<path d="M74018 69898
L74046 69926
L74018 69955
L73989 69926
L74018 69898
L74018 69955
" />
<path d="M74018 69589
L74046 69617
L74018 69645
L73989 69617
L74018 69589
L74018 69645
" />
<path d="M75086 69898
L75058 69926
L74974 69955
L74917 69955
L74833 69926
L74777 69870
L74749 69814
L74721 69701
L74721 69617
L74749 69505
L74777 69448
L74833 69392
L74917 69364
L74974 69364
L75058 69392
L75086 69420
" />
<path d="M75339 69645
L75536 69645
" />
<path d="M75620 69955
L75339 69955
L75339 69364
L75620 69364
" />
<path d="M76211 69955
L76014 69673
" />
<path d="M75874 69955
L75874 69364
L76099 69364
L76155 69392
L76183 69420
L76211 69476
L76211 69561
L76183 69617
L76155 69645
L76099 69673
L75874 69673
" />
<path d="M76464 69955
L76464 69364
L76802 69955
L76802 69364
" />
<path d="M77645 69364
L77758 69364
L77814 69392
L77870 69448
L77898 69561
L77898 69758
L77870 69870
L77814 69926
L77758 69955
L77645 69955
L77589 69926
L77533 69870
L77505 69758
L77505 69561
L77533 69448
L77589 69392
L77645 69364
" />
<path d="M78151 69955
L78151 69364
" />
<path d="M78151 69645
L78489 69645
" />
<path d="M78489 69955
L78489 69364
" />
<path d="M79051 69955
L78770 69955
L78770 69364
" />
<path d="M79642 69561
L79782 69955
L79923 69561
" />
<path d="M80457 69955
L80120 69955
" />
<path d="M80289 69955
L80289 69364
L80232 69448
L80176 69505
L80120 69533
" />
<path d="M80710 69898
L80739 69926
L80710 69955
L80682 69926
L80710 69898
L80710 69955
" />
<path d="M80964 69420
L80992 69392
L81048 69364
L81188 69364
L81245 69392
L81273 69420
L81301 69476
L81301 69533
L81273 69617
L80935 69955
L81301 69955
" />
</g>
<g style="fill:#000000; fill-opacity:0.0; 
stroke:#000000; stroke-width:39.3701; stroke-opacity:1; 
stroke-linecap:round; stroke-linejoin:round;">
</g>
<g style="fill:#000000; fill-opacity:0.0; 
stroke:#000000; stroke-width:59.0551; stroke-opacity:1; 
stroke-linecap:round; stroke-linejoin:round;">
<path d="M70221 68605
L70502 68605
" />
<path d="M70165 68773
L70362 68183
L70559 68773
" />
<path d="M71009 68380
L71009 68773
" />
<path d="M70755 68380
L70755 68689
L70784 68745
L70840 68773
L70924 68773
L70980 68745
L71009 68717
" />
<path d="M71205 68380
L71430 68380
" />
<path d="M71290 68183
L71290 68689
L71318 68745
L71374 68773
L71430 68773
" />
<path d="M71852 68745
L71796 68773
L71683 68773
L71627 68745
L71599 68689
L71599 68464
L71627 68408
L71683 68380
L71796 68380
L71852 68408
L71880 68464
L71880 68520
L71599 68577
" />
<path d="M72386 68380
L72386 68773
" />
<path d="M72133 68380
L72133 68689
L72162 68745
L72218 68773
L72302 68773
L72358 68745
L72386 68717
" />
<path d="M72668 68773
L72668 68380
" />
<path d="M72668 68492
L72696 68436
L72724 68408
L72780 68380
L72836 68380
" />
<path d="M73483 68717
L73511 68745
L73483 68773
L73455 68745
L73483 68717
L73483 68773
" />
<path d="M73483 68408
L73511 68436
L73483 68464
L73455 68436
L73483 68408
L73483 68464
" />
<path d="M74130 68183
L74467 68183
" />
<path d="M74299 68773
L74299 68183
" />
<path d="M74664 68773
L74664 68183
" />
<path d="M74917 68773
L74917 68464
L74889 68408
L74833 68380
L74749 68380
L74692 68408
L74664 68436
" />
<path d="M75283 68773
L75227 68745
L75199 68717
L75171 68661
L75171 68492
L75199 68436
L75227 68408
L75283 68380
L75367 68380
L75424 68408
L75452 68436
L75480 68492
L75480 68661
L75452 68717
L75424 68745
L75367 68773
L75283 68773
" />
<path d="M75733 68773
L75733 68380
" />
<path d="M75733 68436
L75761 68408
L75817 68380
L75902 68380
L75958 68408
L75986 68464
L75986 68773
" />
<path d="M75986 68464
L76014 68408
L76070 68380
L76155 68380
L76211 68408
L76239 68464
L76239 68773
" />
<path d="M76773 68773
L76773 68464
L76745 68408
L76689 68380
L76577 68380
L76520 68408
" />
<path d="M76773 68745
L76717 68773
L76577 68773
L76520 68745
L76492 68689
L76492 68633
L76520 68577
L76577 68548
L76717 68548
L76773 68520
" />
<path d="M77027 68745
L77083 68773
L77195 68773
L77251 68745
L77280 68689
L77280 68661
L77251 68605
L77195 68577
L77111 68577
L77055 68548
L77027 68492
L77027 68464
L77055 68408
L77111 68380
L77195 68380
L77251 68408
" />
<path d="M77898 68183
L78236 68183
" />
<path d="M78067 68773
L78067 68183
" />
<path d="M78770 68773
L78573 68492
" />
<path d="M78433 68773
L78433 68183
L78658 68183
L78714 68211
L78742 68239
L78770 68295
L78770 68380
L78742 68436
L78714 68464
L78658 68492
L78433 68492
" />
<path d="M79136 68183
L79248 68183
L79304 68211
L79361 68267
L79389 68380
L79389 68577
L79361 68689
L79304 68745
L79248 68773
L79136 68773
L79079 68745
L79023 68689
L78995 68577
L78995 68380
L79023 68267
L79079 68211
L79136 68183
" />
<path d="M79642 68183
L79642 68661
L79670 68717
L79698 68745
L79754 68773
L79867 68773
L79923 68745
L79951 68717
L79979 68661
L79979 68183
" />
<path d="M80260 68773
L80260 68183
L80485 68183
L80542 68211
L80570 68239
L80598 68295
L80598 68380
L80570 68436
L80542 68464
L80485 68492
L80260 68492
" />
<path d="M80851 68464
L81048 68464
" />
<path d="M81132 68773
L80851 68773
L80851 68183
L81132 68183
" />
<path d="M81357 68605
L81638 68605
" />
<path d="M81301 68773
L81498 68183
L81695 68773
" />
<path d="M81892 68183
L81892 68661
L81920 68717
L81948 68745
L82004 68773
L82117 68773
L82173 68745
L82201 68717
L82229 68661
L82229 68183
" />
<path d="M83382 68155
L82876 68914
" />
<path d="M84001 68605
L84282 68605
" />
<path d="M83944 68773
L84141 68183
L84338 68773
" />
<path d="M84535 68773
L84535 68380
" />
<path d="M84535 68492
L84563 68436
L84591 68408
L84647 68380
L84704 68380
" />
<path d="M84901 68380
L84901 68773
" />
<path d="M84901 68436
L84929 68408
L84985 68380
L85069 68380
L85126 68408
L85154 68464
L85154 68773
" />
<path d="M85688 68773
L85688 68464
L85660 68408
L85604 68380
L85491 68380
L85435 68408
" />
<path d="M85688 68745
L85632 68773
L85491 68773
L85435 68745
L85407 68689
L85407 68633
L85435 68577
L85491 68548
L85632 68548
L85688 68520
" />
<path d="M86222 68380
L86222 68773
" />
<path d="M85969 68380
L85969 68689
L85997 68745
L86054 68773
L86138 68773
L86194 68745
L86222 68717
" />
<path d="M86588 68773
L86532 68745
L86503 68689
L86503 68183
" />
<path d="M87066 68773
L87066 68183
" />
<path d="M87066 68745
L87010 68773
L86897 68773
L86841 68745
L86813 68717
L86785 68661
L86785 68492
L86813 68436
L86841 68408
L86897 68380
L87010 68380
L87066 68408
" />
<path d="M87994 68464
L88078 68492
L88106 68520
L88135 68577
L88135 68661
L88106 68717
L88078 68745
L88022 68773
L87797 68773
L87797 68183
L87994 68183
L88050 68211
L88078 68239
L88106 68295
L88106 68352
L88078 68408
L88050 68436
L87994 68464
L87797 68464
" />
<path d="M88388 68773
L88388 68183
" />
<path d="M88978 68211
L88922 68183
L88838 68183
L88753 68211
L88697 68267
L88669 68323
L88641 68436
L88641 68520
L88669 68633
L88697 68689
L88753 68745
L88838 68773
L88894 68773
L88978 68745
L89006 68717
L89006 68520
L88894 68520
" />
<path d="M89231 68605
L89512 68605
" />
<path d="M89175 68773
L89372 68183
L89569 68773
" />
<path d="M89766 68773
L89766 68183
L90103 68773
L90103 68183
" />
<path d="M90328 68183
L90722 68183
L90328 68773
L90722 68773
" />
<path d="M91059 68183
L91172 68183
L91228 68211
L91284 68267
L91312 68380
L91312 68577
L91284 68689
L91228 68745
L91172 68773
L91059 68773
L91003 68745
L90947 68689
L90919 68577
L90919 68380
L90947 68267
L91003 68211
L91059 68183
" />
<path d="M91847 68773
L91565 68773
L91565 68183
" />
<path d="M92043 68773
L92043 68183
" />
</g>
<g style="fill:#000000; fill-opacity:0.0; 
stroke:#000000; stroke-width:39.3701; stroke-opacity:1; 
stroke-linecap:round; stroke-linejoin:round;">
</g>
<g style="fill:#000000; fill-opacity:0.0; 
stroke:#000000; stroke-width:59.0551; stroke-opacity:1; 
stroke-linecap:round; stroke-linejoin:round;">
<path d="M70249 67592
L70249 67002
" />
<path d="M70530 67199
L70530 67592
" />
<path d="M70530 67255
L70559 67227
L70615 67199
L70699 67199
L70755 67227
L70784 67283
L70784 67592
" />
<path d="M70980 67199
L71205 67199
" />
<path d="M71065 67002
L71065 67508
L71093 67564
L71149 67592
L71205 67592
" />
<path d="M71627 67564
L71571 67592
L71458 67592
L71402 67564
L71374 67508
L71374 67283
L71402 67227
L71458 67199
L71571 67199
L71627 67227
L71655 67283
L71655 67339
L71374 67395
" />
<path d="M71908 67592
L71908 67199
" />
<path d="M71908 67311
L71937 67255
L71965 67227
L72021 67199
L72077 67199
" />
<path d="M72190 67199
L72415 67199
" />
<path d="M72274 67592
L72274 67086
L72302 67030
L72358 67002
L72415 67002
" />
<path d="M72865 67592
L72865 67283
L72836 67227
L72780 67199
L72668 67199
L72611 67227
" />
<path d="M72865 67564
L72808 67592
L72668 67592
L72611 67564
L72583 67508
L72583 67452
L72611 67395
L72668 67367
L72808 67367
L72865 67339
" />
<path d="M73399 67564
L73343 67592
L73230 67592
L73174 67564
L73146 67536
L73118 67480
L73118 67311
L73146 67255
L73174 67227
L73230 67199
L73343 67199
L73399 67227
" />
<path d="M73877 67564
L73821 67592
L73708 67592
L73652 67564
L73624 67508
L73624 67283
L73652 67227
L73708 67199
L73821 67199
L73877 67227
L73905 67283
L73905 67339
L73624 67395
" />
<path d="M74608 67592
L74608 67002
" />
<path d="M74608 67283
L74946 67283
" />
<path d="M74946 67592
L74946 67002
" />
<path d="M75311 67592
L75255 67564
L75227 67536
L75199 67480
L75199 67311
L75227 67255
L75255 67227
L75311 67199
L75395 67199
L75452 67227
L75480 67255
L75508 67311
L75508 67480
L75480 67536
L75452 67564
L75395 67592
L75311 67592
" />
<path d="M75761 67592
L75761 67199
" />
<path d="M75761 67255
L75789 67227
L75845 67199
L75930 67199
L75986 67227
L76014 67283
L76014 67592
" />
<path d="M76014 67283
L76042 67227
L76099 67199
L76183 67199
L76239 67227
L76267 67283
L76267 67592
" />
<path d="M76548 67592
L76548 67199
" />
<path d="M76548 67255
L76577 67227
L76633 67199
L76717 67199
L76773 67227
L76802 67283
L76802 67592
" />
<path d="M76802 67283
L76830 67227
L76886 67199
L76970 67199
L77027 67227
L77055 67283
L77055 67592
" />
<path d="M77561 67564
L77505 67592
L77392 67592
L77336 67564
L77308 67508
L77308 67283
L77336 67227
L77392 67199
L77505 67199
L77561 67227
L77589 67283
L77589 67339
L77308 67395
" />
<path d="M77983 67395
L77758 67395
" />
<path d="M78180 67592
L78180 67002
L78376 67424
L78573 67002
L78573 67592
" />
<path d="M79108 67592
L79108 67283
L79079 67227
L79023 67199
L78911 67199
L78854 67227
" />
<path d="M79108 67564
L79051 67592
L78911 67592
L78854 67564
L78826 67508
L78826 67452
L78854 67395
L78911 67367
L79051 67367
L79108 67339
" />
<path d="M79642 67564
L79586 67592
L79473 67592
L79417 67564
L79389 67536
L79361 67480
L79361 67311
L79389 67255
L79417 67227
L79473 67199
L79586 67199
L79642 67227
" />
<path d="M79895 67592
L79895 67002
" />
<path d="M80148 67592
L80148 67283
L80120 67227
L80064 67199
L79979 67199
L79923 67227
L79895 67255
" />
<path d="M80429 67592
L80429 67199
" />
<path d="M80429 67002
L80401 67030
L80429 67058
L80457 67030
L80429 67002
L80429 67058
" />
<path d="M80710 67199
L80710 67592
" />
<path d="M80710 67255
L80739 67227
L80795 67199
L80879 67199
L80935 67227
L80964 67283
L80964 67592
" />
<path d="M81470 67564
L81413 67592
L81301 67592
L81245 67564
L81217 67508
L81217 67283
L81245 67227
L81301 67199
L81413 67199
L81470 67227
L81498 67283
L81498 67339
L81217 67395
" />
<path d="M82201 67592
L82201 67199
" />
<path d="M82201 67255
L82229 67227
L82285 67199
L82370 67199
L82426 67227
L82454 67283
L82454 67592
" />
<path d="M82454 67283
L82482 67227
L82538 67199
L82623 67199
L82679 67227
L82707 67283
L82707 67592
" />
<path d="M83241 67199
L83241 67592
" />
<path d="M82988 67199
L82988 67508
L83016 67564
L83073 67592
L83157 67592
L83213 67564
L83241 67536
" />
<path d="M83607 67592
L83551 67564
L83523 67508
L83523 67002
" />
<path d="M83748 67199
L83973 67199
" />
<path d="M83832 67002
L83832 67508
L83860 67564
L83916 67592
L83973 67592
" />
<path d="M84169 67592
L84169 67199
" />
<path d="M84169 67002
L84141 67030
L84169 67058
L84197 67030
L84169 67002
L84169 67058
" />
<path d="M84451 67367
L84901 67367
" />
<path d="M85435 67199
L85435 67592
" />
<path d="M85182 67199
L85182 67508
L85210 67564
L85266 67592
L85350 67592
L85407 67564
L85435 67536
" />
<path d="M85688 67564
L85744 67592
L85857 67592
L85913 67564
L85941 67508
L85941 67480
L85913 67424
L85857 67395
L85772 67395
L85716 67367
L85688 67311
L85688 67283
L85716 67227
L85772 67199
L85857 67199
L85913 67227
" />
<path d="M86447 67592
L86447 67283
L86419 67227
L86363 67199
L86250 67199
L86194 67227
" />
<path d="M86447 67564
L86391 67592
L86250 67592
L86194 67564
L86166 67508
L86166 67452
L86194 67395
L86250 67367
L86391 67367
L86447 67339
" />
<path d="M86982 67199
L86982 67677
L86953 67733
L86925 67761
L86869 67789
L86785 67789
L86728 67761
" />
<path d="M86982 67564
L86925 67592
L86813 67592
L86757 67564
L86728 67536
L86700 67480
L86700 67311
L86728 67255
L86757 67227
L86813 67199
L86925 67199
L86982 67227
" />
<path d="M87488 67564
L87431 67592
L87319 67592
L87263 67564
L87235 67508
L87235 67283
L87263 67227
L87319 67199
L87431 67199
L87488 67227
L87516 67283
L87516 67339
L87235 67395
" />
<path d="M87797 67564
L87797 67592
L87769 67649
L87741 67677
" />
<path d="M88500 67592
L88500 67199
" />
<path d="M88500 67255
L88528 67227
L88584 67199
L88669 67199
L88725 67227
L88753 67283
L88753 67592
" />
<path d="M88753 67283
L88781 67227
L88838 67199
L88922 67199
L88978 67227
L89006 67283
L89006 67592
" />
<path d="M89541 67199
L89541 67592
" />
<path d="M89287 67199
L89287 67508
L89316 67564
L89372 67592
L89456 67592
L89512 67564
L89541 67536
" />
<path d="M89906 67592
L89850 67564
L89822 67508
L89822 67002
" />
<path d="M90047 67199
L90272 67199
" />
<path d="M90131 67002
L90131 67508
L90159 67564
L90215 67592
L90272 67592
" />
<path d="M90469 67592
L90469 67199
" />
<path d="M90469 67002
L90440 67030
L90469 67058
L90497 67030
L90469 67002
L90469 67058
" />
<path d="M90750 67367
L91200 67367
" />
<path d="M91397 67199
L91622 67199
" />
<path d="M91481 67002
L91481 67508
L91509 67564
L91565 67592
L91622 67592
" />
<path d="M92072 67592
L92072 67283
L92043 67227
L91987 67199
L91875 67199
L91818 67227
" />
<path d="M92072 67564
L92015 67592
L91875 67592
L91818 67564
L91790 67508
L91790 67452
L91818 67395
L91875 67367
L92015 67367
L92072 67339
" />
<path d="M92353 67592
L92353 67199
" />
<path d="M92353 67002
L92325 67030
L92353 67058
L92381 67030
L92353 67002
L92353 67058
" />
<path d="M92718 67592
L92662 67564
L92634 67508
L92634 67002
" />
<path d="M93028 67592
L92971 67564
L92943 67508
L92943 67002
" />
<path d="M93478 67564
L93421 67592
L93309 67592
L93253 67564
L93224 67508
L93224 67283
L93253 67227
L93309 67199
L93421 67199
L93478 67227
L93506 67283
L93506 67339
L93224 67395
" />
</g>
<g style="fill:#000000; fill-opacity:0.0; 
stroke:#000000; stroke-width:39.3701; stroke-opacity:1; 
stroke-linecap:round; stroke-linejoin:round;">
</g>
<g style="fill:#000000; fill-opacity:0.0; 
stroke:#000000; stroke-width:59.0551; stroke-opacity:1; 
stroke-linecap:round; stroke-linejoin:round;">
<path d="M77559 75396
L77559 76577
" />
</g>
<g style="fill:#000000; fill-opacity:0.0; 
stroke:#000000; stroke-width:39.3701; stroke-opacity:1; 
stroke-linecap:round; stroke-linejoin:round;">
</g>
<g style="fill:#000000; fill-opacity:0.0; 
stroke:#000000; stroke-width:59.0551; stroke-opacity:1; 
stroke-linecap:round; stroke-linejoin:round;">
<path d="M102756 75396
L102756 77955
" />
<g >
</g>
<g >
</g>
<g >
</g>
<g >
</g>
<g >
</g>
<g >
</g>
<g >
</g>
<g >
</g>
<g >
</g>
<g >
</g>
<g >
</g>
<g >
</g>
<g >
</g>
<g >
</g>
<g >
</g>
<g >
</g>
<g >
</g>
<g >
</g>
<g >
</g>
<g >
</g>
<g >
</g>
<g >
</g>
<g >
</g>
<g >
</g>
<g >
</g>
<g >
</g>
<g >
</g>
<g >
</g>
<g >
</g>
<g >
</g>
<g >
</g>
<g >
</g>
<g >
</g>
<g >
</g>
<g >
</g>
<g >
</g>
<g >
</g>
<g >
</g>
<g >
</g>
<g >
</g>
<g >
</g>
<g >
</g>
<g >
</g>
<g >
</g>
<g >
</g>
<g >
</g>
<g >
</g>
<g >
</g>
<g >
</g>
<g >
</g>
<g >
</g>
<g >
</g>
<g >
</g>
<g >
</g>
<g >
</g>
<g >
</g>
<g >
</g>
<g >
</g>
<g >
</g>
<g >
</g>
<g >
</g>
<g >
</g>
<g >
</g>
<g >
</g>
<g >
</g>
<g >
</g>
<g >
</g>
<g >
</g>
<g >
</g>
<g >
</g>
<g >
</g>
<g >
</g>
<g >
</g>
<g >
</g>
<g >
</g>
<g >
</g>
<g >
</g>
<g >
</g>
<g >
</g>
<g >
</g>
<g >
</g>
<g >
</g>
<g >
</g>
<g >
</g>
<g >
</g>
<g >
</g>
<g >
</g>
<g >
</g>
<g >
</g>
<g >
</g>
<g >
</g>
<g >
</g>
<g >
</g>
<g >
</g>
<g >
</g>
<g >
</g>
<g >
</g>
<g >
</g>
<g >
</g>
<g >
</g>
<g >
</g>
</g> 
</svg>
