PCBNEW-LibModule-V1  2019-09-18 14:46:58
# encoding utf-8
Units mm
$INDEX
SOP65P490X110-9N
$EndINDEX
$MODULE SOP65P490X110-9N
Po 0 0 0 15 5d823552 00000000 ~~
Li SOP65P490X110-9N
Cd DGN (S-PDSO-G8)_1
Kw Integrated Circuit
Sc 0
At SMD
AR 
Op 0 0 0
T0 0 0 1.27 1.27 0 0.254 N V 21 N "IC**"
T1 0 0 1.27 1.27 0 0.254 N I 21 N "SOP65P490X110-9N"
DS -3.15 -1.8 3.15 -1.8 0.05 24
DS 3.15 -1.8 3.15 1.8 0.05 24
DS 3.15 1.8 -3.15 1.8 0.05 24
DS -3.15 1.8 -3.15 -1.8 0.05 24
DS -1.5 -1.5 1.5 -1.5 0.1 24
DS 1.5 -1.5 1.5 1.5 0.1 24
DS 1.5 1.5 -1.5 1.5 0.1 24
DS -1.5 1.5 -1.5 -1.5 0.1 24
DS -1.5 -0.85 -0.85 -1.5 0.1 24
DS -2.9 -1.55 -1.5 -1.55 0.2 21
$PAD
Po -2.2 -0.975
Sh "1" R 0.45 1.4 0 0 900
At SMD N 00888000
Ne 0 ""
$EndPAD
$PAD
Po -2.2 -0.325
Sh "2" R 0.45 1.4 0 0 900
At SMD N 00888000
Ne 0 ""
$EndPAD
$PAD
Po -2.2 0.325
Sh "3" R 0.45 1.4 0 0 900
At SMD N 00888000
Ne 0 ""
$EndPAD
$PAD
Po -2.2 0.975
Sh "4" R 0.45 1.4 0 0 900
At SMD N 00888000
Ne 0 ""
$EndPAD
$PAD
Po 2.2 0.975
Sh "5" R 0.45 1.4 0 0 900
At SMD N 00888000
Ne 0 ""
$EndPAD
$PAD
Po 2.2 0.325
Sh "6" R 0.45 1.4 0 0 900
At SMD N 00888000
Ne 0 ""
$EndPAD
$PAD
Po 2.2 -0.325
Sh "7" R 0.45 1.4 0 0 900
At SMD N 00888000
Ne 0 ""
$EndPAD
$PAD
Po 2.2 -0.975
Sh "8" R 0.45 1.4 0 0 900
At SMD N 00888000
Ne 0 ""
$EndPAD
$PAD
Po 0 0
Sh "9" R 1.57 1.89 0 0 0
At SMD N 00888000
Ne 0 ""
$EndPAD
$EndMODULE SOP65P490X110-9N
$EndLIBRARY
